digraph mainmap {
  node [shape="plain", fontcolor="#1d8ad1", fontsize=18];
  {
    clark2019 [
      label="What Does BERT Look At? An Analysis of \nBERT's Attention: Clark, Manning: 2019-06"
      URL="https://arxiv.org/abs/1906.04341"
    ]
    devlin2018 [
      label="BERT: Pre-training of Deep Bidirectional Transformers \nfor Language Understanding: Devlin: 2018-10"
      URL="https://en.wikipedia.org/wiki/BERT_(language_model)"
    ]
    vaswani2017 [
      label="Attention Is All You Need: Vaswani, Gomez: 2017-06"
      URL="https://en.wikipedia.org/wiki/Transformer_(machine_learning_model)"
    ]
    cheng2016 [
      label="LSTM-Networks for Machine \nReading: Cheng: 2016-01"
      URL="https://arxiv.org/abs/1601.06733"
    ]
    xu2015 [
      label="Show, Attend and Tell: Neural Image Caption \nGeneration with Visual Attention: Xu: 2015-02"
      URL="https://arxiv.org/abs/1502.03044"
    ]
    luong2015 [
      label="Effective Approaches to Attention-based \nNMT: Luong, Manning: 2015-08"
      URL="https://arxiv.org/abs/1508.04025"
    ]
    bahdanau2014 [
      label="NMT by Jointly Learning to Align and \nTranslate: Bahdanau, Bengio: 2014-09"
      URL="https://arxiv.org/abs/1409.0473"
    ]
    sutskever2014 [
      label="Sequence to Sequence Learning with Neural Networks: Sutskever: 2014-09"
      URL="https://arxiv.org/abs/1409.3215"
    ]
    cho2014 [
      label="Learning Phrase Representations using RNN Encoder-Decoder for \nStatistical Machine Translation: Cho, Bahdanau, Bengio: 2014-06"
      URL="https://arxiv.org/abs/1406.1078"
    ]
    mikolov2013 [
      label="Distributed Representations of Words and Phrases and their \nCompositionality (word2vec): Mikolov, Sutskever: 2013-10"
      URL="https://arxiv.org/abs/1310.4546"
    ]
  }
  clark2019 -> devlin2018;
  devlin2018 -> vaswani2017;
  vaswani2017 -> luong2015;
  vaswani2017 -> xu2015;
  vaswani2017 -> cheng2016 [minlen=2];
  luong2015 -> sutskever2014;
  cheng2016 -> bahdanau2014;
  bahdanau2014 -> sutskever2014;
  sutskever2014 -> cho2014;
  cho2014 -> mikolov2013;
}
