<?xml version="1.0" encoding="UTF-8" standalone="no"?>
<!-- Created with Inkscape (http://www.inkscape.org/) -->

<svg
   width="92.739304mm"
   height="105.50002mm"
   viewBox="0 0 92.739304 105.50002"
   version="1.1"
   id="svg1820"
   inkscape:version="1.3 (1:1.3+202307231459+0e150ed6c4)"
   sodipodi:docname="public-paper-alternative.svg"
   xml:space="preserve"
   inkscape:export-filename="ssc/exercise-6-63-1.svg"
   inkscape:export-xdpi="96"
   inkscape:export-ydpi="96"
   xmlns:inkscape="http://www.inkscape.org/namespaces/inkscape"
   xmlns:sodipodi="http://sodipodi.sourceforge.net/DTD/sodipodi-0.dtd"
   xmlns="http://www.w3.org/2000/svg"
   xmlns:svg="http://www.w3.org/2000/svg"><sodipodi:namedview
     id="namedview1822"
     pagecolor="#ffffff"
     bordercolor="#666666"
     borderopacity="1.0"
     inkscape:showpageshadow="2"
     inkscape:pageopacity="0.0"
     inkscape:pagecheckerboard="0"
     inkscape:deskcolor="#d1d1d1"
     inkscape:document-units="mm"
     showgrid="true"
     inkscape:zoom="0.70710678"
     inkscape:cx="4632.9636"
     inkscape:cy="4147.1813"
     inkscape:window-width="1368"
     inkscape:window-height="2496"
     inkscape:window-x="72"
     inkscape:window-y="27"
     inkscape:window-maximized="1"
     inkscape:current-layer="layer1"
     showguides="true"><inkscape:grid
       type="axonomgrid"
       id="grid18583"
       visible="true"
       originx="-4251.0236"
       originy="-4496.6928"
       enabled="false"
       spacingy="1"
       gridanglex="30"
       gridanglez="30"
       units="mm" /><inkscape:grid
       type="xygrid"
       id="grid313765"
       enabled="true"
       units="mm"
       spacingx="1"
       spacingy="1"
       originx="-4251.0236"
       originy="-4496.6928"
       dotted="false"
       visible="true" /></sodipodi:namedview><defs
     id="defs1817"><marker
       style="overflow:visible"
       id="ArrowWide_Fnone_S-000000"
       refX="0"
       refY="0"
       orient="auto-start-reverse"
       inkscape:stockid="Wide arrow"
       markerWidth="1"
       markerHeight="1"
       viewBox="0 0 1 1"
       inkscape:isstock="true"
       inkscape:collect="always"
       preserveAspectRatio="xMidYMid"><path
         style="fill:none;stroke:#000000;stroke-width:1;stroke-linecap:butt"
         d="M 3,-3 0,0 3,3"
         transform="rotate(180,0.125,0)"
         sodipodi:nodetypes="ccc"
         id="path2" /></marker></defs><g
     inkscape:label="Layer 1"
     inkscape:groupmode="layer"
     id="layer1"
     transform="translate(-1124.75,-1189.75)"><rect
       style="font-variation-settings:normal;opacity:1;fill:none;fill-opacity:1;fill-rule:evenodd;stroke:#e6e6e6;stroke-width:0.5;stroke-linecap:butt;stroke-linejoin:miter;stroke-miterlimit:4;stroke-dasharray:none;stroke-dashoffset:0;stroke-opacity:1;stop-color:#000000;stop-opacity:1"
       id="rect1481"
       width="208"
       height="48"
       x="12"
       y="7" /><text
       xml:space="preserve"
       style="font-style:normal;font-variant:normal;font-weight:normal;font-stretch:normal;font-size:4px;line-height:4.99999px;font-family:'Liberation Sans', sans-serif;-inkscape-font-specification:'Liberation Sans, sans-serif';text-decoration-color:#000000;white-space:pre;shape-inside:url(#rect1481);display:inline;fill:#000000;stroke-width:3.77952;stop-color:#000000"
       x="30.093462"
       y="39.661663"
       id="text1498"><tspan
         x="12"
         y="10.61273"
         id="tspan2">Prefer to rich text in this document, in <tspan
   style="font-style:italic"
   id="tspan1">increasing</tspan> order of preference:&#10;</tspan><tspan
         x="12"
         y="15.612719"
         id="tspan3">1. private-observations.md&#10;</tspan><tspan
         x="12"
         y="20.61271"
         id="tspan4">2. observations.md&#10;</tspan><tspan
         x="12"
         y="25.6127"
         id="tspan6">3. Some more specific document (e.g. refactor-code.md)</tspan></text><text
       xml:space="preserve"
       style="font-size:4px;line-height:4.99999px;font-family:'Liberation Mono', monospace;-inkscape-font-specification:'Liberation Mono, monospace';text-decoration-color:#000000;fill:#000000;stroke-width:3.77952;-inkscape-stroke:none;stop-color:#000000"
       x="1191.5638"
       y="1288.1768"
       id="text196"><tspan
         sodipodi:role="line"
         id="tspan195"
         style="stroke-width:3.77952"
         x="1191.5638"
         y="1288.1768">(A→B)→A→A</tspan></text><text
       xml:space="preserve"
       style="font-size:4px;line-height:4.99999px;font-family:'Liberation Mono', monospace;-inkscape-font-specification:'Liberation Mono, monospace';text-decoration-color:#000000;fill:#000000;stroke-width:3.77952;-inkscape-stroke:none;stop-color:#000000"
       x="1137.813"
       y="1195.9999"
       id="text199"><tspan
         sodipodi:role="line"
         style="stroke-width:3.77952"
         x="1137.813"
         y="1195.9999"
         id="tspan198">(A→B)→A</tspan></text><path
       style="font-variation-settings:normal;opacity:0.4;vector-effect:none;fill:none;fill-opacity:1;stroke:#000000;stroke-width:0.499999;stroke-linecap:butt;stroke-linejoin:miter;stroke-miterlimit:4;stroke-dasharray:none;stroke-dashoffset:0;stroke-opacity:1;-inkscape-stroke:none;marker-end:url(#ArrowWide_Fnone_S-000000);stop-color:#000000;stop-opacity:1"
       d="m 1137.5,1190.5214 v 8.5"
       id="path199"
       sodipodi:nodetypes="cc" /><text
       xml:space="preserve"
       style="font-size:4px;line-height:4.99999px;font-family:'Liberation Mono', monospace;-inkscape-font-specification:'Liberation Mono, monospace';text-decoration-color:#000000;fill:#000000;stroke-width:3.77952;-inkscape-stroke:none;stop-color:#000000"
       x="1161.5"
       y="1290.4883"
       id="text201"><tspan
         sodipodi:role="line"
         id="tspan201"
         style="stroke-width:3.77952"
         x="1161.5"
         y="1290.4883">A</tspan></text><path
       style="font-variation-settings:normal;opacity:0.4;vector-effect:none;fill:none;fill-opacity:1;stroke:#000000;stroke-width:0.499999;stroke-linecap:butt;stroke-linejoin:miter;stroke-miterlimit:4;stroke-dasharray:none;stroke-dashoffset:0;stroke-opacity:1;-inkscape-stroke:none;marker-end:url(#ArrowWide_Fnone_S-000000);stop-color:#000000;stop-opacity:1"
       d="m 1165,1285.3514 v 8.5"
       id="path204"
       sodipodi:nodetypes="cc" /><rect
       style="font-variation-settings:normal;opacity:0.4;vector-effect:none;fill:none;fill-opacity:1;fill-rule:evenodd;stroke:#000000;stroke-width:0.499999;stroke-linecap:butt;stroke-linejoin:miter;stroke-miterlimit:4;stroke-dasharray:0.999998, 0.499999;stroke-dashoffset:0;stroke-opacity:1;-inkscape-stroke:none;stop-color:#000000;stop-opacity:1"
       id="rect225"
       width="64.999985"
       height="104.99996"
       x="1125"
       y="1190" /><path
       style="font-variation-settings:normal;opacity:0.4;vector-effect:none;fill:none;fill-opacity:1;stroke:#000000;stroke-width:0.499999;stroke-linecap:butt;stroke-linejoin:miter;stroke-miterlimit:4;stroke-dasharray:none;stroke-dashoffset:0;stroke-opacity:1;-inkscape-stroke:none;marker-end:url(#ArrowWide_Fnone_S-000000);stop-color:#000000;stop-opacity:1"
       d="m 1190.5107,1289.8407 h 26.5"
       id="path226"
       sodipodi:nodetypes="cc" /><rect
       style="font-variation-settings:normal;opacity:0.4;vector-effect:none;fill:none;fill-opacity:1;fill-rule:evenodd;stroke:#000000;stroke-width:0.499999;stroke-linecap:butt;stroke-linejoin:miter;stroke-miterlimit:4;stroke-dasharray:0.999998, 0.499999;stroke-dashoffset:0;stroke-opacity:1;-inkscape-stroke:none;stop-color:#000000;stop-opacity:1"
       id="rect226"
       width="54.999985"
       height="84.999962"
       x="1130"
       y="1200" /><text
       xml:space="preserve"
       style="font-size:4px;line-height:4.99999px;font-family:'Liberation Mono', monospace;-inkscape-font-specification:'Liberation Mono, monospace';text-decoration-color:#000000;fill:#000000;stroke-width:3.77952;-inkscape-stroke:none;stop-color:#000000"
       x="1144"
       y="1205.9883"
       id="text226"><tspan
         sodipodi:role="line"
         id="tspan226"
         style="stroke-width:3.77952"
         x="1144"
         y="1205.9883">¬A</tspan></text><path
       style="font-variation-settings:normal;opacity:0.4;vector-effect:none;fill:none;fill-opacity:1;stroke:#000000;stroke-width:0.499999;stroke-linecap:butt;stroke-linejoin:miter;stroke-miterlimit:4;stroke-dasharray:none;stroke-dashoffset:0;stroke-opacity:1;-inkscape-stroke:none;marker-end:url(#ArrowWide_Fnone_S-000000);stop-color:#000000;stop-opacity:1"
       d="m 1150,1201.0214 v 8"
       id="path229"
       sodipodi:nodetypes="cc" /><rect
       style="font-variation-settings:normal;opacity:1;vector-effect:none;fill:none;fill-opacity:1;fill-rule:evenodd;stroke:#000000;stroke-width:0.499999;stroke-linecap:butt;stroke-linejoin:miter;stroke-miterlimit:4;stroke-dasharray:none;stroke-dashoffset:0;stroke-opacity:1;-inkscape-stroke:none;stop-color:#000000;stop-opacity:1"
       id="rect229"
       width="6.9999871"
       height="5"
       x="1147"
       y="1210" /><text
       xml:space="preserve"
       style="font-size:4px;line-height:4.99999px;font-family:'Liberation Mono', monospace;-inkscape-font-specification:'Liberation Mono, monospace';text-decoration-color:#000000;fill:#000000;stroke-width:3.77952;-inkscape-stroke:none;stop-color:#000000"
       x="1148"
       y="1213.8129"
       id="text230"><tspan
         sodipodi:role="line"
         id="tspan230"
         style="stroke-width:3.77952"
         x="1148"
         y="1213.8129">MT</tspan></text><path
       style="font-variation-settings:normal;opacity:0.4;vector-effect:none;fill:none;fill-opacity:1;stroke:#000000;stroke-width:0.499999;stroke-linecap:butt;stroke-linejoin:miter;stroke-miterlimit:4;stroke-dasharray:none;stroke-dashoffset:0;stroke-opacity:1;-inkscape-stroke:none;marker-end:url(#ArrowWide_Fnone_S-000000);stop-color:#000000;stop-opacity:1"
       d="m 1137.4787,1200.8514 v 11.5 h 8.5"
       id="path236"
       sodipodi:nodetypes="ccc" /><path
       style="font-variation-settings:normal;opacity:0.4;vector-effect:none;fill:none;fill-opacity:1;stroke:#000000;stroke-width:0.499999;stroke-linecap:butt;stroke-linejoin:miter;stroke-miterlimit:4;stroke-dasharray:none;stroke-dashoffset:0;stroke-opacity:1;-inkscape-stroke:none;marker-end:url(#ArrowWide_Fnone_S-000000);stop-color:#000000;stop-opacity:1"
       d="m 1150,1216.0214 v 53"
       id="path243"
       sodipodi:nodetypes="cc" /><text
       xml:space="preserve"
       style="font-size:4px;line-height:4.99999px;font-family:'Liberation Mono', monospace;-inkscape-font-specification:'Liberation Mono, monospace';text-decoration-color:#000000;fill:#000000;stroke-width:3.77952;-inkscape-stroke:none;stop-color:#000000"
       x="1135.313"
       y="1220.4999"
       id="text247"><tspan
         sodipodi:role="line"
         style="stroke-width:3.77952"
         x="1135.313"
         y="1220.4999"
         id="tspan247">¬(A→B)</tspan></text><rect
       style="font-variation-settings:normal;opacity:0.4;vector-effect:none;fill:none;fill-opacity:1;fill-rule:evenodd;stroke:#000000;stroke-width:0.499999;stroke-linecap:butt;stroke-linejoin:miter;stroke-miterlimit:4;stroke-dasharray:0.999998, 0.499999;stroke-dashoffset:0;stroke-opacity:1;-inkscape-stroke:none;stop-color:#000000;stop-opacity:1"
       id="rect247"
       width="24.999987"
       height="40"
       x="1155"
       y="1220" /><text
       xml:space="preserve"
       style="font-size:4px;line-height:4.99999px;font-family:'Liberation Mono', monospace;-inkscape-font-specification:'Liberation Mono, monospace';text-decoration-color:#000000;fill:#000000;stroke-width:3.77952;-inkscape-stroke:none;stop-color:#000000"
       x="1171.5"
       y="1224.4883"
       id="text248"><tspan
         sodipodi:role="line"
         id="tspan248"
         style="stroke-width:3.77952"
         x="1171.5"
         y="1224.4883">A</tspan></text><path
       style="font-variation-settings:normal;opacity:0.4;vector-effect:none;fill:none;fill-opacity:1;stroke:#000000;stroke-width:0.499999;stroke-linecap:butt;stroke-linejoin:miter;stroke-miterlimit:4;stroke-dasharray:none;stroke-dashoffset:0;stroke-opacity:1;-inkscape-stroke:none;marker-end:url(#ArrowWide_Fnone_S-000000);stop-color:#000000;stop-opacity:1"
       d="m 1149.9787,1200.8514 v 4 h 10 v 14"
       id="path258"
       sodipodi:nodetypes="cccc" /><text
       xml:space="preserve"
       style="font-size:4px;line-height:4.99999px;font-family:'Liberation Mono', monospace;-inkscape-font-specification:'Liberation Mono, monospace';text-decoration-color:#000000;fill:#000000;stroke-width:3.77952;-inkscape-stroke:none;stop-color:#000000"
       x="1161.813"
       y="1264.4999"
       id="text258"><tspan
         sodipodi:role="line"
         style="stroke-width:3.77952"
         x="1161.813"
         y="1264.4999"
         id="tspan258">A→B</tspan></text><path
       style="font-variation-settings:normal;opacity:0.4;vector-effect:none;fill:none;fill-opacity:1;stroke:#000000;stroke-width:0.499999;stroke-linecap:butt;stroke-linejoin:miter;stroke-miterlimit:4;stroke-dasharray:none;stroke-dashoffset:0;stroke-opacity:1;-inkscape-stroke:none;marker-end:url(#ArrowWide_Fnone_S-000000);stop-color:#000000;stop-opacity:1"
       d="m 1160,1221.0214 v 4 h 5.5 v 4"
       id="path259"
       sodipodi:nodetypes="cccc" /><rect
       style="font-variation-settings:normal;opacity:1;vector-effect:none;fill:none;fill-opacity:1;fill-rule:evenodd;stroke:#000000;stroke-width:0.499999;stroke-linecap:butt;stroke-linejoin:miter;stroke-miterlimit:4;stroke-dasharray:none;stroke-dashoffset:0;stroke-opacity:1;-inkscape-stroke:none;stop-color:#000000;stop-opacity:1"
       id="rect259"
       width="6.9999871"
       height="5"
       x="1164"
       y="1230" /><text
       xml:space="preserve"
       style="font-size:4px;line-height:4.99999px;font-family:'Liberation Mono', monospace;-inkscape-font-specification:'Liberation Mono, monospace';text-decoration-color:#000000;fill:#000000;stroke-width:3.77952;-inkscape-stroke:none;stop-color:#000000"
       x="1165"
       y="1233.8129"
       id="text259"><tspan
         sodipodi:role="line"
         id="tspan259"
         style="stroke-width:3.77952"
         x="1165"
         y="1233.8129">¬E</tspan></text><path
       style="font-variation-settings:normal;opacity:0.4;vector-effect:none;fill:none;fill-opacity:1;stroke:#000000;stroke-width:0.499999;stroke-linecap:butt;stroke-linejoin:miter;stroke-miterlimit:4;stroke-dasharray:none;stroke-dashoffset:0;stroke-opacity:1;-inkscape-stroke:none;marker-end:url(#ArrowWide_Fnone_S-000000);stop-color:#000000;stop-opacity:1"
       d="m 1175.4268,1221.0214 v 4 h -5.5 v 4"
       id="path260"
       sodipodi:nodetypes="cccc" /><path
       style="font-variation-settings:normal;opacity:0.4;vector-effect:none;fill:none;fill-opacity:1;stroke:#000000;stroke-width:0.499999;stroke-linecap:butt;stroke-linejoin:miter;stroke-miterlimit:4;stroke-dasharray:none;stroke-dashoffset:0;stroke-opacity:1;-inkscape-stroke:none;marker-end:url(#ArrowWide_Fnone_S-000000);stop-color:#000000;stop-opacity:1"
       d="m 1167.5,1236.0214 v 8"
       id="path261"
       sodipodi:nodetypes="cc" /><rect
       style="font-variation-settings:normal;opacity:1;vector-effect:none;fill:none;fill-opacity:1;fill-rule:evenodd;stroke:#000000;stroke-width:0.499999;stroke-linecap:butt;stroke-linejoin:miter;stroke-miterlimit:4;stroke-dasharray:none;stroke-dashoffset:0;stroke-opacity:1;-inkscape-stroke:none;stop-color:#000000;stop-opacity:1"
       id="rect261"
       width="6.9999871"
       height="5"
       x="1164"
       y="1245" /><text
       xml:space="preserve"
       style="font-size:4px;line-height:4.99999px;font-family:'Liberation Mono', monospace;-inkscape-font-specification:'Liberation Mono, monospace';text-decoration-color:#000000;fill:#000000;stroke-width:3.77952;-inkscape-stroke:none;stop-color:#000000"
       x="1166.1257"
       y="1248.8129"
       id="text261"><tspan
         sodipodi:role="line"
         id="tspan261"
         style="stroke-width:3.77952"
         x="1166.1257"
         y="1248.8129">X</tspan></text><path
       style="font-variation-settings:normal;opacity:0.4;vector-effect:none;fill:none;fill-opacity:1;stroke:#000000;stroke-width:0.499999;stroke-linecap:butt;stroke-linejoin:miter;stroke-miterlimit:4;stroke-dasharray:none;stroke-dashoffset:0;stroke-opacity:1;-inkscape-stroke:none;marker-end:url(#ArrowWide_Fnone_S-000000);stop-color:#000000;stop-opacity:1"
       d="m 1167.5,1251.0214 v 8"
       id="path270"
       sodipodi:nodetypes="cc" /><text
       xml:space="preserve"
       style="font-size:4px;line-height:4.99999px;font-family:'Liberation Mono', monospace;-inkscape-font-specification:'Liberation Mono, monospace';text-decoration-color:#000000;fill:#000000;stroke-width:3.77952;-inkscape-stroke:none;stop-color:#000000"
       x="1168.5"
       y="1255.9883"
       id="text275"><tspan
         sodipodi:role="line"
         id="tspan275"
         style="stroke-width:3.77952"
         x="1168.5"
         y="1255.9883">B</tspan></text><text
       xml:space="preserve"
       style="font-size:4px;line-height:4.99999px;font-family:'Liberation Mono', monospace;-inkscape-font-specification:'Liberation Mono, monospace';text-decoration-color:#000000;fill:#000000;stroke-width:3.77952;-inkscape-stroke:none;stop-color:#000000"
       x="1168.5"
       y="1240.9883"
       id="text276"><tspan
         sodipodi:role="line"
         id="tspan276"
         style="stroke-width:3.77952"
         x="1168.5"
         y="1240.9883">⊥</tspan></text><path
       style="font-variation-settings:normal;opacity:0.4;vector-effect:none;fill:none;fill-opacity:1;stroke:#000000;stroke-width:0.499999;stroke-linecap:butt;stroke-linejoin:miter;stroke-miterlimit:4;stroke-dasharray:none;stroke-dashoffset:0;stroke-opacity:1;-inkscape-stroke:none;marker-end:url(#ArrowWide_Fnone_S-000000);stop-color:#000000;stop-opacity:1"
       d="m 1160.4268,1261.0214 v 4 h -5.5 v 4"
       id="path280"
       sodipodi:nodetypes="cccc" /><rect
       style="font-variation-settings:normal;opacity:1;vector-effect:none;fill:none;fill-opacity:1;fill-rule:evenodd;stroke:#000000;stroke-width:0.499999;stroke-linecap:butt;stroke-linejoin:miter;stroke-miterlimit:4;stroke-dasharray:none;stroke-dashoffset:0;stroke-opacity:1;-inkscape-stroke:none;stop-color:#000000;stop-opacity:1"
       id="rect281"
       width="6.9999871"
       height="5"
       x="1149"
       y="1270" /><text
       xml:space="preserve"
       style="font-size:4px;line-height:4.99999px;font-family:'Liberation Mono', monospace;-inkscape-font-specification:'Liberation Mono, monospace';text-decoration-color:#000000;fill:#000000;stroke-width:3.77952;-inkscape-stroke:none;stop-color:#000000"
       x="1150"
       y="1273.8129"
       id="text281"><tspan
         sodipodi:role="line"
         id="tspan281"
         style="stroke-width:3.77952"
         x="1150"
         y="1273.8129">¬E</tspan></text><path
       style="font-variation-settings:normal;opacity:0.4;vector-effect:none;fill:none;fill-opacity:1;stroke:#000000;stroke-width:0.499999;stroke-linecap:butt;stroke-linejoin:miter;stroke-miterlimit:4;stroke-dasharray:none;stroke-dashoffset:0;stroke-opacity:1;-inkscape-stroke:none;marker-end:url(#ArrowWide_Fnone_S-000000);stop-color:#000000;stop-opacity:1"
       d="m 1152.5,1276.0214 v 8"
       id="path281"
       sodipodi:nodetypes="cc" /><text
       xml:space="preserve"
       style="font-size:4px;line-height:4.99999px;font-family:'Liberation Mono', monospace;-inkscape-font-specification:'Liberation Mono, monospace';text-decoration-color:#000000;fill:#000000;stroke-width:3.77952;-inkscape-stroke:none;stop-color:#000000"
       x="1153.5"
       y="1280.9883"
       id="text282"><tspan
         sodipodi:role="line"
         id="tspan282"
         style="stroke-width:3.77952"
         x="1153.5"
         y="1280.9883">⊥</tspan></text></g></svg>
