<?xml version="1.0" encoding="UTF-8" standalone="no"?>
<!-- Created with Inkscape (http://www.inkscape.org/) -->

<svg
   width="63.058685mm"
   height="31.433353mm"
   viewBox="0 0 63.058685 31.433353"
   version="1.1"
   id="svg1820"
   inkscape:version="1.3.1 (1:1.3.1+202311172155+91b66b0783)"
   sodipodi:docname="continuous-function-topology-example-2.svg"
   xml:space="preserve"
   inkscape:export-filename="ssc/exercise-6-63-1.svg"
   inkscape:export-xdpi="96"
   inkscape:export-ydpi="96"
   xmlns:inkscape="http://www.inkscape.org/namespaces/inkscape"
   xmlns:sodipodi="http://sodipodi.sourceforge.net/DTD/sodipodi-0.dtd"
   xmlns="http://www.w3.org/2000/svg"
   xmlns:svg="http://www.w3.org/2000/svg"><sodipodi:namedview
     id="namedview1822"
     pagecolor="#ffffff"
     bordercolor="#666666"
     borderopacity="1.0"
     inkscape:showpageshadow="2"
     inkscape:pageopacity="0.0"
     inkscape:pagecheckerboard="0"
     inkscape:deskcolor="#d1d1d1"
     inkscape:document-units="mm"
     showgrid="true"
     inkscape:zoom="1.4223839"
     inkscape:cx="187.00999"
     inkscape:cy="-212.67114"
     inkscape:window-width="1368"
     inkscape:window-height="2496"
     inkscape:window-x="72"
     inkscape:window-y="27"
     inkscape:window-maximized="1"
     inkscape:current-layer="layer1"
     showguides="true"><inkscape:grid
       type="axonomgrid"
       id="grid18583"
       visible="true"
       originx="-4490.5876"
       originy="-5947.635"
       enabled="false"
       spacingy="1"
       gridanglex="30"
       gridanglez="30"
       units="mm" /><inkscape:grid
       type="xygrid"
       id="grid313765"
       enabled="true"
       units="mm"
       spacingx="1"
       spacingy="1"
       originx="-4490.5876"
       originy="-5947.635"
       dotted="false"
       visible="true" /></sodipodi:namedview><defs
     id="defs1817"><inkscape:path-effect
       effect="fillet_chamfer"
       id="path-effect150"
       is_visible="true"
       lpeversion="1"
       nodesatellites_param="F,0,1,1,0,7.1950876,0,1 @ F,0,1,1,0,7.1950876,0,1 @ F,0,1,1,0,7.1950876,0,1"
       radius="0"
       unit="px"
       method="auto"
       mode="F"
       chamfer_steps="1"
       flexible="false"
       use_knot_distance="true"
       apply_no_radius="true"
       apply_with_radius="true"
       only_selected="false"
       hide_knots="false" /><inkscape:path-effect
       effect="fillet_chamfer"
       id="path-effect129"
       is_visible="true"
       lpeversion="1"
       nodesatellites_param="F,0,1,1,0,7.1950876,0,1 @ F,0,1,1,0,7.1950876,0,1 @ F,0,1,1,0,7.1950876,0,1"
       radius="0"
       unit="px"
       method="auto"
       mode="F"
       chamfer_steps="1"
       flexible="false"
       use_knot_distance="true"
       apply_no_radius="true"
       apply_with_radius="true"
       only_selected="false"
       hide_knots="false" /><marker
       style="overflow:visible"
       id="marker153_Fnone_S-000000"
       refX="0"
       refY="0"
       orient="auto-start-reverse"
       inkscape:stockid="Wide arrow"
       markerWidth="1"
       markerHeight="1"
       viewBox="0 0 1 1"
       inkscape:isstock="true"
       inkscape:collect="always"
       preserveAspectRatio="xMidYMid"><path
         style="fill:none;stroke:#000000;stroke-width:1;stroke-linecap:butt"
         d="M 3,-3 0,0 3,3"
         transform="rotate(180,0.125,0)"
         sodipodi:nodetypes="ccc"
         id="path53" /></marker></defs><g
     inkscape:label="Layer 1"
     inkscape:groupmode="layer"
     id="layer1"
     transform="translate(-1188.1346,-1573.6451)"><path
       id="path115"
       style="opacity:0.3;fill:none;stroke:#5e5c64;stroke-width:1;stroke-dasharray:none;paint-order:stroke fill markers"
       inkscape:transform-center-x="1.5307086e-05"
       inkscape:transform-center-y="4.7837985"
       transform="translate(22.164009,174.61306)"
       d="m 1211.4025,1427.904 -9.3766,-16.2407 a 4.1540892,4.1540892 120.00002 0 1 3.5976,-6.2311 h 18.753 a 4.1540892,4.1540892 59.99998 0 1 3.5976,6.2311 l -9.3766,16.2407 a 4.154079,4.154079 0 0 1 -7.195,0 z"
       sodipodi:nodetypes="cccc"
       inkscape:original-d="m 1215,1434.1351 -16.5716,-28.7029 h 33.1432 z"
       inkscape:path-effect="#path-effect129" /><text
       xml:space="preserve"
       style="font-size:4px;line-height:4.99999px;font-family:'Liberation Mono', monospace;-inkscape-font-specification:'Liberation Mono, monospace';text-decoration-color:#000000;fill:#000000;stroke-width:3.77952;-inkscape-stroke:none;stop-color:#000000"
       x="1228.2108"
       y="1586.5"
       id="text116"><tspan
         sodipodi:role="line"
         id="tspan116"
         style="stroke-width:3.77952"
         x="1228.2108"
         y="1586.5">1</tspan></text><text
       xml:space="preserve"
       style="font-size:4px;line-height:4.99999px;font-family:'Liberation Mono', monospace;-inkscape-font-specification:'Liberation Mono, monospace';text-decoration-color:#000000;fill:#000000;stroke-width:3.77952;-inkscape-stroke:none;stop-color:#000000"
       x="1243.7108"
       y="1586.5"
       id="text122"><tspan
         sodipodi:role="line"
         id="tspan122"
         style="stroke-width:3.77952"
         x="1243.7108"
         y="1586.5">2</tspan></text><text
       xml:space="preserve"
       style="font-size:4px;line-height:4.99999px;font-family:'Liberation Mono', monospace;-inkscape-font-specification:'Liberation Mono, monospace';text-decoration-color:#000000;fill:#000000;stroke-width:3.77952;-inkscape-stroke:none;stop-color:#000000"
       x="1235.8978"
       y="1599.4065"
       id="text126"><tspan
         sodipodi:role="line"
         id="tspan126"
         style="stroke-width:3.77952"
         x="1235.8978"
         y="1599.4065">3</tspan></text><rect
       style="font-variation-settings:normal;opacity:0.4;fill:none;fill-opacity:1;fill-rule:evenodd;stroke:#5e5c64;stroke-width:1;stroke-linecap:butt;stroke-linejoin:miter;stroke-miterlimit:4;stroke-dasharray:none;stroke-dashoffset:0;stroke-opacity:1;stop-color:#000000;stop-opacity:1"
       id="rect126"
       width="22.440624"
       height="7.3178992"
       x="-1248.3611"
       y="-1588.8632"
       rx="3.6589496"
       transform="scale(-1)"
       ry="3.6589496" /><rect
       style="font-variation-settings:normal;opacity:0.4;fill:none;fill-opacity:1;fill-rule:evenodd;stroke:#5e5c64;stroke-width:1;stroke-linecap:butt;stroke-linejoin:miter;stroke-miterlimit:4;stroke-dasharray:none;stroke-dashoffset:0;stroke-opacity:1;stop-color:#000000;stop-opacity:1"
       id="rect127"
       width="22.440624"
       height="7.3178992"
       x="-2006.4127"
       y="268.44345"
       rx="3.6589496"
       transform="rotate(-120)"
       ry="3.6589496" /><rect
       style="font-variation-settings:normal;opacity:0.4;fill:none;fill-opacity:1;fill-rule:evenodd;stroke:#5e5c64;stroke-width:1;stroke-linecap:butt;stroke-linejoin:miter;stroke-miterlimit:4;stroke-dasharray:none;stroke-dashoffset:0;stroke-opacity:1;stop-color:#000000;stop-opacity:1"
       id="rect128"
       width="22.440624"
       height="7.3178992"
       x="-769.19763"
       y="1866.9519"
       rx="3.6589496"
       transform="rotate(-60)"
       ry="3.6589496" /><rect
       style="font-variation-settings:normal;opacity:0.4;fill:none;fill-opacity:1;fill-rule:evenodd;stroke:#5e5c64;stroke-width:1;stroke-linecap:butt;stroke-linejoin:miter;stroke-miterlimit:4;stroke-dasharray:none;stroke-dashoffset:0;stroke-opacity:1;stop-color:#000000;stop-opacity:1"
       id="rect131"
       width="4.0795765"
       height="5.454668"
       x="-1231.5"
       y="-1588"
       rx="2"
       transform="scale(-1)" /><rect
       style="font-variation-settings:normal;opacity:0.4;fill:none;fill-opacity:1;fill-rule:evenodd;stroke:#5e5c64;stroke-width:1;stroke-linecap:butt;stroke-linejoin:miter;stroke-miterlimit:4;stroke-dasharray:none;stroke-dashoffset:0;stroke-opacity:1;stop-color:#000000;stop-opacity:1"
       id="rect132"
       width="4.0795765"
       height="5.454668"
       x="-1247"
       y="-1588"
       rx="2"
       transform="scale(-1)" /><rect
       style="font-variation-settings:normal;opacity:0.4;fill:none;fill-opacity:1;fill-rule:evenodd;stroke:#5e5c64;stroke-width:1;stroke-linecap:butt;stroke-linejoin:miter;stroke-miterlimit:4;stroke-dasharray:none;stroke-dashoffset:0;stroke-opacity:1;stop-color:#000000;stop-opacity:1"
       id="rect133"
       width="4.0795765"
       height="5.454668"
       x="-1239.187"
       y="-1600.9065"
       rx="2"
       transform="scale(-1)" /><path
       id="path134"
       style="opacity:0.3;fill:none;stroke:#5e5c64;stroke-width:1;stroke-dasharray:none;paint-order:stroke fill markers"
       inkscape:transform-center-x="1.5307086e-05"
       inkscape:transform-center-y="4.7837985"
       transform="translate(-12.835991,174.61306)"
       d="m 1211.4025,1427.904 -9.3766,-16.2407 a 4.1540892,4.1540892 120.00002 0 1 3.5976,-6.2311 h 18.753 a 4.1540892,4.1540892 59.99998 0 1 3.5976,6.2311 l -9.3766,16.2407 a 4.154079,4.154079 0 0 1 -7.195,0 z"
       sodipodi:nodetypes="cccc"
       inkscape:original-d="m 1215,1434.1351 -16.5716,-28.7029 h 33.1432 z"
       inkscape:path-effect="#path-effect150" /><text
       xml:space="preserve"
       style="font-size:4px;line-height:4.99999px;font-family:'Liberation Mono', monospace;-inkscape-font-specification:'Liberation Mono, monospace';text-decoration-color:#000000;fill:#000000;stroke-width:3.77952;-inkscape-stroke:none;stop-color:#000000"
       x="1193.2108"
       y="1586.5"
       id="text142"><tspan
         sodipodi:role="line"
         id="tspan141"
         style="stroke-width:3.77952"
         x="1193.2108"
         y="1586.5">A</tspan></text><text
       xml:space="preserve"
       style="font-size:4px;line-height:4.99999px;font-family:'Liberation Mono', monospace;-inkscape-font-specification:'Liberation Mono, monospace';text-decoration-color:#000000;fill:#000000;stroke-width:3.77952;-inkscape-stroke:none;stop-color:#000000"
       x="1208.7108"
       y="1586.5"
       id="text143"><tspan
         sodipodi:role="line"
         id="tspan142"
         style="stroke-width:3.77952"
         x="1208.7108"
         y="1586.5">B</tspan></text><text
       xml:space="preserve"
       style="font-size:4px;line-height:4.99999px;font-family:'Liberation Mono', monospace;-inkscape-font-specification:'Liberation Mono, monospace';text-decoration-color:#000000;fill:#000000;stroke-width:3.77952;-inkscape-stroke:none;stop-color:#000000"
       x="1200.8978"
       y="1599.4065"
       id="text144"><tspan
         sodipodi:role="line"
         id="tspan143"
         style="stroke-width:3.77952"
         x="1200.8978"
         y="1599.4065">C</tspan></text><rect
       style="font-variation-settings:normal;opacity:0.4;fill:none;fill-opacity:1;fill-rule:evenodd;stroke:#5e5c64;stroke-width:1;stroke-linecap:butt;stroke-linejoin:miter;stroke-miterlimit:4;stroke-dasharray:none;stroke-dashoffset:0;stroke-opacity:1;stop-color:#000000;stop-opacity:1"
       id="rect144"
       width="22.440624"
       height="7.3178992"
       x="-1213.3611"
       y="-1588.8632"
       rx="3.6589496"
       transform="scale(-1)"
       ry="3.6589496" /><rect
       style="font-variation-settings:normal;opacity:0.4;fill:none;fill-opacity:1;fill-rule:evenodd;stroke:#5e5c64;stroke-width:1;stroke-linecap:butt;stroke-linejoin:miter;stroke-miterlimit:4;stroke-dasharray:none;stroke-dashoffset:0;stroke-opacity:1;stop-color:#000000;stop-opacity:1"
       id="rect145"
       width="22.440624"
       height="7.3178992"
       x="-1988.9127"
       y="238.13255"
       rx="3.6589496"
       transform="rotate(-120)"
       ry="3.6589496" /><rect
       style="font-variation-settings:normal;opacity:0.4;fill:none;fill-opacity:1;fill-rule:evenodd;stroke:#5e5c64;stroke-width:1;stroke-linecap:butt;stroke-linejoin:miter;stroke-miterlimit:4;stroke-dasharray:none;stroke-dashoffset:0;stroke-opacity:1;stop-color:#000000;stop-opacity:1"
       id="rect147"
       width="4.0795765"
       height="5.454668"
       x="-1196.5"
       y="-1588"
       rx="2"
       transform="scale(-1)" /><rect
       style="font-variation-settings:normal;opacity:0.4;fill:none;fill-opacity:1;fill-rule:evenodd;stroke:#5e5c64;stroke-width:1;stroke-linecap:butt;stroke-linejoin:miter;stroke-miterlimit:4;stroke-dasharray:none;stroke-dashoffset:0;stroke-opacity:1;stop-color:#000000;stop-opacity:1"
       id="rect148"
       width="4.0795765"
       height="5.454668"
       x="-1212"
       y="-1588"
       rx="2"
       transform="scale(-1)" /><path
       style="font-variation-settings:normal;opacity:1;vector-effect:none;fill:none;fill-opacity:1;stroke:#000000;stroke-width:0.499999;stroke-linecap:butt;stroke-linejoin:miter;stroke-miterlimit:4;stroke-dasharray:none;stroke-dashoffset:0;stroke-opacity:1;-inkscape-stroke:none;marker-end:url(#marker153_Fnone_S-000000);stop-color:#000000;stop-opacity:1"
       d="m 1194.5,1582.7726 v -5.5 h 34.9204 v 5.5"
       id="path157"
       sodipodi:nodetypes="cccc" /><path
       style="font-variation-settings:normal;opacity:1;vector-effect:none;fill:none;fill-opacity:1;stroke:#000000;stroke-width:0.499999;stroke-linecap:butt;stroke-linejoin:miter;stroke-miterlimit:4;stroke-dasharray:none;stroke-dashoffset:0;stroke-opacity:1;-inkscape-stroke:none;marker-end:url(#marker153_Fnone_S-000000);stop-color:#000000;stop-opacity:1"
       d="m 1203.6074,1598.2207 h 31.5"
       id="path158"
       sodipodi:nodetypes="cc" /><path
       style="font-variation-settings:normal;opacity:1;vector-effect:none;fill:none;fill-opacity:1;stroke:#000000;stroke-width:0.499999;stroke-linecap:butt;stroke-linejoin:miter;stroke-miterlimit:4;stroke-dasharray:none;stroke-dashoffset:0;stroke-opacity:1;-inkscape-stroke:none;marker-end:url(#marker153_Fnone_S-000000);stop-color:#000000;stop-opacity:1"
       d="m 1210,1582.7726 v -4.5 h 34.9204 v 4.5"
       id="path159"
       sodipodi:nodetypes="cccc" /><text
       xml:space="preserve"
       style="font-size:4px;line-height:4.99999px;font-family:'Liberation Mono', monospace;-inkscape-font-specification:'Liberation Mono, monospace';text-decoration-color:#000000;fill:#000000;stroke-width:3.77952;-inkscape-stroke:none;stop-color:#000000"
       x="1218.3074"
       y="1576.5435"
       id="text163"><tspan
         sodipodi:role="line"
         id="tspan163"
         style="stroke-width:3.77952"
         x="1218.3074"
         y="1576.5435">f</tspan></text></g></svg>
