<?xml version="1.0" encoding="UTF-8" standalone="no"?>
<!-- Created with Inkscape (http://www.inkscape.org/) -->

<svg
   width="117.63229mm"
   height="32.932358mm"
   viewBox="0 0 117.63229 32.932358"
   version="1.1"
   id="svg1820"
   inkscape:version="1.3 (1:1.3+202307231459+0e150ed6c4)"
   sodipodi:docname="public-paper-alternative.svg"
   xml:space="preserve"
   inkscape:export-filename="ssc/exercise-6-63-1.svg"
   inkscape:export-xdpi="96"
   inkscape:export-ydpi="96"
   xmlns:inkscape="http://www.inkscape.org/namespaces/inkscape"
   xmlns:sodipodi="http://sodipodi.sourceforge.net/DTD/sodipodi-0.dtd"
   xmlns="http://www.w3.org/2000/svg"
   xmlns:svg="http://www.w3.org/2000/svg"><sodipodi:namedview
     id="namedview1822"
     pagecolor="#ffffff"
     bordercolor="#666666"
     borderopacity="1.0"
     inkscape:showpageshadow="2"
     inkscape:pageopacity="0.0"
     inkscape:pagecheckerboard="0"
     inkscape:deskcolor="#d1d1d1"
     inkscape:document-units="mm"
     showgrid="true"
     inkscape:zoom="1.4142136"
     inkscape:cx="1745.8466"
     inkscape:cy="10664.231"
     inkscape:window-width="1368"
     inkscape:window-height="2496"
     inkscape:window-x="72"
     inkscape:window-y="27"
     inkscape:window-maximized="1"
     inkscape:current-layer="g211"
     showguides="true"><inkscape:grid
       type="axonomgrid"
       id="grid18583"
       visible="true"
       originx="-1525.0394"
       originy="-10597.295"
       enabled="false"
       spacingy="1"
       gridanglex="30"
       gridanglez="30"
       units="mm" /><inkscape:grid
       type="xygrid"
       id="grid313765"
       enabled="true"
       units="mm"
       spacingx="1"
       spacingy="1"
       originx="-1525.0394"
       originy="-10597.295"
       dotted="false"
       visible="true" /></sodipodi:namedview><defs
     id="defs1817"><marker
       style="overflow:visible"
       id="ArrowWide"
       refX="0"
       refY="0"
       orient="auto-start-reverse"
       inkscape:stockid="Wide arrow"
       markerWidth="1"
       markerHeight="1"
       viewBox="0 0 1 1"
       inkscape:isstock="true"
       inkscape:collect="always"
       preserveAspectRatio="xMidYMid"><path
         style="fill:none;stroke:context-stroke;stroke-width:1;stroke-linecap:butt"
         d="M 3,-3 0,0 3,3"
         transform="rotate(180,0.125,0)"
         sodipodi:nodetypes="ccc"
         id="path1" /></marker><marker
       style="overflow:visible"
       id="ArrowWide_Fnone_S-000000"
       refX="0"
       refY="0"
       orient="auto-start-reverse"
       inkscape:stockid="Wide arrow"
       markerWidth="1"
       markerHeight="1"
       viewBox="0 0 1 1"
       inkscape:isstock="true"
       inkscape:collect="always"
       preserveAspectRatio="xMidYMid"><path
         style="fill:none;stroke:#000000;stroke-width:1;stroke-linecap:butt"
         d="M 3,-3 0,0 3,3"
         transform="rotate(180,0.125,0)"
         sodipodi:nodetypes="ccc"
         id="path2" /></marker></defs><g
     inkscape:label="Layer 1"
     inkscape:groupmode="layer"
     id="layer1"
     transform="translate(-403.5,-2803.8677)"><rect
       style="font-variation-settings:normal;opacity:1;fill:none;fill-opacity:1;fill-rule:evenodd;stroke:#e6e6e6;stroke-width:0.5;stroke-linecap:butt;stroke-linejoin:miter;stroke-miterlimit:4;stroke-dasharray:none;stroke-dashoffset:0;stroke-opacity:1;stop-color:#000000;stop-opacity:1"
       id="rect1481"
       width="208"
       height="48"
       x="12"
       y="7" /><text
       xml:space="preserve"
       style="font-style:normal;font-variant:normal;font-weight:normal;font-stretch:normal;font-size:4px;line-height:4.99999px;font-family:'Liberation Sans', sans-serif;-inkscape-font-specification:'Liberation Sans, sans-serif';text-decoration-color:#000000;white-space:pre;shape-inside:url(#rect1481);display:inline;fill:#000000;stroke-width:3.77952;stop-color:#000000"
       x="30.093462"
       y="39.661663"
       id="text1498"><tspan
         x="12"
         y="10.61273"
         id="tspan3">Prefer to rich text in this document, in <tspan
   style="font-style:italic"
   id="tspan2">increasing</tspan> order of preference:&#10;</tspan><tspan
         x="12"
         y="15.612719"
         id="tspan4">1. private-observations.md&#10;</tspan><tspan
         x="12"
         y="20.61271"
         id="tspan5">2. observations.md&#10;</tspan><tspan
         x="12"
         y="25.6127"
         id="tspan6">3. Some more specific document (e.g. refactor-code.md)</tspan></text><g
       id="g212"><path
         style="font-variation-settings:normal;vector-effect:none;fill:none;fill-opacity:1;stroke:#3584e4;stroke-width:0.499999;stroke-linecap:butt;stroke-linejoin:miter;stroke-miterlimit:4;stroke-dasharray:none;stroke-dashoffset:0;stroke-opacity:1;-inkscape-stroke:none;stop-color:#000000"
         d="m 450,2815.0001 h 15"
         id="path119" /><path
         style="font-variation-settings:normal;vector-effect:none;fill:none;fill-opacity:1;stroke:#33d17a;stroke-width:0.499999;stroke-linecap:butt;stroke-linejoin:miter;stroke-miterlimit:4;stroke-dasharray:none;stroke-dashoffset:0;stroke-opacity:1;-inkscape-stroke:none;stop-color:#000000"
         d="m 435,2815.0001 15,5"
         id="path120"
         sodipodi:nodetypes="cc" /><path
         style="font-variation-settings:normal;vector-effect:none;fill:none;fill-opacity:1;stroke:#33d17a;stroke-width:0.499999;stroke-linecap:butt;stroke-linejoin:miter;stroke-miterlimit:4;stroke-dasharray:none;stroke-dashoffset:0;stroke-opacity:1;-inkscape-stroke:none;stop-color:#000000"
         d="m 420,2810.0001 h 15"
         id="path118" /><path
         style="font-variation-settings:normal;vector-effect:none;fill:none;fill-opacity:1;stroke:#33d17a;stroke-width:0.499999;stroke-linecap:butt;stroke-linejoin:miter;stroke-miterlimit:4;stroke-dasharray:none;stroke-dashoffset:0;stroke-opacity:1;-inkscape-stroke:none;stop-color:#000000"
         d="m 450,2820.0001 h 15"
         id="path96" /><path
         style="font-variation-settings:normal;vector-effect:none;fill:none;fill-opacity:1;stroke:#e01b24;stroke-width:0.499999;stroke-linecap:butt;stroke-linejoin:miter;stroke-miterlimit:4;stroke-dasharray:none;stroke-dashoffset:0;stroke-opacity:1;-inkscape-stroke:none;stop-color:#000000"
         d="m 405,2805.0001 h 15"
         id="path95" /><path
         style="font-variation-settings:normal;vector-effect:none;fill:none;fill-opacity:1;stroke:#33d17a;stroke-width:0.499999;stroke-linecap:butt;stroke-linejoin:miter;stroke-miterlimit:4;stroke-dasharray:none;stroke-dashoffset:0;stroke-opacity:1;-inkscape-stroke:none;stop-color:#000000"
         d="m 435,2810.0001 h 15"
         id="path94"
         sodipodi:nodetypes="cc" /><path
         style="font-variation-settings:normal;vector-effect:none;fill:none;fill-opacity:1;stroke:#33d17a;stroke-width:0.499999;stroke-linecap:butt;stroke-linejoin:miter;stroke-miterlimit:4;stroke-dasharray:none;stroke-dashoffset:0;stroke-opacity:1;-inkscape-stroke:none;stop-color:#000000"
         d="m 420,2810.0001 15,5"
         id="path93"
         sodipodi:nodetypes="cc" /><circle
         id="path84"
         style="fill:#000000;stroke:#000000;stroke-width:0.264583"
         cx="420"
         cy="2805"
         r="1" /><circle
         id="circle84"
         style="fill:#ffffff;stroke:#000000;stroke-width:0.264583"
         cx="435"
         cy="2815"
         r="1" /><circle
         id="circle85"
         style="fill:#ffffff;stroke:#000000;stroke-width:0.264583"
         cx="405"
         cy="2805"
         r="1" /><circle
         id="circle86"
         style="fill:#000000;stroke:#000000;stroke-width:0.264583"
         cx="420"
         cy="2825"
         r="1" /><circle
         id="circle87"
         style="fill:#000000;stroke:#000000;stroke-width:0.264583"
         cx="450"
         cy="2815"
         r="1" /><circle
         id="circle88"
         style="fill:#000000;stroke:#000000;stroke-width:0.264583"
         cx="450"
         cy="2820"
         r="1" /><circle
         id="circle89"
         style="fill:#ffffff;stroke:#000000;stroke-width:0.264583"
         cx="465"
         cy="2820"
         r="1" /><path
         style="font-variation-settings:normal;vector-effect:none;fill:none;fill-opacity:1;stroke:#000000;stroke-width:0.499999;stroke-linecap:butt;stroke-linejoin:miter;stroke-miterlimit:4;stroke-dasharray:none;stroke-dashoffset:0;stroke-opacity:1;-inkscape-stroke:none;marker-end:url(#ArrowWide_Fnone_S-000000);stop-color:#000000"
         d="m 472.00001,2820.0001 c 1.46788,-1.9804 2.73538,-0.5802 4.05763,0.8352 1.31216,0.7118 2.72739,-1.0986 5.37141,-1.3041"
         id="path97"
         sodipodi:nodetypes="ccc" /><path
         style="font-variation-settings:normal;vector-effect:none;fill:none;fill-opacity:1;stroke:#33d17a;stroke-width:0.499999;stroke-linecap:butt;stroke-linejoin:miter;stroke-miterlimit:4;stroke-dasharray:none;stroke-dashoffset:0;stroke-opacity:1;-inkscape-stroke:none;stop-color:#000000"
         d="m 505,2810.0001 h 15"
         id="path98" /><path
         style="font-variation-settings:normal;vector-effect:none;fill:none;fill-opacity:1;stroke:#e01b24;stroke-width:0.499999;stroke-linecap:butt;stroke-linejoin:miter;stroke-miterlimit:4;stroke-dasharray:none;stroke-dashoffset:0;stroke-opacity:1;-inkscape-stroke:none;stop-color:#000000"
         d="m 490,2805.0001 h 15"
         id="path99" /><circle
         id="circle101"
         style="fill:#000000;stroke:#000000;stroke-width:0.264583"
         cx="505"
         cy="2805"
         r="1" /><circle
         id="circle103"
         style="fill:#ffffff;stroke:#000000;stroke-width:0.264583"
         cx="490"
         cy="2805"
         r="1" /><circle
         id="circle104"
         style="fill:#000000;stroke:#000000;stroke-width:0.264583"
         cx="505"
         cy="2820"
         r="1" /><circle
         id="circle106"
         style="fill:#000000;stroke:#000000;stroke-width:0.264583"
         cx="505"
         cy="2810"
         r="1" /><circle
         id="circle107"
         style="fill:#ffffff;stroke:#000000;stroke-width:0.264583"
         cx="520"
         cy="2810"
         r="1" /><text
         xml:space="preserve"
         style="font-size:4px;line-height:4.99999px;font-family:'Liberation Mono', monospace;-inkscape-font-specification:'Liberation Mono, monospace';text-decoration-color:#000000;fill:#000000;stroke-width:3.77952;-inkscape-stroke:none;stop-color:#000000"
         x="418.5"
         y="2836"
         id="text107"><tspan
           sodipodi:role="line"
           id="tspan107"
           style="stroke-width:3.77952"
           x="418.5"
           y="2836">N</tspan></text><text
         xml:space="preserve"
         style="font-size:4px;line-height:4.99999px;font-family:'Liberation Mono', monospace;-inkscape-font-specification:'Liberation Mono, monospace';text-decoration-color:#000000;fill:#000000;stroke-width:3.77952;-inkscape-stroke:none;stop-color:#000000"
         x="448.5"
         y="2836"
         id="text108"><tspan
           sodipodi:role="line"
           id="tspan108"
           style="stroke-width:3.77952"
           x="448.5"
           y="2836">P</tspan></text><text
         xml:space="preserve"
         style="font-size:4px;line-height:4.99999px;font-family:'Liberation Mono', monospace;-inkscape-font-specification:'Liberation Mono, monospace';text-decoration-color:#000000;fill:#000000;stroke-width:3.77952;-inkscape-stroke:none;stop-color:#000000"
         x="403.5"
         y="2836"
         id="text109"><tspan
           sodipodi:role="line"
           id="tspan109"
           style="stroke-width:3.77952"
           x="403.5"
           y="2836">A</tspan></text><text
         xml:space="preserve"
         style="font-size:4px;line-height:4.99999px;font-family:'Liberation Mono', monospace;-inkscape-font-specification:'Liberation Mono, monospace';text-decoration-color:#000000;fill:#000000;stroke-width:3.77952;-inkscape-stroke:none;stop-color:#000000"
         x="433.5"
         y="2836"
         id="text110"><tspan
           sodipodi:role="line"
           id="tspan110"
           style="stroke-width:3.77952"
           x="433.5"
           y="2836">B</tspan></text><text
         xml:space="preserve"
         style="font-size:4px;line-height:4.99999px;font-family:'Liberation Mono', monospace;-inkscape-font-specification:'Liberation Mono, monospace';text-decoration-color:#000000;fill:#000000;stroke-width:3.77952;-inkscape-stroke:none;stop-color:#000000"
         x="463.5"
         y="2836"
         id="text111"><tspan
           sodipodi:role="line"
           id="tspan111"
           style="stroke-width:3.77952"
           x="463.5"
           y="2836">C</tspan></text><text
         xml:space="preserve"
         style="font-size:4px;line-height:4.99999px;font-family:'Liberation Mono', monospace;-inkscape-font-specification:'Liberation Mono, monospace';text-decoration-color:#000000;fill:#000000;stroke-width:3.77952;-inkscape-stroke:none;stop-color:#000000"
         x="518.5"
         y="2836"
         id="text112"><tspan
           sodipodi:role="line"
           id="tspan112"
           style="stroke-width:3.77952"
           x="518.5"
           y="2836">C</tspan></text><text
         xml:space="preserve"
         style="font-size:4px;line-height:4.99999px;font-family:'Liberation Mono', monospace;-inkscape-font-specification:'Liberation Mono, monospace';text-decoration-color:#000000;fill:#000000;stroke-width:3.77952;-inkscape-stroke:none;stop-color:#000000"
         x="488.5"
         y="2836"
         id="text113"><tspan
           sodipodi:role="line"
           id="tspan113"
           style="stroke-width:3.77952"
           x="488.5"
           y="2836">A</tspan></text><text
         xml:space="preserve"
         style="font-size:4px;line-height:4.99999px;font-family:'Liberation Mono', monospace;-inkscape-font-specification:'Liberation Mono, monospace';text-decoration-color:#000000;fill:#000000;stroke-width:3.77952;-inkscape-stroke:none;stop-color:#000000"
         x="501"
         y="2836"
         id="text114"><tspan
           sodipodi:role="line"
           id="tspan114"
           style="stroke-width:3.77952"
           x="501"
           y="2836">N+<tspan
   style="font-size:65%;baseline-shift:sub"
   id="tspan115">B</tspan>P</tspan></text><circle
         id="circle115"
         style="fill:#000000;stroke:#000000;stroke-width:0.264583"
         cx="420"
         cy="2810"
         r="1" /><circle
         id="circle116"
         style="fill:#000000;stroke:#000000;stroke-width:0.264583"
         cx="420"
         cy="2820"
         r="1" /><circle
         id="circle117"
         style="fill:#000000;stroke:#000000;stroke-width:0.264583"
         cx="450"
         cy="2810"
         r="1" /><circle
         id="circle118"
         style="fill:#ffffff;stroke:#000000;stroke-width:0.264583"
         cx="435"
         cy="2810"
         r="1" /><circle
         id="circle119"
         style="fill:#ffffff;stroke:#000000;stroke-width:0.264583"
         cx="465"
         cy="2815"
         r="1" /><circle
         id="circle120"
         style="fill:#000000;stroke:#000000;stroke-width:0.264583"
         cx="505"
         cy="2825"
         r="1" /><path
         style="font-variation-settings:normal;vector-effect:none;fill:none;fill-opacity:1;stroke:#3584e4;stroke-width:0.499999;stroke-linecap:butt;stroke-linejoin:miter;stroke-miterlimit:4;stroke-dasharray:none;stroke-dashoffset:0;stroke-opacity:1;-inkscape-stroke:none;stop-color:#000000"
         d="m 505,2815.0001 h 15"
         id="path121" /><circle
         id="circle121"
         style="fill:#000000;stroke:#000000;stroke-width:0.264583"
         cx="505"
         cy="2815"
         r="1" /><circle
         id="circle122"
         style="fill:#ffffff;stroke:#000000;stroke-width:0.264583"
         cx="520"
         cy="2815"
         r="1" /></g></g></svg>
