<?xml version="1.0" encoding="UTF-8" standalone="no"?>
<!-- Created with Inkscape (http://www.inkscape.org/) -->

<svg
   width="70.259796mm"
   height="34.602539mm"
   viewBox="0 0 70.259796 34.602539"
   version="1.1"
   id="svg1820"
   inkscape:version="1.3 (1:1.3+202307231459+0e150ed6c4)"
   sodipodi:docname="public-paper-alternative.svg"
   xml:space="preserve"
   inkscape:export-filename="ssc/exercise-6-18-part2.svg"
   inkscape:export-xdpi="96"
   inkscape:export-ydpi="96"
   xmlns:inkscape="http://www.inkscape.org/namespaces/inkscape"
   xmlns:sodipodi="http://sodipodi.sourceforge.net/DTD/sodipodi-0.dtd"
   xmlns="http://www.w3.org/2000/svg"
   xmlns:svg="http://www.w3.org/2000/svg"><sodipodi:namedview
     id="namedview1822"
     pagecolor="#ffffff"
     bordercolor="#666666"
     borderopacity="1.0"
     inkscape:showpageshadow="2"
     inkscape:pageopacity="0.0"
     inkscape:pagecheckerboard="0"
     inkscape:deskcolor="#d1d1d1"
     inkscape:document-units="mm"
     showgrid="true"
     inkscape:zoom="1.4142136"
     inkscape:cx="1689.9852"
     inkscape:cy="10328.355"
     inkscape:window-width="1368"
     inkscape:window-height="2496"
     inkscape:window-x="72"
     inkscape:window-y="27"
     inkscape:window-maximized="1"
     inkscape:current-layer="layer1"
     showguides="true"><inkscape:grid
       type="axonomgrid"
       id="grid18583"
       visible="true"
       originx="-1323.2658"
       originy="-10376.615"
       enabled="false"
       spacingy="1"
       gridanglex="30"
       gridanglez="30"
       units="mm" /><inkscape:grid
       type="xygrid"
       id="grid313765"
       enabled="true"
       units="mm"
       spacingx="1"
       spacingy="1"
       originx="-1323.2658"
       originy="-10376.615"
       dotted="false"
       visible="true" /></sodipodi:namedview><defs
     id="defs1817"><marker
       style="overflow:visible"
       id="Arrow1_Fnone_S-000000-5"
       refX="0"
       refY="0"
       orient="auto-start-reverse"
       inkscape:stockid="Arrow1"
       markerWidth="4.0606599"
       markerHeight="6.7071061"
       viewBox="0 0 4.0606602 6.7071068"
       inkscape:isstock="true"
       inkscape:collect="always"
       preserveAspectRatio="xMidYMid"><path
         style="fill:none;stroke:#000000;stroke-width:1;stroke-linecap:butt"
         d="M 3,-3 0,0 3,3"
         id="path367151-6"
         transform="rotate(180,0.125,0)"
         sodipodi:nodetypes="ccc" /></marker></defs><g
     inkscape:label="Layer 1"
     inkscape:groupmode="layer"
     id="layer1"
     transform="translate(-350.11408,-2745.4793)"><rect
       style="font-variation-settings:normal;opacity:1;fill:none;fill-opacity:1;fill-rule:evenodd;stroke:#e6e6e6;stroke-width:0.5;stroke-linecap:butt;stroke-linejoin:miter;stroke-miterlimit:4;stroke-dasharray:none;stroke-dashoffset:0;stroke-opacity:1;stop-color:#000000;stop-opacity:1"
       id="rect1481"
       width="208"
       height="48"
       x="12"
       y="7" /><text
       xml:space="preserve"
       style="font-style:normal;font-variant:normal;font-weight:normal;font-stretch:normal;font-size:4px;line-height:4.99999px;font-family:'Liberation Sans', sans-serif;-inkscape-font-specification:'Liberation Sans, sans-serif';text-decoration-color:#000000;white-space:pre;shape-inside:url(#rect1481);display:inline;fill:#000000;stroke-width:3.77952;stop-color:#000000"
       x="30.093462"
       y="39.661663"
       id="text1498"><tspan
         x="12"
         y="10.61273"
         id="tspan2">Prefer to rich text in this document, in <tspan
   style="font-style:italic"
   id="tspan1">increasing</tspan> order of preference:&#10;</tspan><tspan
         x="12"
         y="15.612719"
         id="tspan3">1. private-observations.md&#10;</tspan><tspan
         x="12"
         y="20.61271"
         id="tspan4">2. observations.md&#10;</tspan><tspan
         x="12"
         y="25.6127"
         id="tspan5">3. Some more specific document (e.g. refactor-code.md)</tspan></text><g
       id="g1"><text
         xml:space="preserve"
         style="font-size:4px;line-height:4.99999px;font-family:'Liberation Mono', monospace;-inkscape-font-specification:'Liberation Mono, monospace';text-decoration-color:#000000;fill:#000000;stroke-width:3.77952;-inkscape-stroke:none;stop-color:#000000"
         x="381.04376"
         y="2751.0818"
         id="text34-5"><tspan
           sodipodi:role="line"
           id="tspan34"
           style="stroke-width:3.77952"
           x="381.04376"
           y="2751.0818">X+X</tspan></text><path
         style="font-variation-settings:normal;vector-effect:none;fill:none;fill-opacity:1;stroke:#000000;stroke-width:0.499999;stroke-linecap:butt;stroke-linejoin:miter;stroke-miterlimit:4;stroke-dasharray:none;stroke-dashoffset:0;stroke-opacity:1;-inkscape-stroke:none;marker-end:url(#Arrow1_Fnone_S-000000-5);stop-color:#000000"
         d="m 415.54377,2749.5819 h -25"
         id="path34"
         sodipodi:nodetypes="cc" /><text
         xml:space="preserve"
         style="font-size:4px;line-height:4.99999px;font-family:'Liberation Mono', monospace;-inkscape-font-specification:'Liberation Mono, monospace';text-decoration-color:#000000;fill:#000000;stroke-width:3.77952;-inkscape-stroke:none;stop-color:#000000"
         x="418.04376"
         y="2751.0818"
         id="text35"><tspan
           sodipodi:role="line"
           id="tspan35"
           style="stroke-width:3.77952"
           x="418.04376"
           y="2751.0818">X</tspan></text><path
         style="font-variation-settings:normal;fill:none;fill-opacity:1;stroke:#000000;stroke-width:0.5;stroke-linecap:butt;stroke-linejoin:miter;stroke-miterlimit:4;stroke-dasharray:0.5, 0.5;stroke-dashoffset:0;stroke-opacity:1;marker-end:url(#Arrow1_Fnone_S-000000-5);stop-color:#000000"
         d="m 384.80449,2752.3426 v 23"
         id="path35"
         sodipodi:nodetypes="cc" /><path
         style="font-variation-settings:normal;vector-effect:none;fill:none;fill-opacity:1;stroke:#000000;stroke-width:0.499999;stroke-linecap:butt;stroke-linejoin:miter;stroke-miterlimit:4;stroke-dasharray:none;stroke-dashoffset:0;stroke-opacity:1;-inkscape-stroke:none;marker-end:url(#Arrow1_Fnone_S-000000-5);stop-color:#000000"
         d="m 416.9265,2752.0819 -29.26541,24.5"
         id="path36"
         sodipodi:nodetypes="cc" /><text
         xml:space="preserve"
         style="font-size:4px;line-height:4.99999px;font-family:'Liberation Mono', monospace;-inkscape-font-specification:'Liberation Mono, monospace';text-decoration-color:#000000;fill:#000000;stroke-width:3.77952;-inkscape-stroke:none;stop-color:#000000"
         x="383.54376"
         y="2780.0818"
         id="text36"><tspan
           sodipodi:role="line"
           id="tspan36-3"
           style="stroke-width:3.77952"
           x="383.54376"
           y="2780.0818">X</tspan></text><text
         xml:space="preserve"
         style="font-size:4px;line-height:4.99999px;font-family:'Liberation Mono', monospace;-inkscape-font-specification:'Liberation Mono, monospace';text-decoration-color:#000000;fill:#000000;stroke-width:3.77952;-inkscape-stroke:none;stop-color:#000000"
         x="385.04376"
         y="2757.0818"
         id="text39"><tspan
           sodipodi:role="line"
           id="tspan39"
           style="stroke-width:3.77952"
           x="385.04376"
           y="2757.0818">[id<tspan
   style="font-size:65%;baseline-shift:sub"
   id="tspan37">X</tspan>,id<tspan
   style="font-size:65%;baseline-shift:sub"
   id="tspan38">X</tspan>]</tspan></text><text
         xml:space="preserve"
         style="font-size:4px;line-height:4.99999px;font-family:'Liberation Mono', monospace;-inkscape-font-specification:'Liberation Mono, monospace';text-decoration-color:#000000;fill:#000000;stroke-width:3.77952;-inkscape-stroke:none;stop-color:#000000"
         x="401.54376"
         y="2768.0818"
         id="text41"><tspan
           sodipodi:role="line"
           id="tspan41"
           style="stroke-width:3.77952"
           x="401.54376"
           y="2768.0818">id<tspan
   style="font-size:65%;baseline-shift:sub"
   id="tspan40">X</tspan></tspan></text><path
         style="font-variation-settings:normal;vector-effect:none;fill:none;fill-opacity:1;stroke:#000000;stroke-width:0.499999;stroke-linecap:butt;stroke-linejoin:miter;stroke-miterlimit:4;stroke-dasharray:none;stroke-dashoffset:0;stroke-opacity:1;-inkscape-stroke:none;marker-end:url(#Arrow1_Fnone_S-000000-5);stop-color:#000000"
         d="m 354.06522,2749.5819 h 25"
         id="path41-5"
         sodipodi:nodetypes="cc" /><path
         style="font-variation-settings:normal;vector-effect:none;fill:none;fill-opacity:1;stroke:#000000;stroke-width:0.499999;stroke-linecap:butt;stroke-linejoin:miter;stroke-miterlimit:4;stroke-dasharray:none;stroke-dashoffset:0;stroke-opacity:1;-inkscape-stroke:none;marker-end:url(#Arrow1_Fnone_S-000000-5);stop-color:#000000"
         d="m 352.45463,2752.0819 29.26541,24.5"
         id="path42-6"
         sodipodi:nodetypes="cc" /><text
         xml:space="preserve"
         style="font-size:4px;line-height:4.99999px;font-family:'Liberation Mono', monospace;-inkscape-font-specification:'Liberation Mono, monospace';text-decoration-color:#000000;fill:#000000;stroke-width:3.77952;-inkscape-stroke:none;stop-color:#000000"
         x="350.04376"
         y="2751.0818"
         id="text42"><tspan
           sodipodi:role="line"
           id="tspan42"
           style="stroke-width:3.77952"
           x="350.04376"
           y="2751.0818">X</tspan></text><text
         xml:space="preserve"
         style="font-size:4px;line-height:4.99999px;font-family:'Liberation Mono', monospace;-inkscape-font-specification:'Liberation Mono, monospace';text-decoration-color:#000000;fill:#000000;stroke-width:3.77952;-inkscape-stroke:none;stop-color:#000000"
         x="360.04376"
         y="2767.0818"
         id="text44-2"><tspan
           sodipodi:role="line"
           id="tspan44-9"
           style="stroke-width:3.77952"
           x="360.04376"
           y="2767.0818">id<tspan
   style="font-size:65%;baseline-shift:sub"
   id="tspan43">X</tspan></tspan></text><text
         xml:space="preserve"
         style="font-size:4px;line-height:4.99999px;font-family:'Liberation Mono', monospace;-inkscape-font-specification:'Liberation Mono, monospace';text-decoration-color:#000000;fill:#000000;stroke-width:3.77952;-inkscape-stroke:none;stop-color:#000000"
         x="364.5545"
         y="2747.5925"
         id="text46-1"><tspan
           sodipodi:role="line"
           id="tspan46-2"
           style="stroke-width:3.77952"
           x="364.5545"
           y="2747.5925">ι<tspan
   style="font-size:65%;baseline-shift:sub"
   id="tspan45-7">X1</tspan></tspan></text><text
         xml:space="preserve"
         style="font-size:4px;line-height:4.99999px;font-family:'Liberation Mono', monospace;-inkscape-font-specification:'Liberation Mono, monospace';text-decoration-color:#000000;fill:#000000;stroke-width:3.77952;-inkscape-stroke:none;stop-color:#000000"
         x="401.5545"
         y="2747.5925"
         id="text51-0"><tspan
           sodipodi:role="line"
           id="tspan51-9"
           style="stroke-width:3.77952"
           x="401.5545"
           y="2747.5925">ι<tspan
   style="font-size:65%;baseline-shift:sub"
   id="tspan50">X2</tspan></tspan></text></g></g></svg>
