<?xml version="1.0" encoding="UTF-8" standalone="no"?>
<!-- Created with Inkscape (http://www.inkscape.org/) -->

<svg
   width="70.25mm"
   height="44.887695mm"
   viewBox="0 0 70.25 44.887695"
   version="1.1"
   id="svg1820"
   inkscape:version="1.3 (1:1.3+202307231459+0e150ed6c4)"
   sodipodi:docname="exercise-6-18-part3-2.svg"
   xml:space="preserve"
   inkscape:export-filename="ssc/exercise-6-18-part2.svg"
   inkscape:export-xdpi="96"
   inkscape:export-ydpi="96"
   xmlns:inkscape="http://www.inkscape.org/namespaces/inkscape"
   xmlns:sodipodi="http://sodipodi.sourceforge.net/DTD/sodipodi-0.dtd"
   xmlns="http://www.w3.org/2000/svg"
   xmlns:svg="http://www.w3.org/2000/svg"><sodipodi:namedview
     id="namedview1822"
     pagecolor="#ffffff"
     bordercolor="#666666"
     borderopacity="1.0"
     inkscape:showpageshadow="2"
     inkscape:pageopacity="0.0"
     inkscape:pagecheckerboard="0"
     inkscape:deskcolor="#d1d1d1"
     inkscape:document-units="mm"
     showgrid="true"
     inkscape:zoom="0.02"
     inkscape:cx="20625"
     inkscape:cy="-22775"
     inkscape:window-width="1368"
     inkscape:window-height="2496"
     inkscape:window-x="72"
     inkscape:window-y="27"
     inkscape:window-maximized="1"
     inkscape:current-layer="layer1"
     showguides="true"><inkscape:grid
       type="axonomgrid"
       id="grid18583"
       visible="true"
       originx="-1182.9764"
       originy="-10528.753"
       enabled="false"
       spacingy="1"
       gridanglex="30"
       gridanglez="30"
       units="mm" /><inkscape:grid
       type="xygrid"
       id="grid313765"
       enabled="true"
       units="mm"
       spacingx="1"
       spacingy="1"
       originx="-1182.9764"
       originy="-10528.753"
       dotted="false"
       visible="true" /></sodipodi:namedview><defs
     id="defs1817"><marker
       style="overflow:visible"
       id="ArrowWide_Fnone_S-000000"
       refX="0"
       refY="0"
       orient="auto-start-reverse"
       inkscape:stockid="Wide arrow"
       markerWidth="1"
       markerHeight="1"
       viewBox="0 0 1 1"
       inkscape:isstock="true"
       inkscape:collect="always"
       preserveAspectRatio="xMidYMid"><path
         style="fill:none;stroke:#000000;stroke-width:1;stroke-linecap:butt"
         d="M 3,-3 0,0 3,3"
         transform="rotate(180,0.125,0)"
         sodipodi:nodetypes="ccc"
         id="path2" /></marker><marker
       style="overflow:visible"
       id="Arrow1_Fnone_S-000000-5"
       refX="0"
       refY="0"
       orient="auto-start-reverse"
       inkscape:stockid="Arrow1"
       markerWidth="4.0606599"
       markerHeight="6.7071061"
       viewBox="0 0 4.0606602 6.7071068"
       inkscape:isstock="true"
       inkscape:collect="always"
       preserveAspectRatio="xMidYMid"><path
         style="fill:none;stroke:#000000;stroke-width:1;stroke-linecap:butt"
         d="M 3,-3 0,0 3,3"
         id="path367151-6"
         transform="rotate(180,0.125,0)"
         sodipodi:nodetypes="ccc" /></marker></defs><g
     inkscape:label="Layer 1"
     inkscape:groupmode="layer"
     id="layer1"
     transform="translate(-312.99582,-2785.7324)"><text
       xml:space="preserve"
       style="font-size:4px;line-height:4.99999px;font-family:'Liberation Mono', monospace;-inkscape-font-specification:'Liberation Mono, monospace';text-decoration-color:#000000;fill:#000000;stroke-width:3.77952;-inkscape-stroke:none;stop-color:#000000"
       x="344.49582"
       y="2800.6201"
       id="text196"><tspan
         sodipodi:role="line"
         id="tspan196"
         style="stroke-width:3.77952"
         x="344.49582"
         y="2800.6201">A+B</tspan></text><text
       xml:space="preserve"
       style="font-size:4px;line-height:4.99999px;font-family:'Liberation Mono', monospace;-inkscape-font-specification:'Liberation Mono, monospace';text-decoration-color:#000000;fill:#000000;stroke-width:3.77952;-inkscape-stroke:none;stop-color:#000000"
       x="380.99582"
       y="2815.6201"
       id="text197"><tspan
         sodipodi:role="line"
         id="tspan197"
         style="stroke-width:3.77952"
         x="380.99582"
         y="2815.6201">B</tspan></text><path
       style="font-variation-settings:normal;fill:none;fill-opacity:1;stroke:#000000;stroke-width:0.5;stroke-linecap:butt;stroke-linejoin:miter;stroke-miterlimit:4;stroke-dasharray:0.5, 0.5;stroke-dashoffset:0;stroke-opacity:1;marker-end:url(#Arrow1_Fnone_S-000000-5);stop-color:#000000"
       d="m 350.25656,2801.8809 v 24"
       id="path197"
       sodipodi:nodetypes="cc" /><path
       style="font-variation-settings:normal;vector-effect:none;fill:none;fill-opacity:1;stroke:#000000;stroke-width:0.499999;stroke-linecap:butt;stroke-linejoin:miter;stroke-miterlimit:4;stroke-dasharray:none;stroke-dashoffset:0;stroke-opacity:1;-inkscape-stroke:none;marker-end:url(#Arrow1_Fnone_S-000000-5);stop-color:#000000"
       d="m 379.87857,2815.6202 -26.76541,12"
       id="path198"
       sodipodi:nodetypes="cc" /><text
       xml:space="preserve"
       style="font-size:4px;line-height:4.99999px;font-family:'Liberation Mono', monospace;-inkscape-font-specification:'Liberation Mono, monospace';text-decoration-color:#000000;fill:#000000;stroke-width:3.77952;-inkscape-stroke:none;stop-color:#000000"
       x="312.99582"
       y="2815.6201"
       id="text203"><tspan
         sodipodi:role="line"
         id="tspan203"
         style="stroke-width:3.77952"
         x="312.99582"
         y="2815.6201">A</tspan></text><text
       xml:space="preserve"
       style="font-size:4px;line-height:4.99999px;font-family:'Liberation Mono', monospace;-inkscape-font-specification:'Liberation Mono, monospace';text-decoration-color:#000000;fill:#000000;stroke-width:3.77952;-inkscape-stroke:none;stop-color:#000000"
       x="364.50656"
       y="2804.1309"
       id="text210"><tspan
         sodipodi:role="line"
         id="tspan210"
         style="stroke-width:3.77952"
         x="364.50656"
         y="2804.1309">ɩ<tspan
   style="font-size:2.6px;baseline-shift:sub;stroke-width:3.77952"
   id="tspan209">B1</tspan></tspan></text><text
       xml:space="preserve"
       style="font-size:4px;line-height:4.99999px;font-family:'Liberation Mono', monospace;-inkscape-font-specification:'Liberation Mono, monospace';text-decoration-color:#000000;fill:#000000;stroke-width:3.77952;-inkscape-stroke:none;stop-color:#000000"
       x="344.49582"
       y="2830.6201"
       id="text211"><tspan
         sodipodi:role="line"
         id="tspan211"
         style="stroke-width:3.77952"
         x="344.49582"
         y="2830.6201">B+A</tspan></text><path
       style="font-variation-settings:normal;vector-effect:none;fill:none;fill-opacity:1;stroke:#000000;stroke-width:0.499999;stroke-linecap:butt;stroke-linejoin:miter;stroke-miterlimit:4;stroke-dasharray:none;stroke-dashoffset:0;stroke-opacity:1;-inkscape-stroke:none;marker-end:url(#Arrow1_Fnone_S-000000-5);stop-color:#000000"
       d="m 379.87857,2812.9319 -26.76541,-12"
       id="path211"
       sodipodi:nodetypes="cc" /><path
       style="font-variation-settings:normal;vector-effect:none;fill:none;fill-opacity:1;stroke:#000000;stroke-width:0.499999;stroke-linecap:butt;stroke-linejoin:miter;stroke-miterlimit:4;stroke-dasharray:none;stroke-dashoffset:0;stroke-opacity:1;-inkscape-stroke:none;marker-end:url(#Arrow1_Fnone_S-000000-5);stop-color:#000000"
       d="m 316.27876,2815.6202 26.76541,12"
       id="path212"
       sodipodi:nodetypes="cc" /><path
       style="font-variation-settings:normal;vector-effect:none;fill:none;fill-opacity:1;stroke:#000000;stroke-width:0.499999;stroke-linecap:butt;stroke-linejoin:miter;stroke-miterlimit:4;stroke-dasharray:none;stroke-dashoffset:0;stroke-opacity:1;-inkscape-stroke:none;marker-end:url(#Arrow1_Fnone_S-000000-5);stop-color:#000000"
       d="m 316.27876,2812.9319 26.76541,-12"
       id="path213"
       sodipodi:nodetypes="cc" /><text
       xml:space="preserve"
       style="font-size:4px;line-height:4.99999px;font-family:'Liberation Mono', monospace;-inkscape-font-specification:'Liberation Mono, monospace';text-decoration-color:#000000;fill:#000000;stroke-width:3.77952;-inkscape-stroke:none;stop-color:#000000"
       x="326.00656"
       y="2804.1309"
       id="text214"><tspan
         sodipodi:role="line"
         id="tspan214"
         style="stroke-width:3.77952"
         x="326.00656"
         y="2804.1309">ɩ<tspan
   style="font-size:2.6px;baseline-shift:sub;stroke-width:3.77952"
   id="tspan213">A1</tspan></tspan></text><text
       xml:space="preserve"
       style="font-size:4px;line-height:4.99999px;font-family:'Liberation Mono', monospace;-inkscape-font-specification:'Liberation Mono, monospace';text-decoration-color:#000000;fill:#000000;stroke-width:3.77952;-inkscape-stroke:none;stop-color:#000000"
       x="364.50656"
       y="2825.6309"
       id="text216"><tspan
         sodipodi:role="line"
         id="tspan216"
         style="stroke-width:3.77952"
         x="364.50656"
         y="2825.6309">ɩ<tspan
   style="font-size:2.6px;baseline-shift:sub;stroke-width:3.77952"
   id="tspan215">B2</tspan></tspan></text><text
       xml:space="preserve"
       style="font-size:4px;line-height:4.99999px;font-family:'Liberation Mono', monospace;-inkscape-font-specification:'Liberation Mono, monospace';text-decoration-color:#000000;fill:#000000;stroke-width:3.77952;-inkscape-stroke:none;stop-color:#000000"
       x="326.00656"
       y="2825.1309"
       id="text218"><tspan
         sodipodi:role="line"
         id="tspan218"
         style="stroke-width:3.77952"
         x="326.00656"
         y="2825.1309">ɩ<tspan
   style="font-size:2.6px;baseline-shift:sub;stroke-width:3.77952"
   id="tspan217">A2</tspan></tspan></text><path
       style="font-variation-settings:normal;fill:none;fill-opacity:1;stroke:#000000;stroke-width:0.5;stroke-linecap:butt;stroke-linejoin:miter;stroke-miterlimit:4;stroke-dasharray:0.5, 0.5;stroke-dashoffset:0;stroke-opacity:1;marker-end:url(#Arrow1_Fnone_S-000000-5);stop-color:#000000"
       d="m 346.25656,2826.3595 v -24"
       id="path218"
       sodipodi:nodetypes="cc" /><text
       xml:space="preserve"
       style="font-size:4px;line-height:4.99999px;font-family:'Liberation Mono', monospace;-inkscape-font-specification:'Liberation Mono, monospace';text-decoration-color:#000000;fill:#000000;stroke-width:3.77952;-inkscape-stroke:none;stop-color:#000000"
       x="351.00656"
       y="2815.6309"
       id="text220"><tspan
         sodipodi:role="line"
         id="tspan220"
         style="stroke-width:3.77952"
         x="351.00656"
         y="2815.6309">[ɩ<tspan
   style="font-size:2.6px;baseline-shift:sub;stroke-width:3.77952"
   id="tspan221">A2</tspan>,ɩ<tspan
   style="font-size:2.6px;baseline-shift:sub;stroke-width:3.77952"
   id="tspan222">B2</tspan>]</tspan></text><text
       xml:space="preserve"
       style="font-size:4px;line-height:4.99999px;font-family:'Liberation Mono', monospace;-inkscape-font-specification:'Liberation Mono, monospace';text-decoration-color:#000000;fill:#000000;stroke-width:3.77952;-inkscape-stroke:none;stop-color:#000000"
       x="327.00656"
       y="2815.6309"
       id="text225"><tspan
         sodipodi:role="line"
         id="tspan225"
         style="stroke-width:3.77952"
         x="327.00656"
         y="2815.6309">[ɩ<tspan
   style="font-size:2.6px;baseline-shift:sub;stroke-width:3.77952"
   id="tspan224">B1</tspan>,ɩ<tspan
   style="font-size:2.6px;baseline-shift:sub;stroke-width:3.77952"
   id="tspan265">A1</tspan>]<tspan
   style="font-size:2.6px;baseline-shift:sub;stroke-width:3.77952"
   id="tspan264" /></tspan></text><path
       style="font-variation-settings:normal;vector-effect:none;fill:none;fill-opacity:1;stroke:#000000;stroke-width:0.499999;stroke-linecap:butt;stroke-linejoin:miter;stroke-miterlimit:4;stroke-dasharray:0.499999, 0.499999;stroke-dashoffset:0;stroke-opacity:1;-inkscape-stroke:none;marker-end:url(#ArrowWide_Fnone_S-000000);stop-color:#000000"
       d="M 351.5,2797.0001 354.38674,2792 h -12.88675 l 2.88676,5.0001"
       id="path259"
       sodipodi:nodetypes="cccc" /><text
       xml:space="preserve"
       style="font-size:4px;line-height:4.99999px;font-family:'Liberation Mono', monospace;-inkscape-font-specification:'Liberation Mono, monospace';text-decoration-color:#000000;fill:#000000;stroke-width:3.77952;-inkscape-stroke:none;stop-color:#000000"
       x="333.00656"
       y="2788.6309"
       id="text262"><tspan
         sodipodi:role="line"
         id="tspan262"
         style="stroke-width:3.77952"
         x="333.00656"
         y="2788.6309">id<tspan
   style="font-size:2.6px;baseline-shift:sub;stroke-width:3.77952"
   id="tspan263">A+B</tspan>=[ɩ<tspan
   style="font-size:2.6px;baseline-shift:sub;stroke-width:3.77952"
   id="tspan260">A1</tspan>,ɩ<tspan
   style="font-size:2.6px;baseline-shift:sub;stroke-width:3.77952"
   id="tspan261">B1</tspan>]</tspan></text></g></svg>
