<?xml version="1.0" encoding="UTF-8" standalone="no"?>
<!-- Created with Inkscape (http://www.inkscape.org/) -->

<svg
   width="70.267578mm"
   height="35.121887mm"
   viewBox="0 0 70.267578 35.121887"
   version="1.1"
   id="svg1820"
   inkscape:version="1.3 (1:1.3+202307231459+0e150ed6c4)"
   sodipodi:docname="public-paper-alternative.svg"
   xml:space="preserve"
   inkscape:export-filename="ssc/exercise-6-18-part2.svg"
   inkscape:export-xdpi="96"
   inkscape:export-ydpi="96"
   xmlns:inkscape="http://www.inkscape.org/namespaces/inkscape"
   xmlns:sodipodi="http://sodipodi.sourceforge.net/DTD/sodipodi-0.dtd"
   xmlns="http://www.w3.org/2000/svg"
   xmlns:svg="http://www.w3.org/2000/svg"><sodipodi:namedview
     id="namedview1822"
     pagecolor="#ffffff"
     bordercolor="#666666"
     borderopacity="1.0"
     inkscape:showpageshadow="2"
     inkscape:pageopacity="0.0"
     inkscape:pagecheckerboard="0"
     inkscape:deskcolor="#d1d1d1"
     inkscape:document-units="mm"
     showgrid="true"
     inkscape:zoom="0.7071068"
     inkscape:cx="1531.5932"
     inkscape:cy="10542.255"
     inkscape:window-width="1368"
     inkscape:window-height="2496"
     inkscape:window-x="72"
     inkscape:window-y="27"
     inkscape:window-maximized="1"
     inkscape:current-layer="layer1"
     showguides="true"><inkscape:grid
       type="axonomgrid"
       id="grid18583"
       visible="true"
       originx="-1474"
       originy="-10337.001"
       enabled="false"
       spacingy="1"
       gridanglex="30"
       gridanglez="30"
       units="mm" /><inkscape:grid
       type="xygrid"
       id="grid313765"
       enabled="true"
       units="mm"
       spacingx="1"
       spacingy="1"
       originx="-1474"
       originy="-10337.001"
       dotted="false"
       visible="true" /></sodipodi:namedview><defs
     id="defs1817"><marker
       style="overflow:visible"
       id="Arrow1_Fnone_S-000000-5"
       refX="0"
       refY="0"
       orient="auto-start-reverse"
       inkscape:stockid="Arrow1"
       markerWidth="4.0606599"
       markerHeight="6.7071061"
       viewBox="0 0 4.0606602 6.7071068"
       inkscape:isstock="true"
       inkscape:collect="always"
       preserveAspectRatio="xMidYMid"><path
         style="fill:none;stroke:#000000;stroke-width:1;stroke-linecap:butt"
         d="M 3,-3 0,0 3,3"
         id="path367151-6"
         transform="rotate(180,0.125,0)"
         sodipodi:nodetypes="ccc" /></marker></defs><g
     inkscape:label="Layer 1"
     inkscape:groupmode="layer"
     id="layer1"
     transform="translate(-389.99582,-2734.9983)"><rect
       style="font-variation-settings:normal;opacity:1;fill:none;fill-opacity:1;fill-rule:evenodd;stroke:#e6e6e6;stroke-width:0.5;stroke-linecap:butt;stroke-linejoin:miter;stroke-miterlimit:4;stroke-dasharray:none;stroke-dashoffset:0;stroke-opacity:1;stop-color:#000000;stop-opacity:1"
       id="rect1481"
       width="208"
       height="48"
       x="12"
       y="7" /><text
       xml:space="preserve"
       style="font-style:normal;font-variant:normal;font-weight:normal;font-stretch:normal;font-size:4px;line-height:4.99999px;font-family:'Liberation Sans', sans-serif;-inkscape-font-specification:'Liberation Sans, sans-serif';text-decoration-color:#000000;white-space:pre;shape-inside:url(#rect1481);display:inline;fill:#000000;stroke-width:3.77952;stop-color:#000000"
       x="30.093462"
       y="39.661663"
       id="text1498"><tspan
         x="12"
         y="10.61273"
         id="tspan2">Prefer to rich text in this document, in <tspan
   style="font-style:italic"
   id="tspan1">increasing</tspan> order of preference:&#10;</tspan><tspan
         x="12"
         y="15.612719"
         id="tspan3">1. private-observations.md&#10;</tspan><tspan
         x="12"
         y="20.61271"
         id="tspan6">2. observations.md&#10;</tspan><tspan
         x="12"
         y="25.6127"
         id="tspan7">3. Some more specific document (e.g. refactor-code.md)</tspan></text><g
       id="g127"><text
         xml:space="preserve"
         style="font-size:4px;line-height:4.99999px;font-family:'Liberation Mono', monospace;-inkscape-font-specification:'Liberation Mono, monospace';text-decoration-color:#000000;fill:#000000;stroke-width:3.77952;-inkscape-stroke:none;stop-color:#000000"
         x="420.99582"
         y="2741.1201"
         id="text1-8"><tspan
           sodipodi:role="line"
           id="tspan1-4"
           style="stroke-width:3.77952"
           x="420.99582"
           y="2741.1201">A+∅</tspan></text><path
         style="font-variation-settings:normal;vector-effect:none;fill:none;fill-opacity:1;stroke:#000000;stroke-width:0.5;stroke-linecap:butt;stroke-linejoin:miter;stroke-miterlimit:4;stroke-dasharray:1.5, 1.5;stroke-dashoffset:0;stroke-opacity:1;-inkscape-stroke:none;marker-end:url(#Arrow1_Fnone_S-000000-5);stop-color:#000000"
         d="m 455.49584,2739.6202 h -25"
         id="path28-7"
         sodipodi:nodetypes="cc" /><text
         xml:space="preserve"
         style="font-size:4px;line-height:4.99999px;font-family:'Liberation Mono', monospace;-inkscape-font-specification:'Liberation Mono, monospace';text-decoration-color:#000000;fill:#000000;stroke-width:3.77952;-inkscape-stroke:none;stop-color:#000000"
         x="457.99582"
         y="2741.1201"
         id="text2-2"><tspan
           sodipodi:role="line"
           id="tspan2-4"
           style="stroke-width:3.77952"
           x="457.99582"
           y="2741.1201">∅</tspan></text><path
         style="font-variation-settings:normal;fill:none;fill-opacity:1;stroke:#000000;stroke-width:0.5;stroke-linecap:butt;stroke-linejoin:miter;stroke-miterlimit:4;stroke-dasharray:1.5, 1.5;stroke-dashoffset:0;stroke-opacity:1;marker-end:url(#Arrow1_Fnone_S-000000-5);stop-color:#000000"
         d="m 424.75656,2742.3809 v 23"
         id="path29-0"
         sodipodi:nodetypes="cc" /><path
         style="font-variation-settings:normal;vector-effect:none;fill:none;fill-opacity:1;stroke:#000000;stroke-width:0.499999;stroke-linecap:butt;stroke-linejoin:miter;stroke-miterlimit:4;stroke-dasharray:1.5, 1.5;stroke-dashoffset:0;stroke-opacity:1;-inkscape-stroke:none;marker-end:url(#Arrow1_Fnone_S-000000-5);stop-color:#000000"
         d="m 456.87857,2742.1202 -29.26541,24.5"
         id="path30-6"
         sodipodi:nodetypes="cc" /><text
         xml:space="preserve"
         style="font-size:4px;line-height:4.99999px;font-family:'Liberation Mono', monospace;-inkscape-font-specification:'Liberation Mono, monospace';text-decoration-color:#000000;fill:#000000;stroke-width:3.77952;-inkscape-stroke:none;stop-color:#000000"
         x="423.49582"
         y="2770.1201"
         id="text4"><tspan
           sodipodi:role="line"
           id="tspan4"
           style="stroke-width:3.77952"
           x="423.49582"
           y="2770.1201">A</tspan></text><text
         xml:space="preserve"
         style="font-size:4px;line-height:4.99999px;font-family:'Liberation Mono', monospace;-inkscape-font-specification:'Liberation Mono, monospace';text-decoration-color:#000000;fill:#000000;stroke-width:3.77952;-inkscape-stroke:none;stop-color:#000000"
         x="424.99582"
         y="2747.6201"
         id="text5"><tspan
           sodipodi:role="line"
           id="tspan5"
           style="stroke-width:3.77952"
           x="424.99582"
           y="2747.6201">[id<tspan
   style="font-size:65%;baseline-shift:sub"
   id="tspan14-2">A</tspan>,!<tspan
   style="font-size:65%;baseline-shift:sub"
   id="tspan13-9">A</tspan>]</tspan></text><text
         xml:space="preserve"
         style="font-size:4px;line-height:4.99999px;font-family:'Liberation Mono', monospace;-inkscape-font-specification:'Liberation Mono, monospace';text-decoration-color:#000000;fill:#000000;stroke-width:3.77952;-inkscape-stroke:none;stop-color:#000000"
         x="441.49582"
         y="2758.1201"
         id="text17"><tspan
           sodipodi:role="line"
           id="tspan17"
           style="stroke-width:3.77952"
           x="441.49582"
           y="2758.1201">!<tspan
   style="font-size:65%;baseline-shift:sub"
   id="tspan16">A</tspan></tspan></text><path
         style="font-variation-settings:normal;vector-effect:none;fill:none;fill-opacity:1;stroke:#000000;stroke-width:0.499999;stroke-linecap:butt;stroke-linejoin:miter;stroke-miterlimit:4;stroke-dasharray:none;stroke-dashoffset:0;stroke-opacity:1;-inkscape-stroke:none;marker-end:url(#Arrow1_Fnone_S-000000-5);stop-color:#000000"
         d="m 394.01729,2739.6202 h 25"
         id="path31-9"
         sodipodi:nodetypes="cc" /><path
         style="font-variation-settings:normal;vector-effect:none;fill:none;fill-opacity:1;stroke:#000000;stroke-width:0.499999;stroke-linecap:butt;stroke-linejoin:miter;stroke-miterlimit:4;stroke-dasharray:none;stroke-dashoffset:0;stroke-opacity:1;-inkscape-stroke:none;marker-end:url(#Arrow1_Fnone_S-000000-5);stop-color:#000000"
         d="m 392.4067,2742.1202 29.26541,24.5"
         id="path32"
         sodipodi:nodetypes="cc" /><text
         xml:space="preserve"
         style="font-size:4px;line-height:4.99999px;font-family:'Liberation Mono', monospace;-inkscape-font-specification:'Liberation Mono, monospace';text-decoration-color:#000000;fill:#000000;stroke-width:3.77952;-inkscape-stroke:none;stop-color:#000000"
         x="389.99582"
         y="2741.1201"
         id="text18"><tspan
           sodipodi:role="line"
           id="tspan18"
           style="stroke-width:3.77952"
           x="389.99582"
           y="2741.1201">A</tspan></text><text
         xml:space="preserve"
         style="font-size:4px;line-height:4.99999px;font-family:'Liberation Mono', monospace;-inkscape-font-specification:'Liberation Mono, monospace';text-decoration-color:#000000;fill:#000000;stroke-width:3.77952;-inkscape-stroke:none;stop-color:#000000"
         x="399.99582"
         y="2757.1201"
         id="text21"><tspan
           sodipodi:role="line"
           id="tspan21"
           style="stroke-width:3.77952"
           x="399.99582"
           y="2757.1201">id<tspan
   style="font-size:65%;baseline-shift:sub"
   id="tspan19">A</tspan></tspan></text><text
         xml:space="preserve"
         style="font-size:4px;line-height:4.99999px;font-family:'Liberation Mono', monospace;-inkscape-font-specification:'Liberation Mono, monospace';text-decoration-color:#000000;fill:#000000;stroke-width:3.77952;-inkscape-stroke:none;stop-color:#000000"
         x="404.50656"
         y="2737.6309"
         id="text23"><tspan
           sodipodi:role="line"
           id="tspan23"
           style="stroke-width:3.77952"
           x="404.50656"
           y="2737.6309">ɩ<tspan
   style="font-size:65%;baseline-shift:sub"
   id="tspan22">A</tspan></tspan></text><text
         xml:space="preserve"
         style="font-size:4px;line-height:4.99999px;font-family:'Liberation Mono', monospace;-inkscape-font-specification:'Liberation Mono, monospace';text-decoration-color:#000000;fill:#000000;stroke-width:3.77952;-inkscape-stroke:none;stop-color:#000000"
         x="435.00656"
         y="2737.6309"
         id="text25-0"><tspan
           sodipodi:role="line"
           id="tspan25-8"
           style="stroke-width:3.77952"
           x="435.00656"
           y="2737.6309">!<tspan
   style="font-size:65%;baseline-shift:sub"
   id="tspan32">A+∅ </tspan>=<tspan
   style="font-size:65%;baseline-shift:sub"
   id="tspan33"> </tspan>ɩ<tspan
   style="font-size:65%;baseline-shift:sub"
   id="tspan24-1">∅</tspan></tspan></text></g></g></svg>
