<?xml version="1.0" encoding="UTF-8" standalone="no"?>
<!-- Created with Inkscape (http://www.inkscape.org/) -->

<svg
   width="70.398438mm"
   height="169.92871mm"
   viewBox="0 0 70.398438 169.92871"
   version="1.1"
   id="svg1820"
   inkscape:version="1.3 (1:1.3+202307231459+0e150ed6c4)"
   sodipodi:docname="exercise-6-18-leftovers.svg"
   xml:space="preserve"
   inkscape:export-filename="ssc/exercise-6-18-part2.svg"
   inkscape:export-xdpi="96"
   inkscape:export-ydpi="96"
   xmlns:inkscape="http://www.inkscape.org/namespaces/inkscape"
   xmlns:sodipodi="http://sodipodi.sourceforge.net/DTD/sodipodi-0.dtd"
   xmlns="http://www.w3.org/2000/svg"
   xmlns:svg="http://www.w3.org/2000/svg"><sodipodi:namedview
     id="namedview1822"
     pagecolor="#ffffff"
     bordercolor="#666666"
     borderopacity="1.0"
     inkscape:showpageshadow="2"
     inkscape:pageopacity="0.0"
     inkscape:pagecheckerboard="0"
     inkscape:deskcolor="#d1d1d1"
     inkscape:document-units="mm"
     showgrid="true"
     inkscape:zoom="1"
     inkscape:cx="267.99999"
     inkscape:cy="-103.5"
     inkscape:window-width="1368"
     inkscape:window-height="2496"
     inkscape:window-x="72"
     inkscape:window-y="27"
     inkscape:window-maximized="1"
     inkscape:current-layer="layer1"
     showguides="true"><inkscape:grid
       type="axonomgrid"
       id="grid18583"
       visible="true"
       originx="-1549.5906"
       originy="-10639.363"
       enabled="false"
       spacingy="1"
       gridanglex="30"
       gridanglez="30"
       units="mm" /><inkscape:grid
       type="xygrid"
       id="grid313765"
       enabled="true"
       units="mm"
       spacingx="1"
       spacingy="1"
       originx="-1549.5906"
       originy="-10639.363"
       dotted="false"
       visible="true" /></sodipodi:namedview><defs
     id="defs1817"><marker
       style="overflow:visible"
       id="Arrow1_Fnone_S-000000-5"
       refX="0"
       refY="0"
       orient="auto-start-reverse"
       inkscape:stockid="Arrow1"
       markerWidth="4.0606599"
       markerHeight="6.7071061"
       viewBox="0 0 4.0606602 6.7071068"
       inkscape:isstock="true"
       inkscape:collect="always"
       preserveAspectRatio="xMidYMid"><path
         style="fill:none;stroke:#000000;stroke-width:1;stroke-linecap:butt"
         d="M 3,-3 0,0 3,3"
         id="path367151-6"
         transform="rotate(180,0.125,0)"
         sodipodi:nodetypes="ccc" /></marker></defs><g
     inkscape:label="Layer 1"
     inkscape:groupmode="layer"
     id="layer1"
     transform="translate(-409.99582,-2814.998)"><text
       xml:space="preserve"
       style="font-size:4px;line-height:4.99999px;font-family:'Liberation Mono', monospace;-inkscape-font-specification:'Liberation Mono, monospace';text-decoration-color:#000000;fill:#000000;stroke-width:3.77952;-inkscape-stroke:none;stop-color:#000000"
       x="440.99582"
       y="2906.1201"
       id="text34"><tspan
         sodipodi:role="line"
         id="tspan34"
         style="stroke-width:3.77952"
         x="440.99582"
         y="2906.1201">A+A</tspan></text><path
       style="font-variation-settings:normal;vector-effect:none;fill:none;fill-opacity:1;stroke:#000000;stroke-width:0.499999;stroke-linecap:butt;stroke-linejoin:miter;stroke-miterlimit:4;stroke-dasharray:none;stroke-dashoffset:0;stroke-opacity:1;-inkscape-stroke:none;marker-end:url(#Arrow1_Fnone_S-000000-5);stop-color:#000000"
       d="m 475.49584,2904.6202 h -25"
       id="path34"
       sodipodi:nodetypes="cc" /><text
       xml:space="preserve"
       style="font-size:4px;line-height:4.99999px;font-family:'Liberation Mono', monospace;-inkscape-font-specification:'Liberation Mono, monospace';text-decoration-color:#000000;fill:#000000;stroke-width:3.77952;-inkscape-stroke:none;stop-color:#000000"
       x="477.99582"
       y="2906.1201"
       id="text35"><tspan
         sodipodi:role="line"
         id="tspan35"
         style="stroke-width:3.77952"
         x="477.99582"
         y="2906.1201">A</tspan></text><path
       style="font-variation-settings:normal;fill:none;fill-opacity:1;stroke:#000000;stroke-width:0.5;stroke-linecap:butt;stroke-linejoin:miter;stroke-miterlimit:4;stroke-dasharray:1.5, 1.5;stroke-dashoffset:0;stroke-opacity:1;marker-end:url(#Arrow1_Fnone_S-000000-5);stop-color:#000000"
       d="m 444.75656,2907.3809 v 23"
       id="path35"
       sodipodi:nodetypes="cc" /><path
       style="font-variation-settings:normal;vector-effect:none;fill:none;fill-opacity:1;stroke:#000000;stroke-width:0.499999;stroke-linecap:butt;stroke-linejoin:miter;stroke-miterlimit:4;stroke-dasharray:none;stroke-dashoffset:0;stroke-opacity:1;-inkscape-stroke:none;marker-end:url(#Arrow1_Fnone_S-000000-5);stop-color:#000000"
       d="m 476.87857,2907.1202 -29.26541,24.5"
       id="path36"
       sodipodi:nodetypes="cc" /><text
       xml:space="preserve"
       style="font-size:4px;line-height:4.99999px;font-family:'Liberation Mono', monospace;-inkscape-font-specification:'Liberation Mono, monospace';text-decoration-color:#000000;fill:#000000;stroke-width:3.77952;-inkscape-stroke:none;stop-color:#000000"
       x="443.49582"
       y="2935.1201"
       id="text36"><tspan
         sodipodi:role="line"
         id="tspan36"
         style="stroke-width:3.77952"
         x="443.49582"
         y="2935.1201">A</tspan></text><text
       xml:space="preserve"
       style="font-size:4px;line-height:4.99999px;font-family:'Liberation Mono', monospace;-inkscape-font-specification:'Liberation Mono, monospace';text-decoration-color:#000000;fill:#000000;stroke-width:3.77952;-inkscape-stroke:none;stop-color:#000000"
       x="444.99582"
       y="2912.1201"
       id="text39"><tspan
         sodipodi:role="line"
         id="tspan39"
         style="stroke-width:3.77952"
         x="444.99582"
         y="2912.1201">[id<tspan
   style="font-size:65%;baseline-shift:sub"
   id="tspan37">A</tspan>,id<tspan
   style="font-size:65%;baseline-shift:sub"
   id="tspan38">A</tspan>]</tspan></text><text
       xml:space="preserve"
       style="font-size:4px;line-height:4.99999px;font-family:'Liberation Mono', monospace;-inkscape-font-specification:'Liberation Mono, monospace';text-decoration-color:#000000;fill:#000000;stroke-width:3.77952;-inkscape-stroke:none;stop-color:#000000"
       x="461.49582"
       y="2923.1201"
       id="text41"><tspan
         sodipodi:role="line"
         id="tspan41"
         style="stroke-width:3.77952"
         x="461.49582"
         y="2923.1201">id<tspan
   style="font-size:65%;baseline-shift:sub"
   id="tspan40">A</tspan></tspan></text><path
       style="font-variation-settings:normal;vector-effect:none;fill:none;fill-opacity:1;stroke:#000000;stroke-width:0.499999;stroke-linecap:butt;stroke-linejoin:miter;stroke-miterlimit:4;stroke-dasharray:none;stroke-dashoffset:0;stroke-opacity:1;-inkscape-stroke:none;marker-end:url(#Arrow1_Fnone_S-000000-5);stop-color:#000000"
       d="m 414.01729,2904.6202 h 25"
       id="path41"
       sodipodi:nodetypes="cc" /><path
       style="font-variation-settings:normal;vector-effect:none;fill:none;fill-opacity:1;stroke:#000000;stroke-width:0.499999;stroke-linecap:butt;stroke-linejoin:miter;stroke-miterlimit:4;stroke-dasharray:none;stroke-dashoffset:0;stroke-opacity:1;-inkscape-stroke:none;marker-end:url(#Arrow1_Fnone_S-000000-5);stop-color:#000000"
       d="m 412.4067,2907.1202 29.26541,24.5"
       id="path42"
       sodipodi:nodetypes="cc" /><text
       xml:space="preserve"
       style="font-size:4px;line-height:4.99999px;font-family:'Liberation Mono', monospace;-inkscape-font-specification:'Liberation Mono, monospace';text-decoration-color:#000000;fill:#000000;stroke-width:3.77952;-inkscape-stroke:none;stop-color:#000000"
       x="409.99582"
       y="2906.1201"
       id="text42"><tspan
         sodipodi:role="line"
         id="tspan42"
         style="stroke-width:3.77952"
         x="409.99582"
         y="2906.1201">A</tspan></text><text
       xml:space="preserve"
       style="font-size:4px;line-height:4.99999px;font-family:'Liberation Mono', monospace;-inkscape-font-specification:'Liberation Mono, monospace';text-decoration-color:#000000;fill:#000000;stroke-width:3.77952;-inkscape-stroke:none;stop-color:#000000"
       x="419.99582"
       y="2922.1201"
       id="text44"><tspan
         sodipodi:role="line"
         id="tspan44"
         style="stroke-width:3.77952"
         x="419.99582"
         y="2922.1201">id<tspan
   style="font-size:65%;baseline-shift:sub"
   id="tspan43">A</tspan></tspan></text><text
       xml:space="preserve"
       style="font-size:4px;line-height:4.99999px;font-family:'Liberation Mono', monospace;-inkscape-font-specification:'Liberation Mono, monospace';text-decoration-color:#000000;fill:#000000;stroke-width:3.77952;-inkscape-stroke:none;stop-color:#000000"
       x="424.50656"
       y="2902.6309"
       id="text46"><tspan
         sodipodi:role="line"
         id="tspan46"
         style="stroke-width:3.77952"
         x="424.50656"
         y="2902.6309">ɩ<tspan
   style="font-size:65%;baseline-shift:sub"
   id="tspan45">A</tspan></tspan></text><text
       xml:space="preserve"
       style="font-size:4px;line-height:4.99999px;font-family:'Liberation Mono', monospace;-inkscape-font-specification:'Liberation Mono, monospace';text-decoration-color:#000000;fill:#000000;stroke-width:3.77952;-inkscape-stroke:none;stop-color:#000000"
       x="461.50656"
       y="2902.6309"
       id="text51"><tspan
         sodipodi:role="line"
         id="tspan51"
         style="stroke-width:3.77952"
         x="461.50656"
         y="2902.6309">ɩ<tspan
   style="font-size:65%;baseline-shift:sub"
   id="tspan50">A</tspan></tspan></text><text
       xml:space="preserve"
       style="font-size:4px;line-height:4.99999px;font-family:'Liberation Mono', monospace;-inkscape-font-specification:'Liberation Mono, monospace';text-decoration-color:#000000;fill:#000000;stroke-width:3.77952;-inkscape-stroke:none;stop-color:#000000"
       x="440.99582"
       y="2956.1201"
       id="text52"><tspan
         sodipodi:role="line"
         id="tspan52"
         style="stroke-width:3.77952"
         x="440.99582"
         y="2956.1201">A+A</tspan></text><path
       style="font-variation-settings:normal;vector-effect:none;fill:none;fill-opacity:1;stroke:#000000;stroke-width:0.499999;stroke-linecap:butt;stroke-linejoin:miter;stroke-miterlimit:4;stroke-dasharray:none;stroke-dashoffset:0;stroke-opacity:1;-inkscape-stroke:none;marker-end:url(#Arrow1_Fnone_S-000000-5);stop-color:#000000"
       d="m 475.49584,2954.6202 h -25"
       id="path52"
       sodipodi:nodetypes="cc" /><text
       xml:space="preserve"
       style="font-size:4px;line-height:4.99999px;font-family:'Liberation Mono', monospace;-inkscape-font-specification:'Liberation Mono, monospace';text-decoration-color:#000000;fill:#000000;stroke-width:3.77952;-inkscape-stroke:none;stop-color:#000000"
       x="477.99582"
       y="2956.1201"
       id="text53"><tspan
         sodipodi:role="line"
         id="tspan53-3"
         style="stroke-width:3.77952"
         x="477.99582"
         y="2956.1201">A</tspan></text><path
       style="font-variation-settings:normal;fill:none;fill-opacity:1;stroke:#000000;stroke-width:0.5;stroke-linecap:butt;stroke-linejoin:miter;stroke-miterlimit:4;stroke-dasharray:1.5, 1.5;stroke-dashoffset:0;stroke-opacity:1;marker-end:url(#Arrow1_Fnone_S-000000-5);stop-color:#000000"
       d="m 445.75656,2957.3809 v 23"
       id="path53"
       sodipodi:nodetypes="cc" /><path
       style="font-variation-settings:normal;vector-effect:none;fill:none;fill-opacity:1;stroke:#000000;stroke-width:0.499999;stroke-linecap:butt;stroke-linejoin:miter;stroke-miterlimit:4;stroke-dasharray:none;stroke-dashoffset:0;stroke-opacity:1;-inkscape-stroke:none;marker-end:url(#Arrow1_Fnone_S-000000-5);stop-color:#000000"
       d="m 477.87857,2958.1202 -29.26541,24.5"
       id="path54"
       sodipodi:nodetypes="cc" /><text
       xml:space="preserve"
       style="font-size:4px;line-height:4.99999px;font-family:'Liberation Mono', monospace;-inkscape-font-specification:'Liberation Mono, monospace';text-decoration-color:#000000;fill:#000000;stroke-width:3.77952;-inkscape-stroke:none;stop-color:#000000"
       x="443.49582"
       y="2985.1201"
       id="text54"><tspan
         sodipodi:role="line"
         id="tspan54"
         style="stroke-width:3.77952"
         x="443.49582"
         y="2985.1201">∅</tspan></text><text
       xml:space="preserve"
       style="font-size:4px;line-height:4.99999px;font-family:'Liberation Mono', monospace;-inkscape-font-specification:'Liberation Mono, monospace';text-decoration-color:#000000;fill:#000000;stroke-width:3.77952;-inkscape-stroke:none;stop-color:#000000"
       x="445.99582"
       y="2962.1201"
       id="text57"><tspan
         sodipodi:role="line"
         id="tspan57"
         style="stroke-width:3.77952"
         x="445.99582"
         y="2962.1201">[id<tspan
   style="font-size:65%;baseline-shift:sub"
   id="tspan55">A</tspan>,id<tspan
   style="font-size:65%;baseline-shift:sub"
   id="tspan56">A</tspan>]</tspan></text><text
       xml:space="preserve"
       style="font-size:4px;line-height:4.99999px;font-family:'Liberation Mono', monospace;-inkscape-font-specification:'Liberation Mono, monospace';text-decoration-color:#000000;fill:#000000;stroke-width:3.77952;-inkscape-stroke:none;stop-color:#000000"
       x="462.49582"
       y="2974.1201"
       id="text59"><tspan
         sodipodi:role="line"
         id="tspan59"
         style="stroke-width:3.77952"
         x="462.49582"
         y="2974.1201">id<tspan
   style="font-size:65%;baseline-shift:sub"
   id="tspan58">A</tspan></tspan></text><path
       style="font-variation-settings:normal;vector-effect:none;fill:none;fill-opacity:1;stroke:#000000;stroke-width:0.499999;stroke-linecap:butt;stroke-linejoin:miter;stroke-miterlimit:4;stroke-dasharray:none;stroke-dashoffset:0;stroke-opacity:1;-inkscape-stroke:none;marker-end:url(#Arrow1_Fnone_S-000000-5);stop-color:#000000"
       d="m 414.01729,2954.6202 h 25"
       id="path59"
       sodipodi:nodetypes="cc" /><path
       style="font-variation-settings:normal;vector-effect:none;fill:none;fill-opacity:1;stroke:#000000;stroke-width:0.499999;stroke-linecap:butt;stroke-linejoin:miter;stroke-miterlimit:4;stroke-dasharray:none;stroke-dashoffset:0;stroke-opacity:1;-inkscape-stroke:none;marker-end:url(#Arrow1_Fnone_S-000000-5);stop-color:#000000"
       d="m 411.9067,2958.1202 29.26541,24.5"
       id="path60"
       sodipodi:nodetypes="cc" /><text
       xml:space="preserve"
       style="font-size:4px;line-height:4.99999px;font-family:'Liberation Mono', monospace;-inkscape-font-specification:'Liberation Mono, monospace';text-decoration-color:#000000;fill:#000000;stroke-width:3.77952;-inkscape-stroke:none;stop-color:#000000"
       x="409.99582"
       y="2956.1201"
       id="text60"><tspan
         sodipodi:role="line"
         id="tspan60"
         style="stroke-width:3.77952"
         x="409.99582"
         y="2956.1201">A</tspan></text><text
       xml:space="preserve"
       style="font-size:4px;line-height:4.99999px;font-family:'Liberation Mono', monospace;-inkscape-font-specification:'Liberation Mono, monospace';text-decoration-color:#000000;fill:#000000;stroke-width:3.77952;-inkscape-stroke:none;stop-color:#000000"
       x="419.49582"
       y="2972.6201"
       id="text62"><tspan
         sodipodi:role="line"
         id="tspan62"
         style="stroke-width:3.77952"
         x="419.49582"
         y="2972.6201">id<tspan
   style="font-size:65%;baseline-shift:sub"
   id="tspan61">A</tspan></tspan></text><text
       xml:space="preserve"
       style="font-size:4px;line-height:4.99999px;font-family:'Liberation Mono', monospace;-inkscape-font-specification:'Liberation Mono, monospace';text-decoration-color:#000000;fill:#000000;stroke-width:3.77952;-inkscape-stroke:none;stop-color:#000000"
       x="424.50656"
       y="2952.6309"
       id="text64"><tspan
         sodipodi:role="line"
         id="tspan64"
         style="stroke-width:3.77952"
         x="424.50656"
         y="2952.6309">ɩ<tspan
   style="font-size:65%;baseline-shift:sub"
   id="tspan63">A</tspan></tspan></text><text
       xml:space="preserve"
       style="font-size:4px;line-height:4.99999px;font-family:'Liberation Mono', monospace;-inkscape-font-specification:'Liberation Mono, monospace';text-decoration-color:#000000;fill:#000000;stroke-width:3.77952;-inkscape-stroke:none;stop-color:#000000"
       x="461.50656"
       y="2952.6309"
       id="text66"><tspan
         sodipodi:role="line"
         id="tspan66"
         style="stroke-width:3.77952"
         x="461.50656"
         y="2952.6309">ɩ<tspan
   style="font-size:65%;baseline-shift:sub"
   id="tspan65">A</tspan></tspan></text><path
       style="font-variation-settings:normal;fill:none;fill-opacity:1;stroke:#000000;stroke-width:0.5;stroke-linecap:butt;stroke-linejoin:miter;stroke-miterlimit:4;stroke-dasharray:1.5, 1.5;stroke-dashoffset:0;stroke-opacity:1;marker-end:url(#Arrow1_Fnone_S-000000-5);stop-color:#000000"
       d="m 443.75656,2980.8595 v -23"
       id="path66"
       sodipodi:nodetypes="cc" /><path
       style="font-variation-settings:normal;vector-effect:none;fill:none;fill-opacity:1;stroke:#000000;stroke-width:0.5;stroke-linecap:butt;stroke-linejoin:miter;stroke-miterlimit:4;stroke-dasharray:1.5, 1.5;stroke-dashoffset:0;stroke-opacity:1;-inkscape-stroke:none;marker-end:url(#Arrow1_Fnone_S-000000-5);stop-color:#000000"
       d="m 442.37857,2980.9451 -29.26541,-24.5"
       id="path68"
       sodipodi:nodetypes="cc" /><path
       style="font-variation-settings:normal;vector-effect:none;fill:none;fill-opacity:1;stroke:#000000;stroke-width:0.5;stroke-linecap:butt;stroke-linejoin:miter;stroke-miterlimit:4;stroke-dasharray:1.5, 1.5;stroke-dashoffset:0;stroke-opacity:1;-inkscape-stroke:none;marker-end:url(#Arrow1_Fnone_S-000000-5);stop-color:#000000"
       d="m 447.4067,2980.9451 29.26541,-24.5"
       id="path69"
       sodipodi:nodetypes="cc" /><text
       xml:space="preserve"
       style="font-size:4px;line-height:4.99999px;font-family:'Liberation Mono', monospace;-inkscape-font-specification:'Liberation Mono, monospace';text-decoration-color:#000000;fill:#000000;stroke-width:3.77952;-inkscape-stroke:none;stop-color:#000000"
       x="453.49582"
       y="2970.6201"
       id="text70"><tspan
         sodipodi:role="line"
         id="tspan70"
         style="stroke-width:3.77952"
         x="453.49582"
         y="2970.6201">!<tspan
   style="font-size:65%;baseline-shift:sub"
   id="tspan69">A</tspan></tspan></text><text
       xml:space="preserve"
       style="font-size:4px;line-height:4.99999px;font-family:'Liberation Mono', monospace;-inkscape-font-specification:'Liberation Mono, monospace';text-decoration-color:#000000;fill:#000000;stroke-width:3.77952;-inkscape-stroke:none;stop-color:#000000"
       x="422.99582"
       y="2963.6201"
       id="text72"><tspan
         sodipodi:role="line"
         id="tspan72"
         style="stroke-width:3.77952"
         x="422.99582"
         y="2963.6201">!<tspan
   style="font-size:65%;baseline-shift:sub"
   id="tspan71">A</tspan></tspan></text><text
       xml:space="preserve"
       style="font-size:4px;line-height:4.99999px;font-family:'Liberation Mono', monospace;-inkscape-font-specification:'Liberation Mono, monospace';text-decoration-color:#000000;fill:#000000;stroke-width:3.77952;-inkscape-stroke:none;stop-color:#000000"
       x="434.99582"
       y="2967.6201"
       id="text74"><tspan
         sodipodi:role="line"
         id="tspan74"
         style="stroke-width:3.77952"
         x="434.99582"
         y="2967.6201">!<tspan
   style="font-size:65%;baseline-shift:sub"
   id="tspan73">A+A</tspan></tspan></text><text
       xml:space="preserve"
       style="font-size:4px;line-height:4.99999px;font-family:'Liberation Mono', monospace;-inkscape-font-specification:'Liberation Mono, monospace';text-decoration-color:#000000;fill:#000000;stroke-width:3.77952;-inkscape-stroke:none;stop-color:#000000"
       x="440.99582"
       y="2821.1201"
       id="text75"><tspan
         sodipodi:role="line"
         id="tspan75"
         style="stroke-width:3.77952"
         x="440.99582"
         y="2821.1201">A+∅</tspan></text><path
       style="font-variation-settings:normal;vector-effect:none;fill:none;fill-opacity:1;stroke:#000000;stroke-width:0.5;stroke-linecap:butt;stroke-linejoin:miter;stroke-miterlimit:4;stroke-dasharray:1.5, 1.5;stroke-dashoffset:0;stroke-opacity:1;-inkscape-stroke:none;marker-end:url(#Arrow1_Fnone_S-000000-5);stop-color:#000000"
       d="m 475.49584,2819.6202 h -25"
       id="path75"
       sodipodi:nodetypes="cc" /><text
       xml:space="preserve"
       style="font-size:4px;line-height:4.99999px;font-family:'Liberation Mono', monospace;-inkscape-font-specification:'Liberation Mono, monospace';text-decoration-color:#000000;fill:#000000;stroke-width:3.77952;-inkscape-stroke:none;stop-color:#000000"
       x="477.99582"
       y="2821.1201"
       id="text76"><tspan
         sodipodi:role="line"
         id="tspan76"
         style="stroke-width:3.77952"
         x="477.99582"
         y="2821.1201">∅</tspan></text><path
       style="font-variation-settings:normal;fill:none;fill-opacity:1;stroke:#000000;stroke-width:0.5;stroke-linecap:butt;stroke-linejoin:miter;stroke-miterlimit:4;stroke-dasharray:1.5, 1.5;stroke-dashoffset:0;stroke-opacity:1;marker-end:url(#Arrow1_Fnone_S-000000-5);stop-color:#000000"
       d="m 444.75656,2822.3809 v 23"
       id="path76"
       sodipodi:nodetypes="cc" /><path
       style="font-variation-settings:normal;vector-effect:none;fill:none;fill-opacity:1;stroke:#000000;stroke-width:0.499999;stroke-linecap:butt;stroke-linejoin:miter;stroke-miterlimit:4;stroke-dasharray:1.5, 1.5;stroke-dashoffset:0;stroke-opacity:1;-inkscape-stroke:none;marker-end:url(#Arrow1_Fnone_S-000000-5);stop-color:#000000"
       d="m 476.87857,2822.1202 -29.26541,24.5"
       id="path77"
       sodipodi:nodetypes="cc" /><text
       xml:space="preserve"
       style="font-size:4px;line-height:4.99999px;font-family:'Liberation Mono', monospace;-inkscape-font-specification:'Liberation Mono, monospace';text-decoration-color:#000000;fill:#000000;stroke-width:3.77952;-inkscape-stroke:none;stop-color:#000000"
       x="443.49582"
       y="2850.1201"
       id="text77"><tspan
         sodipodi:role="line"
         id="tspan77"
         style="stroke-width:3.77952"
         x="443.49582"
         y="2850.1201">∅</tspan></text><text
       xml:space="preserve"
       style="font-size:4px;line-height:4.99999px;font-family:'Liberation Mono', monospace;-inkscape-font-specification:'Liberation Mono, monospace';text-decoration-color:#000000;fill:#000000;stroke-width:3.77952;-inkscape-stroke:none;stop-color:#000000"
       x="444.99582"
       y="2827.6201"
       id="text80"><tspan
         sodipodi:role="line"
         id="tspan80"
         style="stroke-width:3.77952"
         x="444.99582"
         y="2827.6201">[f,!<tspan
   style="font-size:65%;baseline-shift:sub"
   id="tspan79">∅</tspan>]</tspan></text><text
       xml:space="preserve"
       style="font-size:4px;line-height:4.99999px;font-family:'Liberation Mono', monospace;-inkscape-font-specification:'Liberation Mono, monospace';text-decoration-color:#000000;fill:#000000;stroke-width:3.77952;-inkscape-stroke:none;stop-color:#000000"
       x="461.49582"
       y="2838.1201"
       id="text82"><tspan
         sodipodi:role="line"
         id="tspan82"
         style="stroke-width:3.77952"
         x="461.49582"
         y="2838.1201">!<tspan
   style="font-size:65%;baseline-shift:sub"
   id="tspan81">∅</tspan></tspan></text><path
       style="font-variation-settings:normal;vector-effect:none;fill:none;fill-opacity:1;stroke:#000000;stroke-width:0.499999;stroke-linecap:butt;stroke-linejoin:miter;stroke-miterlimit:4;stroke-dasharray:none;stroke-dashoffset:0;stroke-opacity:1;-inkscape-stroke:none;marker-end:url(#Arrow1_Fnone_S-000000-5);stop-color:#000000"
       d="m 414.01729,2819.6202 h 25"
       id="path82"
       sodipodi:nodetypes="cc" /><path
       style="font-variation-settings:normal;vector-effect:none;fill:none;fill-opacity:1;stroke:#000000;stroke-width:0.499999;stroke-linecap:butt;stroke-linejoin:miter;stroke-miterlimit:4;stroke-dasharray:none;stroke-dashoffset:0;stroke-opacity:1;-inkscape-stroke:none;marker-end:url(#Arrow1_Fnone_S-000000-5);stop-color:#000000"
       d="m 412.4067,2822.1202 29.26541,24.5"
       id="path83"
       sodipodi:nodetypes="cc" /><text
       xml:space="preserve"
       style="font-size:4px;line-height:4.99999px;font-family:'Liberation Mono', monospace;-inkscape-font-specification:'Liberation Mono, monospace';text-decoration-color:#000000;fill:#000000;stroke-width:3.77952;-inkscape-stroke:none;stop-color:#000000"
       x="409.99582"
       y="2821.1201"
       id="text83"><tspan
         sodipodi:role="line"
         id="tspan83"
         style="stroke-width:3.77952"
         x="409.99582"
         y="2821.1201">A</tspan></text><text
       xml:space="preserve"
       style="font-size:4px;line-height:4.99999px;font-family:'Liberation Mono', monospace;-inkscape-font-specification:'Liberation Mono, monospace';text-decoration-color:#000000;fill:#000000;stroke-width:3.77952;-inkscape-stroke:none;stop-color:#000000"
       x="422.49582"
       y="2837.1201"
       id="text85"><tspan
         sodipodi:role="line"
         id="tspan85"
         style="stroke-width:3.77952"
         x="422.49582"
         y="2837.1201">f</tspan></text><text
       xml:space="preserve"
       style="font-size:4px;line-height:4.99999px;font-family:'Liberation Mono', monospace;-inkscape-font-specification:'Liberation Mono, monospace';text-decoration-color:#000000;fill:#000000;stroke-width:3.77952;-inkscape-stroke:none;stop-color:#000000"
       x="424.50656"
       y="2817.6309"
       id="text87"><tspan
         sodipodi:role="line"
         id="tspan87"
         style="stroke-width:3.77952"
         x="424.50656"
         y="2817.6309">ɩ<tspan
   style="font-size:65%;baseline-shift:sub"
   id="tspan86">A</tspan></tspan></text><text
       xml:space="preserve"
       style="font-size:4px;line-height:4.99999px;font-family:'Liberation Mono', monospace;-inkscape-font-specification:'Liberation Mono, monospace';text-decoration-color:#000000;fill:#000000;stroke-width:3.77952;-inkscape-stroke:none;stop-color:#000000"
       x="455.00656"
       y="2817.6309"
       id="text91"><tspan
         sodipodi:role="line"
         id="tspan91"
         style="stroke-width:3.77952"
         x="455.00656"
         y="2817.6309">!<tspan
   style="font-size:65%;baseline-shift:sub"
   id="tspan88">A+∅ </tspan>=<tspan
   style="font-size:65%;baseline-shift:sub"
   id="tspan89"> </tspan>ɩ<tspan
   style="font-size:65%;baseline-shift:sub"
   id="tspan90">∅</tspan></tspan></text><text
       xml:space="preserve"
       style="font-size:4px;line-height:4.99999px;font-family:'Liberation Mono', monospace;-inkscape-font-specification:'Liberation Mono, monospace';text-decoration-color:#000000;fill:#000000;stroke-width:3.77952;-inkscape-stroke:none;stop-color:#000000"
       x="440.99582"
       y="2861.1201"
       id="text92"><tspan
         sodipodi:role="line"
         id="tspan92"
         style="stroke-width:3.77952"
         x="440.99582"
         y="2861.1201">A+∅</tspan></text><path
       style="font-variation-settings:normal;vector-effect:none;fill:none;fill-opacity:1;stroke:#000000;stroke-width:0.5;stroke-linecap:butt;stroke-linejoin:miter;stroke-miterlimit:4;stroke-dasharray:1.5, 1.5;stroke-dashoffset:0;stroke-opacity:1;-inkscape-stroke:none;marker-end:url(#Arrow1_Fnone_S-000000-5);stop-color:#000000"
       d="m 475.49584,2859.6202 h -25"
       id="path92"
       sodipodi:nodetypes="cc" /><text
       xml:space="preserve"
       style="font-size:4px;line-height:4.99999px;font-family:'Liberation Mono', monospace;-inkscape-font-specification:'Liberation Mono, monospace';text-decoration-color:#000000;fill:#000000;stroke-width:3.77952;-inkscape-stroke:none;stop-color:#000000"
       x="477.99582"
       y="2861.1201"
       id="text93"><tspan
         sodipodi:role="line"
         id="tspan93"
         style="stroke-width:3.77952"
         x="477.99582"
         y="2861.1201">∅</tspan></text><path
       style="font-variation-settings:normal;fill:none;fill-opacity:1;stroke:#000000;stroke-width:0.5;stroke-linecap:butt;stroke-linejoin:miter;stroke-miterlimit:4;stroke-dasharray:1.5, 1.5;stroke-dashoffset:0;stroke-opacity:1;marker-end:url(#Arrow1_Fnone_S-000000-5);stop-color:#000000"
       d="m 444.75656,2862.3809 v 23"
       id="path93"
       sodipodi:nodetypes="cc" /><path
       style="font-variation-settings:normal;vector-effect:none;fill:none;fill-opacity:1;stroke:#000000;stroke-width:0.499999;stroke-linecap:butt;stroke-linejoin:miter;stroke-miterlimit:4;stroke-dasharray:1.5, 1.5;stroke-dashoffset:0;stroke-opacity:1;-inkscape-stroke:none;marker-end:url(#Arrow1_Fnone_S-000000-5);stop-color:#000000"
       d="m 476.87857,2862.1202 -29.26541,24.5"
       id="path94"
       sodipodi:nodetypes="cc" /><text
       xml:space="preserve"
       style="font-size:4px;line-height:4.99999px;font-family:'Liberation Mono', monospace;-inkscape-font-specification:'Liberation Mono, monospace';text-decoration-color:#000000;fill:#000000;stroke-width:3.77952;-inkscape-stroke:none;stop-color:#000000"
       x="445.99582"
       y="2869.6201"
       id="text96"><tspan
         sodipodi:role="line"
         id="tspan96"
         style="stroke-width:3.77952"
         x="445.99582"
         y="2869.6201">id<tspan
   style="font-size:65%;baseline-shift:sub"
   id="tspan95">A+∅</tspan></tspan></text><path
       style="font-variation-settings:normal;vector-effect:none;fill:none;fill-opacity:1;stroke:#000000;stroke-width:0.499999;stroke-linecap:butt;stroke-linejoin:miter;stroke-miterlimit:4;stroke-dasharray:none;stroke-dashoffset:0;stroke-opacity:1;-inkscape-stroke:none;marker-end:url(#Arrow1_Fnone_S-000000-5);stop-color:#000000"
       d="m 414.01729,2859.6202 h 25"
       id="path98"
       sodipodi:nodetypes="cc" /><path
       style="font-variation-settings:normal;vector-effect:none;fill:none;fill-opacity:1;stroke:#000000;stroke-width:0.499999;stroke-linecap:butt;stroke-linejoin:miter;stroke-miterlimit:4;stroke-dasharray:none;stroke-dashoffset:0;stroke-opacity:1;-inkscape-stroke:none;marker-end:url(#Arrow1_Fnone_S-000000-5);stop-color:#000000"
       d="m 412.4067,2862.1202 29.26541,24.5"
       id="path99"
       sodipodi:nodetypes="cc" /><text
       xml:space="preserve"
       style="font-size:4px;line-height:4.99999px;font-family:'Liberation Mono', monospace;-inkscape-font-specification:'Liberation Mono, monospace';text-decoration-color:#000000;fill:#000000;stroke-width:3.77952;-inkscape-stroke:none;stop-color:#000000"
       x="409.99582"
       y="2861.1201"
       id="text99"><tspan
         sodipodi:role="line"
         id="tspan99"
         style="stroke-width:3.77952"
         x="409.99582"
         y="2861.1201">A</tspan></text><text
       xml:space="preserve"
       style="font-size:4px;line-height:4.99999px;font-family:'Liberation Mono', monospace;-inkscape-font-specification:'Liberation Mono, monospace';text-decoration-color:#000000;fill:#000000;stroke-width:3.77952;-inkscape-stroke:none;stop-color:#000000"
       x="424.50656"
       y="2857.6309"
       id="text102"><tspan
         sodipodi:role="line"
         id="tspan102"
         style="stroke-width:3.77952"
         x="424.50656"
         y="2857.6309">ɩ<tspan
   style="font-size:65%;baseline-shift:sub"
   id="tspan101">A</tspan></tspan></text><text
       xml:space="preserve"
       style="font-size:4px;line-height:4.99999px;font-family:'Liberation Mono', monospace;-inkscape-font-specification:'Liberation Mono, monospace';text-decoration-color:#000000;fill:#000000;stroke-width:3.77952;-inkscape-stroke:none;stop-color:#000000"
       x="455.00656"
       y="2857.6309"
       id="text106"><tspan
         sodipodi:role="line"
         id="tspan106"
         style="stroke-width:3.77952"
         x="455.00656"
         y="2857.6309">!<tspan
   style="font-size:65%;baseline-shift:sub"
   id="tspan103-1">A+∅ </tspan>=<tspan
   style="font-size:65%;baseline-shift:sub"
   id="tspan104-1"> </tspan>ɩ<tspan
   style="font-size:65%;baseline-shift:sub"
   id="tspan105-0">∅</tspan></tspan></text><text
       xml:space="preserve"
       style="font-size:4px;line-height:4.99999px;font-family:'Liberation Mono', monospace;-inkscape-font-specification:'Liberation Mono, monospace';text-decoration-color:#000000;fill:#000000;stroke-width:3.77952;-inkscape-stroke:none;stop-color:#000000"
       x="440.99582"
       y="2891.1201"
       id="text107"><tspan
         sodipodi:role="line"
         id="tspan107"
         style="stroke-width:3.77952"
         x="440.99582"
         y="2891.1201">A+∅</tspan></text><text
       xml:space="preserve"
       style="font-size:4px;line-height:4.99999px;font-family:'Liberation Mono', monospace;-inkscape-font-specification:'Liberation Mono, monospace';text-decoration-color:#000000;fill:#000000;stroke-width:3.77952;-inkscape-stroke:none;stop-color:#000000"
       x="423.00656"
       y="2877.1309"
       id="text109"><tspan
         sodipodi:role="line"
         id="tspan109"
         style="stroke-width:3.77952"
         x="423.00656"
         y="2877.1309">ɩ<tspan
   style="font-size:65%;baseline-shift:sub"
   id="tspan108">A</tspan></tspan></text><text
       xml:space="preserve"
       style="font-size:4px;line-height:4.99999px;font-family:'Liberation Mono', monospace;-inkscape-font-specification:'Liberation Mono, monospace';text-decoration-color:#000000;fill:#000000;stroke-width:3.77952;-inkscape-stroke:none;stop-color:#000000"
       x="463.00656"
       y="2877.1309"
       id="text111"><tspan
         sodipodi:role="line"
         id="tspan111"
         style="stroke-width:3.77952"
         x="463.00656"
         y="2877.1309">ɩ<tspan
   style="font-size:65%;baseline-shift:sub"
   id="tspan110">∅</tspan></tspan></text></g></svg>
