<?xml version="1.0" encoding="UTF-8" standalone="no"?>
<!-- Created with Inkscape (http://www.inkscape.org/) -->

<svg
   width="52.259762mm"
   height="17.634842mm"
   viewBox="0 0 52.259762 17.634842"
   version="1.1"
   id="svg1820"
   inkscape:version="1.3 (1:1.3+202307231459+0e150ed6c4)"
   sodipodi:docname="public-paper-alternative.svg"
   xml:space="preserve"
   inkscape:export-filename="ssc/exercise-6-63-1.svg"
   inkscape:export-xdpi="96"
   inkscape:export-ydpi="96"
   xmlns:inkscape="http://www.inkscape.org/namespaces/inkscape"
   xmlns:sodipodi="http://sodipodi.sourceforge.net/DTD/sodipodi-0.dtd"
   xmlns="http://www.w3.org/2000/svg"
   xmlns:svg="http://www.w3.org/2000/svg"><sodipodi:namedview
     id="namedview1822"
     pagecolor="#ffffff"
     bordercolor="#666666"
     borderopacity="1.0"
     inkscape:showpageshadow="2"
     inkscape:pageopacity="0.0"
     inkscape:pagecheckerboard="0"
     inkscape:deskcolor="#d1d1d1"
     inkscape:document-units="mm"
     showgrid="true"
     inkscape:zoom="1.4142136"
     inkscape:cx="1689.9852"
     inkscape:cy="10328.355"
     inkscape:window-width="1368"
     inkscape:window-height="2496"
     inkscape:window-x="72"
     inkscape:window-y="27"
     inkscape:window-maximized="1"
     inkscape:current-layer="layer1"
     showguides="true"><inkscape:grid
       type="axonomgrid"
       id="grid18583"
       visible="true"
       originx="-1715.2815"
       originy="-10663.428"
       enabled="false"
       spacingy="1"
       gridanglex="30"
       gridanglez="30"
       units="mm" /><inkscape:grid
       type="xygrid"
       id="grid313765"
       enabled="true"
       units="mm"
       spacingx="1"
       spacingy="1"
       originx="-1715.2815"
       originy="-10663.428"
       dotted="false"
       visible="true" /></sodipodi:namedview><defs
     id="defs1817"><marker
       style="overflow:visible"
       id="ArrowWide_Fnone_S-000000"
       refX="0"
       refY="0"
       orient="auto-start-reverse"
       inkscape:stockid="Wide arrow"
       markerWidth="1"
       markerHeight="1"
       viewBox="0 0 1 1"
       inkscape:isstock="true"
       inkscape:collect="always"
       preserveAspectRatio="xMidYMid"><path
         style="fill:none;stroke:#000000;stroke-width:1;stroke-linecap:butt"
         d="M 3,-3 0,0 3,3"
         transform="rotate(180,0.125,0)"
         sodipodi:nodetypes="ccc"
         id="path2" /></marker></defs><g
     inkscape:label="Layer 1"
     inkscape:groupmode="layer"
     id="layer1"
     transform="translate(-453.8349,-2821.3653)"><rect
       style="font-variation-settings:normal;opacity:1;fill:none;fill-opacity:1;fill-rule:evenodd;stroke:#e6e6e6;stroke-width:0.5;stroke-linecap:butt;stroke-linejoin:miter;stroke-miterlimit:4;stroke-dasharray:none;stroke-dashoffset:0;stroke-opacity:1;stop-color:#000000;stop-opacity:1"
       id="rect1481"
       width="208"
       height="48"
       x="12"
       y="7" /><text
       xml:space="preserve"
       style="font-style:normal;font-variant:normal;font-weight:normal;font-stretch:normal;font-size:4px;line-height:4.99999px;font-family:'Liberation Sans', sans-serif;-inkscape-font-specification:'Liberation Sans, sans-serif';text-decoration-color:#000000;white-space:pre;shape-inside:url(#rect1481);display:inline;fill:#000000;stroke-width:3.77952;stop-color:#000000"
       x="30.093462"
       y="39.661663"
       id="text1498"><tspan
         x="12"
         y="10.61273"
         id="tspan2">Prefer to rich text in this document, in <tspan
   style="font-style:italic"
   id="tspan1">increasing</tspan> order of preference:&#10;</tspan><tspan
         x="12"
         y="15.612719"
         id="tspan3">1. private-observations.md&#10;</tspan><tspan
         x="12"
         y="20.61271"
         id="tspan4">2. observations.md&#10;</tspan><tspan
         x="12"
         y="25.6127"
         id="tspan5">3. Some more specific document (e.g. refactor-code.md)</tspan></text><g
       id="g82"><text
         xml:space="preserve"
         style="font-size:4px;line-height:4.99999px;font-family:'Liberation Mono', monospace;-inkscape-font-specification:'Liberation Mono, monospace';text-decoration-color:#000000;fill:#000000;stroke-width:3.77952;-inkscape-stroke:none;stop-color:#000000"
         x="453.76459"
         y="2839"
         id="text54"><tspan
           sodipodi:role="line"
           id="tspan54"
           style="stroke-width:3.77952"
           x="453.76459"
           y="2839">X</tspan></text><text
         xml:space="preserve"
         style="font-size:4px;line-height:4.99999px;font-family:'Liberation Mono', monospace;-inkscape-font-specification:'Liberation Mono, monospace';text-decoration-color:#000000;fill:#000000;stroke-width:3.77952;-inkscape-stroke:none;stop-color:#000000"
         x="478.76459"
         y="2824"
         id="text55"><tspan
           sodipodi:role="line"
           id="tspan55"
           style="stroke-width:3.77952"
           x="478.76459"
           y="2824">X</tspan></text><path
         style="font-variation-settings:normal;opacity:1;vector-effect:none;fill:none;fill-opacity:1;stroke:#000000;stroke-width:0.499999;stroke-linecap:butt;stroke-linejoin:miter;stroke-miterlimit:4;stroke-dasharray:none;stroke-dashoffset:0;stroke-opacity:1;-inkscape-stroke:none;marker-end:url(#ArrowWide_Fnone_S-000000);stop-color:#000000;stop-opacity:1"
         d="m 457.50001,2836.5 19.99998,-11.9999"
         id="path55"
         sodipodi:nodetypes="cc" /><path
         style="font-variation-settings:normal;opacity:1;vector-effect:none;fill:none;fill-opacity:1;stroke:#000000;stroke-width:0.499999;stroke-linecap:butt;stroke-linejoin:miter;stroke-miterlimit:4;stroke-dasharray:none;stroke-dashoffset:0;stroke-opacity:1;-inkscape-stroke:none;marker-end:url(#ArrowWide_Fnone_S-000000);stop-color:#000000;stop-opacity:1"
         d="m 502.79023,2836.5 -19.99998,-11.9999"
         id="path56"
         sodipodi:nodetypes="cc" /><text
         xml:space="preserve"
         style="font-size:4px;line-height:4.99999px;font-family:'Liberation Mono', monospace;-inkscape-font-specification:'Liberation Mono, monospace';text-decoration-color:#000000;fill:#000000;stroke-width:3.77952;-inkscape-stroke:none;stop-color:#000000"
         x="503.76459"
         y="2839"
         id="text56"><tspan
           sodipodi:role="line"
           id="tspan56"
           style="stroke-width:3.77952"
           x="503.76459"
           y="2839">X</tspan></text><text
         xml:space="preserve"
         style="font-size:4px;line-height:4.99999px;font-family:'Liberation Mono', monospace;-inkscape-font-specification:'Liberation Mono, monospace';text-decoration-color:#000000;fill:#000000;stroke-width:3.77952;-inkscape-stroke:none;stop-color:#000000"
         x="493"
         y="2829"
         id="text57"><tspan
           sodipodi:role="line"
           id="tspan57"
           style="stroke-width:3.77952"
           x="493"
           y="2829">id<tspan
   style="font-size:65%;baseline-shift:sub"
   id="tspan58">X</tspan></tspan></text><text
         xml:space="preserve"
         style="font-size:4px;line-height:4.99999px;font-family:'Liberation Mono', monospace;-inkscape-font-specification:'Liberation Mono, monospace';text-decoration-color:#000000;fill:#000000;stroke-width:3.77952;-inkscape-stroke:none;stop-color:#000000"
         x="461"
         y="2828.5"
         id="text60"><tspan
           sodipodi:role="line"
           id="tspan60"
           style="stroke-width:3.77952"
           x="461"
           y="2828.5">id<tspan
   style="font-size:65%;baseline-shift:sub"
   id="tspan59">X</tspan></tspan></text></g></g></svg>
