<?xml version="1.0" encoding="UTF-8" standalone="no"?>
<!-- Created with Inkscape (http://www.inkscape.org/) -->

<svg
   width="175.68919mm"
   height="125.99194mm"
   viewBox="0 0 175.68919 125.99194"
   version="1.1"
   id="svg1820"
   inkscape:version="1.2.2 (1:1.2.2+202212051550+b0a8486541)"
   sodipodi:docname="public-paper-alternative.svg"
   xml:space="preserve"
   xmlns:inkscape="http://www.inkscape.org/namespaces/inkscape"
   xmlns:sodipodi="http://sodipodi.sourceforge.net/DTD/sodipodi-0.dtd"
   xmlns="http://www.w3.org/2000/svg"
   xmlns:svg="http://www.w3.org/2000/svg"><sodipodi:namedview
     id="namedview1822"
     pagecolor="#ffffff"
     bordercolor="#666666"
     borderopacity="1.0"
     inkscape:showpageshadow="2"
     inkscape:pageopacity="0.0"
     inkscape:pagecheckerboard="0"
     inkscape:deskcolor="#d1d1d1"
     inkscape:document-units="mm"
     showgrid="true"
     inkscape:zoom="1.0916217"
     inkscape:cx="480.93583"
     inkscape:cy="2764.694"
     inkscape:window-width="1368"
     inkscape:window-height="2496"
     inkscape:window-x="72"
     inkscape:window-y="27"
     inkscape:window-maximized="1"
     inkscape:current-layer="layer1"><inkscape:grid
       type="axonomgrid"
       id="grid18583"
       visible="true"
       originx="0"
       originy="0"
       enabled="false" /><inkscape:grid
       type="xygrid"
       id="grid313765"
       enabled="false"
       units="mm"
       spacingx="1"
       spacingy="1"
       originx="0"
       originy="0" /></sodipodi:namedview><defs
     id="defs1817"><marker
       style="overflow:visible"
       id="marker25583"
       refX="0"
       refY="0"
       orient="auto-start-reverse"
       inkscape:stockid="Arrow1"
       markerWidth="4.0606599"
       markerHeight="6.7071066"
       viewBox="0 0 4.0606602 6.7071068"
       inkscape:isstock="true"
       inkscape:collect="always"
       preserveAspectRatio="xMidYMid"><path
         style="fill:none;stroke:context-stroke;stroke-width:1;stroke-linecap:butt"
         d="M 3,-3 0,0 3,3"
         id="path25581"
         transform="rotate(180,0.125,0)"
         sodipodi:nodetypes="ccc" /></marker><marker
       style="overflow:visible"
       id="marker25583_Fnone_S-000000"
       refX="0"
       refY="0"
       orient="auto-start-reverse"
       inkscape:stockid="Arrow1"
       markerWidth="4.0606599"
       markerHeight="6.7071066"
       viewBox="0 0 4.0606602 6.7071068"
       inkscape:isstock="true"
       inkscape:collect="always"
       preserveAspectRatio="xMidYMid"><path
         style="fill:none;stroke:#000000;stroke-width:1;stroke-linecap:butt"
         d="M 3,-3 0,0 3,3"
         id="path59204"
         transform="rotate(180,0.125,0)"
         sodipodi:nodetypes="ccc" /></marker></defs><g
     inkscape:label="Layer 1"
     inkscape:groupmode="layer"
     id="layer1"
     transform="translate(-24.396251,-727.75882)"><g
       id="g57526"><rect
         style="font-variation-settings:normal;vector-effect:none;fill:none;fill-opacity:1;fill-rule:evenodd;stroke:#000000;stroke-width:0.498223;stroke-linecap:butt;stroke-linejoin:miter;stroke-miterlimit:4;stroke-dasharray:none;stroke-dashoffset:0;stroke-opacity:1;-inkscape-stroke:none;stop-color:#000000"
         id="rect30969"
         width="69.501778"
         height="29.813086"
         x="34.439465"
         y="766.49915"
         ry="2.5838249"
         rx="2.5653737" /><text
         xml:space="preserve"
         style="font-size:4px;line-height:4.99999px;font-family:'Liberation Mono', monospace;-inkscape-font-specification:'Liberation Mono, monospace';text-decoration-color:#000000;fill:#000000;stroke-width:3.77952;-inkscape-stroke:none;stop-color:#000000"
         x="53.894272"
         y="792.75787"
         id="text30973"><tspan
           sodipodi:role="line"
           id="tspan30971"
           style="stroke-width:3.77952"
           x="53.894272"
           y="792.75787">1</tspan></text><text
         xml:space="preserve"
         style="font-size:4px;line-height:4.99999px;font-family:'Liberation Mono', monospace;-inkscape-font-specification:'Liberation Mono, monospace';text-decoration-color:#000000;fill:#000000;stroke-width:3.77952;-inkscape-stroke:none;stop-color:#000000"
         x="83.894272"
         y="792.75787"
         id="text30977"><tspan
           sodipodi:role="line"
           id="tspan30975"
           style="stroke-width:3.77952"
           x="83.894272"
           y="792.75787">2</tspan></text><rect
         style="font-variation-settings:normal;vector-effect:none;fill:none;fill-opacity:1;fill-rule:evenodd;stroke:#000000;stroke-width:0.477403;stroke-linecap:butt;stroke-linejoin:miter;stroke-miterlimit:4;stroke-dasharray:none;stroke-dashoffset:0;stroke-opacity:1;-inkscape-stroke:none;stop-color:#000000"
         id="rect31769"
         width="80.010956"
         height="101.5226"
         x="29.634953"
         y="745.4975"
         ry="1.9409856"
         rx="2.1296585" /><path
         style="font-variation-settings:normal;vector-effect:none;fill:none;fill-opacity:1;stroke:#000000;stroke-width:0.499999;stroke-linecap:butt;stroke-linejoin:miter;stroke-miterlimit:4;stroke-dasharray:none;stroke-dashoffset:0;stroke-opacity:1;-inkscape-stroke:none;marker-end:url(#marker25583_Fnone_S-000000);stop-color:#000000"
         d="m 70.703629,765.7165 1.607685,-4.78458 h -6.98908 l 1.730328,4.49701"
         id="path31771"
         sodipodi:nodetypes="cccc" /><text
         xml:space="preserve"
         style="font-size:4px;line-height:4.99999px;font-family:'Liberation Mono', monospace;-inkscape-font-specification:'Liberation Mono, monospace';text-decoration-color:#000000;fill:#000000;stroke-width:3.77952;-inkscape-stroke:none;stop-color:#000000"
         x="58.63134"
         y="758.84723"
         id="text34414"><tspan
           sodipodi:role="line"
           id="tspan34412"
           style="stroke-width:3.77952"
           x="58.63134"
           y="758.84723">id(η(F))</tspan></text><text
         xml:space="preserve"
         style="font-size:4px;line-height:4.99999px;font-family:'Liberation Mono', monospace;-inkscape-font-specification:'Liberation Mono, monospace';text-decoration-color:#000000;fill:#000000;stroke-width:3.77952;-inkscape-stroke:none;stop-color:#000000"
         x="50.268204"
         y="750.87531"
         id="text34418"><tspan
           sodipodi:role="line"
           id="tspan34416"
           style="stroke-width:3.77952"
           x="50.268204"
           y="750.87531">context of id(η)</tspan></text><path
         style="font-variation-settings:normal;vector-effect:none;fill:none;fill-opacity:1;stroke:#000000;stroke-width:0.499999;stroke-linecap:butt;stroke-linejoin:miter;stroke-miterlimit:4;stroke-dasharray:none;stroke-dashoffset:0;stroke-opacity:1;-inkscape-stroke:none;marker-end:url(#marker25583_Fnone_S-000000);stop-color:#000000"
         d="m 56.703629,787.7165 1.607685,-4.78458 h -6.98908 l 1.730328,4.49701"
         id="path34422"
         sodipodi:nodetypes="cccc" /><text
         xml:space="preserve"
         style="font-size:4px;line-height:4.99999px;font-family:'Liberation Mono', monospace;-inkscape-font-specification:'Liberation Mono, monospace';text-decoration-color:#000000;fill:#000000;stroke-width:3.77952;-inkscape-stroke:none;stop-color:#000000"
         x="39.63134"
         y="780.84723"
         id="text34426"><tspan
           sodipodi:role="line"
           id="tspan34424"
           style="stroke-width:3.77952"
           x="39.63134"
           y="780.84723">id(η(F(1)))</tspan></text><path
         style="font-variation-settings:normal;vector-effect:none;fill:none;fill-opacity:1;stroke:#000000;stroke-width:0.499999;stroke-linecap:butt;stroke-linejoin:miter;stroke-miterlimit:4;stroke-dasharray:none;stroke-dashoffset:0;stroke-opacity:1;-inkscape-stroke:none;marker-end:url(#marker25583_Fnone_S-000000);stop-color:#000000"
         d="m 70.703629,744.2165 1.607685,-4.78458 h -6.98908 l 1.730328,4.49701"
         id="path35224"
         sodipodi:nodetypes="cccc" /><text
         xml:space="preserve"
         style="font-size:4px;line-height:4.99999px;font-family:'Liberation Mono', monospace;-inkscape-font-specification:'Liberation Mono, monospace';text-decoration-color:#000000;fill:#000000;stroke-width:3.77952;-inkscape-stroke:none;stop-color:#000000"
         x="63.13134"
         y="737.34723"
         id="text35228"><tspan
           sodipodi:role="line"
           id="tspan35226"
           style="stroke-width:3.77952"
           x="63.13134"
           y="737.34723">id(η)</tspan></text><path
         style="font-variation-settings:normal;vector-effect:none;fill:none;fill-opacity:1;stroke:#000000;stroke-width:0.499999;stroke-linecap:butt;stroke-linejoin:miter;stroke-miterlimit:4;stroke-dasharray:none;stroke-dashoffset:0;stroke-opacity:1;-inkscape-stroke:none;marker-end:url(#marker25583_Fnone_S-000000);stop-color:#000000"
         d="m 86.70363,788.2165 1.60768,-4.78458 h -6.98908 l 1.73033,4.49701"
         id="path36031"
         sodipodi:nodetypes="cccc" /><rect
         style="font-variation-settings:normal;vector-effect:none;fill:none;fill-opacity:1;fill-rule:evenodd;stroke:#000000;stroke-width:0.498223;stroke-linecap:butt;stroke-linejoin:miter;stroke-miterlimit:4;stroke-dasharray:none;stroke-dashoffset:0;stroke-opacity:1;-inkscape-stroke:none;stop-color:#000000"
         id="rect38441"
         width="69.501778"
         height="29.813086"
         x="34.439465"
         y="811.50018"
         ry="2.5838249"
         rx="2.5653737" /><text
         xml:space="preserve"
         style="font-size:4px;line-height:4.99999px;font-family:'Liberation Mono', monospace;-inkscape-font-specification:'Liberation Mono, monospace';text-decoration-color:#000000;fill:#000000;stroke-width:3.77952;-inkscape-stroke:none;stop-color:#000000"
         x="51.894272"
         y="837.75787"
         id="text38445"><tspan
           sodipodi:role="line"
           id="tspan38443"
           style="stroke-width:3.77952"
           x="51.894272"
           y="837.75787">1</tspan></text><text
         xml:space="preserve"
         style="font-size:4px;line-height:4.99999px;font-family:'Liberation Mono', monospace;-inkscape-font-specification:'Liberation Mono, monospace';text-decoration-color:#000000;fill:#000000;stroke-width:3.77952;-inkscape-stroke:none;stop-color:#000000"
         x="84.394272"
         y="837.75787"
         id="text38449"><tspan
           sodipodi:role="line"
           id="tspan38447"
           style="stroke-width:3.77952"
           x="84.394272"
           y="837.75787">2</tspan></text><path
         style="font-variation-settings:normal;vector-effect:none;fill:none;fill-opacity:1;stroke:#000000;stroke-width:0.499999;stroke-linecap:butt;stroke-linejoin:miter;stroke-miterlimit:4;stroke-dasharray:none;stroke-dashoffset:0;stroke-opacity:1;-inkscape-stroke:none;marker-end:url(#marker25583_Fnone_S-000000);stop-color:#000000"
         d="m 70.703629,810.7165 1.607685,-4.78458 h -6.98908 l 1.730328,4.49701"
         id="path38451"
         sodipodi:nodetypes="cccc" /><path
         style="font-variation-settings:normal;vector-effect:none;fill:none;fill-opacity:1;stroke:#000000;stroke-width:0.499999;stroke-linecap:butt;stroke-linejoin:miter;stroke-miterlimit:4;stroke-dasharray:none;stroke-dashoffset:0;stroke-opacity:1;-inkscape-stroke:none;marker-end:url(#marker25583_Fnone_S-000000);stop-color:#000000"
         d="m 54.703629,832.7165 1.607685,-4.78458 h -6.98908 l 1.730328,4.49701"
         id="path38457"
         sodipodi:nodetypes="cccc" /><text
         xml:space="preserve"
         style="font-size:4px;line-height:4.99999px;font-family:'Liberation Mono', monospace;-inkscape-font-specification:'Liberation Mono, monospace';text-decoration-color:#000000;fill:#000000;stroke-width:3.77952;-inkscape-stroke:none;stop-color:#000000"
         x="38.63134"
         y="825.84723"
         id="text38461"><tspan
           sodipodi:role="line"
           id="tspan38459"
           style="stroke-width:3.77952"
           x="38.63134"
           y="825.84723">id(η(G(1)))</tspan></text><path
         style="font-variation-settings:normal;vector-effect:none;fill:none;fill-opacity:1;stroke:#000000;stroke-width:0.499999;stroke-linecap:butt;stroke-linejoin:miter;stroke-miterlimit:4;stroke-dasharray:none;stroke-dashoffset:0;stroke-opacity:1;-inkscape-stroke:none;marker-end:url(#marker25583_Fnone_S-000000);stop-color:#000000"
         d="m 87.20363,833.2165 1.60768,-4.78458 h -6.98908 l 1.73033,4.49701"
         id="path38463"
         sodipodi:nodetypes="cccc" /><text
         xml:space="preserve"
         style="font-size:4px;line-height:4.99999px;font-family:'Liberation Mono', monospace;-inkscape-font-specification:'Liberation Mono, monospace';text-decoration-color:#000000;fill:#000000;stroke-width:3.77952;-inkscape-stroke:none;stop-color:#000000"
         x="59.13134"
         y="803.84723"
         id="text39290"><tspan
           sodipodi:role="line"
           id="tspan39288"
           style="stroke-width:3.77952"
           x="59.13134"
           y="803.84723">id(η(G))</tspan></text><text
         xml:space="preserve"
         style="font-size:4px;line-height:4.99999px;font-family:'Liberation Mono', monospace;-inkscape-font-specification:'Liberation Mono, monospace';text-decoration-color:#000000;fill:#000000;stroke-width:3.77952;-inkscape-stroke:none;stop-color:#000000"
         x="45.268208"
         y="771.37531"
         id="text40113"><tspan
           sodipodi:role="line"
           id="tspan40111"
           style="stroke-width:3.77952"
           x="45.268208"
           y="771.37531">context of id(η(F))</tspan></text><text
         xml:space="preserve"
         style="font-size:4px;line-height:4.99999px;font-family:'Liberation Mono', monospace;-inkscape-font-specification:'Liberation Mono, monospace';text-decoration-color:#000000;fill:#000000;stroke-width:3.77952;-inkscape-stroke:none;stop-color:#000000"
         x="96.268204"
         y="732.87531"
         id="text42560"><tspan
           sodipodi:role="line"
           id="tspan42558"
           style="stroke-width:3.77952"
           x="96.268204"
           y="732.87531">context of id</tspan></text><text
         xml:space="preserve"
         style="font-size:4px;line-height:4.99999px;font-family:'Liberation Mono', monospace;-inkscape-font-specification:'Liberation Mono, monospace';text-decoration-color:#000000;fill:#000000;stroke-width:3.77952;-inkscape-stroke:none;stop-color:#000000"
         x="46.268208"
         y="816.37531"
         id="text45824"><tspan
           sodipodi:role="line"
           id="tspan45822"
           style="stroke-width:3.77952"
           x="46.268208"
           y="816.37531">context of id(η(G))</tspan></text><text
         xml:space="preserve"
         style="font-size:4px;line-height:4.99999px;font-family:'Liberation Mono', monospace;-inkscape-font-specification:'Liberation Mono, monospace';text-decoration-color:#000000;fill:#000000;stroke-width:3.77952;-inkscape-stroke:none;stop-color:#000000"
         x="71.13134"
         y="825.84723"
         id="text46643"><tspan
           sodipodi:role="line"
           id="tspan46641"
           style="stroke-width:3.77952"
           x="71.13134"
           y="825.84723">id(η(G(2)))</tspan></text><text
         xml:space="preserve"
         style="font-size:4px;line-height:4.99999px;font-family:'Liberation Mono', monospace;-inkscape-font-specification:'Liberation Mono, monospace';text-decoration-color:#000000;fill:#000000;stroke-width:3.77952;-inkscape-stroke:none;stop-color:#000000"
         x="71.63134"
         y="780.84723"
         id="text48277"><tspan
           sodipodi:role="line"
           id="tspan48275"
           style="stroke-width:3.77952"
           x="71.63134"
           y="780.84723">id(η(F(2)))</tspan></text><rect
         style="font-variation-settings:normal;vector-effect:none;fill:none;fill-opacity:1;fill-rule:evenodd;stroke:#000000;stroke-width:0.499999;stroke-linecap:butt;stroke-linejoin:miter;stroke-miterlimit:4;stroke-dasharray:none;stroke-dashoffset:0;stroke-opacity:1;-inkscape-stroke:none;stop-color:#000000"
         id="rect50742"
         width="175.18919"
         height="125.49191"
         x="24.646252"
         y="728.00879"
         ry="2.1293669"
         rx="2.1293669" /><rect
         style="font-variation-settings:normal;vector-effect:none;fill:none;fill-opacity:1;fill-rule:evenodd;stroke:#000000;stroke-width:0.477403;stroke-linecap:butt;stroke-linejoin:miter;stroke-miterlimit:4;stroke-dasharray:none;stroke-dashoffset:0;stroke-opacity:1;-inkscape-stroke:none;stop-color:#000000"
         id="rect51560"
         width="80.010956"
         height="101.5226"
         x="114.64661"
         y="745.4975"
         ry="1.9409856"
         rx="2.1296585" /><text
         xml:space="preserve"
         style="font-size:4px;line-height:4.99999px;font-family:'Liberation Mono', monospace;-inkscape-font-specification:'Liberation Mono, monospace';text-decoration-color:#000000;fill:#000000;stroke-width:3.77952;-inkscape-stroke:none;stop-color:#000000"
         x="150.65411"
         y="801.27356"
         id="text51564"><tspan
           sodipodi:role="line"
           id="tspan51562"
           style="stroke-width:3.77952"
           x="150.65411"
           y="801.27356">...</tspan></text><path
         style="font-variation-settings:normal;vector-effect:none;fill:none;fill-opacity:1;stroke:#000000;stroke-width:0.499999;stroke-linecap:butt;stroke-linejoin:miter;stroke-miterlimit:4;stroke-dasharray:none;stroke-dashoffset:0;stroke-opacity:1;-inkscape-stroke:none;marker-end:url(#marker25583_Fnone_S-000000);stop-color:#000000"
         d="m 153.70363,744.2165 1.60768,-4.78458 h -6.98908 l 1.73033,4.49701"
         id="path52387"
         sodipodi:nodetypes="cccc" /><text
         xml:space="preserve"
         style="font-size:4px;line-height:4.99999px;font-family:'Liberation Mono', monospace;-inkscape-font-specification:'Liberation Mono, monospace';text-decoration-color:#000000;fill:#000000;stroke-width:3.77952;-inkscape-stroke:none;stop-color:#000000"
         x="146.13135"
         y="737.34723"
         id="text52391"><tspan
           sodipodi:role="line"
           id="tspan52389"
           style="stroke-width:3.77952"
           x="146.13135"
           y="737.34723">id(ε)</tspan></text></g></g></svg>
