<?xml version="1.0" encoding="UTF-8" standalone="no"?>
<!-- Created with Inkscape (http://www.inkscape.org/) -->

<svg
   width="133.84341mm"
   height="173.26855mm"
   viewBox="0 0 133.84341 173.26855"
   version="1.1"
   id="svg1820"
   inkscape:version="1.2.2 (1:1.2.2+202212051550+b0a8486541)"
   sodipodi:docname="public-paper-alternative.svg"
   xml:space="preserve"
   xmlns:inkscape="http://www.inkscape.org/namespaces/inkscape"
   xmlns:sodipodi="http://sodipodi.sourceforge.net/DTD/sodipodi-0.dtd"
   xmlns:xlink="http://www.w3.org/1999/xlink"
   xmlns="http://www.w3.org/2000/svg"
   xmlns:svg="http://www.w3.org/2000/svg"><sodipodi:namedview
     id="namedview1822"
     pagecolor="#ffffff"
     bordercolor="#666666"
     borderopacity="1.0"
     inkscape:showpageshadow="2"
     inkscape:pageopacity="0.0"
     inkscape:pagecheckerboard="0"
     inkscape:deskcolor="#d1d1d1"
     inkscape:document-units="mm"
     showgrid="true"
     inkscape:zoom="1.13"
     inkscape:cx="324.77877"
     inkscape:cy="4441.593"
     inkscape:window-width="1368"
     inkscape:window-height="2496"
     inkscape:window-x="72"
     inkscape:window-y="27"
     inkscape:window-maximized="1"
     inkscape:current-layer="layer1"><inkscape:grid
       type="axonomgrid"
       id="grid18583"
       visible="true"
       originx="0"
       originy="0"
       enabled="false" /><inkscape:grid
       type="xygrid"
       id="grid313765"
       enabled="false"
       units="mm"
       spacingx="1"
       spacingy="1"
       originx="0"
       originy="0" /></sodipodi:namedview><defs
     id="defs1817"><marker
       style="overflow:visible"
       id="marker25583_Fnone_S-008000"
       refX="0"
       refY="0"
       orient="auto-start-reverse"
       inkscape:stockid="Arrow1"
       markerWidth="4.0606599"
       markerHeight="6.7071061"
       viewBox="0 0 4.0606602 6.7071068"
       inkscape:isstock="true"
       inkscape:collect="always"
       preserveAspectRatio="xMidYMid"><path
         style="fill:none;stroke:#008000;stroke-width:1;stroke-linecap:butt"
         d="M 3,-3 0,0 3,3"
         id="path149685"
         transform="rotate(180,0.125,0)"
         sodipodi:nodetypes="ccc" /></marker><marker
       style="overflow:visible"
       id="Arrow1_Fnone_S-800000"
       refX="0"
       refY="0"
       orient="auto-start-reverse"
       inkscape:stockid="Arrow1"
       markerWidth="4.0606599"
       markerHeight="6.7071066"
       viewBox="0 0 4.0606602 6.7071068"
       inkscape:isstock="true"
       inkscape:collect="always"
       preserveAspectRatio="xMidYMid"><path
         style="fill:none;stroke:#800000;stroke-width:1;stroke-linecap:butt"
         d="M 3,-3 0,0 3,3"
         id="path149688"
         transform="rotate(180,0.125,0)"
         sodipodi:nodetypes="ccc" /></marker><marker
       style="overflow:visible"
       id="marker48243_Fnone_S-000000"
       refX="0"
       refY="0"
       orient="auto-start-reverse"
       inkscape:stockid="Arrow1"
       markerWidth="4.0606599"
       markerHeight="6.7071061"
       viewBox="0 0 4.0606602 6.7071068"
       inkscape:isstock="true"
       inkscape:collect="always"
       preserveAspectRatio="xMidYMid"><path
         style="fill:none;stroke:#000000;stroke-width:1;stroke-linecap:butt"
         d="M 3,-3 0,0 3,3"
         id="path137683"
         transform="rotate(180,0.125,0)"
         sodipodi:nodetypes="ccc" /></marker><marker
       style="overflow:visible"
       id="marker14346_Fnone_S-000000"
       refX="0"
       refY="0"
       orient="auto-start-reverse"
       inkscape:stockid="Arrow1"
       markerWidth="4.0606599"
       markerHeight="6.7071061"
       viewBox="0 0 4.0606602 6.7071068"
       inkscape:isstock="true"
       inkscape:collect="always"
       preserveAspectRatio="xMidYMid"><path
         style="fill:none;stroke:#000000;stroke-width:1;stroke-linecap:butt"
         d="M 3,-3 0,0 3,3"
         id="path137695"
         transform="rotate(180,0.125,0)"
         sodipodi:nodetypes="ccc" /></marker><marker
       style="overflow:visible"
       id="marker13432_Fnone_S-000000"
       refX="0"
       refY="0"
       orient="auto-start-reverse"
       inkscape:stockid="Arrow1"
       markerWidth="4.0606599"
       markerHeight="6.7071061"
       viewBox="0 0 4.0606602 6.7071068"
       inkscape:isstock="true"
       inkscape:collect="always"
       preserveAspectRatio="xMidYMid"><path
         style="fill:none;stroke:#000000;stroke-width:1;stroke-linecap:butt"
         d="M 3,-3 0,0 3,3"
         id="path137698"
         transform="rotate(180,0.125,0)"
         sodipodi:nodetypes="ccc" /></marker><marker
       style="overflow:visible"
       id="marker4141_Fnone_S-000000"
       refX="0"
       refY="0"
       orient="auto-start-reverse"
       inkscape:stockid="Arrow1"
       markerWidth="4.0606599"
       markerHeight="6.7071061"
       viewBox="0 0 4.0606602 6.7071068"
       inkscape:isstock="true"
       inkscape:collect="always"
       preserveAspectRatio="xMidYMid"><path
         style="fill:none;stroke:#000000;stroke-width:1;stroke-linecap:butt"
         d="M 3,-3 0,0 3,3"
         id="path137704"
         transform="rotate(180,0.125,0)"
         sodipodi:nodetypes="ccc" /></marker></defs><g
     inkscape:label="Layer 1"
     inkscape:groupmode="layer"
     id="layer1"
     transform="translate(-36.067489,-217.37664)"><g
       id="g145036"><a
         id="a15104"
         xlink:href="https://en.wikipedia.org/wiki/Category_of_small_categories"
         transform="translate(0,-548.8)"><text
           xml:space="preserve"
           style="font-size:4px;line-height:4.99999px;font-family:'Liberation Mono', monospace;-inkscape-font-specification:'Liberation Mono, monospace, Normal';text-decoration-color:#000000;fill:#000080;stroke-width:3.77952;-inkscape-stroke:none;stop-color:#000000"
           x="104.39225"
           y="939.40613"
           id="text15096"><tspan
             sodipodi:role="line"
             id="tspan15094"
             style="font-weight:bold;fill:#000080;stroke-width:3.77952"
             x="104.39225"
             y="939.40613">Cat</tspan></text></a><a
         id="a127241"
         xlink:href="https://en.wikipedia.org/wiki/Product_(category_theory)"
         style="fill:#800080"
         transform="translate(12.760389,-382.91718)"><text
           xml:space="preserve"
           style="font-size:4px;line-height:4.99999px;font-family:'Liberation Mono', monospace;-inkscape-font-specification:'Liberation Mono, monospace, Normal';text-decoration-color:#000000;fill:#800080;stroke-width:3.77952;-inkscape-stroke:none;stop-color:#000000"
           x="119.18867"
           y="713.60394"
           id="text127235"><tspan
             sodipodi:role="line"
             id="tspan127233"
             style="fill:#800080;stroke-width:3.77952"
             x="119.18867"
             y="713.60394">⊗ = ×</tspan></text></a><a
         id="a413"
         xlink:href="https://en.wikipedia.org/wiki/Cartesian_monoidal_category"
         transform="translate(-38.239611,125.08282)"><text
           xml:space="preserve"
           style="font-size:4px;line-height:4.99999px;font-family:'Liberation Mono', monospace;-inkscape-font-specification:'Liberation Mono, monospace, Normal';text-decoration-color:#000000;fill:#000080;stroke-width:3.77952;-inkscape-stroke:none;stop-color:#000000"
           x="147.47278"
           y="215.52328"
           id="text193"><tspan
             sodipodi:role="line"
             id="tspan191"
             style="fill:#000080;stroke-width:3.77952"
             x="147.47278"
             y="215.52328">Cartesian monoidal</tspan></text></a><a
         id="a37422"
         xlink:href="https://en.wikipedia.org/wiki/Closed_monoidal_category"
         style="fill:#000080"
         transform="translate(-6.239611,46.97682)"><text
           xml:space="preserve"
           style="font-size:4px;line-height:4.99999px;font-family:'Liberation Mono', monospace;-inkscape-font-specification:'Liberation Mono, monospace, Normal';text-decoration-color:#000000;fill:#000080;stroke-width:3.77952;-inkscape-stroke:none;stop-color:#000000"
           x="55.631859"
           y="233.62927"
           id="text37418"><tspan
             sodipodi:role="line"
             id="tspan37416"
             style="fill:#000080;stroke-width:3.77952"
             x="55.631859"
             y="233.62927">Closed monoidal</tspan></text></a><a
         id="a85856"
         xlink:href="https://en.wikipedia.org/wiki/Symmetric_monoidal_category"><text
           xml:space="preserve"
           style="font-size:4px;line-height:4.99999px;font-family:'Liberation Mono', monospace;-inkscape-font-specification:'Liberation Mono, monospace, Normal';text-decoration-color:#000000;fill:#000080;stroke-width:3.77952;-inkscape-stroke:none;stop-color:#000000"
           x="105.23317"
           y="296.60611"
           id="text37426"><tspan
             sodipodi:role="line"
             style="fill:#000080;stroke-width:3.77952"
             x="105.23317"
             y="296.60611"
             id="tspan10073">Symmetric monoidal category</tspan></text></a><a
         id="a6795"
         xlink:href="https://en.wikipedia.org/wiki/Autonomous_category"
         transform="translate(-4.771322,81.08282)"><text
           xml:space="preserve"
           style="font-size:4px;line-height:4.99999px;font-family:'Liberation Mono', monospace;-inkscape-font-specification:'Liberation Mono, monospace, Normal';text-decoration-color:#000000;fill:#000080;stroke-width:3.77952;-inkscape-stroke:none;stop-color:#000000"
           x="80.472778"
           y="225.52328"
           id="text704"><tspan
             sodipodi:role="line"
             id="tspan702"
             style="fill:#000080;stroke-width:3.77952"
             x="80.472778"
             y="225.52328">Autonomous</tspan></text></a><a
         id="a767"
         xlink:href="https://en.wikipedia.org/wiki/Rigid_category"
         style="fill:#000080"
         transform="translate(-17.771321,62.27822)"><text
           xml:space="preserve"
           style="font-size:4px;line-height:4.99999px;font-family:'Liberation Mono', monospace;-inkscape-font-specification:'Liberation Mono, monospace, Normal';text-decoration-color:#000000;fill:#000080;stroke-width:3.77952;-inkscape-stroke:none;stop-color:#000000"
           x="124.47278"
           y="244.32788"
           id="text765"><tspan
             sodipodi:role="line"
             id="tspan763"
             style="fill:#000080;stroke-width:3.77952"
             x="124.47278"
             y="244.32788">Rigid</tspan></text></a><path
         style="font-variation-settings:normal;opacity:1;vector-effect:none;fill:none;fill-opacity:1;stroke:#000000;stroke-width:0.499999;stroke-linecap:butt;stroke-linejoin:miter;stroke-miterlimit:4;stroke-dasharray:none;stroke-dashoffset:0;stroke-opacity:1;-inkscape-stroke:none;marker-end:url(#marker4141_Fnone_S-000000);stop-color:#000000;stop-opacity:1"
         d="m 114.86323,242.89292 v 28.6654"
         id="path5583"
         sodipodi:nodetypes="cc" /><a
         id="a6789"
         xlink:href="https://en.wikipedia.org/wiki/Braided_monoidal_category"
         transform="translate(88.76039,65.08282)"><text
           xml:space="preserve"
           style="font-size:4px;line-height:4.99999px;font-family:'Liberation Mono', monospace;-inkscape-font-specification:'Liberation Mono, monospace, Normal';text-decoration-color:#000000;fill:#000080;stroke-width:3.77952;-inkscape-stroke:none;stop-color:#000000"
           x="16.472778"
           y="211.52328"
           id="text6597"><tspan
             sodipodi:role="line"
             id="tspan6595"
             style="fill:#000080;stroke-width:3.77952"
             x="16.472778"
             y="211.52328">Braided monoidal</tspan></text></a><path
         style="font-variation-settings:normal;opacity:1;vector-effect:none;fill:none;fill-opacity:1;stroke:#000000;stroke-width:0.499999;stroke-linecap:butt;stroke-linejoin:miter;stroke-miterlimit:4;stroke-dasharray:none;stroke-dashoffset:0;stroke-opacity:1;-inkscape-stroke:none;marker-end:url(#marker4141_Fnone_S-000000);stop-color:#000000;stop-opacity:1"
         d="m 126.86323,278.89292 v 12.6654"
         id="path6687"
         sodipodi:nodetypes="cc" /><a
         id="a6981"
         xlink:href="https://en.wikipedia.org/wiki/Cartesian_closed_category"
         transform="translate(12.760389,135.08282)"><text
           xml:space="preserve"
           style="font-size:4px;line-height:4.99999px;font-family:'Liberation Mono', monospace;-inkscape-font-specification:'Liberation Mono, monospace, Normal';text-decoration-color:#000000;fill:#000080;stroke-width:3.77952;-inkscape-stroke:none;stop-color:#000000"
           x="83.631859"
           y="235.52328"
           id="text6979"><tspan
             sodipodi:role="line"
             id="tspan6977"
             style="fill:#000080;stroke-width:3.77952"
             x="83.631859"
             y="235.52328">Cartesian closed</tspan></text></a><path
         style="font-variation-settings:normal;opacity:1;vector-effect:none;fill:none;fill-opacity:1;stroke:#000000;stroke-width:0.499999;stroke-linecap:butt;stroke-linejoin:miter;stroke-miterlimit:4;stroke-dasharray:none;stroke-dashoffset:0;stroke-opacity:1;-inkscape-stroke:none;marker-end:url(#marker4141_Fnone_S-000000);stop-color:#000000;stop-opacity:1"
         d="m 124.33693,298.41499 v 23.84149 h -8.4737 v 4.30184"
         id="path10059"
         sodipodi:nodetypes="cccc" /><a
         id="a132183"
         xlink:href="https://en.wikipedia.org/wiki/Adjoint_functors#Definition_via_counit%E2%80%93unit_adjunction"
         transform="translate(-2.239612,-374.91718)"><path
           style="font-variation-settings:normal;opacity:1;vector-effect:none;fill:none;fill-opacity:1;stroke:#000000;stroke-width:0.499999;stroke-linecap:butt;stroke-linejoin:miter;stroke-miterlimit:4;stroke-dasharray:none;stroke-dashoffset:0;stroke-opacity:1;-inkscape-stroke:none;marker-end:url(#marker13432_Fnone_S-000000);stop-color:#000000;stop-opacity:1"
           d="m 84.02589,618.01977 v 32.73591"
           id="path12082"
           sodipodi:nodetypes="cc" /></a><path
         style="font-variation-settings:normal;opacity:1;vector-effect:none;fill:none;fill-opacity:1;stroke:#000000;stroke-width:0.499999;stroke-linecap:butt;stroke-linejoin:miter;stroke-miterlimit:4;stroke-dasharray:none;stroke-dashoffset:0;stroke-opacity:1;-inkscape-stroke:none;marker-end:url(#marker14346_Fnone_S-000000);stop-color:#000000;stop-opacity:1"
         d="m 130.89494,298.31072 v 38.3932"
         id="path13943"
         sodipodi:nodetypes="cc" /><path
         style="font-variation-settings:normal;opacity:1;vector-effect:none;fill:none;fill-opacity:1;stroke:#000000;stroke-width:0.499999;stroke-linecap:butt;stroke-linejoin:miter;stroke-miterlimit:4;stroke-dasharray:none;stroke-dashoffset:0;stroke-opacity:1;-inkscape-stroke:none;marker-end:url(#marker4141_Fnone_S-000000);stop-color:#000000;stop-opacity:1"
         d="m 124.86323,342.89292 v 22.6654"
         id="path17868"
         sodipodi:nodetypes="cc" /><a
         id="a40386"
         xlink:href="https://en.wikipedia.org/wiki/PROP_(category_theory)"
         style="fill:#000080"
         transform="translate(-23.239611,124.08282)"><text
           xml:space="preserve"
           style="font-size:4px;line-height:4.99999px;font-family:'Liberation Mono', monospace;-inkscape-font-specification:'Liberation Mono, monospace, Normal';text-decoration-color:#000000;fill:#000080;stroke-width:3.77952;-inkscape-stroke:none;stop-color:#000000"
           x="163.65778"
           y="191.22459"
           id="text40382"><tspan
             sodipodi:role="line"
             id="tspan40380"
             style="fill:#000080;stroke-width:3.77952"
             x="163.65778"
             y="191.22459">PROP</tspan></text></a><path
         style="font-variation-settings:normal;opacity:1;vector-effect:none;fill:none;fill-opacity:1;stroke:#000000;stroke-width:0.499999;stroke-linecap:butt;stroke-linejoin:miter;stroke-miterlimit:4;stroke-dasharray:none;stroke-dashoffset:0;stroke-opacity:1;-inkscape-stroke:none;marker-end:url(#marker4141_Fnone_S-000000);stop-color:#000000;stop-opacity:1"
         d="m 99.09737,307.89292 v 17.6654"
         id="path122243"
         sodipodi:nodetypes="cc" /><text
         xml:space="preserve"
         style="font-size:4px;line-height:4.99999px;font-family:'Liberation Mono', monospace;-inkscape-font-specification:'Liberation Mono, monospace, Normal';text-decoration-color:#000000;fill:#000000;stroke-width:3.77952;-inkscape-stroke:none;stop-color:#000000"
         x="78.785698"
         y="313.3902"
         id="text122247"><tspan
           sodipodi:role="line"
           id="tspan122245"
           style="stroke-width:3.77952"
           x="78.785698"
           y="313.3902">symmetry</tspan></text><path
         style="font-variation-settings:normal;opacity:1;vector-effect:none;fill:none;fill-opacity:1;stroke:#000000;stroke-width:0.499999;stroke-linecap:butt;stroke-linejoin:miter;stroke-miterlimit:4;stroke-dasharray:none;stroke-dashoffset:0;stroke-opacity:1;-inkscape-stroke:none;marker-end:url(#marker48243_Fnone_S-000000);stop-color:#000000;stop-opacity:1"
         d="m 68.231057,300.49072 v 21.2805 h 17.501874 v 4.0808"
         id="path122674"
         sodipodi:nodetypes="cccc" /><path
         style="font-variation-settings:normal;opacity:1;vector-effect:none;fill:none;fill-opacity:1;stroke:#000000;stroke-width:0.499999;stroke-linecap:butt;stroke-linejoin:miter;stroke-miterlimit:4;stroke-dasharray:none;stroke-dashoffset:0;stroke-opacity:1;-inkscape-stroke:none;marker-end:url(#marker4141_Fnone_S-000000);stop-color:#000000;stop-opacity:1"
         d="m 98.86323,242.89292 v 59.6654"
         id="path124603"
         sodipodi:nodetypes="cc" /><a
         id="a132647"
         xlink:href="https://en.wikipedia.org/wiki/Dual_object#Definition"
         style="fill:#800080"
         transform="translate(-1.239612,-371.91718)"><text
           xml:space="preserve"
           style="font-size:4px;line-height:4.99999px;font-family:'Liberation Mono', monospace;-inkscape-font-specification:'Liberation Mono, monospace, Normal';text-decoration-color:#000000;fill:#800080;stroke-width:3.77952;-inkscape-stroke:none;stop-color:#000000"
           x="630.81616"
           y="-101.82437"
           id="text124609"
           transform="rotate(90)"><tspan
             sodipodi:role="line"
             id="tspan124607"
             style="fill:#800080;stroke-width:3.77952"
             x="630.81616"
             y="-101.82437">duals</tspan></text></a><text
         xml:space="preserve"
         style="font-size:4px;line-height:4.99999px;font-family:'Liberation Mono', monospace;-inkscape-font-specification:'Liberation Mono, monospace, Normal';text-decoration-color:#000000;fill:#000000;stroke-width:3.77952;-inkscape-stroke:none;stop-color:#000000"
         x="246.58942"
         y="-116.67363"
         id="text124613"
         transform="rotate(90)"><tspan
           sodipodi:role="line"
           id="tspan124611"
           style="stroke-width:3.77952"
           x="246.58942"
           y="-116.67363">symmetry</tspan></text><a
         id="a132639"
         xlink:href="https://en.wikipedia.org/wiki/Adjoint_functors#Definition_via_counit%E2%80%93unit_adjunction"
         transform="translate(-2.239612,-370.91718)"><text
           xml:space="preserve"
           style="font-size:4px;line-height:4.99999px;font-family:'Liberation Mono', monospace;-inkscape-font-specification:'Liberation Mono, monospace, Normal';text-decoration-color:#000000;fill:#800080;stroke-width:3.77952;-inkscape-stroke:none;stop-color:#000000"
           x="620.81616"
           y="-85.824371"
           id="text125914"
           transform="rotate(90)"><tspan
             sodipodi:role="line"
             id="tspan125912"
             style="fill:#800080;stroke-width:3.77952"
             x="620.81616"
             y="-85.824371">adjoints</tspan></text></a><a
         id="a2793"
         xlink:href="https://en.wikipedia.org/wiki/Closed_monoidal_category"
         transform="translate(-1,-548.8)"><text
           xml:space="preserve"
           style="font-size:4px;line-height:4.99999px;font-family:'Liberation Mono', monospace;-inkscape-font-specification:'Liberation Mono, monospace, Normal';text-decoration-color:#000000;fill:#800080;stroke-width:3.77952;-inkscape-stroke:none;stop-color:#000000"
           x="68.551559"
           y="836.19019"
           id="text126788"><tspan
             sodipodi:role="line"
             style="fill:#800080;stroke-width:3.77952"
             x="68.551559"
             y="836.19019"
             id="tspan2788">⇒ = A* ⊗ B</tspan></text></a><a
         id="a129915"
         xlink:href="https://en.wikipedia.org/wiki/Category_of_sets"
         transform="translate(22.760389,155.08282)"><text
           xml:space="preserve"
           style="font-size:4px;line-height:4.99999px;font-family:'Liberation Mono', monospace;-inkscape-font-specification:'Liberation Mono, monospace, Normal';text-decoration-color:#000000;fill:#000080;stroke-width:3.77952;-inkscape-stroke:none;stop-color:#000000"
           x="98.631859"
           y="235.52328"
           id="text129913"><tspan
             sodipodi:role="line"
             id="tspan129911"
             style="font-weight:bold;fill:#000080;stroke-width:3.77952"
             x="98.631859"
             y="235.52328">Set</tspan></text></a><path
         style="font-variation-settings:normal;opacity:1;vector-effect:none;fill:none;fill-opacity:1;stroke:#000000;stroke-width:0.499999;stroke-linecap:butt;stroke-linejoin:miter;stroke-miterlimit:4;stroke-dasharray:none;stroke-dashoffset:0;stroke-opacity:1;-inkscape-stroke:none;marker-end:url(#marker4141_Fnone_S-000000);stop-color:#000000;stop-opacity:1"
         d="m 124.86323,372.89292 v 12.6654"
         id="path129919"
         sodipodi:nodetypes="cc" /><a
         id="a132643"
         xlink:href="https://en.wikipedia.org/wiki/Dual_object#Definition"
         style="fill:#800080"
         transform="translate(-27.239612,-373.91718)"><text
           xml:space="preserve"
           style="font-size:4px;line-height:4.99999px;font-family:'Liberation Mono', monospace;-inkscape-font-specification:'Liberation Mono, monospace, Normal';text-decoration-color:#000000;fill:#800080;stroke-width:3.77952;-inkscape-stroke:none;stop-color:#000000"
           x="138.0253"
           y="694.30737"
           id="text130376"><tspan
             sodipodi:role="line"
             id="tspan130374"
             style="fill:#800080;stroke-width:3.77952"
             x="138.0253"
             y="694.30737">duals</tspan></text></a><a
         id="a739"
         xlink:href="https://en.wikipedia.org/wiki/Monoidal_category"
         style="fill:#000080"
         transform="translate(-2.239612,-374.91718)"><text
           xml:space="preserve"
           style="font-size:4px;line-height:4.99999px;font-family:'Liberation Mono', monospace;-inkscape-font-specification:'Liberation Mono, monospace, Normal';text-decoration-color:#000000;fill:#000080;stroke-width:3.77952;-inkscape-stroke:none;stop-color:#000000"
           x="80.086395"
           y="615.19226"
           id="text731"><tspan
             sodipodi:role="line"
             id="tspan729"
             style="fill:#000080;stroke-width:3.77952"
             x="80.086395"
             y="615.19226">Monoidal category</tspan></text></a><a
         id="a1176"
         xlink:href="https://en.wikipedia.org/wiki/Closed_category"
         style="fill:#000080"
         transform="translate(0.760389,-374.91718)"><text
           xml:space="preserve"
           style="font-size:4px;line-height:4.99999px;font-family:'Liberation Mono', monospace;-inkscape-font-specification:'Liberation Mono, monospace, Normal';text-decoration-color:#000000;fill:#000080;stroke-width:3.77952;-inkscape-stroke:none;stop-color:#000000"
           x="35.086395"
           y="615.19226"
           id="text735"><tspan
             sodipodi:role="line"
             id="tspan733"
             style="fill:#000080;stroke-width:3.77952"
             x="35.086395"
             y="615.19226">Closed category</tspan></text></a><text
         xml:space="preserve"
         style="font-size:4px;line-height:4.99999px;font-family:'Liberation Mono', monospace;-inkscape-font-specification:'Liberation Mono, monospace, Normal';text-decoration-color:#000000;fill:#000000;stroke-width:3.77952;-inkscape-stroke:none;stop-color:#000000"
         x="60.064255"
         y="260.34528"
         id="text1184"><tspan
           sodipodi:role="line"
           id="tspan1182"
           style="fill:#000000;stroke-width:3.77952"
           x="60.064255"
           y="260.34528">⊗,I</tspan></text><a
         id="a2589"
         xlink:href="https://en.wikipedia.org/wiki/Category_(mathematics)"
         style="fill:#000080"
         transform="translate(2.760389,-374.91718)"><text
           xml:space="preserve"
           style="font-size:4px;line-height:4.99999px;font-family:'Liberation Mono', monospace;-inkscape-font-specification:'Liberation Mono, monospace, Normal';text-decoration-color:#000000;fill:#000080;stroke-width:3.77952;-inkscape-stroke:none;stop-color:#000000"
           x="50.605774"
           y="595.19226"
           id="text2127"><tspan
             sodipodi:role="line"
             id="tspan2125"
             style="fill:#000080;stroke-width:3.77952"
             x="50.605774"
             y="595.19226">Category (mathematics)</tspan></text></a><path
         style="font-variation-settings:normal;opacity:1;vector-effect:none;fill:none;fill-opacity:1;stroke:#800000;stroke-width:0.499999;stroke-linecap:butt;stroke-linejoin:miter;stroke-miterlimit:4;stroke-dasharray:none;stroke-dashoffset:0;stroke-opacity:1;-inkscape-stroke:none;marker-end:url(#Arrow1_Fnone_S-800000);stop-color:#000000;stop-opacity:1"
         d="m 68.097369,222.89292 v 12.6654"
         id="path2129"
         sodipodi:nodetypes="cc" /><path
         style="font-variation-settings:normal;opacity:1;vector-effect:none;fill:none;fill-opacity:1;stroke:#008000;stroke-width:0.499999;stroke-linecap:butt;stroke-linejoin:miter;stroke-miterlimit:4;stroke-dasharray:none;stroke-dashoffset:0;stroke-opacity:1;-inkscape-stroke:none;marker-end:url(#marker25583_Fnone_S-008000);stop-color:#000000;stop-opacity:1"
         d="m 93.09737,222.89292 v 12.6654"
         id="path2581"
         sodipodi:nodetypes="cc" /><a
         id="a7820"
         xlink:href="https://en.wikipedia.org/wiki/Compact_closed_category#Simplex_category"
         transform="translate(-11.239611,-374.91718)"><text
           xml:space="preserve"
           style="font-size:4px;line-height:4.99999px;font-family:'Liberation Mono', monospace;-inkscape-font-specification:'Liberation Mono, monospace, Normal';text-decoration-color:#000000;fill:#000080;stroke-width:3.77952;-inkscape-stroke:none;stop-color:#000000"
           x="88.128815"
           y="725.34637"
           id="text7816"><tspan
             sodipodi:role="line"
             id="tspan7814"
             style="fill:#000080;stroke-width:3.77952"
             x="88.128815"
             y="725.34637">Δ</tspan></text></a><path
         style="font-variation-settings:normal;opacity:1;vector-effect:none;fill:none;fill-opacity:1;stroke:#000000;stroke-width:0.499999;stroke-linecap:butt;stroke-linejoin:miter;stroke-miterlimit:4;stroke-dasharray:none;stroke-dashoffset:0;stroke-opacity:1;-inkscape-stroke:none;marker-end:url(#marker4141_Fnone_S-000000);stop-color:#000000;stop-opacity:1"
         d="m 78.09737,332.89292 v 12.6654"
         id="path7824"
         sodipodi:nodetypes="cc" /><a
         id="a129460"
         xlink:href="https://en.wikipedia.org/wiki/Exponential_object"
         style="fill:#800080"
         transform="translate(23.760389,-355.91718)"><text
           xml:space="preserve"
           style="font-size:4px;line-height:4.99999px;font-family:'Liberation Mono', monospace;-inkscape-font-specification:'Liberation Mono, monospace, Normal';text-decoration-color:#000000;fill:#800080;stroke-width:3.77952;-inkscape-stroke:none;stop-color:#000000"
           x="103.18867"
           y="715.60394"
           id="text129458"><tspan
             sodipodi:role="line"
             id="tspan129456"
             style="fill:#800080;stroke-width:3.77952"
             x="103.18867"
             y="715.60394">⇒ = Bᴬ</tspan></text></a><path
         style="font-variation-settings:normal;opacity:1;vector-effect:none;fill:none;fill-opacity:1;stroke:#000000;stroke-width:0.499999;stroke-linecap:butt;stroke-linejoin:miter;stroke-miterlimit:4;stroke-dasharray:none;stroke-dashoffset:0;stroke-opacity:1;-inkscape-stroke:none;marker-end:url(#marker4141_Fnone_S-000000);stop-color:#000000;stop-opacity:1"
         d="m 145.09737,298.1353 v 12.42302"
         id="path62489"
         sodipodi:nodetypes="cc" /><text
         xml:space="preserve"
         style="font-size:4px;line-height:4.99999px;font-family:'Liberation Mono', monospace;-inkscape-font-specification:'Liberation Mono, monospace, Normal';text-decoration-color:#000000;fill:#000000;stroke-width:3.77952;-inkscape-stroke:none;stop-color:#000000"
         x="146.78262"
         y="306.8902"
         id="text63049"><tspan
           sodipodi:role="line"
           id="tspan63047"
           style="fill:#000000;stroke-width:3.77952"
           x="146.78262"
           y="306.8902">⊗ = +</tspan></text><text
         xml:space="preserve"
         style="font-size:4px;line-height:4.99999px;font-family:'Liberation Mono', monospace;-inkscape-font-specification:'Liberation Mono, monospace, Normal';text-decoration-color:#000000;fill:#000000;stroke-width:3.77952;-inkscape-stroke:none;stop-color:#000000"
         x="64.26738"
         y="340.3902"
         id="text88329"><tspan
           sodipodi:role="line"
           id="tspan88327"
           style="fill:#000000;stroke-width:3.77952"
           x="64.26738"
           y="340.3902">⊗ = ∘</tspan></text><text
         xml:space="preserve"
         style="font-size:4px;line-height:4.99999px;font-family:'Liberation Mono', monospace;-inkscape-font-specification:'Liberation Mono, monospace, Normal';text-decoration-color:#000000;fill:#000000;stroke-width:3.77952;-inkscape-stroke:none;stop-color:#000000"
         x="127.26738"
         y="379.3902"
         id="text90409"><tspan
           sodipodi:role="line"
           id="tspan90407"
           style="fill:#000000;stroke-width:3.77952"
           x="127.26738"
           y="379.3902">I = {1}</tspan></text><text
         xml:space="preserve"
         style="font-size:4px;line-height:4.99999px;font-family:'Liberation Mono', monospace;-inkscape-font-specification:'Liberation Mono, monospace, Normal';text-decoration-color:#000000;fill:#000000;stroke-width:3.77952;-inkscape-stroke:none;stop-color:#000000"
         x="146.75212"
         y="302.8902"
         id="text2773"><tspan
           sodipodi:role="line"
           id="tspan2771"
           style="fill:#000000;stroke-width:3.77952"
           x="146.75212"
           y="302.8902">I = 0</tspan></text><text
         xml:space="preserve"
         style="font-size:4px;line-height:4.99999px;font-family:'Liberation Mono', monospace;-inkscape-font-specification:'Liberation Mono, monospace, Normal';text-decoration-color:#000000;fill:#000000;stroke-width:3.77952;-inkscape-stroke:none;stop-color:#000000"
         x="101.7857"
         y="306.3902"
         id="text19222"><tspan
           sodipodi:role="line"
           id="tspan19220"
           style="stroke-width:3.77952"
           x="101.7857"
           y="306.3902">≅</tspan></text><a
         id="a536"
         xlink:href="https://en.wikipedia.org/wiki/Hom_functor#Internal_Hom_functor"
         style="fill:#800080"
         transform="translate(28,-580.8)"><text
           xml:space="preserve"
           style="font-size:4px;line-height:4.99999px;font-family:'Liberation Mono', monospace;-inkscape-font-specification:'Liberation Mono, monospace, Normal';text-decoration-color:#000000;fill:#800080;stroke-width:3.77952;-inkscape-stroke:none;stop-color:#000000"
           x="9.4240103"
           y="809.2536"
           id="text529"><tspan
             sodipodi:role="line"
             id="tspan527"
             style="fill:#800080;stroke-width:3.77952"
             x="9.4240103"
             y="809.2536">internal hom</tspan><tspan
             sodipodi:role="line"
             style="fill:#800080;stroke-width:3.77952"
             x="9.4240103"
             y="814.2536"
             id="tspan531">bifunctor ⇒</tspan></text></a><path
         style="font-variation-settings:normal;opacity:1;vector-effect:none;fill:none;fill-opacity:1;stroke:#000000;stroke-width:0.499999;stroke-linecap:butt;stroke-linejoin:miter;stroke-miterlimit:4;stroke-dasharray:none;stroke-dashoffset:0;stroke-opacity:1;-inkscape-stroke:none;marker-end:url(#marker48243_Fnone_S-000000);stop-color:#000000;stop-opacity:1"
         d="m 53.231057,282.49072 v 79.2805 H 99.73293 v 4.0808"
         id="path1336"
         sodipodi:nodetypes="cccc" /><a
         id="a1926"
         xlink:href="https://en.wikipedia.org/wiki/Closed_monoidal_category"
         style="fill:#800080"
         transform="translate(-64.239611,-358.91718)"><text
           xml:space="preserve"
           style="font-size:4px;line-height:4.99999px;font-family:'Liberation Mono', monospace;-inkscape-font-specification:'Liberation Mono, monospace, Normal';text-decoration-color:#000000;fill:#800080;stroke-width:3.77952;-inkscape-stroke:none;stop-color:#000000"
           x="119.18867"
           y="713.60394"
           id="text1924"><tspan
             sodipodi:role="line"
             id="tspan1922"
             style="fill:#800080;stroke-width:3.77952"
             x="119.18867"
             y="713.60394">⊗ = ×</tspan><tspan
             sodipodi:role="line"
             style="fill:#800080;stroke-width:3.77952"
             x="119.18867"
             y="718.62396"
             id="tspan2198">⇒ = Bᴬ</tspan></text></a><a
         id="a12925"
         xlink:href="https://en.wikipedia.org/wiki/Compact_closed_category#Symmetric_compact_closed_category"
         transform="translate(0,-548.8)"><text
           xml:space="preserve"
           style="font-size:4px;line-height:4.99999px;font-family:'Liberation Mono', monospace;-inkscape-font-specification:'Liberation Mono, monospace, Normal';text-decoration-color:#000000;fill:#000080;stroke-width:3.77952;-inkscape-stroke:none;stop-color:#000000"
           x="64.39225"
           y="879.40613"
           id="text37440"><tspan
             sodipodi:role="line"
             id="tspan37438"
             style="fill:#000080;stroke-width:3.77952"
             x="64.39225"
             y="879.40613">Symmetric compact closed</tspan></text></a><a
         id="a12933"
         xlink:href="https://en.wikipedia.org/wiki/Compact_closed_category#Definition"
         transform="translate(0,-548.8)"><text
           xml:space="preserve"
           style="font-size:4px;line-height:4.99999px;font-family:'Liberation Mono', monospace;-inkscape-font-specification:'Liberation Mono, monospace, Normal';text-decoration-color:#000000;fill:#000080;stroke-width:3.77952;-inkscape-stroke:none;stop-color:#000000"
           x="57.392246"
           y="842.40613"
           id="text3337"><tspan
             sodipodi:role="line"
             id="tspan3335"
             style="fill:#000080;stroke-width:3.77952"
             x="57.392246"
             y="842.40613">Nonsymmetric</tspan><tspan
             sodipodi:role="line"
             style="fill:#000080;stroke-width:3.77952"
             x="57.392246"
             y="847.40613"
             id="tspan3341">compact closed</tspan></text></a><text
         xml:space="preserve"
         style="font-size:4px;line-height:4.99999px;font-family:'Liberation Mono', monospace;-inkscape-font-specification:'Liberation Mono, monospace, Normal';text-decoration-color:#000000;fill:#000000;stroke-width:3.77952;-inkscape-stroke:none;stop-color:#000000"
         x="69.785698"
         y="320.3902"
         id="text3670"><tspan
           sodipodi:role="line"
           id="tspan3668"
           style="stroke-width:3.77952"
           x="69.785698"
           y="320.3902">symmetry</tspan></text><path
         style="font-variation-settings:normal;opacity:1;vector-effect:none;fill:none;fill-opacity:1;stroke:#000000;stroke-width:0.499999;stroke-linecap:butt;stroke-linejoin:miter;stroke-miterlimit:4;stroke-dasharray:none;stroke-dashoffset:0;stroke-opacity:1;-inkscape-stroke:none;marker-end:url(#marker4141_Fnone_S-000000);stop-color:#000000;stop-opacity:1"
         d="m 64.86323,282.25648 v 7.30184"
         id="path3672"
         sodipodi:nodetypes="cc" /><path
         style="font-variation-settings:normal;opacity:1;vector-effect:none;fill:none;fill-opacity:1;stroke:#000000;stroke-width:0.499999;stroke-linecap:butt;stroke-linejoin:miter;stroke-miterlimit:4;stroke-dasharray:none;stroke-dashoffset:0;stroke-opacity:1;-inkscape-stroke:none;marker-end:url(#marker4141_Fnone_S-000000);stop-color:#000000;stop-opacity:1"
         d="m 106.86323,331.89292 v 17.6654"
         id="path8978"
         sodipodi:nodetypes="cc" /><path
         style="font-variation-settings:normal;opacity:1;vector-effect:none;fill:none;fill-opacity:1;stroke:#000000;stroke-width:0.499999;stroke-linecap:butt;stroke-linejoin:miter;stroke-miterlimit:4;stroke-dasharray:none;stroke-dashoffset:0;stroke-opacity:1;-inkscape-stroke:none;marker-end:url(#marker4141_Fnone_S-000000);stop-color:#000000;stop-opacity:1"
         d="m 112.86323,341.89292 v 7.6654"
         id="path8980"
         sodipodi:nodetypes="cc" /><g
         aria-label="Rel"
         id="text8984"
         style="font-size:4px;line-height:4.99999px;font-family:'Liberation Mono', monospace;-inkscape-font-specification:'Liberation Mono, monospace, Normal';stroke-width:3.77952;stop-color:#000000"
         transform="translate(0,-548.8)"><a
           id="a8995"
           xlink:href="https://en.wikipedia.org/wiki/Category_of_relations"
           style="fill:#000080"><path
             id="path8990"
             d="m 112.86142,902.93726 0.54883,0.01 v 0.27735 l -0.72266,-0.008 q -0.2207,-0.0391 -0.32226,-0.17578 -0.043,-0.0586 -0.0488,-0.32031 v -2.11719 h -0.56446 v -0.27734 h 0.91602 v 2.43554 q 0.002,0.0879 0.0488,0.13086 0.041,0.0371 0.14453,0.0449 z m 0.008,0.01 z m -0.20117,-0.18555 z m 0.0312,0.4629 z m -0.38281,-0.27735 v -0.22656 z m -2.85756,-0.70532 q 0,0.35547 0.15625,0.55664 0.1582,0.20118 0.43164,0.20118 0.20117,0 0.35156,-0.0859 0.15234,-0.0879 0.20312,-0.23828 l 0.3086,0.0879 q -0.0859,0.24219 -0.31641,0.37109 -0.22851,0.12891 -0.54687,0.12891 -0.46094,0 -0.70899,-0.28711 -0.24804,-0.28711 -0.24804,-0.82227 0,-0.52148 0.24218,-0.80078 0.24414,-0.28125 0.70313,-0.28125 0.45898,0 0.69531,0.2793 0.23633,0.2793 0.23633,0.84375 v 0.0469 z m 0.58007,-0.91015 q -0.26171,0 -0.41406,0.17187 -0.15234,0.16992 -0.16211,0.46875 h 1.14063 q -0.0547,-0.64062 -0.56446,-0.64062 z m -1.74023,1.89258 -0.71484,-1.12305 h -0.46485 v 1.12305 h -0.37304 v -2.63477 h 0.9414 q 0.45508,0 0.69336,0.18945 0.23828,0.1875 0.23828,0.53907 0,0.29101 -0.18359,0.49023 -0.18164,0.19922 -0.48828,0.25 l 0.78125,1.16602 z m -0.0547,-1.9004 q 0,-0.43554 -0.59375,-0.43554 h -0.53125 v 0.91797 h 0.54688 q 0.27929,0 0.42773,-0.125 0.15039,-0.125 0.15039,-0.35743 z"
             style="fill:#000080" /></a></g><a
         id="a11490"
         xlink:href="https://arxiv.org/abs/1803.05316"
         transform="translate(0,-548.8)"><text
           xml:space="preserve"
           style="font-size:4px;line-height:4.99999px;font-family:'Liberation Mono', monospace;-inkscape-font-specification:'Liberation Mono, monospace, Normal';text-decoration-color:#000000;fill:#000080;stroke-width:3.77952;-inkscape-stroke:none;stop-color:#000000"
           x="87.889206"
           y="899.22919"
           id="text10084"><tspan
             sodipodi:role="line"
             id="tspan10082"
             style="fill:#000080;stroke-width:3.77952"
             x="87.889206"
             y="899.22919">Profᵥ</tspan></text></a><path
         style="font-variation-settings:normal;opacity:1;vector-effect:none;fill:none;fill-opacity:1;stroke:#000000;stroke-width:0.499999;stroke-linecap:butt;stroke-linejoin:miter;stroke-miterlimit:4;stroke-dasharray:none;stroke-dashoffset:0;stroke-opacity:1;-inkscape-stroke:none;marker-end:url(#marker4141_Fnone_S-000000);stop-color:#000000;stop-opacity:1"
         d="m 93.09737,332.89292 v 12.6654"
         id="path10088"
         sodipodi:nodetypes="cc" /><path
         style="font-variation-settings:normal;opacity:1;vector-effect:none;fill:none;fill-opacity:1;stroke:#000000;stroke-width:0.499999;stroke-linecap:butt;stroke-linejoin:miter;stroke-miterlimit:4;stroke-dasharray:none;stroke-dashoffset:0;stroke-opacity:1;-inkscape-stroke:none;marker-end:url(#marker4141_Fnone_S-000000);stop-color:#000000;stop-opacity:1"
         d="m 107.86323,372.89292 v 12.6654"
         id="path15106"
         sodipodi:nodetypes="cc" /><a
         id="a15356"
         xlink:href="https://en.wikipedia.org/wiki/Functor_category"
         transform="translate(0,-548.8)"><text
           xml:space="preserve"
           style="font-size:4px;line-height:4.99999px;font-family:'Liberation Mono', monospace;-inkscape-font-specification:'Liberation Mono, monospace, Normal';text-decoration-color:#000000;fill:#800080;stroke-width:3.77952;-inkscape-stroke:none;stop-color:#000000"
           x="91.949059"
           y="931.48676"
           id="text15348"><tspan
             sodipodi:role="line"
             id="tspan15346"
             style="fill:#800080;stroke-width:3.77952"
             x="91.949059"
             y="931.48676">⇒ = Bᴬ</tspan></text></a><a
         id="a15368"
         xlink:href="https://en.wikipedia.org/wiki/Strict_2-category"
         transform="translate(0,-548.8)"><text
           xml:space="preserve"
           style="font-size:4px;line-height:4.99999px;font-family:'Liberation Mono', monospace;-inkscape-font-specification:'Liberation Mono, monospace, Normal';text-decoration-color:#000000;fill:#800080;stroke-width:3.77952;-inkscape-stroke:none;stop-color:#000000"
           x="91.949059"
           y="926.48676"
           id="text15360"><tspan
             sodipodi:role="line"
             id="tspan15358"
             style="fill:#800080;stroke-width:3.77952"
             x="91.949059"
             y="926.48676">⊗ = ×</tspan></text></a><path
         style="font-variation-settings:normal;opacity:1;vector-effect:none;fill:none;fill-opacity:1;stroke:#008000;stroke-width:0.499999;stroke-linecap:butt;stroke-linejoin:miter;stroke-miterlimit:4;stroke-dasharray:none;stroke-dashoffset:0;stroke-opacity:1;-inkscape-stroke:none;marker-end:url(#marker25583_Fnone_S-008000);stop-color:#000000;stop-opacity:1"
         d="m 58.09737,241.89292 v 34.1654"
         id="path27863"
         sodipodi:nodetypes="cc" /><a
         id="a30193"
         xlink:href="https://en.wikipedia.org/wiki/Hom_functor#Internal_Hom_functor"
         style="fill:#800080"
         transform="translate(-43.5,-22.5)"><text
           xml:space="preserve"
           style="font-size:4px;line-height:4.99999px;font-family:'Liberation Mono', monospace;-inkscape-font-specification:'Liberation Mono, monospace';text-decoration-color:#000000;fill:#800080;stroke-width:3.77952;-inkscape-stroke:none;stop-color:#000000"
           x="138.14827"
           y="250.6805"
           id="text30186"><tspan
             sodipodi:role="line"
             id="tspan30184"
             style="fill:#800080;stroke-width:3.77952"
             x="138.14827"
             y="250.6805">left and right identity I</tspan><tspan
             sodipodi:role="line"
             style="fill:#800080;stroke-width:3.77952"
             x="138.14827"
             y="255.68048"
             id="tspan30188">internal product bifunctor ⊗</tspan></text></a></g></g></svg>
