<?xml version="1.0" encoding="UTF-8" standalone="no"?>
<!-- Created with Inkscape (http://www.inkscape.org/) -->

<svg
   width="174.4258mm"
   height="57.568451mm"
   viewBox="0 0 174.4258 57.568451"
   version="1.1"
   id="svg1820"
   inkscape:version="1.3.2 (1:1.3.2+202311252150+091e20ef0f)"
   sodipodi:docname="public-paper-alternative.svg"
   xml:space="preserve"
   inkscape:export-filename="ssc/set-predicates-power-object.svg"
   inkscape:export-xdpi="96"
   inkscape:export-ydpi="96"
   xmlns:inkscape="http://www.inkscape.org/namespaces/inkscape"
   xmlns:sodipodi="http://sodipodi.sourceforge.net/DTD/sodipodi-0.dtd"
   xmlns="http://www.w3.org/2000/svg"
   xmlns:svg="http://www.w3.org/2000/svg"><sodipodi:namedview
     id="namedview1822"
     pagecolor="#ffffff"
     bordercolor="#666666"
     borderopacity="1.0"
     inkscape:showpageshadow="2"
     inkscape:pageopacity="0.0"
     inkscape:pagecheckerboard="0"
     inkscape:deskcolor="#d1d1d1"
     inkscape:document-units="mm"
     showgrid="true"
     inkscape:zoom="1.3061078"
     inkscape:cx="4444.503"
     inkscape:cy="3180.8247"
     inkscape:window-width="1368"
     inkscape:window-height="2496"
     inkscape:window-x="72"
     inkscape:window-y="27"
     inkscape:window-maximized="1"
     inkscape:current-layer="layer1"
     showguides="true"><inkscape:grid
       type="axonomgrid"
       id="grid18583"
       visible="true"
       originx="-1099.9808"
       originy="-919.04314"
       enabled="false"
       spacingy="1"
       gridanglex="30"
       gridanglez="30"
       units="mm" /><inkscape:grid
       type="xygrid"
       id="grid313765"
       enabled="true"
       units="mm"
       spacingx="1"
       spacingy="1"
       originx="-1099.9808"
       originy="-919.04314"
       dotted="false"
       visible="true" /></sodipodi:namedview><defs
     id="defs1817"><marker
       style="overflow:visible"
       id="ArrowWide_Fnone_S-33d17a"
       refX="0"
       refY="0"
       orient="auto-start-reverse"
       inkscape:stockid="Wide arrow"
       markerWidth="1"
       markerHeight="1"
       viewBox="0 0 1 1"
       inkscape:isstock="true"
       inkscape:collect="always"
       preserveAspectRatio="xMidYMid"><path
         style="fill:none;stroke:#33d17a;stroke-width:1;stroke-linecap:butt"
         d="M 3,-3 0,0 3,3"
         transform="rotate(180,0.125,0)"
         sodipodi:nodetypes="ccc"
         id="path5-6" /></marker><marker
       style="overflow:visible"
       id="ArrowWide_Fnone_S-e01b24"
       refX="0"
       refY="0"
       orient="auto-start-reverse"
       inkscape:stockid="Wide arrow"
       markerWidth="1"
       markerHeight="1"
       viewBox="0 0 1 1"
       inkscape:isstock="true"
       inkscape:collect="always"
       preserveAspectRatio="xMidYMid"><path
         style="fill:none;stroke:#e01b24;stroke-width:1;stroke-linecap:butt"
         d="M 3,-3 0,0 3,3"
         transform="rotate(180,0.125,0)"
         sodipodi:nodetypes="ccc"
         id="path4-7" /></marker><marker
       style="overflow:visible"
       id="ArrowWide_Fnone_S-000000-5"
       refX="0"
       refY="0"
       orient="auto-start-reverse"
       inkscape:stockid="Wide arrow"
       markerWidth="1"
       markerHeight="1"
       viewBox="0 0 1 1"
       inkscape:isstock="true"
       inkscape:collect="always"
       preserveAspectRatio="xMidYMid"><path
         style="fill:none;stroke:#000000;stroke-width:1;stroke-linecap:butt"
         d="M 3,-3 0,0 3,3"
         transform="rotate(180,0.125,0)"
         sodipodi:nodetypes="ccc"
         id="path3-3" /></marker><marker
       style="overflow:visible"
       id="ArrowWide_Fnone_S-9141ac"
       refX="0"
       refY="0"
       orient="auto-start-reverse"
       inkscape:stockid="Wide arrow"
       markerWidth="1"
       markerHeight="1"
       viewBox="0 0 1 1"
       inkscape:isstock="true"
       inkscape:collect="always"
       preserveAspectRatio="xMidYMid"><path
         style="fill:none;stroke:#9141ac;stroke-width:1;stroke-linecap:butt"
         d="M 3,-3 0,0 3,3"
         transform="rotate(180,0.125,0)"
         sodipodi:nodetypes="ccc"
         id="path2-5" /></marker></defs><g
     inkscape:label="Layer 1"
     inkscape:groupmode="layer"
     id="layer1"
     transform="translate(-1099.9808,-919.04313)"><rect
       style="font-variation-settings:normal;opacity:1;fill:none;fill-opacity:1;fill-rule:evenodd;stroke:#e6e6e6;stroke-width:0.5;stroke-linecap:butt;stroke-linejoin:miter;stroke-miterlimit:4;stroke-dasharray:none;stroke-dashoffset:0;stroke-opacity:1;stop-color:#000000;stop-opacity:1"
       id="rect1481"
       width="208"
       height="48"
       x="12"
       y="7" /><text
       xml:space="preserve"
       style="font-style:normal;font-variant:normal;font-weight:normal;font-stretch:normal;font-size:4px;line-height:4.99999px;font-family:'Liberation Sans', sans-serif;-inkscape-font-specification:'Liberation Sans, sans-serif';text-decoration-color:#000000;white-space:pre;shape-inside:url(#rect1481);display:inline;fill:#000000;stroke-width:3.77952;stop-color:#000000"
       x="30.093462"
       y="39.661663"
       id="text1498"><tspan
         x="12"
         y="10.61273"
         id="tspan2">Prefer to rich text in this document, in <tspan
   style="font-style:italic"
   id="tspan1">increasing</tspan> order of preference:
</tspan><tspan
         x="12"
         y="15.612719"
         id="tspan3">1. private-observations.md
</tspan><tspan
         x="12"
         y="20.61271"
         id="tspan4">2. observations.md
</tspan><tspan
         x="12"
         y="25.6127"
         id="tspan6">3. Some more specific document (e.g. refactor-code.md)</tspan></text><text
       xml:space="preserve"
       style="font-size:4px;line-height:4.99999px;font-family:'Liberation Mono', monospace;-inkscape-font-specification:'Liberation Mono, monospace';text-decoration-color:#000000;fill:#000000;stroke-width:3.77952;-inkscape-stroke:none;stop-color:#000000"
       x="1234.0375"
       y="970.47479"
       id="text123"
       inkscape:export-filename="ssc/two-person-likes-weather-predicate.svg"
       inkscape:export-xdpi="96"
       inkscape:export-ydpi="96"><tspan
         sodipodi:role="line"
         id="tspan123"
         style="stroke-width:3.77952"
         x="1234.0375"
         y="970.47479">{{0,1},{0},{1},∅}</tspan></text><text
       xml:space="preserve"
       style="font-size:4px;line-height:4.99999px;font-family:'Liberation Mono', monospace;-inkscape-font-specification:'Liberation Mono, monospace';text-decoration-color:#000000;fill:#000000;stroke-width:3.77952;-inkscape-stroke:none;stop-color:#000000"
       x="1233.0375"
       y="955.97479"
       id="text124"><tspan
         sodipodi:role="line"
         id="tspan124"
         style="stroke-width:3.77952"
         x="1233.0375"
         y="955.97479">{{0},∅}</tspan></text><text
       xml:space="preserve"
       style="font-size:4px;line-height:4.99999px;font-family:'Liberation Mono', monospace;-inkscape-font-specification:'Liberation Mono, monospace';text-decoration-color:#000000;fill:#000000;stroke-width:3.77952;-inkscape-stroke:none;stop-color:#000000"
       x="1258.0375"
       y="955.97479"
       id="text125"><tspan
         sodipodi:role="line"
         id="tspan125"
         style="stroke-width:3.77952"
         x="1258.0375"
         y="955.97479">{{1},∅}</tspan></text><text
       xml:space="preserve"
       style="font-size:4px;line-height:4.99999px;font-family:'Liberation Mono', monospace;-inkscape-font-specification:'Liberation Mono, monospace';text-decoration-color:#000000;fill:#000000;stroke-width:3.77952;-inkscape-stroke:none;stop-color:#000000"
       x="1248.0469"
       y="939.47479"
       id="text126"><tspan
         sodipodi:role="line"
         id="tspan126"
         style="stroke-width:3.77952"
         x="1248.0469"
         y="939.47479">{∅}</tspan></text><text
       xml:space="preserve"
       style="font-size:4px;line-height:4.99999px;font-family:'Liberation Mono', monospace;-inkscape-font-specification:'Liberation Mono, monospace';text-decoration-color:#000000;fill:#000000;stroke-width:3.77952;-inkscape-stroke:none;stop-color:#000000"
       x="1250.5012"
       y="930.23187"
       id="text127"><tspan
         sodipodi:role="line"
         id="tspan127"
         style="font-weight:bold;stroke-width:3.77952"
         x="1250.5012"
         y="930.23187">Ω</tspan></text><path
       style="font-variation-settings:normal;vector-effect:none;fill:none;fill-opacity:1;stroke:#000000;stroke-width:0.499999;stroke-linecap:butt;stroke-linejoin:miter;stroke-miterlimit:4;stroke-dasharray:none;stroke-dashoffset:0;stroke-opacity:1;-inkscape-stroke:none;marker-end:url(#ArrowWide_Fnone_S-000000-5);stop-color:#000000"
       d="m 1238.8051,952.1752 v -3.65012 h 12.9492 v -7.54755"
       id="path131"
       sodipodi:nodetypes="cccc" /><path
       style="font-variation-settings:normal;vector-effect:none;fill:none;fill-opacity:1;stroke:#000000;stroke-width:0.499999;stroke-linecap:butt;stroke-linejoin:miter;stroke-miterlimit:4;stroke-dasharray:none;stroke-dashoffset:0;stroke-opacity:1;-inkscape-stroke:none;marker-end:url(#ArrowWide_Fnone_S-000000-5);stop-color:#000000"
       d="m 1246.3051,952.1752 v -3.65012 h 5.4492 v -7.54755"
       id="path132"
       sodipodi:nodetypes="cccc" /><path
       style="font-variation-settings:normal;vector-effect:none;fill:none;fill-opacity:1;stroke:#000000;stroke-width:0.499999;stroke-linecap:butt;stroke-linejoin:miter;stroke-miterlimit:4;stroke-dasharray:none;stroke-dashoffset:0;stroke-opacity:1;-inkscape-stroke:none;marker-end:url(#ArrowWide_Fnone_S-000000-5);stop-color:#000000"
       d="m 1264.1811,952.1752 v -3.65012 h -12.4493 v -7.54755"
       id="path133"
       sodipodi:nodetypes="cccc" /><path
       style="font-variation-settings:normal;vector-effect:none;fill:none;fill-opacity:1;stroke:#000000;stroke-width:0.499999;stroke-linecap:butt;stroke-linejoin:miter;stroke-miterlimit:4;stroke-dasharray:none;stroke-dashoffset:0;stroke-opacity:1;-inkscape-stroke:none;marker-end:url(#ArrowWide_Fnone_S-000000-5);stop-color:#000000"
       d="m 1271.1811,952.1752 v -3.65012 h -19.4493 v -7.54755"
       id="path134"
       sodipodi:nodetypes="cccc" /><path
       style="font-variation-settings:normal;opacity:0.4;fill:none;fill-opacity:1;stroke:#e01b24;stroke-width:0.8;stroke-linecap:butt;stroke-linejoin:miter;stroke-miterlimit:4;stroke-dasharray:none;stroke-dashoffset:0;stroke-opacity:1;marker-end:url(#ArrowWide_Fnone_S-e01b24);stop-color:#000000"
       d="m 1242.4686,966.83875 v -2 h -3.5 l -0.051,-7.69767"
       id="path135"
       sodipodi:nodetypes="cccc" /><path
       style="font-variation-settings:normal;opacity:0.4;fill:none;fill-opacity:1;stroke:#e01b24;stroke-width:0.8;stroke-linecap:butt;stroke-linejoin:miter;stroke-miterlimit:4;stroke-dasharray:none;stroke-dashoffset:0;stroke-opacity:1;marker-end:url(#ArrowWide_Fnone_S-e01b24);stop-color:#000000"
       d="m 1254.4686,966.83875 v -2 h -15.5 l -0.051,-7.69767"
       id="path137"
       sodipodi:nodetypes="cccc" /><path
       style="font-variation-settings:normal;opacity:0.4;fill:none;fill-opacity:1;stroke:#e01b24;stroke-width:0.8;stroke-linecap:butt;stroke-linejoin:miter;stroke-miterlimit:4;stroke-dasharray:none;stroke-dashoffset:0;stroke-opacity:1;marker-end:url(#ArrowWide_Fnone_S-e01b24);stop-color:#000000"
       d="m 1263.9686,966.83875 v -3.5 h -17.5 l -0.051,-6.19767"
       id="path138"
       sodipodi:nodetypes="cccc" /><path
       style="font-variation-settings:normal;opacity:0.4;fill:none;fill-opacity:1;stroke:#e01b24;stroke-width:0.8;stroke-linecap:butt;stroke-linejoin:miter;stroke-miterlimit:4;stroke-dasharray:none;stroke-dashoffset:0;stroke-opacity:1;marker-end:url(#ArrowWide_Fnone_S-e01b24);stop-color:#000000"
       d="m 1271.3868,966.83875 v -3.5 h -24.9182 l -0.051,-6.19767"
       id="path139"
       sodipodi:nodetypes="cccc" /><path
       style="font-variation-settings:normal;opacity:0.4;fill:none;fill-opacity:1;stroke:#33d17a;stroke-width:0.8;stroke-linecap:butt;stroke-linejoin:miter;stroke-miterlimit:4;stroke-dasharray:none;stroke-dashoffset:0;stroke-opacity:1;marker-end:url(#ArrowWide_Fnone_S-33d17a);stop-color:#000000"
       d="m 1242.5002,966.83875 v -6.16355 h 21.5 l 0.051,-3.53412"
       id="path140"
       sodipodi:nodetypes="cccc" /><path
       style="font-variation-settings:normal;opacity:0.4;fill:none;fill-opacity:1;stroke:#33d17a;stroke-width:0.8;stroke-linecap:butt;stroke-linejoin:miter;stroke-miterlimit:4;stroke-dasharray:none;stroke-dashoffset:0;stroke-opacity:1;marker-end:url(#ArrowWide_Fnone_S-33d17a);stop-color:#000000"
       d="m 1254.5002,966.83875 v -4.66355 h 16.8365 l 0.051,-5.03412"
       id="path141"
       sodipodi:nodetypes="cccc" /><path
       style="font-variation-settings:normal;opacity:0.4;fill:none;fill-opacity:1;stroke:#33d17a;stroke-width:0.8;stroke-linecap:butt;stroke-linejoin:miter;stroke-miterlimit:4;stroke-dasharray:none;stroke-dashoffset:0;stroke-opacity:1;marker-end:url(#ArrowWide_Fnone_S-33d17a);stop-color:#000000"
       d="m 1271.3367,966.6752 0.051,-9.53412"
       id="path142"
       sodipodi:nodetypes="cc" /><path
       style="font-variation-settings:normal;opacity:0.4;fill:none;fill-opacity:1;stroke:#33d17a;stroke-width:0.8;stroke-linecap:butt;stroke-linejoin:miter;stroke-miterlimit:4;stroke-dasharray:none;stroke-dashoffset:0;stroke-opacity:1;marker-end:url(#ArrowWide_Fnone_S-33d17a);stop-color:#000000"
       d="m 1263.9593,966.6752 0.051,-9.53412"
       id="path143"
       sodipodi:nodetypes="cc" /><text
       xml:space="preserve"
       style="font-size:4px;line-height:4.99999px;font-family:'Liberation Mono', monospace;-inkscape-font-specification:'Liberation Mono, monospace';text-decoration-color:#000000;fill:#000000;stroke-width:3.77952;-inkscape-stroke:none;stop-color:#000000"
       x="1217.8182"
       y="935.6994"
       id="text144"><tspan
         sodipodi:role="line"
         id="tspan144"
         style="stroke-width:3.77952"
         x="1217.8182"
         y="935.6994">η<tspan
   style="font-size:65%;baseline-shift:sub"
   id="tspan143">{()}</tspan></tspan></text><text
       xml:space="preserve"
       style="font-size:4px;line-height:4.99999px;font-family:'Liberation Mono', monospace;-inkscape-font-specification:'Liberation Mono, monospace';text-decoration-color:#000000;fill:#000000;stroke-width:3.77952;-inkscape-stroke:none;stop-color:#000000"
       x="1192.2697"
       y="924.5661"
       id="text188"><tspan
         sodipodi:role="line"
         id="tspan188"
         style="stroke-width:3.77952"
         x="1192.2697"
         y="924.5661">F</tspan></text><text
       xml:space="preserve"
       style="font-size:4px;line-height:4.99999px;font-family:'Liberation Mono', monospace;-inkscape-font-specification:'Liberation Mono, monospace';text-decoration-color:#000000;fill:#000000;stroke-width:3.77952;-inkscape-stroke:none;stop-color:#000000"
       x="1250.2697"
       y="924.5661"
       id="text189"><tspan
         sodipodi:role="line"
         id="tspan189"
         style="stroke-width:3.77952"
         x="1250.2697"
         y="924.5661">G</tspan></text><text
       xml:space="preserve"
       style="font-size:4px;line-height:4.99999px;font-family:'Liberation Mono', monospace;-inkscape-font-specification:'Liberation Mono, monospace';text-decoration-color:#000000;fill:#000000;stroke-width:3.77952;-inkscape-stroke:none;stop-color:#000000"
       x="1215.3182"
       y="921.1994"
       id="text191"><tspan
         sodipodi:role="line"
         id="tspan191-7"
         style="stroke-width:3.77952"
         x="1215.3182"
         y="921.1994">η = p</tspan></text><path
       style="font-variation-settings:normal;fill:none;fill-opacity:1;stroke:#9141ac;stroke-width:0.5;stroke-linecap:butt;stroke-linejoin:miter;stroke-miterlimit:4;stroke-dasharray:none;stroke-dashoffset:0;stroke-opacity:1;marker-end:url(#ArrowWide_Fnone_S-9141ac);stop-color:#000000"
       d="m 1195.5028,923.39135 h 53.6557"
       id="path191"
       sodipodi:nodetypes="cc" /><text
       xml:space="preserve"
       style="font-size:4px;line-height:4.99999px;font-family:'Liberation Mono', monospace;-inkscape-font-specification:'Liberation Mono, monospace';text-decoration-color:#000000;fill:#000000;stroke-width:3.77952;-inkscape-stroke:none;stop-color:#000000"
       x="1107.0375"
       y="940.97479"
       id="text205-9"
       inkscape:export-filename="../source/personal-notes/jb/tar/notes/ssc/true-sheaf-morphism.svg"
       inkscape:export-xdpi="96"
       inkscape:export-ydpi="96"><tspan
         sodipodi:role="line"
         id="tspan205-2"
         style="stroke-width:3.77952"
         x="1107.0375"
         y="940.97479">{0,1}</tspan></text><text
       xml:space="preserve"
       style="font-size:4px;line-height:4.99999px;font-family:'Liberation Mono', monospace;-inkscape-font-specification:'Liberation Mono, monospace';text-decoration-color:#000000;fill:#000000;stroke-width:3.77952;-inkscape-stroke:none;stop-color:#000000"
       x="1099.5375"
       y="955.97479"
       id="text206-0"><tspan
         sodipodi:role="line"
         id="tspan206-2"
         style="stroke-width:3.77952"
         x="1099.5375"
         y="955.97479">{0}</tspan></text><text
       xml:space="preserve"
       style="font-size:4px;line-height:4.99999px;font-family:'Liberation Mono', monospace;-inkscape-font-specification:'Liberation Mono, monospace';text-decoration-color:#000000;fill:#000000;stroke-width:3.77952;-inkscape-stroke:none;stop-color:#000000"
       x="1119.5375"
       y="955.97479"
       id="text207-3"><tspan
         sodipodi:role="line"
         id="tspan207-7"
         style="stroke-width:3.77952"
         x="1119.5375"
         y="955.97479">{1}</tspan></text><text
       xml:space="preserve"
       style="font-size:4px;line-height:4.99999px;font-family:'Liberation Mono', monospace;-inkscape-font-specification:'Liberation Mono, monospace';text-decoration-color:#000000;fill:#000000;stroke-width:3.77952;-inkscape-stroke:none;stop-color:#000000"
       x="1112.0375"
       y="970.47479"
       id="text208"><tspan
         sodipodi:role="line"
         id="tspan208-5"
         style="stroke-width:3.77952"
         x="1112.0375"
         y="970.47479">∅</tspan></text><text
       xml:space="preserve"
       style="font-size:4px;line-height:4.99999px;font-family:'Liberation Mono', monospace;-inkscape-font-specification:'Liberation Mono, monospace';text-decoration-color:#000000;fill:#000000;stroke-width:3.77952;-inkscape-stroke:none;stop-color:#000000"
       x="1110.6742"
       y="933.73187"
       id="text209-9"><tspan
         sodipodi:role="line"
         id="tspan209-2"
         style="font-weight:bold;stroke-width:3.77952"
         x="1110.6742"
         y="933.73187">Op</tspan></text><text
       xml:space="preserve"
       style="font-size:4px;line-height:4.99999px;font-family:'Liberation Mono', monospace;-inkscape-font-specification:'Liberation Mono, monospace';text-decoration-color:#000000;fill:#000000;stroke-width:3.77952;-inkscape-stroke:none;stop-color:#000000"
       x="1142.0375"
       y="970.45142"
       id="text210-2"><tspan
         sodipodi:role="line"
         id="tspan210-8"
         style="stroke-width:3.77952"
         x="1142.0375"
         y="970.45142">{0,1}</tspan></text><text
       xml:space="preserve"
       style="font-size:4px;line-height:4.99999px;font-family:'Liberation Mono', monospace;-inkscape-font-specification:'Liberation Mono, monospace';text-decoration-color:#000000;fill:#000000;stroke-width:3.77952;-inkscape-stroke:none;stop-color:#000000"
       x="1134.5375"
       y="955.95142"
       id="text211-9"><tspan
         sodipodi:role="line"
         id="tspan211-7"
         style="stroke-width:3.77952"
         x="1134.5375"
         y="955.95142">{0}</tspan></text><text
       xml:space="preserve"
       style="font-size:4px;line-height:4.99999px;font-family:'Liberation Mono', monospace;-inkscape-font-specification:'Liberation Mono, monospace';text-decoration-color:#000000;fill:#000000;stroke-width:3.77952;-inkscape-stroke:none;stop-color:#000000"
       x="1154.5375"
       y="955.95142"
       id="text212-3"><tspan
         sodipodi:role="line"
         id="tspan212-6"
         style="stroke-width:3.77952"
         x="1154.5375"
         y="955.95142">{1}</tspan></text><text
       xml:space="preserve"
       style="font-size:4px;line-height:4.99999px;font-family:'Liberation Mono', monospace;-inkscape-font-specification:'Liberation Mono, monospace';text-decoration-color:#000000;fill:#000000;stroke-width:3.77952;-inkscape-stroke:none;stop-color:#000000"
       x="1147.0375"
       y="941.39282"
       id="text213-1"><tspan
         sodipodi:role="line"
         id="tspan213-2"
         style="stroke-width:3.77952"
         x="1147.0375"
         y="941.39282">∅</tspan></text><text
       xml:space="preserve"
       style="font-size:4px;line-height:4.99999px;font-family:'Liberation Mono', monospace;-inkscape-font-specification:'Liberation Mono, monospace';text-decoration-color:#000000;fill:#000000;stroke-width:3.77952;-inkscape-stroke:none;stop-color:#000000"
       x="1143.1742"
       y="933.73187"
       id="text214-9"><tspan
         sodipodi:role="line"
         id="tspan214-3"
         style="font-weight:bold;stroke-width:3.77952"
         x="1143.1742"
         y="933.73187">Opᵒᵖ</tspan></text><path
       style="font-variation-settings:normal;vector-effect:none;fill:none;fill-opacity:1;stroke:#000000;stroke-width:0.499999;stroke-linecap:butt;stroke-linejoin:miter;stroke-miterlimit:4;stroke-dasharray:none;stroke-dashoffset:0;stroke-opacity:1;-inkscape-stroke:none;marker-end:url(#ArrowWide_Fnone_S-000000-5);stop-color:#000000"
       d="m 1103.3051,952.1752 v -4.15012 h 9.9492 v -5.04755"
       id="path214"
       sodipodi:nodetypes="cccc" /><path
       style="font-variation-settings:normal;vector-effect:none;fill:none;fill-opacity:1;stroke:#000000;stroke-width:0.499999;stroke-linecap:butt;stroke-linejoin:miter;stroke-miterlimit:4;stroke-dasharray:none;stroke-dashoffset:0;stroke-opacity:1;-inkscape-stroke:none;marker-end:url(#ArrowWide_Fnone_S-000000-5);stop-color:#000000"
       d="m 1123.1811,952.1752 v -4.15012 h -9.9493 v -5.04755"
       id="path215"
       sodipodi:nodetypes="cccc" /><path
       style="font-variation-settings:normal;vector-effect:none;fill:none;fill-opacity:1;stroke:#000000;stroke-width:0.499999;stroke-linecap:butt;stroke-linejoin:miter;stroke-miterlimit:4;stroke-dasharray:none;stroke-dashoffset:0;stroke-opacity:1;-inkscape-stroke:none;marker-end:url(#ArrowWide_Fnone_S-000000-5);stop-color:#000000"
       d="m 1113.2318,966.69665 v -5.04755 h 9.9493 v -4.15012"
       id="path216"
       sodipodi:nodetypes="cccc" /><path
       style="font-variation-settings:normal;vector-effect:none;fill:none;fill-opacity:1;stroke:#000000;stroke-width:0.499999;stroke-linecap:butt;stroke-linejoin:miter;stroke-miterlimit:4;stroke-dasharray:none;stroke-dashoffset:0;stroke-opacity:1;-inkscape-stroke:none;marker-end:url(#ArrowWide_Fnone_S-000000-5);stop-color:#000000"
       d="m 1113.1079,966.69665 v -5.04755 h -9.9493 v -4.15012"
       id="path217"
       sodipodi:nodetypes="cccc" /><path
       style="font-variation-settings:normal;vector-effect:none;fill:none;fill-opacity:1;stroke:#000000;stroke-width:0.499999;stroke-linecap:butt;stroke-linejoin:miter;stroke-miterlimit:4;stroke-dasharray:none;stroke-dashoffset:0;stroke-opacity:1;-inkscape-stroke:none;marker-end:url(#ArrowWide_Fnone_S-000000-5);stop-color:#000000"
       d="m 1138.3051,952.1752 v -4.15012 h 9.9492 v -5.04755"
       id="path218-1"
       sodipodi:nodetypes="cccc" /><path
       style="font-variation-settings:normal;vector-effect:none;fill:none;fill-opacity:1;stroke:#000000;stroke-width:0.499999;stroke-linecap:butt;stroke-linejoin:miter;stroke-miterlimit:4;stroke-dasharray:none;stroke-dashoffset:0;stroke-opacity:1;-inkscape-stroke:none;marker-end:url(#ArrowWide_Fnone_S-000000-5);stop-color:#000000"
       d="m 1158.1811,952.1752 v -4.15012 h -9.9493 v -5.04755"
       id="path219-9"
       sodipodi:nodetypes="cccc" /><path
       style="font-variation-settings:normal;vector-effect:none;fill:none;fill-opacity:1;stroke:#000000;stroke-width:0.499999;stroke-linecap:butt;stroke-linejoin:miter;stroke-miterlimit:4;stroke-dasharray:none;stroke-dashoffset:0;stroke-opacity:1;-inkscape-stroke:none;marker-end:url(#ArrowWide_Fnone_S-000000-5);stop-color:#000000"
       d="m 1148.2318,966.69665 v -5.04755 h 9.9493 v -4.15012"
       id="path220-4"
       sodipodi:nodetypes="cccc" /><path
       style="font-variation-settings:normal;vector-effect:none;fill:none;fill-opacity:1;stroke:#000000;stroke-width:0.499999;stroke-linecap:butt;stroke-linejoin:miter;stroke-miterlimit:4;stroke-dasharray:none;stroke-dashoffset:0;stroke-opacity:1;-inkscape-stroke:none;marker-end:url(#ArrowWide_Fnone_S-000000-5);stop-color:#000000"
       d="m 1148.1079,966.69665 v -5.04755 h -9.9493 v -4.15012"
       id="path221-7"
       sodipodi:nodetypes="cccc" /><text
       xml:space="preserve"
       style="font-size:4px;line-height:4.99999px;font-family:'Liberation Mono', monospace;-inkscape-font-specification:'Liberation Mono, monospace';text-decoration-color:#000000;fill:#000000;stroke-width:3.77952;-inkscape-stroke:none;stop-color:#000000"
       x="1169.0375"
       y="970.45142"
       id="text114"><tspan
         sodipodi:role="line"
         id="tspan114"
         style="stroke-width:3.77952"
         x="1169.0375"
         y="970.45142">{(t₀ᴀ,t₁ʙ),(t₀ᴀ,t₁ᴀ)}</tspan></text><text
       xml:space="preserve"
       style="font-size:4px;line-height:4.99999px;font-family:'Liberation Mono', monospace;-inkscape-font-specification:'Liberation Mono, monospace';text-decoration-color:#000000;fill:#000000;stroke-width:3.77952;-inkscape-stroke:none;stop-color:#000000"
       x="1170.5375"
       y="955.95142"
       id="text115"><tspan
         sodipodi:role="line"
         id="tspan115"
         style="stroke-width:3.77952"
         x="1170.5375"
         y="955.95142">{(t₀ᴀ)}</tspan></text><text
       xml:space="preserve"
       style="font-size:4px;line-height:4.99999px;font-family:'Liberation Mono', monospace;-inkscape-font-specification:'Liberation Mono, monospace';text-decoration-color:#000000;fill:#000000;stroke-width:3.77952;-inkscape-stroke:none;stop-color:#000000"
       x="1191.0375"
       y="955.95142"
       id="text116"><tspan
         sodipodi:role="line"
         id="tspan116"
         style="stroke-width:3.77952"
         x="1191.0375"
         y="955.95142">{(t₁ʙ),(t₁ᴀ)}</tspan></text><text
       xml:space="preserve"
       style="font-size:4px;line-height:4.99999px;font-family:'Liberation Mono', monospace;-inkscape-font-specification:'Liberation Mono, monospace';text-decoration-color:#000000;fill:#000000;stroke-width:3.77952;-inkscape-stroke:none;stop-color:#000000"
       x="1188.5375"
       y="939.39282"
       id="text117"><tspan
         sodipodi:role="line"
         id="tspan117"
         style="stroke-width:3.77952"
         x="1188.5375"
         y="939.39282">{()}</tspan></text><text
       xml:space="preserve"
       style="font-size:4px;line-height:4.99999px;font-family:'Liberation Mono', monospace;-inkscape-font-specification:'Liberation Mono, monospace';text-decoration-color:#000000;fill:#000000;stroke-width:3.77952;-inkscape-stroke:none;stop-color:#000000"
       x="1192.1742"
       y="930.23187"
       id="text118"><tspan
         sodipodi:role="line"
         id="tspan118"
         style="font-weight:bold;stroke-width:3.77952"
         x="1192.1742"
         y="930.23187">S</tspan></text><path
       style="font-variation-settings:normal;vector-effect:none;fill:none;fill-opacity:1;stroke:#000000;stroke-width:0.499999;stroke-linecap:butt;stroke-linejoin:miter;stroke-miterlimit:4;stroke-dasharray:none;stroke-dashoffset:0;stroke-opacity:1;-inkscape-stroke:none;marker-end:url(#ArrowWide_Fnone_S-000000-5);stop-color:#000000"
       d="m 1183.3051,952.1752 v -4.15012 h 9.9492 v -6.54755"
       id="path118"
       sodipodi:nodetypes="cccc" /><path
       style="font-variation-settings:normal;vector-effect:none;fill:none;fill-opacity:1;stroke:#000000;stroke-width:0.499999;stroke-linecap:butt;stroke-linejoin:miter;stroke-miterlimit:4;stroke-dasharray:none;stroke-dashoffset:0;stroke-opacity:1;-inkscape-stroke:none;marker-end:url(#ArrowWide_Fnone_S-000000-5);stop-color:#000000"
       d="m 1203.1811,952.1752 v -4.15012 h -9.9493 v -6.54755"
       id="path119"
       sodipodi:nodetypes="cccc" /><path
       style="font-variation-settings:normal;vector-effect:none;fill:none;fill-opacity:1;stroke:#000000;stroke-width:0.499999;stroke-linecap:butt;stroke-linejoin:miter;stroke-miterlimit:4;stroke-dasharray:none;stroke-dashoffset:0;stroke-opacity:1;-inkscape-stroke:none;marker-end:url(#ArrowWide_Fnone_S-000000-5);stop-color:#000000"
       d="m 1193.2318,966.69665 v -5.04755 h 9.9493 v -4.15012"
       id="path120"
       sodipodi:nodetypes="cccc" /><path
       style="font-variation-settings:normal;vector-effect:none;fill:none;fill-opacity:1;stroke:#000000;stroke-width:0.499999;stroke-linecap:butt;stroke-linejoin:miter;stroke-miterlimit:4;stroke-dasharray:none;stroke-dashoffset:0;stroke-opacity:1;-inkscape-stroke:none;marker-end:url(#ArrowWide_Fnone_S-000000-5);stop-color:#000000"
       d="m 1193.1079,966.69665 v -5.04755 h -9.9493 v -4.15012"
       id="path121"
       sodipodi:nodetypes="cccc" /><path
       style="font-variation-settings:normal;fill:none;fill-opacity:1;stroke:#9141ac;stroke-width:0.5;stroke-linecap:butt;stroke-linejoin:miter;stroke-miterlimit:4;stroke-dasharray:none;stroke-dashoffset:0;stroke-opacity:1;marker-end:url(#ArrowWide_Fnone_S-9141ac);stop-color:#000000"
       d="m 1199.0028,938.39135 h 48.1557"
       id="path52"
       sodipodi:nodetypes="cc" /><path
       style="font-variation-settings:normal;fill:none;fill-opacity:1;stroke:#9141ac;stroke-width:0.5;stroke-linecap:butt;stroke-linejoin:miter;stroke-miterlimit:4;stroke-dasharray:none;stroke-dashoffset:0;stroke-opacity:1;marker-end:url(#ArrowWide_Fnone_S-9141ac);stop-color:#000000"
       d="m 1213.7829,952.11155 v -8.2202 h 57.4343 l -0.011,3.7189"
       id="path59"
       sodipodi:nodetypes="cccc" /><path
       style="font-variation-settings:normal;fill:none;fill-opacity:1;stroke:#9141ac;stroke-width:0.5;stroke-linecap:butt;stroke-linejoin:miter;stroke-miterlimit:4;stroke-dasharray:none;stroke-dashoffset:0;stroke-opacity:1;marker-end:url(#ArrowWide_Fnone_S-9141ac);stop-color:#000000"
       d="m 1199.7829,952.11155 v -9.2202 h 64.4343 l -0.011,4.7189"
       id="path60"
       sodipodi:nodetypes="cccc" /><path
       style="font-variation-settings:normal;fill:none;fill-opacity:1;stroke:#9141ac;stroke-width:0.5;stroke-linecap:butt;stroke-linejoin:miter;stroke-miterlimit:4;stroke-dasharray:none;stroke-dashoffset:0;stroke-opacity:1;marker-end:url(#ArrowWide_Fnone_S-9141ac);stop-color:#000000"
       d="m 1178.7829,952.11155 v -6.7202 h 60.0775 l -0.011,2.2189"
       id="path61"
       sodipodi:nodetypes="cccc" /><path
       style="font-variation-settings:normal;fill:none;fill-opacity:1;stroke:#9141ac;stroke-width:0.5;stroke-linecap:butt;stroke-linejoin:miter;stroke-miterlimit:4;stroke-dasharray:none;stroke-dashoffset:0;stroke-opacity:1;marker-end:url(#ArrowWide_Fnone_S-9141ac);stop-color:#000000"
       d="m 1181.7829,971.64135 v 2.7202 h 60.0775 l -0.011,-2.2189"
       id="path62"
       sodipodi:nodetypes="cccc" /><path
       style="font-variation-settings:normal;fill:none;fill-opacity:1;stroke:#9141ac;stroke-width:0.5;stroke-linecap:butt;stroke-linejoin:miter;stroke-miterlimit:4;stroke-dasharray:none;stroke-dashoffset:0;stroke-opacity:1;marker-end:url(#ArrowWide_Fnone_S-9141ac);stop-color:#000000"
       d="m 1206.7829,971.64135 v 4.7202 h 47.5775 l -0.011,-4.2189"
       id="path63"
       sodipodi:nodetypes="cccc" /></g></svg>
