<?xml version="1.0" encoding="UTF-8" standalone="no"?>
<!-- Created with Inkscape (http://www.inkscape.org/) -->

<svg
   width="302.69391"
   height="315.63297"
   viewBox="0 0 302.6939 315.63296"
   version="1.1"
   id="svg1"
   inkscape:version="1.3.2 (1:1.3.2+202311252150+091e20ef0f)"
   sodipodi:docname="03-4-ex-13-circle-right-cayley.svg"
   xmlns:inkscape="http://www.inkscape.org/namespaces/inkscape"
   xmlns:sodipodi="http://sodipodi.sourceforge.net/DTD/sodipodi-0.dtd"
   xmlns="http://www.w3.org/2000/svg"
   xmlns:svg="http://www.w3.org/2000/svg">
  <sodipodi:namedview
     id="namedview1"
     pagecolor="#ffffff"
     bordercolor="#666666"
     borderopacity="1.0"
     inkscape:showpageshadow="2"
     inkscape:pageopacity="0.0"
     inkscape:pagecheckerboard="0"
     inkscape:deskcolor="#d1d1d1"
     inkscape:document-units="px"
     showgrid="true"
     inkscape:zoom="2.825"
     inkscape:cx="174.51327"
     inkscape:cy="204.77876"
     inkscape:current-layer="layer1">
    <inkscape:grid
       id="grid1"
       units="px"
       originx="-93.755005"
       originy="-71.766403"
       spacingx="1"
       spacingy="1"
       empcolor="#0099e5"
       empopacity="0.30196078"
       color="#0099e5"
       opacity="0.14901961"
       empspacing="5"
       dotted="false"
       gridanglex="30"
       gridanglez="30"
       visible="true" />
    <inkscape:page
       x="0"
       y="0"
       width="302.69391"
       height="315.63297"
       id="page39"
       margin="10"
       bleed="0" />
  </sodipodi:namedview>
  <defs
     id="defs1">
    <marker
       style="overflow:visible"
       id="ArrowWide"
       refX="0"
       refY="0"
       orient="auto-start-reverse"
       inkscape:stockid="Wide arrow"
       markerWidth="1"
       markerHeight="1"
       viewBox="0 0 1 1"
       inkscape:isstock="true"
       inkscape:collect="always"
       preserveAspectRatio="xMidYMid">
      <path
         style="fill:none;stroke:context-stroke;stroke-width:1;stroke-linecap:butt"
         d="M 3,-3 0,0 3,3"
         transform="rotate(180,0.125,0)"
         sodipodi:nodetypes="ccc"
         id="path1" />
    </marker>
    <marker
       style="overflow:visible"
       id="ArrowWide_Fnone_S-000000"
       refX="0"
       refY="0"
       orient="auto-start-reverse"
       inkscape:stockid="Wide arrow"
       markerWidth="1"
       markerHeight="1"
       viewBox="0 0 1 1"
       inkscape:isstock="true"
       inkscape:collect="always"
       preserveAspectRatio="xMidYMid">
      <path
         style="fill:none;stroke:#000000;stroke-width:1;stroke-linecap:butt"
         d="M 3,-3 0,0 3,3"
         transform="rotate(180,0.125,0)"
         sodipodi:nodetypes="ccc"
         id="path2" />
    </marker>
  </defs>
  <g
     inkscape:label="Layer 1"
     inkscape:groupmode="layer"
     id="layer1"
     transform="translate(-93.755006,-71.7664)">
    <path
       id="path39"
       d="m 183.58468,272.3968 h 11.05344 c 2.12512,0 4.2512,2.1248 4.2512,4.2496 v 11.0528 c 0,1.0624 -1.06304,2.1248 -2.12608,2.1248 v 0 c -1.0624,0 -2.12512,-1.0624 -2.12512,-2.1248 V 277.072 c 0,-0.2112 -0.2128,-0.4256 -0.42496,-0.4256 v 0 c -0.2128,0 -0.4256,0.2144 -0.4256,0.4256 v 30.1824 c 0,1.0624 -1.0624,2.1248 -2.12544,2.1248 v 0 c -1.06304,0 -2.12576,-1.0624 -2.12576,-2.1248 v -13.6032 c 0,-0.2144 -0.21248,-0.4256 -0.42528,-0.4256 v 0 c -0.21216,0 -0.42464,0.2112 -0.42464,0.4256 v 13.6032 c 0,1.0624 -1.06336,2.1248 -2.12576,2.1248 v 0 c -1.06272,0 -2.12544,-1.0624 -2.12544,-2.1248 V 277.072 c 0,-0.2112 -0.21248,-0.4256 -0.42496,-0.4256 v 0 c -0.2128,0 -0.4256,0.2144 -0.4256,0.4256 v 10.6272 c 0,1.0624 -1.0624,2.1248 -2.12512,2.1248 v 0 c -1.06304,0 -2.12608,-1.0624 -2.12608,-2.1248 v -11.0528 c 0,-2.1248 2.12608,-4.2496 4.2512,-4.2496 v 0"
       style="fill:#0005fd;fill-opacity:1;fill-rule:nonzero;stroke:none;stroke-width:0.32" />
    <path
       id="path40"
       d="m 193.36292,266.0192 c 0,-2.3488 -1.90336,-4.2528 -4.25184,-4.2528 -2.34752,0 -4.2512,1.904 -4.2512,4.2528 0,2.3488 1.90368,4.2528 4.2512,4.2528 2.34848,0 4.25184,-1.904 4.25184,-4.2528"
       style="fill:#0005fd;fill-opacity:1;fill-rule:nonzero;stroke:none;stroke-width:0.32" />
    <path
       id="path41"
       d="m 116.84196,272.7104 h 8.50208 c 1.53056,0 2.79008,0.4736 3.31392,1.9136 l 3.92544,10.784 c 0.32704,0.8992 -0.24416,2.1248 -1.14336,2.4544 v 0 c -0.89856,0.3264 -2.1248,-0.2464 -2.45184,-1.1424 l -3.92576,-10.7872 c -0.0723,-0.2016 -0.34528,-0.3264 -0.54496,-0.2528 v 0 c -0.19936,0.0704 -0.32704,0.3424 -0.2544,0.544 l 6.94272,17.8304 h -5.86176 v 9.5648 c 0,0.9568 -0.95616,1.9136 -1.91264,1.9136 v 0 c -0.9568,0 -1.91296,-0.9568 -1.91296,-1.9136 v -9.5648 h -0.85024 v 9.5648 c 0,0.9568 -0.9568,1.9136 -1.91328,1.9136 v 0 c -0.95648,0 -1.91296,-0.9568 -1.91296,-1.9136 v -9.5648 h -5.86144 l 6.94208,-17.8304 c 0.0726,-0.2016 -0.0544,-0.4736 -0.25408,-0.544 v 0 c -0.19936,-0.0736 -0.472,0.0512 -0.54496,0.2528 L 113.1978,286.72 c -0.3264,0.896 -1.55296,1.4688 -2.45184,1.1424 v 0 c -0.89856,-0.3296 -1.47008,-1.5552 -1.14304,-2.4544 l 3.92576,-10.784 c 0.52288,-1.44 1.78304,-1.9136 3.31328,-1.9136"
       style="fill:#f5000c;fill-opacity:1;fill-rule:nonzero;stroke:none;stroke-width:0.32" />
    <path
       id="path42"
       d="m 124.91908,266.9728 c 0,-2.1152 -1.71264,-3.8272 -3.82624,-3.8272 -2.11264,0 -3.8256,1.712 -3.8256,3.8272 0,2.112 1.71296,3.824 3.8256,3.824 2.1136,0 3.82624,-1.712 3.82624,-3.824"
       style="fill:#f5000c;fill-opacity:1;fill-rule:nonzero;stroke:none;stroke-width:0.32" />
    <path
       id="path43"
       d="m 115.56676,340.4128 h 11.05248 c 2.12608,0 4.2512,2.128 4.2512,4.2528 v 11.0528 c 0,1.0624 -1.06272,2.1248 -2.12512,2.1248 v 0 c -1.06272,0 -2.12608,-1.0624 -2.12608,-2.1248 v -10.6272 c 0,-0.2144 -0.21216,-0.4256 -0.42464,-0.4256 v 0 c -0.21248,0 -0.42496,0.2112 -0.42496,0.4256 v 30.1824 c 0,1.0624 -1.06304,2.1248 -2.12608,2.1248 v 0 c -1.06272,0 -2.12512,-1.0624 -2.12512,-2.1248 v -13.6032 c 0,-0.2144 -0.21248,-0.4256 -0.4256,-0.4256 v 0 c -0.21248,0 -0.42464,0.2112 -0.42464,0.4256 v 13.6032 c 0,1.0624 -1.06304,2.1248 -2.12544,2.1248 v 0 c -1.06304,0 -2.12576,-1.0624 -2.12576,-2.1248 v -30.1824 c 0,-0.2144 -0.21248,-0.4256 -0.42528,-0.4256 v 0 c -0.21248,0 -0.42496,0.2112 -0.42496,0.4256 v 10.6272 c 0,1.0624 -1.06272,2.1248 -2.12576,2.1248 v 0 c -1.06304,0 -2.12544,-1.0624 -2.12544,-2.1248 v -11.0528 c 0,-2.1248 2.12544,-4.2528 4.2512,-4.2528 v 0"
       style="fill:#337fff;fill-opacity:1;fill-rule:nonzero;stroke:none;stroke-width:0.32" />
    <path
       id="path44"
       d="m 125.34404,334.0384 c 0,-2.3488 -1.90304,-4.2528 -4.2512,-4.2528 -2.34752,0 -4.25088,1.904 -4.25088,4.2528 0,2.3456 1.90336,4.2496 4.25088,4.2496 2.34816,0 4.2512,-1.904 4.2512,-4.2496"
       style="fill:#337fff;fill-opacity:1;fill-rule:nonzero;stroke:none;stroke-width:0.32" />
    <path
       id="path45"
       d="m 184.85988,340.7296 h 8.50304 c 1.53024,0 2.78912,0.4736 3.31296,1.9136 l 3.92576,10.784 c 0.32736,0.8992 -0.24448,2.1248 -1.14336,2.4512 v 0 c -0.89888,0.3264 -2.1248,-0.2432 -2.45216,-1.1424 l -3.92544,-10.784 c -0.073,-0.2016 -0.34496,-0.3296 -0.54432,-0.256 v 0 c -0.20032,0.0736 -0.32736,0.3456 -0.25504,0.544 l 6.94272,17.8336 h -5.86112 v 9.5648 c 0,0.9568 -0.95712,1.9136 -1.91328,1.9136 v 0 c -0.9568,0 -1.91328,-0.9568 -1.91328,-1.9136 v -9.5648 h -0.84992 v 9.5648 c 0,0.9568 -0.9568,1.9136 -1.91296,1.9136 v 0 c -0.95648,0 -1.9136,-0.9568 -1.9136,-1.9136 v -9.5648 h -5.8608 l 6.94176,-17.8336 c 0.073,-0.1984 -0.0541,-0.4704 -0.25376,-0.544 v 0 c -0.2,-0.0736 -0.47232,0.0544 -0.54464,0.256 l -3.92576,10.784 c -0.32736,0.8992 -1.55328,1.4688 -2.45248,1.1424 v 0 c -0.89856,-0.3264 -1.4704,-1.552 -1.14304,-2.4512 l 3.92576,-10.784 c 0.52352,-1.44 1.78272,-1.9136 3.31296,-1.9136"
       style="fill:#ff618c;fill-opacity:1;fill-rule:nonzero;stroke:none;stroke-width:0.32" />
    <path
       id="path46"
       d="m 192.93764,334.992 c 0,-2.1152 -1.71296,-3.8272 -3.82656,-3.8272 -2.11264,0 -3.8256,1.712 -3.8256,3.8272 0,2.1088 1.71296,3.824 3.8256,3.824 2.1136,0 3.82656,-1.7152 3.82656,-3.824"
       style="fill:#ff618c;fill-opacity:1;fill-rule:nonzero;stroke:none;stroke-width:0.32" />
    <g
       id="g100">
      <path
         id="path47"
         d="m 204.0074,305.024 c 1.37248,4.6112 2.10816,9.5008 2.10816,14.56 0,7.7056 -1.70912,15.0144 -4.76768,21.5648"
         style="fill:none;stroke:#000000;stroke-width:0.666707;stroke-linecap:round;stroke-linejoin:round;stroke-miterlimit:10;stroke-dasharray:none;stroke-opacity:1" />
      <path
         id="path48"
         d="m 201.34788,298.0192 c 0.43872,2.4832 0.69568,5.0112 0.76,7.568 l 3.79872,-1.1296 c -1.36096,-2.2784 -2.88672,-4.4288 -4.55872,-6.4384 v 0"
         style="fill:#000000;fill-opacity:1;fill-rule:nonzero;stroke:none;stroke-width:0.32" />
      <path
         id="path49"
         d="m 201.34788,298.0192 c 0.43872,2.4832 0.69568,5.0112 0.76,7.568 l 3.79872,-1.1296 c -1.36096,-2.2784 -2.88672,-4.4288 -4.55872,-6.4384 z"
         style="fill:none;stroke:#000000;stroke-width:0.666707;stroke-linecap:round;stroke-linejoin:round;stroke-miterlimit:10;stroke-dasharray:none;stroke-opacity:1" />
    </g>
    <g
       id="g98">
      <path
         id="path50"
         d="m 144.85988,269.6 c 3.3088,-0.6752 6.73408,-1.0304 10.24224,-1.0304 6.13056,0 12.008,1.0816 17.45248,3.0624"
         style="fill:none;stroke:#000000;stroke-width:0.666707;stroke-linecap:round;stroke-linejoin:round;stroke-miterlimit:10;stroke-dasharray:none;stroke-opacity:1" />
      <path
         id="path51"
         d="m 137.64964,271.632 c 2.50688,-0.2176 5.04768,-0.2528 7.60608,-0.0928 l -0.79136,-3.8816 c -2.39488,1.1584 -4.67072,2.4896 -6.81472,3.9744 v 0"
         style="fill:#000000;fill-opacity:1;fill-rule:nonzero;stroke:none;stroke-width:0.32" />
      <path
         id="path52"
         d="m 137.64964,271.632 c 2.50688,-0.2176 5.04768,-0.2528 7.60608,-0.0928 l -0.79136,-3.8816 c -2.39488,1.1584 -4.67072,2.4896 -6.81472,3.9744 z"
         style="fill:none;stroke:#000000;stroke-width:0.666707;stroke-linecap:round;stroke-linejoin:round;stroke-miterlimit:10;stroke-dasharray:none;stroke-opacity:1" />
    </g>
    <g
       id="g99">
      <path
         id="path53"
         d="m 106.19716,334.144 c -1.37216,-4.6144 -2.1088,-9.5008 -2.1088,-14.56 0,-7.7088 1.70912,-15.0144 4.76864,-21.5648"
         style="fill:none;stroke:#000000;stroke-width:0.666707;stroke-linecap:round;stroke-linejoin:round;stroke-miterlimit:10;stroke-dasharray:none;stroke-opacity:1" />
      <path
         id="path54"
         d="m 108.857,341.1488 c -0.43936,-2.4832 -0.696,-5.0112 -0.75968,-7.568 l -3.79904,1.1264 c 1.36064,2.2816 2.88672,4.432 4.55872,6.4416 v 0"
         style="fill:#000000;fill-opacity:1;fill-rule:nonzero;stroke:none;stroke-width:0.32" />
      <path
         id="path55"
         d="m 108.857,341.1488 c -0.43936,-2.4832 -0.696,-5.0112 -0.75968,-7.568 l -3.79904,1.1264 c 1.36064,2.2816 2.88672,4.432 4.55872,6.4416 z"
         style="fill:none;stroke:#000000;stroke-width:0.666707;stroke-linecap:round;stroke-linejoin:round;stroke-miterlimit:10;stroke-dasharray:none;stroke-opacity:1" />
    </g>
    <g
       id="g101">
      <path
         id="path56"
         d="m 165.34436,369.568 c -3.30848,0.6752 -6.73408,1.0304 -10.24224,1.0304 -6.12992,0 -12.00768,-1.0816 -17.45248,-3.0656"
         style="fill:none;stroke:#000000;stroke-width:0.666707;stroke-linecap:round;stroke-linejoin:round;stroke-miterlimit:10;stroke-dasharray:none;stroke-opacity:1" />
      <path
         id="path57"
         d="m 172.5546,367.5328 c -2.50656,0.2208 -5.04768,0.256 -7.60608,0.0928 l 0.79168,3.8848 c 2.39488,-1.1584 4.67008,-2.4896 6.8144,-3.9776 v 0"
         style="fill:#000000;fill-opacity:1;fill-rule:nonzero;stroke:none;stroke-width:0.32" />
      <path
         id="path58"
         d="m 172.5546,367.5328 c -2.50656,0.2208 -5.04768,0.256 -7.60608,0.0928 l 0.79168,3.8848 c 2.39488,-1.1584 4.67008,-2.4896 6.8144,-3.9776 z"
         style="fill:none;stroke:#000000;stroke-width:0.666707;stroke-linecap:round;stroke-linejoin:round;stroke-miterlimit:10;stroke-dasharray:none;stroke-opacity:1" />
    </g>
    <path
       id="path101"
       d="m 183.58468,92.3968 h 11.05344 c 2.12512,0 4.2512,2.1248 4.2512,4.2496 v 11.0528 c 0,1.0624 -1.06304,2.1248 -2.12608,2.1248 v 0 c -1.0624,0 -2.12512,-1.0624 -2.12512,-2.1248 V 97.072 c 0,-0.2112 -0.2128,-0.4256 -0.42496,-0.4256 v 0 c -0.2128,0 -0.4256,0.2144 -0.4256,0.4256 v 30.1824 c 0,1.0624 -1.0624,2.1248 -2.12544,2.1248 v 0 c -1.06304,0 -2.12576,-1.0624 -2.12576,-2.1248 v -13.6032 c 0,-0.2144 -0.21248,-0.4256 -0.42528,-0.4256 v 0 c -0.21216,0 -0.42464,0.2112 -0.42464,0.4256 v 13.6032 c 0,1.0624 -1.06336,2.1248 -2.12576,2.1248 v 0 c -1.06272,0 -2.12544,-1.0624 -2.12544,-2.1248 V 97.072 c 0,-0.2112 -0.21248,-0.4256 -0.42496,-0.4256 v 0 c -0.2128,0 -0.4256,0.2144 -0.4256,0.4256 v 10.6272 c 0,1.0624 -1.0624,2.1248 -2.12512,2.1248 v 0 c -1.06304,0 -2.12608,-1.0624 -2.12608,-2.1248 V 96.6464 c 0,-2.1248 2.12608,-4.2496 4.2512,-4.2496 v 0"
       style="fill:#0005fd;fill-opacity:1;fill-rule:nonzero;stroke:none;stroke-width:0.32" />
    <path
       id="path102"
       d="m 193.36292,86.0192 c 0,-2.3488 -1.90336,-4.2528 -4.25184,-4.2528 -2.34752,0 -4.2512,1.904 -4.2512,4.2528 0,2.3488 1.90368,4.2528 4.2512,4.2528 2.34848,0 4.25184,-1.904 4.25184,-4.2528"
       style="fill:#0005fd;fill-opacity:1;fill-rule:nonzero;stroke:none;stroke-width:0.32" />
    <path
       id="path103"
       d="m 116.84196,92.7104 h 8.50208 c 1.53056,0 2.79008,0.4736 3.31392,1.9136 l 3.92544,10.784 c 0.32704,0.8992 -0.24416,2.1248 -1.14336,2.4544 v 0 c -0.89856,0.3264 -2.1248,-0.2464 -2.45184,-1.1424 l -3.92576,-10.7872 c -0.0723,-0.2016 -0.34528,-0.3264 -0.54496,-0.2528 v 0 c -0.19936,0.0704 -0.32704,0.3424 -0.2544,0.544 l 6.94272,17.8304 h -5.86176 v 9.5648 c 0,0.9568 -0.95616,1.9136 -1.91264,1.9136 v 0 c -0.9568,0 -1.91296,-0.9568 -1.91296,-1.9136 v -9.5648 h -0.85024 v 9.5648 c 0,0.9568 -0.9568,1.9136 -1.91328,1.9136 v 0 c -0.95648,0 -1.91296,-0.9568 -1.91296,-1.9136 v -9.5648 h -5.86144 L 117.9226,96.224 c 0.0726,-0.2016 -0.0544,-0.4736 -0.25408,-0.544 v 0 c -0.19936,-0.0736 -0.472,0.0512 -0.54496,0.2528 L 113.1978,106.72 c -0.3264,0.896 -1.55296,1.4688 -2.45184,1.1424 v 0 c -0.89856,-0.3296 -1.47008,-1.5552 -1.14304,-2.4544 l 3.92576,-10.784 c 0.52288,-1.44 1.78304,-1.9136 3.31328,-1.9136"
       style="fill:#f5000c;fill-opacity:1;fill-rule:nonzero;stroke:none;stroke-width:0.32" />
    <path
       id="path104"
       d="m 124.91908,86.9728 c 0,-2.1152 -1.71264,-3.8272 -3.82624,-3.8272 -2.11264,0 -3.8256,1.712 -3.8256,3.8272 0,2.112 1.71296,3.824 3.8256,3.824 2.1136,0 3.82624,-1.712 3.82624,-3.824"
       style="fill:#f5000c;fill-opacity:1;fill-rule:nonzero;stroke:none;stroke-width:0.32" />
    <path
       id="path105"
       d="m 115.56676,160.4128 h 11.05248 c 2.12608,0 4.2512,2.128 4.2512,4.2528 v 11.0528 c 0,1.0624 -1.06272,2.1248 -2.12512,2.1248 v 0 c -1.06272,0 -2.12608,-1.0624 -2.12608,-2.1248 v -10.6272 c 0,-0.2144 -0.21216,-0.4256 -0.42464,-0.4256 v 0 c -0.21248,0 -0.42496,0.2112 -0.42496,0.4256 v 30.1824 c 0,1.0624 -1.06304,2.1248 -2.12608,2.1248 v 0 c -1.06272,0 -2.12512,-1.0624 -2.12512,-2.1248 v -13.6032 c 0,-0.2144 -0.21248,-0.4256 -0.4256,-0.4256 v 0 c -0.21248,0 -0.42464,0.2112 -0.42464,0.4256 v 13.6032 c 0,1.0624 -1.06304,2.1248 -2.12544,2.1248 v 0 c -1.06304,0 -2.12576,-1.0624 -2.12576,-2.1248 v -30.1824 c 0,-0.2144 -0.21248,-0.4256 -0.42528,-0.4256 v 0 c -0.21248,0 -0.42496,0.2112 -0.42496,0.4256 v 10.6272 c 0,1.0624 -1.06272,2.1248 -2.12576,2.1248 v 0 c -1.06304,0 -2.12544,-1.0624 -2.12544,-2.1248 v -11.0528 c 0,-2.1248 2.12544,-4.2528 4.2512,-4.2528 v 0"
       style="fill:#337fff;fill-opacity:1;fill-rule:nonzero;stroke:none;stroke-width:0.32" />
    <path
       id="path106"
       d="m 125.34404,154.0384 c 0,-2.3488 -1.90304,-4.2528 -4.2512,-4.2528 -2.34752,0 -4.25088,1.904 -4.25088,4.2528 0,2.3456 1.90336,4.2496 4.25088,4.2496 2.34816,0 4.2512,-1.904 4.2512,-4.2496"
       style="fill:#337fff;fill-opacity:1;fill-rule:nonzero;stroke:none;stroke-width:0.32" />
    <path
       id="path107"
       d="m 184.85988,160.7296 h 8.50304 c 1.53024,0 2.78912,0.4736 3.31296,1.9136 l 3.92576,10.784 c 0.32736,0.8992 -0.24448,2.1248 -1.14336,2.4512 v 0 c -0.89888,0.3264 -2.1248,-0.2432 -2.45216,-1.1424 l -3.92544,-10.784 c -0.073,-0.2016 -0.34496,-0.3296 -0.54432,-0.256 v 0 c -0.20032,0.0736 -0.32736,0.3456 -0.25504,0.544 l 6.94272,17.8336 h -5.86112 v 9.5648 c 0,0.9568 -0.95712,1.9136 -1.91328,1.9136 v 0 c -0.9568,0 -1.91328,-0.9568 -1.91328,-1.9136 v -9.5648 h -0.84992 v 9.5648 c 0,0.9568 -0.9568,1.9136 -1.91296,1.9136 v 0 c -0.95648,0 -1.9136,-0.9568 -1.9136,-1.9136 v -9.5648 h -5.8608 l 6.94176,-17.8336 c 0.073,-0.1984 -0.0541,-0.4704 -0.25376,-0.544 v 0 c -0.2,-0.0736 -0.47232,0.0544 -0.54464,0.256 l -3.92576,10.784 c -0.32736,0.8992 -1.55328,1.4688 -2.45248,1.1424 v 0 c -0.89856,-0.3264 -1.4704,-1.552 -1.14304,-2.4512 l 3.92576,-10.784 c 0.52352,-1.44 1.78272,-1.9136 3.31296,-1.9136"
       style="fill:#ff618c;fill-opacity:1;fill-rule:nonzero;stroke:none;stroke-width:0.32" />
    <path
       id="path108"
       d="m 192.93764,154.992 c 0,-2.1152 -1.71296,-3.8272 -3.82656,-3.8272 -2.11264,0 -3.8256,1.712 -3.8256,3.8272 0,2.1088 1.71296,3.824 3.8256,3.824 2.1136,0 3.82656,-1.7152 3.82656,-3.824"
       style="fill:#ff618c;fill-opacity:1;fill-rule:nonzero;stroke:none;stroke-width:0.32" />
    <path
       id="path140"
       d="m 363.58468,92.3968 h 11.05344 c 2.12512,0 4.2512,2.1248 4.2512,4.2496 v 11.0528 c 0,1.0624 -1.06304,2.1248 -2.12608,2.1248 v 0 c -1.0624,0 -2.12512,-1.0624 -2.12512,-2.1248 V 97.072 c 0,-0.2112 -0.2128,-0.4256 -0.42496,-0.4256 v 0 c -0.2128,0 -0.4256,0.2144 -0.4256,0.4256 v 30.1824 c 0,1.0624 -1.0624,2.1248 -2.12544,2.1248 v 0 c -1.06304,0 -2.12576,-1.0624 -2.12576,-2.1248 v -13.6032 c 0,-0.2144 -0.21248,-0.4256 -0.42528,-0.4256 v 0 c -0.21216,0 -0.42464,0.2112 -0.42464,0.4256 v 13.6032 c 0,1.0624 -1.06336,2.1248 -2.12576,2.1248 v 0 c -1.06272,0 -2.12544,-1.0624 -2.12544,-2.1248 V 97.072 c 0,-0.2112 -0.21248,-0.4256 -0.42496,-0.4256 v 0 c -0.2128,0 -0.4256,0.2144 -0.4256,0.4256 v 10.6272 c 0,1.0624 -1.0624,2.1248 -2.12512,2.1248 v 0 c -1.06304,0 -2.12608,-1.0624 -2.12608,-2.1248 V 96.6464 c 0,-2.1248 2.12608,-4.2496 4.2512,-4.2496 v 0"
       style="fill:#0005fd;fill-opacity:1;fill-rule:nonzero;stroke:none;stroke-width:0.32" />
    <path
       id="path141"
       d="m 373.36292,86.0192 c 0,-2.3488 -1.90336,-4.2528 -4.25184,-4.2528 -2.34752,0 -4.2512,1.904 -4.2512,4.2528 0,2.3488 1.90368,4.2528 4.2512,4.2528 2.34848,0 4.25184,-1.904 4.25184,-4.2528"
       style="fill:#0005fd;fill-opacity:1;fill-rule:nonzero;stroke:none;stroke-width:0.32" />
    <path
       id="path142"
       d="m 296.84196,92.7104 h 8.50208 c 1.53056,0 2.79008,0.4736 3.31392,1.9136 l 3.92544,10.784 c 0.32704,0.8992 -0.24416,2.1248 -1.14336,2.4544 v 0 c -0.89856,0.3264 -2.1248,-0.2464 -2.45184,-1.1424 l -3.92576,-10.7872 c -0.0723,-0.2016 -0.34528,-0.3264 -0.54496,-0.2528 v 0 c -0.19936,0.0704 -0.32704,0.3424 -0.2544,0.544 l 6.94272,17.8304 h -5.86176 v 9.5648 c 0,0.9568 -0.95616,1.9136 -1.91264,1.9136 v 0 c -0.9568,0 -1.91296,-0.9568 -1.91296,-1.9136 v -9.5648 h -0.85024 v 9.5648 c 0,0.9568 -0.9568,1.9136 -1.91328,1.9136 v 0 c -0.95648,0 -1.91296,-0.9568 -1.91296,-1.9136 v -9.5648 h -5.86144 L 297.9226,96.224 c 0.0726,-0.2016 -0.0544,-0.4736 -0.25408,-0.544 v 0 c -0.19936,-0.0736 -0.472,0.0512 -0.54496,0.2528 L 293.1978,106.72 c -0.3264,0.896 -1.55296,1.4688 -2.45184,1.1424 v 0 c -0.89856,-0.3296 -1.47008,-1.5552 -1.14304,-2.4544 l 3.92576,-10.784 c 0.52288,-1.44 1.78304,-1.9136 3.31328,-1.9136"
       style="fill:#f5000c;fill-opacity:1;fill-rule:nonzero;stroke:none;stroke-width:0.32" />
    <path
       id="path143"
       d="m 304.91908,86.9728 c 0,-2.1152 -1.71264,-3.8272 -3.82624,-3.8272 -2.11264,0 -3.8256,1.712 -3.8256,3.8272 0,2.112 1.71296,3.824 3.8256,3.824 2.1136,0 3.82624,-1.712 3.82624,-3.824"
       style="fill:#f5000c;fill-opacity:1;fill-rule:nonzero;stroke:none;stroke-width:0.32" />
    <path
       id="path144"
       d="m 295.56676,160.4128 h 11.05248 c 2.12608,0 4.2512,2.128 4.2512,4.2528 v 11.0528 c 0,1.0624 -1.06272,2.1248 -2.12512,2.1248 v 0 c -1.06272,0 -2.12608,-1.0624 -2.12608,-2.1248 v -10.6272 c 0,-0.2144 -0.21216,-0.4256 -0.42464,-0.4256 v 0 c -0.21248,0 -0.42496,0.2112 -0.42496,0.4256 v 30.1824 c 0,1.0624 -1.06304,2.1248 -2.12608,2.1248 v 0 c -1.06272,0 -2.12512,-1.0624 -2.12512,-2.1248 v -13.6032 c 0,-0.2144 -0.21248,-0.4256 -0.4256,-0.4256 v 0 c -0.21248,0 -0.42464,0.2112 -0.42464,0.4256 v 13.6032 c 0,1.0624 -1.06304,2.1248 -2.12544,2.1248 v 0 c -1.06304,0 -2.12576,-1.0624 -2.12576,-2.1248 v -30.1824 c 0,-0.2144 -0.21248,-0.4256 -0.42528,-0.4256 v 0 c -0.21248,0 -0.42496,0.2112 -0.42496,0.4256 v 10.6272 c 0,1.0624 -1.06272,2.1248 -2.12576,2.1248 v 0 c -1.06304,0 -2.12544,-1.0624 -2.12544,-2.1248 v -11.0528 c 0,-2.1248 2.12544,-4.2528 4.2512,-4.2528 v 0"
       style="fill:#337fff;fill-opacity:1;fill-rule:nonzero;stroke:none;stroke-width:0.32" />
    <path
       id="path145"
       d="m 305.34404,154.0384 c 0,-2.3488 -1.90304,-4.2528 -4.2512,-4.2528 -2.34752,0 -4.25088,1.904 -4.25088,4.2528 0,2.3456 1.90336,4.2496 4.25088,4.2496 2.34816,0 4.2512,-1.904 4.2512,-4.2496"
       style="fill:#337fff;fill-opacity:1;fill-rule:nonzero;stroke:none;stroke-width:0.32" />
    <path
       id="path146"
       d="m 364.85988,160.7296 h 8.50304 c 1.53024,0 2.78912,0.4736 3.31296,1.9136 l 3.92576,10.784 c 0.32736,0.8992 -0.24448,2.1248 -1.14336,2.4512 v 0 c -0.89888,0.3264 -2.1248,-0.2432 -2.45216,-1.1424 l -3.92544,-10.784 c -0.073,-0.2016 -0.34496,-0.3296 -0.54432,-0.256 v 0 c -0.20032,0.0736 -0.32736,0.3456 -0.25504,0.544 l 6.94272,17.8336 h -5.86112 v 9.5648 c 0,0.9568 -0.95712,1.9136 -1.91328,1.9136 v 0 c -0.9568,0 -1.91328,-0.9568 -1.91328,-1.9136 v -9.5648 h -0.84992 v 9.5648 c 0,0.9568 -0.9568,1.9136 -1.91296,1.9136 v 0 c -0.95648,0 -1.9136,-0.9568 -1.9136,-1.9136 v -9.5648 h -5.8608 l 6.94176,-17.8336 c 0.073,-0.1984 -0.0541,-0.4704 -0.25376,-0.544 v 0 c -0.2,-0.0736 -0.47232,0.0544 -0.54464,0.256 l -3.92576,10.784 c -0.32736,0.8992 -1.55328,1.4688 -2.45248,1.1424 v 0 c -0.89856,-0.3264 -1.4704,-1.552 -1.14304,-2.4512 l 3.92576,-10.784 c 0.52352,-1.44 1.78272,-1.9136 3.31296,-1.9136"
       style="fill:#ff618c;fill-opacity:1;fill-rule:nonzero;stroke:none;stroke-width:0.32" />
    <path
       id="path147"
       d="m 372.93764,154.992 c 0,-2.1152 -1.71296,-3.8272 -3.82656,-3.8272 -2.11264,0 -3.8256,1.712 -3.8256,3.8272 0,2.1088 1.71296,3.824 3.8256,3.824 2.1136,0 3.82656,-1.7152 3.82656,-3.824"
       style="fill:#ff618c;fill-opacity:1;fill-rule:nonzero;stroke:none;stroke-width:0.32" />
    <g
       id="g150"
       transform="matrix(1,0,0,-1,180,459.16808)">
      <path
         id="path148"
         d="m 204.0074,305.024 c 1.37248,4.6112 2.10816,9.5008 2.10816,14.56 0,7.7056 -1.70912,15.0144 -4.76768,21.5648"
         style="fill:none;stroke:#000000;stroke-width:0.666707;stroke-linecap:round;stroke-linejoin:round;stroke-miterlimit:10;stroke-dasharray:none;stroke-opacity:1" />
      <path
         id="path149"
         d="m 201.34788,298.0192 c 0.43872,2.4832 0.69568,5.0112 0.76,7.568 l 3.79872,-1.1296 c -1.36096,-2.2784 -2.88672,-4.4288 -4.55872,-6.4384 v 0"
         style="fill:#000000;fill-opacity:1;fill-rule:nonzero;stroke:none;stroke-width:0.32" />
      <path
         id="path150"
         d="m 201.34788,298.0192 c 0.43872,2.4832 0.69568,5.0112 0.76,7.568 l 3.79872,-1.1296 c -1.36096,-2.2784 -2.88672,-4.4288 -4.55872,-6.4384 z"
         style="fill:none;stroke:#000000;stroke-width:0.666707;stroke-linecap:round;stroke-linejoin:round;stroke-miterlimit:10;stroke-dasharray:none;stroke-opacity:1" />
    </g>
    <g
       id="g153"
       transform="matrix(-1,0,0,1,490.20433,-180)">
      <path
         id="path151"
         d="m 144.85988,269.6 c 3.3088,-0.6752 6.73408,-1.0304 10.24224,-1.0304 6.13056,0 12.008,1.0816 17.45248,3.0624"
         style="fill:none;stroke:#000000;stroke-width:0.666707;stroke-linecap:round;stroke-linejoin:round;stroke-miterlimit:10;stroke-dasharray:none;stroke-opacity:1" />
      <path
         id="path152"
         d="m 137.64964,271.632 c 2.50688,-0.2176 5.04768,-0.2528 7.60608,-0.0928 l -0.79136,-3.8816 c -2.39488,1.1584 -4.67072,2.4896 -6.81472,3.9744 v 0"
         style="fill:#000000;fill-opacity:1;fill-rule:nonzero;stroke:none;stroke-width:0.32" />
      <path
         id="path153"
         d="m 137.64964,271.632 c 2.50688,-0.2176 5.04768,-0.2528 7.60608,-0.0928 l -0.79136,-3.8816 c -2.39488,1.1584 -4.67072,2.4896 -6.81472,3.9744 z"
         style="fill:none;stroke:#000000;stroke-width:0.666707;stroke-linecap:round;stroke-linejoin:round;stroke-miterlimit:10;stroke-dasharray:none;stroke-opacity:1" />
    </g>
    <g
       id="g156"
       transform="matrix(1,0,0,-1,180,459.16792)">
      <path
         id="path154"
         d="m 106.19716,334.144 c -1.37216,-4.6144 -2.1088,-9.5008 -2.1088,-14.56 0,-7.7088 1.70912,-15.0144 4.76864,-21.5648"
         style="fill:none;stroke:#000000;stroke-width:0.666707;stroke-linecap:round;stroke-linejoin:round;stroke-miterlimit:10;stroke-dasharray:none;stroke-opacity:1" />
      <path
         id="path155"
         d="m 108.857,341.1488 c -0.43936,-2.4832 -0.696,-5.0112 -0.75968,-7.568 l -3.79904,1.1264 c 1.36064,2.2816 2.88672,4.432 4.55872,6.4416 v 0"
         style="fill:#000000;fill-opacity:1;fill-rule:nonzero;stroke:none;stroke-width:0.32" />
      <path
         id="path156"
         d="m 108.857,341.1488 c -0.43936,-2.4832 -0.696,-5.0112 -0.75968,-7.568 l -3.79904,1.1264 c 1.36064,2.2816 2.88672,4.432 4.55872,6.4416 z"
         style="fill:none;stroke:#000000;stroke-width:0.666707;stroke-linecap:round;stroke-linejoin:round;stroke-miterlimit:10;stroke-dasharray:none;stroke-opacity:1" />
    </g>
    <g
       id="g159"
       transform="matrix(-1,0,0,1,490.20415,-180)">
      <path
         id="path157"
         d="m 165.34436,369.568 c -3.30848,0.6752 -6.73408,1.0304 -10.24224,1.0304 -6.12992,0 -12.00768,-1.0816 -17.45248,-3.0656"
         style="fill:none;stroke:#000000;stroke-width:0.666707;stroke-linecap:round;stroke-linejoin:round;stroke-miterlimit:10;stroke-dasharray:none;stroke-opacity:1" />
      <path
         id="path158"
         d="m 172.5546,367.5328 c -2.50656,0.2208 -5.04768,0.256 -7.60608,0.0928 l 0.79168,3.8848 c 2.39488,-1.1584 4.67008,-2.4896 6.8144,-3.9776 v 0"
         style="fill:#000000;fill-opacity:1;fill-rule:nonzero;stroke:none;stroke-width:0.32" />
      <path
         id="path159"
         d="m 172.5546,367.5328 c -2.50656,0.2208 -5.04768,0.256 -7.60608,0.0928 l 0.79168,3.8848 c 2.39488,-1.1584 4.67008,-2.4896 6.8144,-3.9776 z"
         style="fill:none;stroke:#000000;stroke-width:0.666707;stroke-linecap:round;stroke-linejoin:round;stroke-miterlimit:10;stroke-dasharray:none;stroke-opacity:1" />
    </g>
    <path
       id="path2419"
       d="m 363.58498,272.39616 h 11.0528 c 2.1248,0 4.2528,2.12512 4.2528,4.2512 v 11.0528 c 0,1.06272 -1.0624,2.12576 -2.128,2.12576 v 0 c -1.0624,0 -2.1248,-1.06304 -2.1248,-2.12576 V 277.072 c 0,-0.21184 -0.2112,-0.42464 -0.4256,-0.42464 v 0 c -0.2112,0 -0.4256,0.2128 -0.4256,0.42464 v 30.18336 c 0,1.0624 -1.0624,2.12576 -2.1248,2.12576 v 0 c -1.0624,0 -2.1248,-1.06336 -2.1248,-2.12576 v -13.60384 c 0,-0.21248 -0.2112,-0.42496 -0.4256,-0.42496 v 0 c -0.2112,0 -0.4256,0.21248 -0.4256,0.42496 v 13.60384 c 0,1.0624 -1.0624,2.12576 -2.1248,2.12576 v 0 c -1.0624,0 -2.1248,-1.06336 -2.1248,-2.12576 V 277.072 c 0,-0.21184 -0.2144,-0.42464 -0.4256,-0.42464 v 0 c -0.2144,0 -0.4256,0.2128 -0.4256,0.42464 v 10.62816 c 0,1.06272 -1.0624,2.12576 -2.1248,2.12576 v 0 c -1.0624,0 -2.1248,-1.06304 -2.1248,-2.12576 v -11.0528 c 0,-2.12608 2.1248,-4.2512 4.2496,-4.2512 v 0"
       style="fill:#0005fd;fill-opacity:1;fill-rule:nonzero;stroke:none;stroke-width:0.32" />
    <path
       id="path2420"
       d="m 373.36418,266.0192 c 0,-2.34816 -1.904,-4.2512 -4.2528,-4.2512 -2.3488,0 -4.2496,1.90304 -4.2496,4.2512 0,2.34784 1.9008,4.25088 4.2496,4.25088 2.3488,0 4.2528,-1.90304 4.2528,-4.25088"
       style="fill:#0005fd;fill-opacity:1;fill-rule:nonzero;stroke:none;stroke-width:0.32" />
    <path
       id="path2421"
       d="m 296.84258,272.71072 h 8.5024 c 1.5296,0 2.7904,0.4752 3.312,1.91328 l 3.9264,10.7856 c 0.3264,0.89888 -0.2432,2.12544 -1.1424,2.45184 v 0 c -0.8992,0.32736 -2.1248,-0.24416 -2.4512,-1.14336 l -3.9264,-10.78592 c -0.0736,-0.19904 -0.3456,-0.32608 -0.5472,-0.25408 v 0 c -0.1984,0.073 -0.3264,0.34496 -0.2528,0.54496 l 6.944,17.83136 h -5.8624 v 9.56512 c 0,0.95616 -0.9568,1.91296 -1.9136,1.91296 v 0 c -0.9568,0 -1.9136,-0.9568 -1.9136,-1.91296 v -9.56512 h -0.848 v 9.56512 c 0,0.95616 -0.9568,1.91296 -1.9136,1.91296 v 0 c -0.9568,0 -1.9136,-0.9568 -1.9136,-1.91296 v -9.56512 h -5.8624 l 6.944,-17.83136 c 0.0704,-0.2 -0.0544,-0.472 -0.256,-0.54496 v 0 c -0.1984,-0.072 -0.4704,0.055 -0.544,0.25408 l -3.9264,10.78592 c -0.3264,0.8992 -1.552,1.47072 -2.4512,1.14336 v 0 c -0.8992,-0.3264 -1.472,-1.55296 -1.1424,-2.45184 l 3.9232,-10.7856 c 0.5248,-1.43808 1.7856,-1.91328 3.3152,-1.91328"
       style="fill:#f5000c;fill-opacity:1;fill-rule:nonzero;stroke:none;stroke-width:0.32" />
    <path
       id="path2422"
       d="m 304.91938,266.97248 c 0,-2.1136 -1.712,-3.8272 -3.8272,-3.8272 -2.112,0 -3.824,1.7136 -3.824,3.8272 0,2.11264 1.712,3.8256 3.824,3.8256 2.1152,0 3.8272,-1.71296 3.8272,-3.8256"
       style="fill:#f5000c;fill-opacity:1;fill-rule:nonzero;stroke:none;stroke-width:0.32" />
    <path
       id="path2423"
       d="m 295.56578,340.41408 h 11.0528 c 2.128,0 4.2528,2.12544 4.2528,4.2512 v 11.05312 c 0,1.06272 -1.0624,2.12512 -2.1248,2.12512 v 0 c -1.0624,0 -2.128,-1.0624 -2.128,-2.12512 v -10.62784 c 0,-0.21312 -0.2112,-0.42528 -0.4224,-0.42528 v 0 c -0.2144,0 -0.4256,0.21216 -0.4256,0.42528 v 30.18272 c 0,1.06304 -1.0624,2.12608 -2.128,2.12608 v 0 c -1.0624,0 -2.1248,-1.06304 -2.1248,-2.12608 v -13.6032 c 0,-0.2128 -0.2112,-0.42528 -0.4256,-0.42528 v 0 c -0.2112,0 -0.4224,0.21248 -0.4224,0.42528 v 13.6032 c 0,1.06304 -1.0656,2.12608 -2.128,2.12608 v 0 c -1.0624,0 -2.1248,-1.06304 -2.1248,-2.12608 v -30.18272 c 0,-0.21312 -0.2112,-0.42528 -0.4256,-0.42528 v 0 c -0.2112,0 -0.4256,0.21216 -0.4256,0.42528 v 10.62784 c 0,1.06272 -1.0624,2.12512 -2.1248,2.12512 v 0 c -1.0624,0 -2.1248,-1.0624 -2.1248,-2.12512 v -11.05312 c 0,-2.12576 2.1248,-4.2512 4.2496,-4.2512 v 0"
       style="fill:#337fff;fill-opacity:1;fill-rule:nonzero;stroke:none;stroke-width:0.32" />
    <path
       id="path2424"
       d="m 305.34498,334.03744 c 0,-2.34784 -1.904,-4.2512 -4.2528,-4.2512 -2.3456,0 -4.2496,1.90336 -4.2496,4.2512 0,2.34752 1.904,4.2512 4.2496,4.2512 2.3488,0 4.2528,-1.90368 4.2528,-4.2512"
       style="fill:#337fff;fill-opacity:1;fill-rule:nonzero;stroke:none;stroke-width:0.32" />
    <path
       id="path2425"
       d="m 364.86178,340.72928 h 8.5024 c 1.5296,0 2.7872,0.47456 3.312,1.91296 l 3.9264,10.7856 c 0.3264,0.8992 -0.2464,2.12512 -1.1424,2.45216 v 0 c -0.8992,0.32704 -2.1248,-0.24448 -2.4544,-1.14368 l -3.9232,-10.7856 c -0.0736,-0.19936 -0.3456,-0.32736 -0.5472,-0.25376 v 0 c -0.1984,0.0726 -0.3264,0.34496 -0.2528,0.54464 l 6.9408,17.83104 h -5.8592 v 9.5648 c 0,0.95648 -0.9568,1.91328 -1.9136,1.91328 v 0 c -0.9568,0 -1.9136,-0.9568 -1.9136,-1.91328 v -9.5648 h -0.8512 v 9.5648 c 0,0.95648 -0.9568,1.91328 -1.9104,1.91328 v 0 c -0.9568,0 -1.9136,-0.9568 -1.9136,-1.91328 v -9.5648 h -5.8624 l 6.9408,-17.83104 c 0.0736,-0.19968 -0.0544,-0.472 -0.2528,-0.54464 v 0 c -0.2016,-0.0736 -0.4736,0.0544 -0.544,0.25376 l -3.9264,10.7856 c -0.3264,0.8992 -1.552,1.47072 -2.4512,1.14368 v 0 c -0.8992,-0.32704 -1.472,-1.55296 -1.1456,-2.45216 l 3.9264,-10.7856 c 0.5248,-1.4384 1.7824,-1.91296 3.3152,-1.91296"
       style="fill:#ff618c;fill-opacity:1;fill-rule:nonzero;stroke:none;stroke-width:0.32" />
    <path
       id="path2426"
       d="m 372.93858,334.9904 c 0,-2.1136 -1.7152,-3.82656 -3.8272,-3.82656 -2.112,0 -3.8272,1.71296 -3.8272,3.82656 0,2.11264 1.7152,3.8256 3.8272,3.8256 2.112,0 3.8272,-1.71296 3.8272,-3.8256"
       style="fill:#ff618c;fill-opacity:1;fill-rule:nonzero;stroke:none;stroke-width:0.32" />
    <path
       id="path2427"
       d="m 320.36578,334.32128 c 9.824,-9.82528 19.648,-19.65024 29.4752,-29.47584"
       style="fill:none;stroke:#000000;stroke-width:0.666707;stroke-linecap:round;stroke-linejoin:round;stroke-miterlimit:10;stroke-dasharray:none;stroke-opacity:1" />
    <path
       id="path2428"
       d="m 315.06338,339.62368 6.7232,-3.8816 -2.8416,-2.8416 c -1.296,2.24128 -2.5888,4.48224 -3.8816,6.7232 v 0"
       style="fill:#000000;fill-opacity:1;fill-rule:nonzero;stroke:none;stroke-width:0.32" />
    <path
       id="path2429"
       d="m 315.06338,339.62368 6.7232,-3.8816 -2.8416,-2.8416 c -1.296,2.24128 -2.5888,4.48224 -3.8816,6.7232 z"
       style="fill:none;stroke:#000000;stroke-width:0.666707;stroke-linecap:round;stroke-linejoin:round;stroke-miterlimit:10;stroke-dasharray:none;stroke-opacity:1" />
    <path
       id="path2430"
       d="m 355.14338,299.54368 -6.7232,3.88128 2.8416,2.84128 c 1.2928,-2.24096 2.5856,-4.48224 3.8816,-6.72256 v 0"
       style="fill:#000000;fill-opacity:1;fill-rule:nonzero;stroke:none;stroke-width:0.32" />
    <path
       id="path2431"
       d="m 355.14338,299.54368 -6.7232,3.88128 2.8416,2.84128 c 1.2928,-2.24096 2.5856,-4.48224 3.8816,-6.72256 z"
       style="fill:none;stroke:#000000;stroke-width:0.666707;stroke-linecap:round;stroke-linejoin:round;stroke-miterlimit:10;stroke-dasharray:none;stroke-opacity:1" />
    <path
       id="path2432"
       d="m 349.84098,334.32128 c -9.8272,-9.82528 -19.6512,-19.65024 -29.4752,-29.47584"
       style="fill:none;stroke:#000000;stroke-width:0.666707;stroke-linecap:round;stroke-linejoin:round;stroke-miterlimit:10;stroke-dasharray:none;stroke-opacity:1" />
    <path
       id="path2433"
       d="m 355.14338,339.62368 -3.8816,-6.7232 -2.8416,2.8416 c 2.24,1.29376 4.48,2.58752 6.7232,3.8816 v 0"
       style="fill:#000000;fill-opacity:1;fill-rule:nonzero;stroke:none;stroke-width:0.32" />
    <path
       id="path2434"
       d="m 355.14338,339.62368 -3.8816,-6.7232 -2.8416,2.8416 c 2.24,1.29376 4.48,2.58752 6.7232,3.8816 z"
       style="fill:none;stroke:#000000;stroke-width:0.666707;stroke-linecap:round;stroke-linejoin:round;stroke-miterlimit:10;stroke-dasharray:none;stroke-opacity:1" />
    <path
       id="path2435"
       d="m 315.06338,299.54368 3.8816,6.72256 2.8416,-2.84128 c -2.2432,-1.29376 -4.4832,-2.58752 -6.7232,-3.88128 v 0"
       style="fill:#000000;fill-opacity:1;fill-rule:nonzero;stroke:none;stroke-width:0.32" />
    <path
       id="path2436"
       d="m 315.06338,299.54368 3.8816,6.72256 2.8416,-2.84128 c -2.2432,-1.29376 -4.4832,-2.58752 -6.7232,-3.88128 z"
       style="fill:none;stroke:#000000;stroke-width:0.666707;stroke-linecap:round;stroke-linejoin:round;stroke-miterlimit:10;stroke-dasharray:none;stroke-opacity:1" />
    <path
       style="font-variation-settings:normal;opacity:1;vector-effect:none;fill:none;fill-opacity:1;stroke:#000000;stroke-width:2;stroke-linecap:butt;stroke-linejoin:miter;stroke-miterlimit:4;stroke-dasharray:none;stroke-dashoffset:0;stroke-opacity:1;-inkscape-stroke:none;stop-color:#000000;stop-opacity:1;marker-end:url(#ArrowWide_Fnone_S-000000)"
       d="m 155,205 v 45"
       id="path160" />
    <path
       style="font-variation-settings:normal;opacity:1;vector-effect:none;fill:none;fill-opacity:1;stroke:#000000;stroke-width:2;stroke-linecap:butt;stroke-linejoin:miter;stroke-miterlimit:4;stroke-dasharray:none;stroke-dashoffset:0;stroke-opacity:1;-inkscape-stroke:none;marker-end:url(#ArrowWide_Fnone_S-000000);stop-color:#000000;stop-opacity:1"
       d="m 221.54289,318.45711 h 45"
       id="path161" />
    <path
       style="font-variation-settings:normal;opacity:1;vector-effect:none;fill:none;fill-opacity:1;stroke:#000000;stroke-width:2;stroke-linecap:butt;stroke-linejoin:miter;stroke-miterlimit:4;stroke-dasharray:none;stroke-dashoffset:0;stroke-opacity:1;-inkscape-stroke:none;marker-end:url(#ArrowWide_Fnone_S-000000);stop-color:#000000;stop-opacity:1"
       d="m 268.4571,138.45711 h -45"
       id="path162" />
    <path
       style="font-variation-settings:normal;opacity:1;vector-effect:none;fill:none;fill-opacity:1;stroke:#000000;stroke-width:2;stroke-linecap:butt;stroke-linejoin:miter;stroke-miterlimit:4;stroke-dasharray:none;stroke-dashoffset:0;stroke-opacity:1;-inkscape-stroke:none;marker-end:url(#ArrowWide_Fnone_S-000000);stop-color:#000000;stop-opacity:1"
       d="m 335,251.91421 v -45"
       id="path163" />
  </g>
</svg>
