<?xml version="1.0" encoding="UTF-8" standalone="no"?>
<!-- Created with Inkscape (http://www.inkscape.org/) -->

<svg
   width="160.93253"
   height="136.9668"
   viewBox="0 0 160.93253 136.9668"
   version="1.1"
   id="svg1"
   inkscape:version="1.3.2 (1:1.3.2+202311252150+091e20ef0f)"
   sodipodi:docname="04-5-ex-13-b-question.svg"
   xmlns:inkscape="http://www.inkscape.org/namespaces/inkscape"
   xmlns:sodipodi="http://sodipodi.sourceforge.net/DTD/sodipodi-0.dtd"
   xmlns="http://www.w3.org/2000/svg"
   xmlns:svg="http://www.w3.org/2000/svg">
  <sodipodi:namedview
     id="namedview1"
     pagecolor="#ffffff"
     bordercolor="#666666"
     borderopacity="1.0"
     inkscape:showpageshadow="2"
     inkscape:pageopacity="0.0"
     inkscape:pagecheckerboard="0"
     inkscape:deskcolor="#d1d1d1"
     inkscape:document-units="px"
     showgrid="true"
     inkscape:zoom="2.3697898"
     inkscape:cx="126.59351"
     inkscape:cy="9.9164913"
     inkscape:current-layer="layer1">
    <inkscape:grid
       id="grid1"
       units="px"
       originx="-44.85237"
       originy="-204.13934"
       spacingx="1"
       spacingy="1"
       empcolor="#0099e5"
       empopacity="0.30196078"
       color="#0099e5"
       opacity="0.14901961"
       empspacing="5"
       dotted="false"
       gridanglex="30"
       gridanglez="30"
       visible="true" />
    <inkscape:page
       x="0"
       y="0"
       width="160.93253"
       height="136.9668"
       id="page1"
       margin="10"
       bleed="0" />
  </sodipodi:namedview>
  <defs
     id="defs1" />
  <g
     inkscape:label="Layer 1"
     inkscape:groupmode="layer"
     id="layer1"
     transform="translate(-44.852365,-204.13933)">
    <path
       id="path7323"
       d="m 58.430489,225.95183 v 0.25 c -0.65625,-0.33594 -1.203125,-0.71875 -1.640625,-1.15625 -0.617188,-0.625 -1.09375,-1.36719 -1.4375,-2.21875 -0.335938,-0.85156 -0.5,-1.73828 -0.5,-2.65625 0,-1.33203 0.328125,-2.55078 0.984375,-3.65625 0.664062,-1.11328 1.53125,-1.90625 2.59375,-2.375 v 0.26562 c -0.53125,0.29297 -0.96875,0.69532 -1.3125,1.20313 -0.34375,0.51172 -0.601563,1.16406 -0.765625,1.95312 -0.167969,0.78125 -0.25,1.59375 -0.25,2.4375 0,0.92969 0.07031,1.77344 0.21875,2.53125 0.101562,0.59375 0.234375,1.06641 0.390625,1.42188 0.164062,0.36328 0.382812,0.71094 0.65625,1.04687 0.269531,0.33204 0.625,0.64844 1.0625,0.95313 z m 2.347656,-7.51563 c 0.570312,-0.78906 1.191406,-1.1875 1.859375,-1.1875 0.601562,0 1.132812,0.26172 1.59375,0.78125 0.457031,0.52344 0.6875,1.23047 0.6875,2.125 0,1.0625 -0.355469,1.91407 -1.0625,2.54688 -0.59375,0.5625 -1.261719,0.84375 -2,0.84375 -0.355469,0 -0.710938,-0.0625 -1.0625,-0.1875 -0.355469,-0.125 -0.71875,-0.31641 -1.09375,-0.57813 v -6.14062 c 0,-0.67578 -0.01563,-1.09375 -0.04687,-1.25 -0.03125,-0.15625 -0.08594,-0.25781 -0.15625,-0.3125 -0.0625,-0.0625 -0.148437,-0.0937 -0.25,-0.0937 -0.125,0 -0.277344,0.0391 -0.453125,0.10937 l -0.09375,-0.23437 1.78125,-0.71875 h 0.296875 z m 0,0.42188 v 3.54687 c 0.21875,0.21875 0.441406,0.38672 0.671875,0.5 0.238281,0.10547 0.484375,0.15625 0.734375,0.15625 0.394531,0 0.757812,-0.21093 1.09375,-0.64062 0.34375,-0.4375 0.515625,-1.06641 0.515625,-1.89063 0,-0.75781 -0.171875,-1.34375 -0.515625,-1.75 -0.335938,-0.40625 -0.71875,-0.60937 -1.15625,-0.60937 -0.230469,0 -0.460938,0.0586 -0.6875,0.17187 -0.179688,0.0859 -0.398438,0.25782 -0.65625,0.51563 z m 4.890625,-4.45313 v -0.26562 c 0.65625,0.32422 1.203125,0.70312 1.640625,1.14062 0.613281,0.63672 1.085938,1.38282 1.421875,2.23438 0.34375,0.84375 0.515625,1.72656 0.515625,2.64062 0,1.34375 -0.328125,2.57032 -0.984375,3.67188 -0.65625,1.10156 -1.523438,1.89453 -2.59375,2.375 v -0.25 c 0.53125,-0.29297 0.96875,-0.69531 1.3125,-1.20313 0.34375,-0.51171 0.597656,-1.15625 0.765625,-1.9375 0.164063,-0.78125 0.25,-1.59765 0.25,-2.45312 0,-0.92578 -0.07421,-1.76953 -0.21875,-2.53125 -0.105466,-0.59375 -0.242188,-1.06641 -0.40625,-1.42188 -0.15625,-0.36328 -0.371094,-0.71093 -0.640625,-1.04687 -0.273438,-0.33203 -0.625,-0.64844 -1.0625,-0.95313 z m 0,0"
       style="fill:#000000;fill-opacity:1;fill-rule:nonzero;stroke:none;stroke-width:1.33333"
       aria-label="(b)" />
    <path
       id="path7324"
       d="m 110.434,267.00655 h 21.25491 V 245.75164 H 110.434 Z"
       style="fill:none;stroke:#000000;stroke-width:0.666333;stroke-linecap:butt;stroke-linejoin:miter;stroke-miterlimit:10;stroke-dasharray:none;stroke-opacity:1" />
    <path
       id="path7325"
       d="m 131.6884,267.00655 h 21.25501 V 245.75164 H 131.6884 Z"
       style="fill:none;stroke:#000000;stroke-width:0.666333;stroke-linecap:round;stroke-linejoin:round;stroke-miterlimit:10;stroke-dasharray:none;stroke-opacity:1" />
    <path
       id="path7326"
       d="m 152.9428,267.00655 h 21.25491 V 245.75164 H 152.9428 Z"
       style="fill:none;stroke:#000000;stroke-width:0.666333;stroke-linecap:round;stroke-linejoin:round;stroke-miterlimit:10;stroke-dasharray:none;stroke-opacity:1" />
    <path
       id="path7327"
       d="m 174.1972,267.00655 h 21.25453 V 245.75164 H 174.1972 Z"
       style="fill:none;stroke:#000000;stroke-width:0.666333;stroke-linecap:round;stroke-linejoin:round;stroke-miterlimit:10;stroke-dasharray:none;stroke-opacity:1" />
    <path
       id="path7328"
       d="m 110.434,243.62735 h 21.25491 V 222.37282 H 110.434 Z"
       style="fill:none;stroke:#000000;stroke-width:0.666333;stroke-linecap:round;stroke-linejoin:round;stroke-miterlimit:10;stroke-dasharray:none;stroke-opacity:1" />
    <path
       id="path7329"
       d="m 87.0516,267.00655 h 21.25491 V 245.75164 H 87.0516 Z"
       style="fill:none;stroke:#000000;stroke-width:0.666333;stroke-linecap:round;stroke-linejoin:round;stroke-miterlimit:10;stroke-dasharray:none;stroke-opacity:1" />
    <path
       id="path7330"
       d="m 110.434,288.26095 h 21.25491 V 267.00604 H 110.434 Z"
       style="fill:none;stroke:#000000;stroke-width:0.666333;stroke-linecap:round;stroke-linejoin:round;stroke-miterlimit:10;stroke-dasharray:none;stroke-opacity:1" />
    <path
       id="path7331"
       d="m 131.6884,288.26095 h 21.25501 V 267.00604 H 131.6884 Z"
       style="fill:none;stroke:#000000;stroke-width:0.666333;stroke-linecap:round;stroke-linejoin:round;stroke-miterlimit:10;stroke-dasharray:none;stroke-opacity:1" />
    <path
       id="path7332"
       d="m 152.9428,288.26095 h 21.25491 V 267.00604 H 152.9428 Z"
       style="fill:none;stroke:#000000;stroke-width:0.666333;stroke-linecap:round;stroke-linejoin:round;stroke-miterlimit:10;stroke-dasharray:none;stroke-opacity:1" />
    <path
       id="path7333"
       d="m 174.1972,288.26095 h 21.25453 V 267.00604 H 174.1972 Z"
       style="fill:none;stroke:#000000;stroke-width:0.666333;stroke-linecap:round;stroke-linejoin:round;stroke-miterlimit:10;stroke-dasharray:none;stroke-opacity:1" />
    <path
       id="path7334"
       d="m 131.6884,243.62735 h 21.25501 V 222.37282 H 131.6884 Z"
       style="fill:none;stroke:#000000;stroke-width:0.666333;stroke-linecap:round;stroke-linejoin:round;stroke-miterlimit:10;stroke-dasharray:none;stroke-opacity:1" />
    <path
       id="path7335"
       d="m 87.0516,288.26095 h 21.25491 V 267.00604 H 87.0516 Z"
       style="fill:none;stroke:#000000;stroke-width:0.666333;stroke-linecap:round;stroke-linejoin:round;stroke-miterlimit:10;stroke-dasharray:none;stroke-opacity:1" />
    <path
       id="path7336"
       d="m 110.434,309.51535 h 21.25491 V 288.26082 H 110.434 Z"
       style="fill:none;stroke:#000000;stroke-width:0.666333;stroke-linecap:round;stroke-linejoin:round;stroke-miterlimit:10;stroke-dasharray:none;stroke-opacity:1" />
    <path
       id="path7337"
       d="m 131.6884,309.51535 h 21.25501 V 288.26082 H 131.6884 Z"
       style="fill:none;stroke:#000000;stroke-width:0.666333;stroke-linecap:round;stroke-linejoin:round;stroke-miterlimit:10;stroke-dasharray:none;stroke-opacity:1" />
    <path
       id="path7338"
       d="m 152.9428,309.51535 h 21.25491 V 288.26082 H 152.9428 Z"
       style="fill:none;stroke:#000000;stroke-width:0.666333;stroke-linecap:round;stroke-linejoin:round;stroke-miterlimit:10;stroke-dasharray:none;stroke-opacity:1" />
    <path
       id="path7339"
       d="m 174.1972,309.51535 h 21.25453 V 288.26082 H 174.1972 Z"
       style="fill:none;stroke:#000000;stroke-width:0.666333;stroke-linecap:round;stroke-linejoin:round;stroke-miterlimit:10;stroke-dasharray:none;stroke-opacity:1" />
    <path
       id="path7340"
       d="m 152.9428,243.62735 h 21.25491 V 222.37282 H 152.9428 Z"
       style="fill:none;stroke:#000000;stroke-width:0.666333;stroke-linecap:round;stroke-linejoin:round;stroke-miterlimit:10;stroke-dasharray:none;stroke-opacity:1" />
    <path
       id="path7341"
       d="m 87.0516,309.51535 h 21.25491 V 288.26082 H 87.0516 Z"
       style="fill:none;stroke:#000000;stroke-width:0.666333;stroke-linecap:round;stroke-linejoin:round;stroke-miterlimit:10;stroke-dasharray:none;stroke-opacity:1" />
    <path
       id="path7342"
       d="m 110.434,330.77295 h 21.25491 V 309.51756 H 110.434 Z"
       style="fill:none;stroke:#000000;stroke-width:0.666333;stroke-linecap:round;stroke-linejoin:round;stroke-miterlimit:10;stroke-dasharray:none;stroke-opacity:1" />
    <path
       id="path7343"
       d="m 131.6884,330.77295 h 21.25501 V 309.51756 H 131.6884 Z"
       style="fill:none;stroke:#000000;stroke-width:0.666333;stroke-linecap:round;stroke-linejoin:round;stroke-miterlimit:10;stroke-dasharray:none;stroke-opacity:1" />
    <path
       id="path7344"
       d="m 152.9428,330.77295 h 21.25491 V 309.51756 H 152.9428 Z"
       style="fill:none;stroke:#000000;stroke-width:0.666333;stroke-linecap:round;stroke-linejoin:round;stroke-miterlimit:10;stroke-dasharray:none;stroke-opacity:1" />
    <path
       id="path7345"
       d="m 174.1972,330.77295 h 21.25453 V 309.51756 H 174.1972 Z"
       style="fill:none;stroke:#000000;stroke-width:0.666333;stroke-linecap:round;stroke-linejoin:round;stroke-miterlimit:10;stroke-dasharray:none;stroke-opacity:1" />
    <path
       id="path7346"
       d="m 174.1972,243.62735 h 21.25453 V 222.37282 H 174.1972 Z"
       style="fill:none;stroke:#000000;stroke-width:0.666333;stroke-linecap:round;stroke-linejoin:round;stroke-miterlimit:10;stroke-dasharray:none;stroke-opacity:1" />
    <path
       id="path7347"
       d="m 87.0516,330.77295 h 21.25491 V 309.51756 H 87.0516 Z"
       style="fill:none;stroke:#000000;stroke-width:0.666333;stroke-linecap:round;stroke-linejoin:round;stroke-miterlimit:10;stroke-dasharray:none;stroke-opacity:1" />
    <path
       id="path7348"
       d="m 119.794,258.13295 c -0.0288,0.1952 -0.0448,0.3584 -0.0448,0.4864 0,0.3456 0.1248,0.6432 0.3712,0.8896 0.2464,0.2432 0.544,0.3648 0.896,0.3648 0.2816,0 0.5536,-0.0576 0.8128,-0.1728 0.2592,-0.1152 0.6464,-0.3712 1.1584,-0.7648 l 0.1216,0.1696 c -0.928,0.9184 -1.808,1.376 -2.6496,1.376 -0.5696,0 -0.9984,-0.1792 -1.2896,-0.5376 -0.288,-0.3584 -0.432,-0.7552 -0.432,-1.1904 0,-0.5824 0.1792,-1.1776 0.5376,-1.7888 0.3616,-0.608 0.8096,-1.0816 1.3568,-1.4176 0.5408,-0.3392 1.1008,-0.5056 1.6736,-0.5056 0.416,0 0.72,0.0832 0.9216,0.2496 0.1984,0.1696 0.2976,0.368 0.2976,0.5984 0,0.3232 -0.128,0.6336 -0.3872,0.9312 -0.3392,0.3872 -0.8384,0.7008 -1.5008,0.9376 -0.4352,0.16 -1.0528,0.2848 -1.8432,0.3744 z m 0.0384,-0.288 c 0.5792,-0.064 1.0496,-0.1792 1.4112,-0.3392 0.4832,-0.2144 0.8416,-0.4704 1.0816,-0.7712 0.24,-0.2976 0.3616,-0.5824 0.3616,-0.8512 0,-0.1664 -0.0512,-0.2976 -0.1568,-0.4 -0.1024,-0.1024 -0.2496,-0.1504 -0.4416,-0.1504 -0.3968,0 -0.8192,0.2112 -1.2672,0.6336 -0.448,0.4256 -0.7776,1.0528 -0.9888,1.8784"
       style="fill:#000000;fill-opacity:1;fill-rule:nonzero;stroke:none;stroke-width:0.32" />
    <path
       id="path7349"
       d="m 144.7988,255.04175 -1.1424,3.9712 -0.128,0.5344 c -0.0128,0.048 -0.0192,0.0896 -0.0192,0.128 0,0.0608 0.0192,0.1184 0.0576,0.1632 0.032,0.0352 0.0704,0.0512 0.1184,0.0512 0.0512,0 0.1152,-0.0288 0.1984,-0.0928 0.1536,-0.112 0.3552,-0.3456 0.6112,-0.704 l 0.1984,0.1408 c -0.2688,0.4064 -0.5472,0.7168 -0.832,0.9312 -0.2848,0.2112 -0.5504,0.3168 -0.7904,0.3168 -0.1696,0 -0.2944,-0.0416 -0.3776,-0.1248 -0.0864,-0.0832 -0.128,-0.208 -0.128,-0.368 0,-0.1888 0.0448,-0.4416 0.1312,-0.7552 l 0.1216,-0.4384 c -0.512,0.6688 -0.9824,1.136 -1.4112,1.4016 -0.3104,0.1888 -0.6144,0.2848 -0.9088,0.2848 -0.2848,0 -0.5312,-0.1184 -0.7392,-0.352 -0.208,-0.2368 -0.3104,-0.5632 -0.3104,-0.976 0,-0.6208 0.1888,-1.2768 0.56,-1.968 0.3744,-0.688 0.848,-1.2384 1.4208,-1.6544 0.448,-0.3264 0.8736,-0.4896 1.2736,-0.4896 0.2368,0 0.4352,0.0608 0.592,0.1856 0.16,0.1248 0.2784,0.3296 0.3616,0.6208 l 0.2112,-0.6688 z m -2.0864,0.304 c -0.2496,0 -0.5152,0.1152 -0.7968,0.352 -0.3968,0.3296 -0.752,0.8224 -1.0624,1.4752 -0.3104,0.6528 -0.4672,1.2416 -0.4672,1.7696 0,0.2656 0.0672,0.4768 0.2016,0.6304 0.1312,0.1536 0.2848,0.2304 0.4576,0.2304 0.4224,0 0.8864,-0.3136 1.3856,-0.944 0.6688,-0.8352 1.0016,-1.6928 1.0016,-2.5696 0,-0.3328 -0.064,-0.5728 -0.192,-0.7232 -0.128,-0.1472 -0.304,-0.2208 -0.528,-0.2208"
       style="fill:#000000;fill-opacity:1;fill-rule:nonzero;stroke:none;stroke-width:0.32" />
    <path
       id="path7350"
       d="m 164.546,252.12975 -1.1552,4.048 c 0.3744,-0.3904 0.7008,-0.656 0.9824,-0.8 0.2784,-0.144 0.5696,-0.2176 0.8736,-0.2176 0.432,0 0.784,0.1408 1.056,0.4256 0.272,0.2848 0.4096,0.672 0.4096,1.1616 0,0.6272 -0.1792,1.2544 -0.5376,1.8784 -0.3616,0.6208 -0.8096,1.1072 -1.3536,1.456 -0.544,0.3456 -1.0784,0.5216 -1.6064,0.5216 -0.5888,0 -1.1936,-0.2208 -1.8176,-0.6624 l 1.7824,-6.1344 c 0.1376,-0.4736 0.2048,-0.7488 0.2048,-0.832 0,-0.1024 -0.0288,-0.1792 -0.0928,-0.2272 -0.0896,-0.0736 -0.224,-0.1056 -0.4,-0.1056 -0.08,0 -0.2048,0.0128 -0.3744,0.0384 v -0.2208 z m -2.2688,7.8752 c 0.3904,0.2144 0.736,0.3232 1.0304,0.3232 0.3456,0 0.7008,-0.1248 1.072,-0.3776 0.368,-0.2528 0.688,-0.6784 0.96,-1.2768 0.272,-0.5952 0.4064,-1.2 0.4064,-1.808 0,-0.3616 -0.0864,-0.6432 -0.2656,-0.8448 -0.1792,-0.2016 -0.3872,-0.304 -0.6304,-0.304 -0.3648,0 -0.72,0.144 -1.0656,0.4352 -0.3488,0.2912 -0.5952,0.6944 -0.7456,1.216 l -0.7616,2.6368"
       style="fill:#000000;fill-opacity:1;fill-rule:nonzero;stroke:none;stroke-width:0.32" />
    <path
       id="path7351"
       d="m 186.9556,259.06415 c -0.4064,0.4864 -0.816,0.848 -1.2288,1.0752 -0.416,0.2304 -0.8512,0.3424 -1.312,0.3424 -0.5536,0 -0.9888,-0.1568 -1.2992,-0.4672 -0.3104,-0.3136 -0.464,-0.7328 -0.464,-1.2608 0,-0.5984 0.1664,-1.184 0.4992,-1.7632 0.336,-0.5792 0.784,-1.0496 1.3472,-1.408 0.5664,-0.3616 1.1168,-0.5408 1.6608,-0.5408 0.4256,0 0.7456,0.0864 0.9536,0.2656 0.2144,0.176 0.32,0.3936 0.32,0.6528 0,0.2432 -0.0736,0.448 -0.224,0.6208 -0.1088,0.1344 -0.2432,0.1984 -0.4032,0.1984 -0.1216,0 -0.224,-0.0384 -0.304,-0.1184 -0.08,-0.0768 -0.1184,-0.176 -0.1184,-0.2912 0,-0.0736 0.016,-0.144 0.0448,-0.2048 0.0288,-0.064 0.0896,-0.1376 0.1792,-0.2272 0.0928,-0.0864 0.1504,-0.1504 0.1696,-0.1888 0.0192,-0.0384 0.0288,-0.08 0.0288,-0.1216 0,-0.0832 -0.0384,-0.1536 -0.112,-0.208 -0.112,-0.0768 -0.272,-0.1184 -0.48,-0.1184 -0.384,0 -0.7616,0.1376 -1.136,0.4064 -0.3776,0.2688 -0.6976,0.6528 -0.9632,1.1488 -0.32,0.6016 -0.48,1.2032 -0.48,1.8048 0,0.3968 0.1152,0.7136 0.3392,0.944 0.2272,0.2368 0.5376,0.352 0.928,0.352 0.2976,0 0.5984,-0.0768 0.8928,-0.2272 0.2944,-0.1504 0.6272,-0.4224 0.992,-0.816 l 0.1696,0.1504"
       style="fill:#000000;fill-opacity:1;fill-rule:nonzero;stroke:none;stroke-width:0.32" />
    <path
       id="path7352"
       d="m 119.794,234.73135 c -0.0288,0.1984 -0.0448,0.3584 -0.0448,0.4896 0,0.3456 0.1248,0.64 0.3712,0.8864 0.2464,0.2464 0.544,0.368 0.896,0.368 0.2816,0 0.5536,-0.0576 0.8128,-0.176 0.2592,-0.112 0.6464,-0.368 1.1584,-0.7616 l 0.1216,0.1696 c -0.928,0.9184 -1.808,1.376 -2.6496,1.376 -0.5696,0 -0.9984,-0.1824 -1.2896,-0.5376 -0.288,-0.3616 -0.432,-0.7584 -0.432,-1.1904 0,-0.5824 0.1792,-1.1776 0.5376,-1.7888 0.3616,-0.608 0.8096,-1.0816 1.3568,-1.4208 0.5408,-0.336 1.1008,-0.5056 1.6736,-0.5056 0.416,0 0.72,0.0832 0.9216,0.2528 0.1984,0.1664 0.2976,0.3648 0.2976,0.5952 0,0.3264 -0.128,0.6368 -0.3872,0.9312 -0.3392,0.3904 -0.8384,0.7008 -1.5008,0.9376 -0.4352,0.16 -1.0528,0.288 -1.8432,0.3744 z m 0.0384,-0.2848 c 0.5792,-0.0672 1.0496,-0.1792 1.4112,-0.3392 0.4832,-0.2144 0.8416,-0.4736 1.0816,-0.7712 0.24,-0.3008 0.3616,-0.5824 0.3616,-0.8544 0,-0.1632 -0.0512,-0.2944 -0.1568,-0.3968 -0.1024,-0.1024 -0.2496,-0.1536 -0.4416,-0.1536 -0.3968,0 -0.8192,0.2144 -1.2672,0.6368 -0.448,0.4256 -0.7776,1.0496 -0.9888,1.8784"
       style="fill:#000000;fill-opacity:1;fill-rule:nonzero;stroke:none;stroke-width:0.32" />
    <path
       id="path7353"
       d="m 96.3924,258.13295 c -0.0288,0.1952 -0.0416,0.3584 -0.0416,0.4864 0,0.3456 0.1248,0.6432 0.3712,0.8896 0.2464,0.2432 0.544,0.3648 0.896,0.3648 0.2816,0 0.5504,-0.0576 0.8096,-0.1728 0.2624,-0.1152 0.6464,-0.3712 1.1584,-0.7648 l 0.1216,0.1696 c -0.9248,0.9184 -1.808,1.376 -2.6464,1.376 -0.5696,0 -1.0016,-0.1792 -1.2896,-0.5376 -0.288,-0.3584 -0.432,-0.7552 -0.432,-1.1904 0,-0.5824 0.176,-1.1776 0.5376,-1.7888 0.3584,-0.608 0.8096,-1.0816 1.3536,-1.4176 0.5408,-0.3392 1.1008,-0.5056 1.6768,-0.5056 0.4128,0 0.72,0.0832 0.9184,0.2496 0.1984,0.1696 0.2976,0.368 0.2976,0.5984 0,0.3232 -0.128,0.6336 -0.384,0.9312 -0.3392,0.3872 -0.8416,0.7008 -1.5008,0.9376 -0.4384,0.16 -1.0528,0.2848 -1.8464,0.3744 z m 0.0416,-0.288 c 0.576,-0.064 1.0496,-0.1792 1.4112,-0.3392 0.48,-0.2144 0.8416,-0.4704 1.0816,-0.7712 0.24,-0.2976 0.3584,-0.5824 0.3584,-0.8512 0,-0.1664 -0.0512,-0.2976 -0.1536,-0.4 -0.1024,-0.1024 -0.2496,-0.1504 -0.4416,-0.1504 -0.4,0 -0.8224,0.2112 -1.2704,0.6336 -0.448,0.4256 -0.7744,1.0528 -0.9856,1.8784"
       style="fill:#000000;fill-opacity:1;fill-rule:nonzero;stroke:none;stroke-width:0.32" />
    <path
       id="path7354"
       d="m 123.634,276.28015 -1.1424,3.9712 -0.128,0.5344 c -0.0128,0.0512 -0.0192,0.0928 -0.0192,0.128 0,0.0608 0.0192,0.1184 0.0576,0.1632 0.032,0.0352 0.0704,0.0512 0.1184,0.0512 0.0512,0 0.1152,-0.0288 0.1984,-0.0896 0.1536,-0.1152 0.3552,-0.3488 0.608,-0.704 l 0.2016,0.1408 c -0.2688,0.4032 -0.5472,0.7136 -0.832,0.928 -0.2848,0.2112 -0.5504,0.3168 -0.7904,0.3168 -0.1696,0 -0.2944,-0.0416 -0.3808,-0.1248 -0.0832,-0.0832 -0.1248,-0.2048 -0.1248,-0.3648 0,-0.192 0.0448,-0.4416 0.1312,-0.7552 l 0.1216,-0.4384 c -0.512,0.6656 -0.9824,1.1328 -1.4112,1.3984 -0.3104,0.1888 -0.6144,0.2848 -0.9088,0.2848 -0.288,0 -0.5312,-0.1152 -0.7392,-0.352 -0.208,-0.2368 -0.3104,-0.5632 -0.3104,-0.976 0,-0.6208 0.1856,-1.2768 0.56,-1.968 0.3744,-0.6848 0.848,-1.2384 1.4208,-1.6512 0.448,-0.3296 0.8736,-0.4928 1.2736,-0.4928 0.2368,0 0.4352,0.0608 0.592,0.1856 0.16,0.1248 0.2784,0.3328 0.3616,0.6208 l 0.2112,-0.6656 z m -2.0864,0.304 c -0.2496,0 -0.5152,0.1184 -0.7968,0.352 -0.3968,0.3328 -0.752,0.8224 -1.0656,1.4752 -0.3072,0.6528 -0.464,1.2416 -0.464,1.7696 0,0.2656 0.0672,0.4768 0.1984,0.6304 0.1344,0.1536 0.288,0.2304 0.4576,0.2304 0.4256,0 0.8896,-0.3136 1.3888,-0.9408 0.6688,-0.8384 1.0016,-1.696 1.0016,-2.5728 0,-0.3328 -0.064,-0.5728 -0.192,-0.7232 -0.128,-0.1472 -0.304,-0.2208 -0.528,-0.2208"
       style="fill:#000000;fill-opacity:1;fill-rule:nonzero;stroke:none;stroke-width:0.32" />
    <path
       id="path7355"
       d="m 144.7508,276.28015 -1.1392,3.9712 -0.1312,0.5344 c -0.01,0.0512 -0.016,0.0928 -0.016,0.128 0,0.0608 0.0192,0.1184 0.0576,0.1632 0.032,0.0352 0.0704,0.0512 0.1184,0.0512 0.0512,0 0.1152,-0.0288 0.1984,-0.0896 0.1536,-0.1152 0.3552,-0.3488 0.608,-0.704 l 0.2016,0.1408 c -0.2688,0.4032 -0.5472,0.7136 -0.832,0.928 -0.288,0.2112 -0.5504,0.3168 -0.7936,0.3168 -0.1664,0 -0.2912,-0.0416 -0.3776,-0.1248 -0.0832,-0.0832 -0.1248,-0.2048 -0.1248,-0.3648 0,-0.192 0.0448,-0.4416 0.1312,-0.7552 l 0.1216,-0.4384 c -0.512,0.6656 -0.9824,1.1328 -1.4144,1.3984 -0.3072,0.1888 -0.6112,0.2848 -0.9056,0.2848 -0.288,0 -0.5344,-0.1152 -0.7392,-0.352 -0.208,-0.2368 -0.3104,-0.5632 -0.3104,-0.976 0,-0.6208 0.1856,-1.2768 0.56,-1.968 0.3712,-0.6848 0.848,-1.2384 1.4208,-1.6512 0.448,-0.3296 0.8704,-0.4928 1.2704,-0.4928 0.24,0 0.4384,0.0608 0.5952,0.1856 0.1568,0.1248 0.2784,0.3328 0.3616,0.6208 l 0.2112,-0.6656 z m -2.0832,0.304 c -0.2528,0 -0.5152,0.1184 -0.7968,0.352 -0.3968,0.3328 -0.752,0.8224 -1.0656,1.4752 -0.3104,0.6528 -0.464,1.2416 -0.464,1.7696 0,0.2656 0.0672,0.4768 0.1984,0.6304 0.1312,0.1536 0.288,0.2304 0.4576,0.2304 0.4256,0 0.8896,-0.3136 1.3888,-0.9408 0.6688,-0.8384 1.0016,-1.696 1.0016,-2.5728 0,-0.3328 -0.064,-0.5728 -0.1952,-0.7232 -0.1248,-0.1472 -0.3008,-0.2208 -0.5248,-0.2208"
       style="fill:#000000;fill-opacity:1;fill-rule:nonzero;stroke:none;stroke-width:0.32" />
    <path
       id="path7356"
       d="m 164.546,273.48975 -1.1552,4.048 c 0.3744,-0.3904 0.7008,-0.656 0.9824,-0.8 0.2784,-0.1472 0.5696,-0.2176 0.8736,-0.2176 0.432,0 0.784,0.1408 1.056,0.4256 0.272,0.2848 0.4096,0.672 0.4096,1.1616 0,0.6272 -0.1792,1.2544 -0.5376,1.8784 -0.3616,0.6208 -0.8096,1.1072 -1.3536,1.456 -0.544,0.3456 -1.0784,0.5216 -1.6064,0.5216 -0.5888,0 -1.1936,-0.2208 -1.8176,-0.6624 l 1.7824,-6.1344 c 0.1376,-0.4736 0.2048,-0.7488 0.2048,-0.832 0,-0.1024 -0.0288,-0.1792 -0.0928,-0.2272 -0.0896,-0.0736 -0.224,-0.1056 -0.4,-0.1056 -0.08,0 -0.2048,0.0128 -0.3744,0.0384 v -0.2208 z m -2.2688,7.8752 c 0.3904,0.2144 0.736,0.3232 1.0304,0.3232 0.3456,0 0.7008,-0.1248 1.072,-0.3776 0.368,-0.2528 0.688,-0.6784 0.96,-1.2768 0.272,-0.5952 0.4064,-1.2 0.4064,-1.808 0,-0.3616 -0.0864,-0.6432 -0.2656,-0.8448 -0.1792,-0.2016 -0.3872,-0.304 -0.6304,-0.304 -0.3648,0 -0.72,0.144 -1.0656,0.4352 -0.3488,0.2912 -0.5952,0.6944 -0.7456,1.216 l -0.7616,2.6368"
       style="fill:#000000;fill-opacity:1;fill-rule:nonzero;stroke:none;stroke-width:0.32" />
    <path
       id="path7357"
       d="m 186.9556,280.30255 c -0.4064,0.4896 -0.816,0.848 -1.2288,1.0784 -0.416,0.2272 -0.8512,0.3392 -1.312,0.3392 -0.5536,0 -0.9888,-0.1536 -1.2992,-0.4672 -0.3104,-0.3104 -0.464,-0.7296 -0.464,-1.2576 0,-0.5984 0.1664,-1.1872 0.4992,-1.7664 0.336,-0.576 0.784,-1.0464 1.3472,-1.408 0.5664,-0.3616 1.1168,-0.5408 1.6608,-0.5408 0.4256,0 0.7456,0.0864 0.9536,0.2656 0.2144,0.1792 0.32,0.3968 0.32,0.6528 0,0.2432 -0.0736,0.448 -0.224,0.6208 -0.1088,0.1344 -0.2432,0.2016 -0.4032,0.2016 -0.1216,0 -0.224,-0.0416 -0.304,-0.1184 -0.08,-0.08 -0.1184,-0.176 -0.1184,-0.2944 0,-0.0736 0.016,-0.144 0.0448,-0.2048 0.0288,-0.0608 0.0896,-0.1376 0.1792,-0.2272 0.0928,-0.0864 0.1504,-0.1472 0.1696,-0.1888 0.0192,-0.0384 0.0288,-0.08 0.0288,-0.1216 0,-0.0832 -0.0384,-0.1536 -0.112,-0.2048 -0.112,-0.08 -0.272,-0.1184 -0.48,-0.1184 -0.384,0 -0.7616,0.1344 -1.136,0.4064 -0.3776,0.2656 -0.6976,0.6496 -0.9632,1.1456 -0.32,0.6048 -0.48,1.2032 -0.48,1.8048 0,0.3968 0.1152,0.7136 0.3392,0.9472 0.2272,0.2336 0.5376,0.3488 0.928,0.3488 0.2976,0 0.5984,-0.0768 0.8928,-0.2272 0.2944,-0.1472 0.6272,-0.4224 0.992,-0.816 l 0.1696,0.1504"
       style="fill:#000000;fill-opacity:1;fill-rule:nonzero;stroke:none;stroke-width:0.32" />
    <path
       id="path7358"
       d="m 144.8724,231.64015 -1.1424,3.9712 -0.128,0.5344 c -0.0128,0.0512 -0.0192,0.0928 -0.0192,0.128 0,0.064 0.0224,0.1184 0.0608,0.1632 0.032,0.0384 0.0704,0.0544 0.1152,0.0544 0.0512,0 0.1184,-0.032 0.1984,-0.0928 0.1536,-0.1152 0.3584,-0.3488 0.6112,-0.704 l 0.1984,0.1408 c -0.2688,0.4064 -0.5472,0.7136 -0.832,0.928 -0.2848,0.2144 -0.5472,0.32 -0.7904,0.32 -0.1696,0 -0.2944,-0.0416 -0.3776,-0.128 -0.0832,-0.0832 -0.128,-0.2048 -0.128,-0.3648 0,-0.1888 0.0448,-0.4416 0.1312,-0.7552 l 0.1216,-0.4384 c -0.512,0.6688 -0.9824,1.1328 -1.4112,1.3984 -0.3072,0.192 -0.6112,0.288 -0.9088,0.288 -0.2848,0 -0.5312,-0.1184 -0.736,-0.3552 -0.208,-0.2368 -0.3104,-0.5632 -0.3104,-0.976 0,-0.6208 0.1856,-1.2768 0.5568,-1.9648 0.3744,-0.688 0.848,-1.2416 1.424,-1.6544 0.4448,-0.3296 0.8704,-0.4928 1.2704,-0.4928 0.2368,0 0.4352,0.0608 0.5952,0.1856 0.1568,0.128 0.2752,0.3328 0.3584,0.624 l 0.2112,-0.6688 z m -2.0864,0.304 c -0.2496,0 -0.512,0.1184 -0.7968,0.352 -0.3968,0.3328 -0.752,0.8256 -1.0624,1.4752 -0.3104,0.6528 -0.4672,1.2416 -0.4672,1.7696 0,0.2688 0.0672,0.4768 0.2016,0.6304 0.1312,0.1536 0.2848,0.2304 0.4576,0.2304 0.4224,0 0.8864,-0.3136 1.3888,-0.9408 0.6656,-0.8352 1.0016,-1.696 1.0016,-2.5728 0,-0.3328 -0.064,-0.5728 -0.1952,-0.7232 -0.128,-0.1472 -0.304,-0.2208 -0.528,-0.2208"
       style="fill:#000000;fill-opacity:1;fill-rule:nonzero;stroke:none;stroke-width:0.32" />
    <path
       id="path7359"
       d="m 100.2324,276.28015 -1.1424,3.9712 -0.128,0.5344 c -0.0096,0.0512 -0.016,0.0928 -0.016,0.128 0,0.0608 0.0192,0.1184 0.0576,0.1632 0.032,0.0352 0.0704,0.0512 0.1184,0.0512 0.048,0 0.1152,-0.0288 0.1952,-0.0896 0.1568,-0.1152 0.3584,-0.3488 0.6112,-0.704 l 0.2016,0.1408 c -0.272,0.4032 -0.5504,0.7136 -0.832,0.928 -0.288,0.2112 -0.5504,0.3168 -0.7936,0.3168 -0.1664,0 -0.2944,-0.0416 -0.3776,-0.1248 -0.0832,-0.0832 -0.1248,-0.2048 -0.1248,-0.3648 0,-0.192 0.0416,-0.4416 0.128,-0.7552 l 0.1216,-0.4384 c -0.512,0.6656 -0.9824,1.1328 -1.4112,1.3984 -0.3072,0.1888 -0.6112,0.2848 -0.9088,0.2848 -0.2848,0 -0.5312,-0.1152 -0.736,-0.352 -0.208,-0.2368 -0.3104,-0.5632 -0.3104,-0.976 0,-0.6208 0.1856,-1.2768 0.5568,-1.968 0.3744,-0.6848 0.848,-1.2384 1.424,-1.6512 0.448,-0.3296 0.8704,-0.4928 1.2704,-0.4928 0.24,0 0.4352,0.0608 0.5952,0.1856 0.1568,0.1248 0.2784,0.3328 0.3584,0.6208 l 0.2112,-0.6656 z m -2.0864,0.304 c -0.2496,0 -0.512,0.1184 -0.7936,0.352 -0.4,0.3328 -0.752,0.8224 -1.0656,1.4752 -0.3104,0.6528 -0.4672,1.2416 -0.4672,1.7696 0,0.2656 0.0704,0.4768 0.2016,0.6304 0.1312,0.1536 0.2848,0.2304 0.4576,0.2304 0.4224,0 0.8864,-0.3136 1.3888,-0.9408 0.6656,-0.8384 1.0016,-1.696 1.0016,-2.5728 0,-0.3328 -0.064,-0.5728 -0.1952,-0.7232 -0.128,-0.1472 -0.304,-0.2208 -0.528,-0.2208"
       style="fill:#000000;fill-opacity:1;fill-rule:nonzero;stroke:none;stroke-width:0.32" />
    <path
       id="path7360"
       d="m 122.066,294.73135 -1.1552,4.048 c 0.3744,-0.3904 0.7008,-0.6592 0.9824,-0.8032 0.2784,-0.144 0.5728,-0.2176 0.8768,-0.2176 0.4288,0 0.7808,0.144 1.0528,0.4256 0.2752,0.288 0.4096,0.6752 0.4096,1.1648 0,0.6272 -0.1792,1.2512 -0.5376,1.8752 -0.3584,0.624 -0.8096,1.1104 -1.3536,1.4592 -0.5408,0.3456 -1.0784,0.5184 -1.6064,0.5184 -0.5888,0 -1.1936,-0.2208 -1.8144,-0.6624 l 1.7792,-6.1344 c 0.1376,-0.4704 0.2048,-0.7488 0.2048,-0.832 0,-0.1024 -0.0288,-0.176 -0.0928,-0.2272 -0.0896,-0.0704 -0.224,-0.1056 -0.4,-0.1056 -0.08,0 -0.2048,0.0128 -0.3744,0.0384 v -0.2208 z m -2.2688,7.872 c 0.3904,0.2176 0.736,0.3232 1.0304,0.3232 0.3456,0 0.7008,-0.1248 1.072,-0.3776 0.368,-0.2496 0.688,-0.6784 0.96,-1.2768 0.272,-0.5952 0.4064,-1.2 0.4064,-1.808 0,-0.3616 -0.0864,-0.64 -0.2656,-0.8448 -0.1792,-0.2016 -0.3872,-0.304 -0.6304,-0.304 -0.3648,0 -0.72,0.1472 -1.0656,0.4352 -0.3488,0.2944 -0.5952,0.6976 -0.7424,1.216 l -0.7648,2.6368"
       style="fill:#000000;fill-opacity:1;fill-rule:nonzero;stroke:none;stroke-width:0.32" />
    <path
       id="path7361"
       d="m 144.8724,297.51855 -1.1424,3.9744 -0.128,0.5312 c -0.0128,0.0512 -0.0192,0.0928 -0.0192,0.1312 0,0.0608 0.0224,0.1152 0.0608,0.1632 0.032,0.0352 0.0704,0.0512 0.1152,0.0512 0.0512,0 0.1184,-0.0288 0.1984,-0.0928 0.1536,-0.112 0.3584,-0.3456 0.6112,-0.704 l 0.1984,0.1408 c -0.2688,0.4064 -0.5472,0.7168 -0.832,0.9312 -0.2848,0.2112 -0.5472,0.3168 -0.7904,0.3168 -0.1696,0 -0.2944,-0.0416 -0.3776,-0.1248 -0.0832,-0.0864 -0.128,-0.208 -0.128,-0.368 0,-0.1888 0.0448,-0.4416 0.1312,-0.7552 l 0.1216,-0.4384 c -0.512,0.6688 -0.9824,1.1328 -1.4112,1.4016 -0.3072,0.1888 -0.6112,0.2848 -0.9088,0.2848 -0.2848,0 -0.5312,-0.1184 -0.736,-0.3552 -0.208,-0.2336 -0.3104,-0.56 -0.3104,-0.976 0,-0.6176 0.1856,-1.2736 0.5568,-1.9648 0.3744,-0.688 0.848,-1.2416 1.424,-1.6544 0.4448,-0.3264 0.8704,-0.4928 1.2704,-0.4928 0.2368,0 0.4352,0.064 0.5952,0.1888 0.1568,0.1248 0.2752,0.3296 0.3584,0.6208 l 0.2112,-0.6688 z m -2.0864,0.304 c -0.2496,0 -0.512,0.1184 -0.7968,0.352 -0.3968,0.3328 -0.752,0.8256 -1.0624,1.4784 -0.3104,0.6496 -0.4672,1.2416 -0.4672,1.7696 0,0.2656 0.0672,0.4736 0.2016,0.6304 0.1312,0.1536 0.2848,0.2272 0.4576,0.2272 0.4224,0 0.8864,-0.3136 1.3888,-0.9408 0.6656,-0.8352 1.0016,-1.6928 1.0016,-2.5728 0,-0.3296 -0.064,-0.5696 -0.1952,-0.72 -0.128,-0.1472 -0.304,-0.224 -0.528,-0.224"
       style="fill:#000000;fill-opacity:1;fill-rule:nonzero;stroke:none;stroke-width:0.32" />
    <path
       id="path7362"
       d="m 164.5428,294.73135 -1.152,4.048 c 0.3744,-0.3904 0.7008,-0.6592 0.9824,-0.8032 0.2784,-0.144 0.5696,-0.2176 0.8736,-0.2176 0.432,0 0.784,0.144 1.056,0.4256 0.272,0.288 0.4096,0.6752 0.4096,1.1648 0,0.6272 -0.1792,1.2512 -0.5376,1.8752 -0.3616,0.624 -0.8096,1.1104 -1.3536,1.4592 -0.544,0.3456 -1.0784,0.5184 -1.6064,0.5184 -0.592,0 -1.1936,-0.2208 -1.8176,-0.6624 l 1.7824,-6.1344 c 0.1376,-0.4704 0.2048,-0.7488 0.2048,-0.832 0,-0.1024 -0.032,-0.176 -0.0928,-0.2272 -0.0896,-0.0704 -0.224,-0.1056 -0.4,-0.1056 -0.08,0 -0.2048,0.0128 -0.3744,0.0384 v -0.2208 z m -2.2656,7.872 c 0.3904,0.2176 0.736,0.3232 1.0304,0.3232 0.3456,0 0.7008,-0.1248 1.0688,-0.3776 0.3712,-0.2496 0.6912,-0.6784 0.96,-1.2768 0.272,-0.5952 0.4096,-1.2 0.4096,-1.808 0,-0.3616 -0.0896,-0.64 -0.2656,-0.8448 -0.1792,-0.2016 -0.3872,-0.304 -0.6304,-0.304 -0.3648,0 -0.72,0.1472 -1.0656,0.4352 -0.3488,0.2944 -0.5952,0.6976 -0.7456,1.216 l -0.7616,2.6368"
       style="fill:#000000;fill-opacity:1;fill-rule:nonzero;stroke:none;stroke-width:0.32" />
    <path
       id="path7363"
       d="m 186.9556,301.54415 c -0.4064,0.4864 -0.816,0.848 -1.2288,1.0752 -0.416,0.2272 -0.8544,0.3424 -1.312,0.3424 -0.5536,0 -0.9888,-0.1568 -1.2992,-0.4672 -0.3104,-0.3136 -0.4672,-0.7328 -0.4672,-1.2608 0,-0.5984 0.1696,-1.1872 0.5024,-1.7632 0.336,-0.5792 0.784,-1.0496 1.3472,-1.408 0.5664,-0.3616 1.1168,-0.544 1.6608,-0.544 0.4256,0 0.7456,0.0896 0.9536,0.2688 0.2144,0.176 0.32,0.3936 0.32,0.6528 0,0.2432 -0.0736,0.448 -0.224,0.6208 -0.1088,0.1344 -0.2432,0.1984 -0.4032,0.1984 -0.1216,0 -0.224,-0.0384 -0.304,-0.1184 -0.08,-0.0768 -0.1184,-0.176 -0.1184,-0.2912 0,-0.0736 0.016,-0.144 0.0416,-0.2048 0.032,-0.064 0.0928,-0.1376 0.1824,-0.2272 0.0928,-0.0864 0.1504,-0.1504 0.1696,-0.1888 0.016,-0.0384 0.0288,-0.08 0.0288,-0.1216 0,-0.0832 -0.0384,-0.1536 -0.112,-0.208 -0.112,-0.0768 -0.272,-0.1184 -0.48,-0.1184 -0.384,0 -0.7648,0.1376 -1.136,0.4064 -0.3776,0.2688 -0.6976,0.6528 -0.9632,1.1488 -0.32,0.6016 -0.48,1.2032 -0.48,1.8048 0,0.3968 0.1152,0.7136 0.3392,0.944 0.2272,0.2336 0.5376,0.352 0.928,0.352 0.2976,0 0.5952,-0.0768 0.8928,-0.2272 0.2944,-0.1504 0.6272,-0.4224 0.992,-0.8192 l 0.1696,0.1536"
       style="fill:#000000;fill-opacity:1;fill-rule:nonzero;stroke:none;stroke-width:0.32" />
    <path
       id="path7364"
       d="m 164.5428,228.84975 -1.152,4.048 c 0.3744,-0.3904 0.7008,-0.656 0.9824,-0.8 0.2784,-0.144 0.5696,-0.2176 0.8736,-0.2176 0.432,0 0.784,0.1408 1.056,0.4256 0.272,0.2848 0.4096,0.672 0.4096,1.1616 0,0.6272 -0.1792,1.2544 -0.5376,1.8784 -0.3616,0.6208 -0.8096,1.1072 -1.3536,1.456 -0.544,0.3456 -1.0784,0.5216 -1.6064,0.5216 -0.592,0 -1.1936,-0.2208 -1.8176,-0.6624 l 1.7824,-6.1344 c 0.1376,-0.4736 0.2048,-0.7488 0.2048,-0.832 0,-0.1024 -0.032,-0.1792 -0.0928,-0.2272 -0.0896,-0.0736 -0.224,-0.1056 -0.4,-0.1056 -0.08,0 -0.2048,0.0128 -0.3744,0.0384 v -0.2208 z m -2.2656,7.8752 c 0.3904,0.2144 0.736,0.3232 1.0304,0.3232 0.3456,0 0.7008,-0.1248 1.0688,-0.3776 0.3712,-0.2528 0.6912,-0.6784 0.96,-1.2768 0.272,-0.5952 0.4096,-1.2 0.4096,-1.808 0,-0.3616 -0.0896,-0.6432 -0.2656,-0.8448 -0.1792,-0.2016 -0.3872,-0.304 -0.6304,-0.304 -0.3648,0 -0.72,0.144 -1.0656,0.4352 -0.3488,0.2912 -0.5952,0.6944 -0.7456,1.216 l -0.7616,2.6368"
       style="fill:#000000;fill-opacity:1;fill-rule:nonzero;stroke:none;stroke-width:0.32" />
    <path
       id="path7365"
       d="m 98.6644,294.73135 -1.1552,4.048 c 0.3776,-0.3904 0.704,-0.6592 0.9824,-0.8032 0.2816,-0.144 0.5728,-0.2176 0.8768,-0.2176 0.4288,0 0.7808,0.144 1.0528,0.4256 0.2752,0.288 0.4128,0.6752 0.4128,1.1648 0,0.6272 -0.1792,1.2512 -0.5408,1.8752 -0.3584,0.624 -0.8096,1.1104 -1.3536,1.4592 -0.5408,0.3456 -1.0784,0.5184 -1.6064,0.5184 -0.5888,0 -1.1936,-0.2208 -1.8144,-0.6624 l 1.7824,-6.1344 c 0.1344,-0.4704 0.2048,-0.7488 0.2048,-0.832 0,-0.1024 -0.032,-0.176 -0.0928,-0.2272 -0.0896,-0.0704 -0.224,-0.1056 -0.4,-0.1056 -0.0832,0 -0.208,0.0128 -0.3744,0.0384 v -0.2208 z m -2.2656,7.872 c 0.3904,0.2176 0.7328,0.3232 1.0304,0.3232 0.3424,0 0.6976,-0.1248 1.0688,-0.3776 0.3712,-0.2496 0.6912,-0.6784 0.96,-1.2768 0.272,-0.5952 0.4096,-1.2 0.4096,-1.808 0,-0.3616 -0.0896,-0.64 -0.2656,-0.8448 -0.1792,-0.2016 -0.3904,-0.304 -0.6304,-0.304 -0.3648,0 -0.72,0.1472 -1.0656,0.4352 -0.3488,0.2944 -0.5984,0.6976 -0.7456,1.216 l -0.7616,2.6368"
       style="fill:#000000;fill-opacity:1;fill-rule:nonzero;stroke:none;stroke-width:0.32" />
    <path
       id="path7366"
       d="m 123.2372,322.90415 c -0.4064,0.4864 -0.816,0.848 -1.232,1.0752 -0.4128,0.2272 -0.8512,0.3424 -1.312,0.3424 -0.5536,0 -0.9856,-0.1568 -1.296,-0.4672 -0.3104,-0.3136 -0.4672,-0.7328 -0.4672,-1.2608 0,-0.5984 0.1696,-1.1872 0.5024,-1.7632 0.3328,-0.5792 0.7808,-1.0496 1.3472,-1.408 0.5664,-0.3648 1.1168,-0.544 1.6608,-0.544 0.4256,0 0.7424,0.0896 0.9536,0.2656 0.2112,0.1792 0.3168,0.3968 0.3168,0.656 0,0.24 -0.0736,0.448 -0.224,0.6208 -0.1056,0.1312 -0.2432,0.1984 -0.4032,0.1984 -0.1184,0 -0.2208,-0.0384 -0.3008,-0.1184 -0.08,-0.0768 -0.1216,-0.176 -0.1216,-0.2912 0,-0.0736 0.016,-0.144 0.0448,-0.2048 0.032,-0.064 0.0896,-0.1408 0.1824,-0.2272 0.0928,-0.0896 0.1472,-0.1504 0.1664,-0.192 0.0192,-0.0352 0.0288,-0.0768 0.0288,-0.1216 0,-0.08 -0.0352,-0.1504 -0.1088,-0.2048 -0.1152,-0.0768 -0.2752,-0.1184 -0.4832,-0.1184 -0.3808,0 -0.7616,0.1376 -1.136,0.4064 -0.3744,0.2688 -0.6944,0.6528 -0.96,1.1488 -0.32,0.6016 -0.48,1.2 -0.48,1.8048 0,0.3968 0.112,0.7136 0.3392,0.944 0.2272,0.2336 0.5344,0.352 0.9248,0.352 0.3008,0 0.5984,-0.0768 0.896,-0.2272 0.2912,-0.1504 0.624,-0.4256 0.992,-0.8192 l 0.1696,0.1536"
       style="fill:#000000;fill-opacity:1;fill-rule:nonzero;stroke:none;stroke-width:0.32" />
    <path
       id="path7367"
       d="m 145.2788,318.87855 -1.1424,3.9744 -0.128,0.5312 c -0.0128,0.0512 -0.0192,0.0928 -0.0192,0.128 0,0.064 0.0192,0.1184 0.0576,0.1664 0.032,0.0352 0.0704,0.0512 0.1184,0.0512 0.0512,0 0.1152,-0.0288 0.1984,-0.0928 0.1536,-0.1152 0.3552,-0.3488 0.6112,-0.704 l 0.1984,0.1408 c -0.2688,0.4064 -0.5472,0.7168 -0.832,0.928 -0.2848,0.2144 -0.5504,0.32 -0.7904,0.32 -0.1696,0 -0.2944,-0.0416 -0.3776,-0.128 -0.0864,-0.0832 -0.128,-0.2048 -0.128,-0.3648 0,-0.1888 0.0448,-0.4416 0.1312,-0.7552 l 0.1216,-0.4384 c -0.512,0.6688 -0.9824,1.1328 -1.4112,1.4016 -0.3104,0.1888 -0.6144,0.2848 -0.9088,0.2848 -0.288,0 -0.5312,-0.1184 -0.7392,-0.3552 -0.208,-0.2368 -0.3104,-0.56 -0.3104,-0.976 0,-0.6176 0.1856,-1.2736 0.56,-1.9648 0.3744,-0.688 0.848,-1.2416 1.4208,-1.6544 0.448,-0.3264 0.8736,-0.4928 1.2736,-0.4928 0.2368,0 0.4352,0.064 0.592,0.1856 0.16,0.128 0.2784,0.3328 0.3616,0.624 l 0.2112,-0.6688 z m -2.0864,0.304 c -0.2496,0 -0.5152,0.1184 -0.7968,0.352 -0.3968,0.3328 -0.752,0.8256 -1.0656,1.4784 -0.3072,0.6496 -0.464,1.2416 -0.464,1.7696 0,0.2656 0.0672,0.4736 0.1984,0.6304 0.1344,0.1536 0.288,0.2272 0.4576,0.2272 0.4256,0 0.8896,-0.3136 1.3888,-0.9408 0.6688,-0.8352 1.0016,-1.6928 1.0016,-2.5728 0,-0.3296 -0.064,-0.5696 -0.192,-0.72 -0.128,-0.1504 -0.304,-0.224 -0.528,-0.224"
       style="fill:#000000;fill-opacity:1;fill-rule:nonzero;stroke:none;stroke-width:0.32" />
    <path
       id="path7368"
       d="m 164.5428,315.96975 -1.152,4.048 c 0.3744,-0.3904 0.7008,-0.656 0.9824,-0.8 0.2784,-0.144 0.5696,-0.2176 0.8736,-0.2176 0.432,0 0.784,0.1408 1.056,0.4256 0.272,0.2848 0.4096,0.672 0.4096,1.1616 0,0.6272 -0.1792,1.2544 -0.5376,1.8784 -0.3616,0.6208 -0.8096,1.1072 -1.3536,1.456 -0.544,0.3456 -1.0784,0.5216 -1.6064,0.5216 -0.592,0 -1.1936,-0.2208 -1.8176,-0.6624 l 1.7824,-6.1344 c 0.1376,-0.4736 0.2048,-0.7488 0.2048,-0.832 0,-0.1024 -0.032,-0.1792 -0.0928,-0.2272 -0.0896,-0.0736 -0.224,-0.1056 -0.4,-0.1056 -0.08,0 -0.2048,0.0128 -0.3744,0.0384 v -0.2208 z m -2.2656,7.8752 c 0.3904,0.2144 0.736,0.3232 1.0304,0.3232 0.3456,0 0.7008,-0.1248 1.0688,-0.3776 0.3712,-0.2528 0.6912,-0.6784 0.96,-1.2768 0.272,-0.5952 0.4096,-1.2 0.4096,-1.808 0,-0.3616 -0.0896,-0.6432 -0.2656,-0.8448 -0.1792,-0.2016 -0.3872,-0.304 -0.6304,-0.304 -0.3648,0 -0.72,0.144 -1.0656,0.4352 -0.3488,0.2912 -0.5952,0.6944 -0.7456,1.216 l -0.7616,2.6368"
       style="fill:#000000;fill-opacity:1;fill-rule:nonzero;stroke:none;stroke-width:0.32" />
    <path
       id="path7369"
       d="m 186.9556,322.90415 c -0.4064,0.4864 -0.816,0.848 -1.2288,1.0752 -0.416,0.2272 -0.8544,0.3424 -1.312,0.3424 -0.5536,0 -0.9888,-0.1568 -1.2992,-0.4672 -0.3104,-0.3136 -0.4672,-0.7328 -0.4672,-1.2608 0,-0.5984 0.1696,-1.1872 0.5024,-1.7632 0.336,-0.5792 0.784,-1.0496 1.3472,-1.408 0.5664,-0.3648 1.1168,-0.544 1.6608,-0.544 0.4256,0 0.7456,0.0896 0.9536,0.2656 0.2144,0.1792 0.32,0.3968 0.32,0.656 0,0.24 -0.0736,0.448 -0.224,0.6208 -0.1088,0.1312 -0.2432,0.1984 -0.4032,0.1984 -0.1216,0 -0.224,-0.0384 -0.304,-0.1184 -0.08,-0.0768 -0.1184,-0.176 -0.1184,-0.2912 0,-0.0736 0.016,-0.144 0.0416,-0.2048 0.032,-0.064 0.0928,-0.1408 0.1824,-0.2272 0.0928,-0.0896 0.1504,-0.1504 0.1696,-0.192 0.016,-0.0352 0.0288,-0.0768 0.0288,-0.1216 0,-0.08 -0.0384,-0.1504 -0.112,-0.2048 -0.112,-0.0768 -0.272,-0.1184 -0.48,-0.1184 -0.384,0 -0.7648,0.1376 -1.136,0.4064 -0.3776,0.2688 -0.6976,0.6528 -0.9632,1.1488 -0.32,0.6016 -0.48,1.2 -0.48,1.8048 0,0.3968 0.1152,0.7136 0.3392,0.944 0.2272,0.2336 0.5376,0.352 0.928,0.352 0.2976,0 0.5952,-0.0768 0.8928,-0.2272 0.2944,-0.1504 0.6272,-0.4256 0.992,-0.8192 l 0.1696,0.1536"
       style="fill:#000000;fill-opacity:1;fill-rule:nonzero;stroke:none;stroke-width:0.32" />
    <path
       id="path7370"
       d="m 186.9556,235.66575 c -0.4064,0.4864 -0.816,0.8448 -1.2288,1.0752 -0.416,0.2272 -0.8544,0.3424 -1.312,0.3424 -0.5536,0 -0.9888,-0.1568 -1.2992,-0.4704 -0.3104,-0.3104 -0.4672,-0.7296 -0.4672,-1.2576 0,-0.5984 0.1696,-1.1872 0.5024,-1.7664 0.336,-0.576 0.784,-1.0464 1.3472,-1.408 0.5664,-0.3616 1.1168,-0.5408 1.6608,-0.5408 0.4256,0 0.7456,0.0896 0.9536,0.2656 0.2144,0.1792 0.32,0.3968 0.32,0.656 0,0.24 -0.0736,0.448 -0.224,0.6176 -0.1088,0.1344 -0.2432,0.2016 -0.4032,0.2016 -0.1216,0 -0.224,-0.0416 -0.304,-0.1184 -0.08,-0.0768 -0.1184,-0.176 -0.1184,-0.2912 0,-0.0736 0.016,-0.144 0.0416,-0.208 0.032,-0.0608 0.0928,-0.1376 0.1824,-0.224 0.0928,-0.0896 0.1504,-0.1504 0.1696,-0.192 0.016,-0.0384 0.0288,-0.08 0.0288,-0.1216 0,-0.08 -0.0384,-0.1504 -0.112,-0.2048 -0.112,-0.08 -0.272,-0.1184 -0.48,-0.1184 -0.384,0 -0.7648,0.1344 -1.136,0.4064 -0.3776,0.2688 -0.6976,0.6528 -0.9632,1.1488 -0.32,0.6016 -0.48,1.2 -0.48,1.8016 0,0.4 0.1152,0.7136 0.3392,0.9472 0.2272,0.2336 0.5376,0.3488 0.928,0.3488 0.2976,0 0.5952,-0.0736 0.8928,-0.224 0.2944,-0.1504 0.6272,-0.4256 0.992,-0.8192 l 0.1696,0.1536"
       style="fill:#000000;fill-opacity:1;fill-rule:nonzero;stroke:none;stroke-width:0.32" />
    <path
       id="path7371"
       d="m 99.8356,322.90415 c -0.4064,0.4864 -0.816,0.848 -1.2288,1.0752 -0.4128,0.2272 -0.8512,0.3424 -1.312,0.3424 -0.5536,0 -0.9888,-0.1568 -1.2992,-0.4672 -0.3104,-0.3136 -0.464,-0.7328 -0.464,-1.2608 0,-0.5984 0.1664,-1.1872 0.5024,-1.7632 0.3328,-0.5792 0.7808,-1.0496 1.344,-1.408 0.5664,-0.3648 1.12,-0.544 1.6608,-0.544 0.4288,0 0.7456,0.0896 0.9568,0.2656 0.2112,0.1792 0.3168,0.3968 0.3168,0.656 0,0.24 -0.0736,0.448 -0.224,0.6208 -0.1088,0.1312 -0.2432,0.1984 -0.4032,0.1984 -0.1216,0 -0.224,-0.0384 -0.304,-0.1184 -0.08,-0.0768 -0.1184,-0.176 -0.1184,-0.2912 0,-0.0736 0.016,-0.144 0.0448,-0.2048 0.0288,-0.064 0.0896,-0.1408 0.1824,-0.2272 0.0896,-0.0896 0.1472,-0.1504 0.1664,-0.192 0.0192,-0.0352 0.0288,-0.0768 0.0288,-0.1216 0,-0.08 -0.0352,-0.1504 -0.112,-0.2048 -0.112,-0.0768 -0.272,-0.1184 -0.48,-0.1184 -0.384,0 -0.7616,0.1376 -1.136,0.4064 -0.3776,0.2688 -0.6976,0.6528 -0.9632,1.1488 -0.32,0.6016 -0.48,1.2 -0.48,1.8048 0,0.3968 0.1152,0.7136 0.3392,0.944 0.2272,0.2336 0.5376,0.352 0.928,0.352 0.2976,0 0.5984,-0.0768 0.8928,-0.2272 0.2944,-0.1504 0.6272,-0.4256 0.992,-0.8192 l 0.1696,0.1536"
       style="fill:#000000;fill-opacity:1;fill-rule:nonzero;stroke:none;stroke-width:0.32" />
  </g>
</svg>
