<?xml version="1.0" encoding="UTF-8" standalone="no"?>
<!-- Created with Inkscape (http://www.inkscape.org/) -->

<svg
   width="107.76632"
   height="107.76662"
   viewBox="0 0 107.76632 107.76662"
   version="1.1"
   id="svg1"
   inkscape:version="1.3.2 (1:1.3.2+202311252150+091e20ef0f)"
   sodipodi:docname="04-5-ex-14-question.svg"
   xmlns:inkscape="http://www.inkscape.org/namespaces/inkscape"
   xmlns:sodipodi="http://sodipodi.sourceforge.net/DTD/sodipodi-0.dtd"
   xmlns="http://www.w3.org/2000/svg"
   xmlns:svg="http://www.w3.org/2000/svg">
  <sodipodi:namedview
     id="namedview1"
     pagecolor="#ffffff"
     bordercolor="#666666"
     borderopacity="1.0"
     inkscape:showpageshadow="2"
     inkscape:pageopacity="0.0"
     inkscape:pagecheckerboard="0"
     inkscape:deskcolor="#d1d1d1"
     inkscape:document-units="px"
     showgrid="true"
     inkscape:zoom="2.3697898"
     inkscape:cx="210.5672"
     inkscape:cy="179.12981"
     inkscape:current-layer="layer1">
    <inkscape:grid
       id="grid1"
       units="px"
       originx="39.147966"
       originy="-35.139337"
       spacingx="1"
       spacingy="1"
       empcolor="#0099e5"
       empopacity="0.30196078"
       color="#0099e5"
       opacity="0.14901961"
       empspacing="5"
       dotted="false"
       gridanglex="30"
       gridanglez="30"
       visible="true" />
    <inkscape:page
       x="0"
       y="0"
       width="107.76632"
       height="107.76662"
       id="page1"
       margin="10"
       bleed="0" />
  </sodipodi:namedview>
  <defs
     id="defs1" />
  <g
     inkscape:label="Layer 1"
     inkscape:groupmode="layer"
     id="layer1"
     transform="translate(39.147965,-35.139326)">
    <path
       id="path7482"
       d="m -5.4484,90.08638 h 21.243584 v -21.244 H -5.4484 Z"
       style="fill:none;stroke:#000000;stroke-width:0.666333;stroke-linecap:butt;stroke-linejoin:miter;stroke-miterlimit:10;stroke-dasharray:none;stroke-opacity:1" />
    <path
       id="path7483"
       d="m 15.7964,90.08638 h 21.244 v -21.244 h -21.244 z"
       style="fill:none;stroke:#000000;stroke-width:0.666333;stroke-linecap:round;stroke-linejoin:round;stroke-miterlimit:10;stroke-dasharray:none;stroke-opacity:1" />
    <path
       id="path7484"
       d="m 37.0412,90.08638 h 21.244 v -21.244 h -21.244 z"
       style="fill:none;stroke:#000000;stroke-width:0.666333;stroke-linecap:round;stroke-linejoin:round;stroke-miterlimit:10;stroke-dasharray:none;stroke-opacity:1" />
    <path
       id="path7485"
       d="M -5.4484,66.71678 H 15.795184 V 45.472492 H -5.4484 Z"
       style="fill:none;stroke:#000000;stroke-width:0.666333;stroke-linecap:round;stroke-linejoin:round;stroke-miterlimit:10;stroke-dasharray:none;stroke-opacity:1" />
    <path
       id="path7486"
       d="m -28.8148,90.08638 h 21.244 v -21.244 h -21.244 z"
       style="fill:none;stroke:#000000;stroke-width:0.666333;stroke-linecap:round;stroke-linejoin:round;stroke-miterlimit:10;stroke-dasharray:none;stroke-opacity:1" />
    <path
       id="path7487"
       d="M -5.4484,111.33118 H 15.795184 V 90.087276 H -5.4484 Z"
       style="fill:none;stroke:#000000;stroke-width:0.666333;stroke-linecap:round;stroke-linejoin:round;stroke-miterlimit:10;stroke-dasharray:none;stroke-opacity:1" />
    <path
       id="path7488"
       d="m 15.7964,111.33118 h 21.244 V 90.087276 h -21.244 z"
       style="fill:none;stroke:#000000;stroke-width:0.666333;stroke-linecap:round;stroke-linejoin:round;stroke-miterlimit:10;stroke-dasharray:none;stroke-opacity:1" />
    <path
       id="path7489"
       d="m 37.0412,111.33118 h 21.244 V 90.087276 h -21.244 z"
       style="fill:none;stroke:#000000;stroke-width:0.666333;stroke-linecap:round;stroke-linejoin:round;stroke-miterlimit:10;stroke-dasharray:none;stroke-opacity:1" />
    <path
       id="path7490"
       d="m 15.7964,66.71678 h 21.244 V 45.472492 h -21.244 z"
       style="fill:none;stroke:#000000;stroke-width:0.666333;stroke-linecap:round;stroke-linejoin:round;stroke-miterlimit:10;stroke-dasharray:none;stroke-opacity:1" />
    <path
       id="path7491"
       d="m -28.8148,111.33118 h 21.244 V 90.087276 h -21.244 z"
       style="fill:none;stroke:#000000;stroke-width:0.666333;stroke-linecap:round;stroke-linejoin:round;stroke-miterlimit:10;stroke-dasharray:none;stroke-opacity:1" />
    <path
       id="path7492"
       d="m -5.4484,132.57278 h 21.243584 v -21.244 H -5.4484 Z"
       style="fill:none;stroke:#000000;stroke-width:0.666333;stroke-linecap:round;stroke-linejoin:round;stroke-miterlimit:10;stroke-dasharray:none;stroke-opacity:1" />
    <path
       id="path7493"
       d="m 15.7964,132.57278 h 21.244 v -21.244 h -21.244 z"
       style="fill:none;stroke:#000000;stroke-width:0.666333;stroke-linecap:round;stroke-linejoin:round;stroke-miterlimit:10;stroke-dasharray:none;stroke-opacity:1" />
    <path
       id="path7494"
       d="m 37.0412,132.57278 h 21.244 v -21.244 h -21.244 z"
       style="fill:none;stroke:#000000;stroke-width:0.666333;stroke-linecap:round;stroke-linejoin:round;stroke-miterlimit:10;stroke-dasharray:none;stroke-opacity:1" />
    <path
       id="path7495"
       d="m 37.0412,66.71678 h 21.244 V 45.472492 h -21.244 z"
       style="fill:none;stroke:#000000;stroke-width:0.666333;stroke-linecap:round;stroke-linejoin:round;stroke-miterlimit:10;stroke-dasharray:none;stroke-opacity:1" />
    <path
       id="path7496"
       d="m -28.8148,132.57278 h 21.244 v -21.244 h -21.244 z"
       style="fill:none;stroke:#000000;stroke-width:0.666333;stroke-linecap:round;stroke-linejoin:round;stroke-miterlimit:10;stroke-dasharray:none;stroke-opacity:1" />
    <path
       id="path7497"
       d="m 3.9244,81.17438 c -0.0288,0.1952 -0.0416,0.3584 -0.0416,0.4864 0,0.3456 0.1248,0.6432 0.368,0.8896 0.2464,0.2432 0.5472,0.3648 0.896,0.3648 0.2848,0 0.5536,-0.0576 0.8128,-0.1728 0.2592,-0.1152 0.6464,-0.3712 1.1584,-0.7648 l 0.1216,0.1696 c -0.9248,0.9184 -1.808,1.376 -2.6464,1.376 -0.5696,0 -1.0016,-0.1792 -1.2896,-0.5376 -0.288,-0.3584 -0.432,-0.7552 -0.432,-1.1904 0,-0.5824 0.176,-1.1776 0.5376,-1.7856 0.3584,-0.608 0.8096,-1.0848 1.3536,-1.4208 0.5408,-0.3392 1.1008,-0.5056 1.6768,-0.5056 0.4128,0 0.72,0.0832 0.9184,0.2496 0.1984,0.1696 0.2976,0.368 0.2976,0.5984 0,0.3264 -0.128,0.6336 -0.384,0.9312 -0.3424,0.3872 -0.8416,0.7008 -1.5008,0.9376 -0.4384,0.16 -1.056,0.2848 -1.8464,0.3744 z m 0.0384,-0.288 c 0.5792,-0.064 1.0528,-0.1792 1.4144,-0.3392 0.48,-0.2144 0.8416,-0.4704 1.0816,-0.768 0.24,-0.3008 0.3584,-0.5856 0.3584,-0.8544 0,-0.1632 -0.0512,-0.2976 -0.1568,-0.4 -0.0992,-0.0992 -0.2496,-0.1504 -0.4416,-0.1504 -0.3968,0 -0.8192,0.2112 -1.2672,0.6368 -0.448,0.4224 -0.7744,1.0496 -0.9888,1.8752"
       style="fill:#000000;fill-opacity:1;fill-rule:nonzero;stroke:none;stroke-width:0.32" />
    <path
       id="path7498"
       d="m 25.1404,78.08318 c 0.192,0.2016 0.336,0.4032 0.432,0.608 0.0704,0.1408 0.1856,0.5088 0.3456,1.1072 l 0.5184,-0.7744 c 0.1344,-0.1856 0.3008,-0.3648 0.496,-0.5376 0.1952,-0.1696 0.368,-0.2848 0.5152,-0.3456 0.0928,-0.0416 0.1984,-0.0576 0.3104,-0.0576 0.1696,0 0.3008,0.0416 0.4,0.1344 0.1024,0.0896 0.1504,0.1984 0.1504,0.3264 0,0.1472 -0.0288,0.2496 -0.0864,0.304 -0.112,0.0992 -0.2336,0.1472 -0.3744,0.1472 -0.0832,0 -0.1696,-0.016 -0.2656,-0.0544 -0.1824,-0.0608 -0.3072,-0.0928 -0.368,-0.0928 -0.096,0 -0.2048,0.0576 -0.336,0.1632 -0.24,0.2048 -0.528,0.5984 -0.864,1.1776 l 0.48,2.016 c 0.0736,0.3104 0.1344,0.496 0.1888,0.5568 0.048,0.0576 0.0992,0.0896 0.1504,0.0896 0.0832,0 0.1792,-0.0448 0.2848,-0.1344 0.2176,-0.1824 0.4,-0.416 0.5536,-0.704 l 0.2048,0.1056 c -0.2464,0.4608 -0.56,0.8448 -0.9376,1.1488 -0.2144,0.1696 -0.3968,0.256 -0.544,0.256 -0.2208,0 -0.3936,-0.1216 -0.5248,-0.368 -0.08,-0.1504 -0.2496,-0.8096 -0.5088,-1.968 -0.608,1.0592 -1.0944,1.7376 -1.4624,2.0448 -0.24,0.1952 -0.4704,0.2912 -0.6944,0.2912 -0.1536,0 -0.2976,-0.0544 -0.4256,-0.1696 -0.0928,-0.0864 -0.1408,-0.1984 -0.1408,-0.3456 0,-0.128 0.0448,-0.2368 0.128,-0.3232 0.0864,-0.0832 0.192,-0.128 0.3168,-0.128 0.1248,0 0.2592,0.064 0.4,0.1888 0.0992,0.0896 0.1792,0.1344 0.2336,0.1344 0.048,0 0.1056,-0.032 0.1824,-0.0928 0.1824,-0.1504 0.432,-0.4704 0.7488,-0.96 0.3168,-0.4928 0.5248,-0.848 0.6208,-1.0688 -0.2432,-0.9472 -0.3744,-1.4496 -0.3936,-1.504 -0.0896,-0.2528 -0.2048,-0.4352 -0.352,-0.5408 -0.144,-0.1056 -0.3552,-0.1568 -0.6368,-0.1568 -0.0896,0 -0.1952,0.0032 -0.3104,0.0128 v -0.2144 l 1.5648,-0.272"
       style="fill:#000000;fill-opacity:1;fill-rule:nonzero;stroke:none;stroke-width:0.32" />
    <path
       id="path7499"
       d="m 46.5292,77.00158 c 0.1312,0.2272 0.224,0.4384 0.2752,0.6368 0.0512,0.1952 0.1024,0.5856 0.1536,1.1616 l 0.2592,2.8832 c 0.2336,-0.2816 0.5728,-0.7264 1.0176,-1.3376 0.2144,-0.2944 0.48,-0.6976 0.7968,-1.2096 0.192,-0.3136 0.3072,-0.5344 0.352,-0.656 0.0224,-0.064 0.0352,-0.128 0.0352,-0.1952 0,-0.0416 -0.0128,-0.0768 -0.0416,-0.1056 -0.0288,-0.0256 -0.096,-0.0576 -0.2144,-0.096 -0.1152,-0.0352 -0.2112,-0.1056 -0.288,-0.2048 -0.0736,-0.0992 -0.112,-0.2144 -0.112,-0.3424 0,-0.16 0.048,-0.288 0.1408,-0.3872 0.0928,-0.0992 0.2112,-0.1472 0.3488,-0.1472 0.1728,0 0.32,0.0704 0.4416,0.2144 0.1216,0.144 0.1824,0.3392 0.1824,0.5888 0,0.3072 -0.1056,0.6624 -0.3168,1.0592 -0.2112,0.3936 -0.6176,1.0016 -1.2192,1.824 -0.6016,0.8192 -1.3312,1.7152 -2.1856,2.6816 -0.5888,0.6688 -1.0272,1.0912 -1.312,1.264 -0.2848,0.1728 -0.528,0.2592 -0.7328,0.2592 -0.1216,0 -0.2272,-0.0448 -0.32,-0.1376 -0.0928,-0.0896 -0.1344,-0.1952 -0.1344,-0.32 0,-0.1504 0.0608,-0.288 0.1888,-0.416 0.1248,-0.1216 0.2624,-0.1856 0.4128,-0.1856 0.0768,0 0.144,0.016 0.192,0.0544 0.032,0.0192 0.0672,0.0736 0.1024,0.1664 0.0384,0.0896 0.0736,0.1536 0.1056,0.1856 0.016,0.0192 0.0416,0.0256 0.0672,0.0256 0.0224,0 0.0672,-0.016 0.1248,-0.0576 0.2144,-0.1312 0.464,-0.3424 0.7488,-0.6304 0.3744,-0.384 0.6528,-0.6976 0.832,-0.9376 l -0.3264,-3.7152 c -0.0544,-0.6144 -0.1376,-0.9888 -0.2464,-1.12 -0.112,-0.1312 -0.2944,-0.2016 -0.5504,-0.2016 -0.0832,0 -0.2304,0.0128 -0.4416,0.0384 l -0.0512,-0.2176 1.7152,-0.4224"
       style="fill:#000000;fill-opacity:1;fill-rule:nonzero;stroke:none;stroke-width:0.32" />
    <path
       id="path7500"
       d="m 3.9244,57.77278 c -0.0288,0.1984 -0.0416,0.3584 -0.0416,0.4896 0,0.3456 0.1248,0.6432 0.368,0.8864 0.2464,0.2464 0.5472,0.368 0.896,0.368 0.2848,0 0.5536,-0.0576 0.8128,-0.176 0.2592,-0.112 0.6464,-0.368 1.1584,-0.7616 l 0.1216,0.1696 c -0.9248,0.9184 -1.808,1.376 -2.6464,1.376 -0.5696,0 -1.0016,-0.1792 -1.2896,-0.5376 -0.288,-0.3616 -0.432,-0.7584 -0.432,-1.1904 0,-0.5824 0.176,-1.1776 0.5376,-1.7888 0.3584,-0.608 0.8096,-1.0816 1.3536,-1.4208 0.5408,-0.336 1.1008,-0.5056 1.6768,-0.5056 0.4128,0 0.72,0.0832 0.9184,0.2528 0.1984,0.1664 0.2976,0.3648 0.2976,0.5952 0,0.3264 -0.128,0.6368 -0.384,0.9344 -0.3424,0.3872 -0.8416,0.6976 -1.5008,0.9376 -0.4384,0.16 -1.056,0.2848 -1.8464,0.3712 z m 0.0384,-0.2848 c 0.5792,-0.064 1.0528,-0.1792 1.4144,-0.3392 0.48,-0.2144 0.8416,-0.4736 1.0816,-0.7712 0.24,-0.2976 0.3584,-0.5824 0.3584,-0.8544 0,-0.1632 -0.0512,-0.2944 -0.1568,-0.3968 -0.0992,-0.1024 -0.2496,-0.1504 -0.4416,-0.1504 -0.3968,0 -0.8192,0.2112 -1.2672,0.6336 -0.448,0.4256 -0.7744,1.0496 -0.9888,1.8784"
       style="fill:#000000;fill-opacity:1;fill-rule:nonzero;stroke:none;stroke-width:0.32" />
    <path
       id="path7501"
       d="m -19.4772,81.17438 c -0.0256,0.1952 -0.0416,0.3584 -0.0416,0.4864 0,0.3456 0.1248,0.6432 0.3712,0.8896 0.2464,0.2432 0.544,0.3648 0.896,0.3648 0.2816,0 0.5504,-0.0576 0.8128,-0.1728 0.2592,-0.1152 0.6432,-0.3712 1.1552,-0.7648 l 0.1248,0.1696 c -0.928,0.9184 -1.808,1.376 -2.6496,1.376 -0.5696,0 -0.9984,-0.1792 -1.2896,-0.5376 -0.288,-0.3584 -0.432,-0.7552 -0.432,-1.1904 0,-0.5824 0.1792,-1.1776 0.5376,-1.7856 0.3616,-0.608 0.8096,-1.0848 1.3536,-1.4208 0.544,-0.3392 1.104,-0.5056 1.6768,-0.5056 0.4128,0 0.72,0.0832 0.9184,0.2496 0.1984,0.1696 0.3008,0.368 0.3008,0.5984 0,0.3264 -0.128,0.6336 -0.3872,0.9312 -0.3392,0.3872 -0.8384,0.7008 -1.5008,0.9376 -0.4384,0.16 -1.0528,0.2848 -1.8464,0.3744 z m 0.0416,-0.288 c 0.576,-0.064 1.0496,-0.1792 1.4112,-0.3392 0.4832,-0.2144 0.8416,-0.4704 1.0816,-0.768 0.24,-0.3008 0.3616,-0.5856 0.3616,-0.8544 0,-0.1632 -0.0512,-0.2976 -0.1568,-0.4 -0.1024,-0.0992 -0.2496,-0.1504 -0.4416,-0.1504 -0.4,0 -0.8192,0.2112 -1.2672,0.6368 -0.448,0.4224 -0.7776,1.0496 -0.9888,1.8752"
       style="fill:#000000;fill-opacity:1;fill-rule:nonzero;stroke:none;stroke-width:0.32" />
    <path
       id="path7502"
       d="m 3.9756,99.32158 c 0.192,0.2016 0.336,0.4064 0.432,0.608 0.0704,0.144 0.1856,0.5088 0.3456,1.1072 l 0.5184,-0.7712 c 0.1344,-0.1888 0.3008,-0.368 0.496,-0.5376 0.1952,-0.1696 0.368,-0.2848 0.5152,-0.3488 0.0928,-0.0384 0.1984,-0.0576 0.3104,-0.0576 0.1696,0 0.3008,0.0448 0.4,0.1344 0.1024,0.0896 0.1504,0.2016 0.1504,0.3296 0,0.1472 -0.0288,0.2496 -0.0864,0.3008 -0.112,0.0992 -0.2336,0.1504 -0.3744,0.1504 -0.0832,0 -0.1696,-0.0192 -0.2656,-0.0544 -0.1824,-0.0608 -0.3072,-0.096 -0.368,-0.096 -0.096,0 -0.2048,0.0576 -0.336,0.1664 -0.24,0.2048 -0.528,0.5952 -0.864,1.1776 l 0.48,2.016 c 0.0736,0.3072 0.1344,0.4928 0.1888,0.5536 0.048,0.0608 0.0992,0.0896 0.1504,0.0896 0.0832,0 0.1792,-0.0448 0.2848,-0.1344 0.2176,-0.1792 0.4,-0.4128 0.5536,-0.704 l 0.2048,0.1056 c -0.2464,0.464 -0.56,0.8448 -0.9408,1.1488 -0.2112,0.1728 -0.3936,0.2592 -0.544,0.2592 -0.2176,0 -0.3904,-0.1216 -0.5216,-0.368 -0.08,-0.1536 -0.2496,-0.8096 -0.5088,-1.9712 -0.608,1.0592 -1.0944,1.7408 -1.4656,2.0448 -0.2368,0.1952 -0.4672,0.2944 -0.6912,0.2944 -0.1536,0 -0.2976,-0.0576 -0.4256,-0.1696 -0.0928,-0.0864 -0.1408,-0.2016 -0.1408,-0.3488 0,-0.1248 0.0448,-0.2336 0.128,-0.32 0.0864,-0.0864 0.192,-0.128 0.3168,-0.128 0.1248,0 0.2592,0.0608 0.4,0.1888 0.0992,0.0896 0.1792,0.1344 0.2336,0.1344 0.048,0 0.1056,-0.0352 0.1792,-0.096 0.1856,-0.1472 0.4352,-0.4672 0.752,-0.96 0.3168,-0.4928 0.5248,-0.848 0.6208,-1.0688 -0.2432,-0.9472 -0.3744,-1.4496 -0.3936,-1.504 -0.0896,-0.2528 -0.2048,-0.432 -0.352,-0.5376 -0.144,-0.1088 -0.3552,-0.16 -0.6368,-0.16 -0.0896,0 -0.1952,0.0064 -0.3104,0.0128 v -0.2112 l 1.5648,-0.2752"
       style="fill:#000000;fill-opacity:1;fill-rule:nonzero;stroke:none;stroke-width:0.32" />
    <path
       id="path7503"
       d="m 25.2908,98.24318 c 0.1312,0.224 0.224,0.4384 0.2752,0.6336 0.048,0.1984 0.0992,0.5856 0.1504,1.1648 l 0.2592,2.88 c 0.2336,-0.2784 0.5728,-0.7264 1.0208,-1.3344 0.2144,-0.2976 0.48,-0.7008 0.7936,-1.2128 0.192,-0.3136 0.3104,-0.5312 0.352,-0.656 0.0224,-0.0608 0.0352,-0.128 0.0352,-0.1952 0,-0.0416 -0.0128,-0.0768 -0.0384,-0.1056 -0.0288,-0.0256 -0.0992,-0.0576 -0.2144,-0.096 -0.1184,-0.0352 -0.2144,-0.1056 -0.288,-0.2048 -0.0768,-0.0992 -0.1152,-0.2112 -0.1152,-0.3424 0,-0.16 0.048,-0.288 0.1408,-0.3872 0.0928,-0.096 0.2112,-0.144 0.352,-0.144 0.1728,0 0.3168,0.0672 0.4384,0.2144 0.1216,0.1408 0.1824,0.336 0.1824,0.5856 0,0.3104 -0.1056,0.6624 -0.3168,1.0592 -0.2112,0.3968 -0.6176,1.0048 -1.2192,1.824 -0.5984,0.8224 -1.328,1.7152 -2.1824,2.6848 -0.592,0.6656 -1.0304,1.088 -1.3152,1.264 -0.2848,0.1696 -0.528,0.2592 -0.7328,0.2592 -0.1216,0 -0.2272,-0.048 -0.32,-0.1376 -0.0896,-0.0928 -0.1344,-0.1984 -0.1344,-0.32 0,-0.1536 0.0608,-0.2912 0.1888,-0.416 0.128,-0.1248 0.2656,-0.1856 0.4128,-0.1856 0.0768,0 0.144,0.016 0.1952,0.0512 0.032,0.0192 0.064,0.0768 0.0992,0.1664 0.0384,0.0896 0.0736,0.1536 0.1056,0.1856 0.0192,0.0192 0.0416,0.0288 0.0704,0.0288 0.0224,0 0.064,-0.0192 0.1216,-0.0576 0.2176,-0.1344 0.4672,-0.3456 0.7488,-0.6336 0.3776,-0.384 0.6528,-0.6944 0.832,-0.9376 l -0.3264,-3.7152 c -0.0544,-0.6144 -0.1376,-0.9856 -0.2464,-1.12 -0.1088,-0.1312 -0.2912,-0.1984 -0.5504,-0.1984 -0.0832,0 -0.2304,0.0128 -0.4384,0.0352 l -0.0544,-0.2144 1.7184,-0.4224"
       style="fill:#000000;fill-opacity:1;fill-rule:nonzero;stroke:none;stroke-width:0.32" />
    <path
       id="path7504"
       d="m 49.3292,99.32158 -0.3584,1.7984 h -0.2176 c -0.0192,-0.5248 -0.1312,-0.9024 -0.3328,-1.1424 -0.2048,-0.2368 -0.4576,-0.3584 -0.7552,-0.3584 -0.2432,0 -0.4384,0.0672 -0.5792,0.2016 -0.1408,0.1312 -0.2144,0.2912 -0.2144,0.48 0,0.128 0.0288,0.2528 0.0864,0.368 0.0544,0.1184 0.1792,0.2816 0.3712,0.4928 0.5088,0.5536 0.8352,0.9728 0.9856,1.2512 0.1472,0.2816 0.2208,0.5504 0.2208,0.8 0,0.4064 -0.1664,0.7648 -0.5056,1.0784 -0.3392,0.3168 -0.7648,0.4736 -1.28,0.4736 -0.2816,0 -0.6048,-0.0672 -0.9728,-0.1984 -0.128,-0.048 -0.2304,-0.0704 -0.3008,-0.0704 -0.176,0 -0.3072,0.0864 -0.3968,0.2688 H 44.862 l 0.3584,-1.8976 h 0.2144 c 0.0256,0.592 0.1504,1.0144 0.3712,1.2576 0.2208,0.2464 0.528,0.3712 0.9152,0.3712 0.2944,0 0.5312,-0.0832 0.704,-0.2496 0.176,-0.1664 0.2592,-0.3712 0.2592,-0.6112 0,-0.1568 -0.0288,-0.304 -0.0896,-0.4352 -0.112,-0.2336 -0.3424,-0.5568 -0.6912,-0.9728 -0.3488,-0.4128 -0.5728,-0.7264 -0.6752,-0.9312 -0.096,-0.208 -0.1472,-0.4128 -0.1472,-0.6208 0,-0.3808 0.1376,-0.6976 0.4128,-0.96 0.2752,-0.2624 0.6304,-0.3936 1.0624,-0.3936 0.128,0 0.24,0.0096 0.3424,0.0288 0.0544,0.0128 0.1824,0.0544 0.384,0.1312 0.1984,0.0768 0.3328,0.1152 0.4,0.1152 0.1664,0 0.3104,-0.0928 0.4224,-0.2752 h 0.224"
       style="fill:#000000;fill-opacity:1;fill-rule:nonzero;stroke:none;stroke-width:0.32" />
    <path
       id="path7505"
       d="m 25.214,54.68158 c 0.192,0.2016 0.336,0.4064 0.4352,0.608 0.0672,0.144 0.1856,0.512 0.3456,1.1072 l 0.5152,-0.7712 c 0.1344,-0.1888 0.3008,-0.368 0.4992,-0.5376 0.192,-0.1696 0.3648,-0.2848 0.512,-0.3488 0.096,-0.0384 0.1984,-0.0576 0.3136,-0.0576 0.1664,0 0.2976,0.0448 0.4,0.1344 0.0992,0.0896 0.1504,0.2016 0.1504,0.3296 0,0.1472 -0.032,0.2496 -0.0896,0.304 -0.1088,0.096 -0.2336,0.1472 -0.3744,0.1472 -0.08,0 -0.1696,-0.0192 -0.2624,-0.0544 -0.1856,-0.0608 -0.3104,-0.0928 -0.3712,-0.0928 -0.0928,0 -0.2048,0.0544 -0.3328,0.1632 -0.2432,0.2048 -0.5312,0.5952 -0.8672,1.1776 l 0.48,2.016 c 0.0736,0.3072 0.1376,0.4928 0.1888,0.5536 0.048,0.0608 0.0992,0.0896 0.1504,0.0896 0.0832,0 0.1792,-0.0448 0.288,-0.1344 0.2144,-0.1792 0.3968,-0.4128 0.5504,-0.704 l 0.2048,0.1056 c -0.2464,0.464 -0.5568,0.8448 -0.9376,1.1488 -0.2144,0.1728 -0.3968,0.2592 -0.544,0.2592 -0.2176,0 -0.3936,-0.1216 -0.5216,-0.368 -0.0832,-0.1536 -0.2528,-0.8096 -0.512,-1.9712 -0.608,1.0592 -1.0944,1.7408 -1.4624,2.048 -0.24,0.192 -0.4672,0.2912 -0.6912,0.2912 -0.1568,0 -0.3008,-0.0576 -0.4288,-0.1696 -0.0928,-0.0864 -0.1408,-0.2016 -0.1408,-0.3456 0,-0.128 0.0448,-0.2368 0.1312,-0.3232 0.0832,-0.0864 0.1888,-0.128 0.3136,-0.128 0.1248,0 0.2592,0.0608 0.4,0.1888 0.1024,0.0896 0.1792,0.1344 0.2336,0.1344 0.048,0 0.1088,-0.032 0.1824,-0.096 0.1824,-0.1472 0.432,-0.4672 0.7488,-0.96 0.3168,-0.4928 0.5248,-0.848 0.624,-1.0688 -0.2464,-0.9472 -0.3744,-1.4496 -0.3968,-1.504 -0.0896,-0.2528 -0.2048,-0.432 -0.352,-0.5376 -0.144,-0.1056 -0.3552,-0.16 -0.6368,-0.16 -0.0896,0 -0.1952,0.0064 -0.3104,0.0128 v -0.2112 l 1.5648,-0.2752"
       style="fill:#000000;fill-opacity:1;fill-rule:nonzero;stroke:none;stroke-width:0.32" />
    <path
       id="path7506"
       d="m -19.426,99.32158 c 0.192,0.2016 0.336,0.4064 0.4352,0.608 0.0704,0.144 0.1856,0.5088 0.3456,1.1072 l 0.5152,-0.7712 c 0.1376,-0.1888 0.3008,-0.368 0.4992,-0.5376 0.192,-0.1696 0.3648,-0.2848 0.512,-0.3488 0.096,-0.0384 0.1984,-0.0576 0.3136,-0.0576 0.1664,0 0.3008,0.0448 0.4,0.1344 0.0992,0.0896 0.1504,0.2016 0.1504,0.3296 0,0.1472 -0.032,0.2496 -0.0896,0.3008 -0.1088,0.0992 -0.2336,0.1504 -0.3744,0.1504 -0.08,0 -0.1696,-0.0192 -0.2624,-0.0544 -0.1856,-0.0608 -0.3104,-0.096 -0.3712,-0.096 -0.0928,0 -0.2048,0.0576 -0.3328,0.1664 -0.2432,0.2048 -0.5312,0.5952 -0.8672,1.1776 l 0.48,2.016 c 0.0736,0.3072 0.1376,0.4928 0.1888,0.5536 0.0512,0.0608 0.0992,0.0896 0.1504,0.0896 0.0832,0 0.1792,-0.0448 0.288,-0.1344 0.2144,-0.1792 0.3968,-0.4128 0.5504,-0.704 l 0.2048,0.1056 c -0.2464,0.464 -0.5568,0.8448 -0.9376,1.1488 -0.2144,0.1728 -0.3968,0.2592 -0.544,0.2592 -0.2176,0 -0.3936,-0.1216 -0.5216,-0.368 -0.0832,-0.1536 -0.2528,-0.8096 -0.5088,-1.9712 -0.6112,1.0592 -1.0976,1.7408 -1.4656,2.0448 -0.2368,0.1952 -0.4672,0.2944 -0.6912,0.2944 -0.1568,0 -0.2976,-0.0576 -0.4288,-0.1696 -0.0928,-0.0864 -0.1408,-0.2016 -0.1408,-0.3488 0,-0.1248 0.0448,-0.2336 0.1312,-0.32 0.0832,-0.0864 0.1888,-0.128 0.3168,-0.128 0.1216,0 0.256,0.0608 0.3968,0.1888 0.1024,0.0896 0.1792,0.1344 0.2336,0.1344 0.048,0 0.1088,-0.0352 0.1824,-0.096 0.1824,-0.1472 0.4352,-0.4672 0.7488,-0.96 0.3168,-0.4928 0.5248,-0.848 0.624,-1.0688 -0.2432,-0.9472 -0.3744,-1.4496 -0.3936,-1.504 -0.0896,-0.2528 -0.208,-0.432 -0.352,-0.5376 -0.144,-0.1088 -0.3584,-0.16 -0.64,-0.16 -0.0896,0 -0.192,0.0064 -0.3104,0.0128 v -0.2112 l 1.5648,-0.2752"
       style="fill:#000000;fill-opacity:1;fill-rule:nonzero;stroke:none;stroke-width:0.32" />
    <path
       id="path7507"
       d="m 4.0492,119.48158 c 0.1312,0.2272 0.224,0.4384 0.2752,0.6336 0.0512,0.1984 0.1024,0.5856 0.1536,1.1648 l 0.2592,2.8832 c 0.2336,-0.2816 0.5728,-0.7264 1.0176,-1.3376 0.2144,-0.2944 0.48,-0.7008 0.7968,-1.2128 0.192,-0.3104 0.3072,-0.5312 0.352,-0.656 0.0224,-0.0608 0.0352,-0.128 0.0352,-0.192 0,-0.0416 -0.0128,-0.08 -0.0416,-0.1056 -0.0288,-0.0288 -0.096,-0.0608 -0.2144,-0.096 -0.1152,-0.0384 -0.2112,-0.1088 -0.288,-0.2048 -0.0736,-0.0992 -0.112,-0.2144 -0.112,-0.3456 0,-0.16 0.048,-0.288 0.1408,-0.384 0.0928,-0.0992 0.2112,-0.1472 0.3488,-0.1472 0.1728,0 0.32,0.0704 0.4416,0.2144 0.1216,0.1408 0.1824,0.3392 0.1824,0.5888 0,0.3072 -0.1056,0.6624 -0.3168,1.056 -0.2112,0.3968 -0.6176,1.0048 -1.2192,1.824 -0.6016,0.8224 -1.3312,1.7184 -2.1856,2.6848 -0.5888,0.6688 -1.0272,1.0912 -1.312,1.264 -0.2848,0.1728 -0.528,0.2592 -0.7328,0.2592 -0.1216,0 -0.2272,-0.0448 -0.32,-0.1376 -0.0928,-0.0928 -0.1344,-0.1984 -0.1344,-0.32 0,-0.1504 0.0608,-0.2912 0.1888,-0.416 0.1248,-0.1248 0.2624,-0.1856 0.4128,-0.1856 0.0768,0 0.144,0.016 0.192,0.0512 0.032,0.0192 0.0672,0.0768 0.1024,0.1696 0.0384,0.0896 0.0736,0.1504 0.1056,0.1824 0.016,0.0224 0.0416,0.0288 0.0672,0.0288 0.0224,0 0.0672,-0.0192 0.1248,-0.0576 0.2144,-0.1312 0.464,-0.3456 0.7488,-0.6336 0.3776,-0.384 0.6528,-0.6944 0.832,-0.9376 l -0.3264,-3.712 c -0.0544,-0.6144 -0.1376,-0.9888 -0.2464,-1.12 -0.112,-0.1344 -0.2944,-0.2016 -0.5504,-0.2016 -0.0832,0 -0.2304,0.0128 -0.4416,0.0352 l -0.0512,-0.2144 1.7152,-0.4224"
       style="fill:#000000;fill-opacity:1;fill-rule:nonzero;stroke:none;stroke-width:0.32" />
    <path
       id="path7508"
       d="m 28.0876,120.68158 -0.3584,1.7984 h -0.2144 c -0.0224,-0.5248 -0.1344,-0.9024 -0.336,-1.1424 -0.2016,-0.2368 -0.4544,-0.3584 -0.7552,-0.3584 -0.2432,0 -0.4352,0.0672 -0.5792,0.2016 -0.1408,0.1312 -0.2112,0.2912 -0.2112,0.48 0,0.128 0.0256,0.2528 0.0832,0.368 0.0576,0.1184 0.1824,0.2816 0.3744,0.4928 0.5056,0.5536 0.8352,0.9728 0.9824,1.2512 0.1472,0.2816 0.2208,0.5504 0.2208,0.8 0,0.4064 -0.1664,0.7648 -0.5056,1.0784 -0.336,0.3168 -0.7616,0.4736 -1.28,0.4736 -0.2816,0 -0.6048,-0.0672 -0.9728,-0.1984 -0.128,-0.048 -0.2272,-0.0704 -0.2976,-0.0704 -0.176,0 -0.3072,0.0864 -0.4,0.2688 h -0.2176 l 0.3584,-1.8976 h 0.2176 c 0.0224,0.592 0.1472,1.0112 0.368,1.2576 0.224,0.2464 0.528,0.3712 0.9152,0.3712 0.2976,0 0.5312,-0.0832 0.7072,-0.2496 0.1728,-0.1664 0.2592,-0.3712 0.2592,-0.6112 0,-0.1568 -0.0288,-0.304 -0.0928,-0.4352 -0.1088,-0.2336 -0.3392,-0.5568 -0.6912,-0.9728 -0.3456,-0.4128 -0.5728,-0.7264 -0.672,-0.9312 -0.0992,-0.208 -0.1472,-0.4128 -0.1472,-0.6208 0,-0.3808 0.1376,-0.6976 0.4096,-0.96 0.2784,-0.2624 0.6304,-0.3936 1.0656,-0.3936 0.1248,0 0.2368,0.01 0.3392,0.0288 0.0544,0.0128 0.1824,0.0544 0.384,0.1312 0.2016,0.0768 0.336,0.1152 0.4032,0.1152 0.1664,0 0.3072,-0.0928 0.4192,-0.2752 h 0.224"
       style="fill:#000000;fill-opacity:1;fill-rule:nonzero;stroke:none;stroke-width:0.32" />
    <path
       id="path7509"
       d="m 45.7228,120.68158 c 0.192,0.2016 0.336,0.4064 0.4352,0.608 0.0704,0.144 0.1856,0.5088 0.3456,1.1072 l 0.5152,-0.7712 c 0.1376,-0.1888 0.3008,-0.368 0.4992,-0.5376 0.192,-0.1696 0.3648,-0.2848 0.512,-0.3488 0.096,-0.0384 0.1984,-0.0576 0.3136,-0.0576 0.1664,0 0.3008,0.0448 0.4,0.1344 0.0992,0.0896 0.1504,0.1984 0.1504,0.3296 0,0.1472 -0.032,0.2496 -0.0896,0.3008 -0.1088,0.0992 -0.2336,0.1504 -0.3744,0.1504 -0.08,0 -0.1696,-0.0192 -0.2624,-0.0544 -0.1856,-0.0608 -0.3104,-0.096 -0.3712,-0.096 -0.0928,0 -0.2048,0.0576 -0.3328,0.1664 -0.2432,0.2048 -0.5312,0.5952 -0.8672,1.1776 l 0.48,2.016 c 0.0736,0.3072 0.1376,0.4928 0.1888,0.5536 0.0512,0.0608 0.0992,0.0896 0.1504,0.0896 0.0832,0 0.1792,-0.0448 0.288,-0.1344 0.2144,-0.1792 0.3968,-0.4128 0.5504,-0.704 l 0.2048,0.1056 c -0.2464,0.464 -0.5568,0.8448 -0.9376,1.1488 -0.2144,0.1728 -0.3968,0.2592 -0.544,0.2592 -0.2176,0 -0.3936,-0.1216 -0.5216,-0.368 -0.0832,-0.1536 -0.2528,-0.8096 -0.5088,-1.9712 -0.6112,1.0592 -1.0976,1.7408 -1.4656,2.0448 -0.2368,0.1952 -0.4672,0.2944 -0.6912,0.2944 -0.1568,0 -0.2976,-0.0576 -0.4288,-0.1696 -0.0928,-0.0864 -0.1408,-0.2016 -0.1408,-0.3488 0,-0.1248 0.0448,-0.2336 0.1312,-0.32 0.0832,-0.0864 0.1888,-0.128 0.3168,-0.128 0.1216,0 0.256,0.0608 0.3968,0.1888 0.1024,0.0896 0.1792,0.1344 0.2336,0.1344 0.048,0 0.1088,-0.0352 0.1824,-0.096 0.1824,-0.1472 0.4352,-0.4672 0.7488,-0.96 0.3168,-0.4928 0.5248,-0.848 0.624,-1.0688 -0.2432,-0.9472 -0.3744,-1.4496 -0.3936,-1.504 -0.0896,-0.2528 -0.208,-0.432 -0.352,-0.5376 -0.144,-0.1088 -0.3584,-0.16 -0.64,-0.16 -0.0896,0 -0.192,0.006 -0.3104,0.0128 v -0.2112 l 1.5648,-0.2752"
       style="fill:#000000;fill-opacity:1;fill-rule:nonzero;stroke:none;stroke-width:0.32" />
    <path
       id="path7510"
       d="m 46.5292,53.60318 c 0.1312,0.224 0.224,0.4384 0.2752,0.6336 0.0512,0.1984 0.1024,0.5856 0.1536,1.1648 l 0.2592,2.88 c 0.2336,-0.2784 0.5728,-0.7264 1.0176,-1.3344 0.2144,-0.2976 0.48,-0.7008 0.7968,-1.2128 0.192,-0.3136 0.3072,-0.5312 0.352,-0.656 0.0224,-0.0608 0.0352,-0.128 0.0352,-0.1952 0,-0.0416 -0.0128,-0.0768 -0.0416,-0.1056 -0.0288,-0.0256 -0.096,-0.0576 -0.2144,-0.096 -0.1152,-0.0352 -0.2112,-0.1056 -0.288,-0.2016 -0.0736,-0.1024 -0.112,-0.2144 -0.112,-0.3456 0,-0.16 0.048,-0.288 0.1408,-0.3872 0.0928,-0.096 0.2112,-0.144 0.3488,-0.144 0.1728,0 0.32,0.0704 0.4416,0.2144 0.1216,0.1408 0.1824,0.336 0.1824,0.5856 0,0.3104 -0.1056,0.6624 -0.3168,1.0592 -0.2112,0.3968 -0.6176,1.0048 -1.2192,1.824 -0.6016,0.8224 -1.3312,1.7152 -2.1856,2.6848 -0.5888,0.6688 -1.0272,1.088 -1.312,1.264 -0.2848,0.1728 -0.528,0.2592 -0.7328,0.2592 -0.1216,0 -0.2272,-0.0448 -0.32,-0.1376 -0.0928,-0.0928 -0.1344,-0.1984 -0.1344,-0.32 0,-0.1536 0.0608,-0.2912 0.1888,-0.416 0.1248,-0.1248 0.2624,-0.1856 0.4128,-0.1856 0.0768,0 0.144,0.016 0.192,0.0512 0.032,0.0192 0.0672,0.0768 0.1024,0.1664 0.0384,0.0928 0.0736,0.1536 0.1056,0.1856 0.016,0.0192 0.0416,0.0288 0.0672,0.0288 0.0224,0 0.0672,-0.0192 0.1248,-0.0576 0.2144,-0.1344 0.464,-0.3456 0.7488,-0.6336 0.3744,-0.384 0.6528,-0.6944 0.832,-0.9376 l -0.3264,-3.7152 c -0.0544,-0.6112 -0.1376,-0.9856 -0.2464,-1.12 -0.112,-0.1312 -0.2944,-0.1984 -0.5504,-0.1984 -0.0832,0 -0.2304,0.0128 -0.4416,0.0352 l -0.0512,-0.2144 1.7152,-0.4224"
       style="fill:#000000;fill-opacity:1;fill-rule:nonzero;stroke:none;stroke-width:0.32" />
    <path
       id="path7511"
       d="m -19.3492,119.48158 c 0.1312,0.2272 0.224,0.4384 0.2752,0.6336 0.0512,0.1984 0.0992,0.5856 0.1536,1.1648 l 0.256,2.8832 c 0.2336,-0.2816 0.576,-0.7264 1.0208,-1.3376 0.2144,-0.2944 0.48,-0.7008 0.7968,-1.2128 0.192,-0.3104 0.3072,-0.5312 0.352,-0.656 0.0192,-0.0608 0.032,-0.128 0.032,-0.192 0,-0.0416 -0.0128,-0.08 -0.0384,-0.1056 -0.0288,-0.0288 -0.0992,-0.0608 -0.2144,-0.096 -0.1152,-0.0384 -0.2112,-0.1088 -0.288,-0.2048 -0.0768,-0.0992 -0.1152,-0.2144 -0.1152,-0.3456 0,-0.16 0.048,-0.288 0.144,-0.384 0.0896,-0.0992 0.208,-0.1472 0.3488,-0.1472 0.1728,0 0.3168,0.0704 0.4416,0.2144 0.1216,0.1408 0.1792,0.3392 0.1792,0.5888 0,0.3072 -0.1056,0.6624 -0.3136,1.056 -0.2144,0.3968 -0.6176,1.0048 -1.2224,1.824 -0.5984,0.8224 -1.328,1.7184 -2.1824,2.6848 -0.5888,0.6688 -1.0272,1.0912 -1.3152,1.264 -0.2816,0.1728 -0.528,0.2592 -0.7296,0.2592 -0.1248,0 -0.2304,-0.0448 -0.32,-0.1376 -0.0928,-0.0928 -0.1376,-0.1984 -0.1376,-0.32 0,-0.1504 0.0608,-0.2912 0.1888,-0.416 0.128,-0.1248 0.2656,-0.1856 0.4128,-0.1856 0.08,0 0.144,0.016 0.1952,0.0512 0.032,0.0192 0.0672,0.0768 0.1024,0.1696 0.0384,0.0896 0.0704,0.1504 0.1024,0.1824 0.0192,0.0224 0.0416,0.0288 0.0704,0.0288 0.0224,0 0.064,-0.0192 0.1216,-0.0576 0.2176,-0.1312 0.4672,-0.3456 0.752,-0.6336 0.3744,-0.384 0.6496,-0.6944 0.832,-0.9376 l -0.3296,-3.712 c -0.0544,-0.6144 -0.1344,-0.9888 -0.2464,-1.12 -0.1088,-0.1344 -0.2912,-0.2016 -0.5504,-0.2016 -0.08,0 -0.2304,0.0128 -0.4384,0.0352 l -0.0512,-0.2144 1.7152,-0.4224"
       style="fill:#000000;fill-opacity:1;fill-rule:nonzero;stroke:none;stroke-width:0.32" />
  </g>
</svg>
