<?xml version="1.0" encoding="UTF-8" standalone="no"?>
<!-- Created with Inkscape (http://www.inkscape.org/) -->

<svg
   width="235.62839"
   height="235.74033"
   viewBox="0 0 235.62838 235.74032"
   version="1.1"
   id="svg1"
   inkscape:version="1.3.2 (1:1.3.2+202311252150+091e20ef0f)"
   sodipodi:docname="05-5-ex-6-b.svg"
   xmlns:inkscape="http://www.inkscape.org/namespaces/inkscape"
   xmlns:sodipodi="http://sodipodi.sourceforge.net/DTD/sodipodi-0.dtd"
   xmlns="http://www.w3.org/2000/svg"
   xmlns:svg="http://www.w3.org/2000/svg">
  <sodipodi:namedview
     id="namedview1"
     pagecolor="#ffffff"
     bordercolor="#666666"
     borderopacity="1.0"
     inkscape:showpageshadow="2"
     inkscape:pageopacity="0.0"
     inkscape:pagecheckerboard="0"
     inkscape:deskcolor="#d1d1d1"
     inkscape:document-units="px"
     showgrid="true"
     inkscape:zoom="2.3697898"
     inkscape:cx="-18.567048"
     inkscape:cy="17.090123"
     inkscape:current-layer="layer1">
    <inkscape:grid
       id="grid1"
       units="px"
       originx="-190"
       originy="-196.99993"
       spacingx="1"
       spacingy="1"
       empcolor="#0099e5"
       empopacity="0.30196078"
       color="#0099e5"
       opacity="0.14901961"
       empspacing="5"
       dotted="false"
       gridanglex="30"
       gridanglez="30"
       visible="true" />
    <inkscape:page
       x="0"
       y="0"
       width="235.62839"
       height="235.74033"
       id="page1"
       margin="10"
       bleed="0" />
  </sodipodi:namedview>
  <defs
     id="defs1" />
  <g
     inkscape:label="Layer 1"
     inkscape:groupmode="layer"
     id="layer1"
     transform="translate(-190,-196.99994)">
    <g
       id="g1630"
       transform="matrix(2.7836526,0,0,2.7836526,106.16619,-971.60219)">
      <path
         style="fill:#e5e5e5;stroke-width:0.127"
         d="m 71.464498,500.81523 c -1.485855,-0.30804 -3.035351,-1.61391 -3.567523,-3.00659 -0.438842,-1.14845 -0.468508,-2.76653 -0.06834,-3.72764 0.06587,-0.1582 -0.210994,-0.31339 -1.35056,-0.75702 -0.788378,-0.30691 -2.347814,-1.01927 -3.465414,-1.58301 -8.11466,-4.09318 -14.879082,-10.5629 -19.240501,-18.40224 -0.708936,-1.27426 -0.861366,-1.47246 -1.0795,-1.40363 -0.829256,0.26165 -0.929036,0.23535 -1.061349,-0.27968 -0.20656,-0.80404 -0.380872,-1.79888 -0.597566,-3.41043 -0.112707,-0.8382 -0.216265,-1.5356 -0.230129,-1.54979 -0.01387,-0.0142 -0.331462,0.064 -0.705771,0.17371 -1.001277,0.29351 -2.529899,0.18682 -3.46538,-0.24187 -1.506416,-0.69032 -2.659163,-2.20821 -2.874871,-3.7855 -0.297211,-2.17326 0.78245,-4.16577 2.775565,-5.1223 0.697869,-0.33492 1.002221,-0.40275 1.968501,-0.43873 0.763088,-0.0284 1.317729,0.0178 1.668691,0.13901 l 0.525692,0.18158 0.469731,-1.21856 c 0.720283,-1.86852 2.342667,-5.09072 3.539452,-7.02968 3.441464,-5.57564 8.1463,-10.45395 13.545928,-14.04538 1.013372,-0.67402 2.428469,-1.53981 3.144661,-1.92399 1.115946,-0.59861 1.290742,-0.73482 1.222276,-0.9525 -0.04394,-0.1397 -0.08744,-0.42511 -0.09666,-0.63425 -0.01555,-0.3525 0.02768,-0.39127 0.592483,-0.53137 0.33509,-0.0831 1.53524,-0.28077 2.667,-0.43921 1.131761,-0.15845 2.075417,-0.29896 2.097013,-0.31223 0.0216,-0.0133 -0.05722,-0.35605 -0.175155,-0.76172 -0.157071,-0.54031 -0.196025,-1.00594 -0.145647,-1.74095 0.09224,-1.34575 0.583052,-2.35145 1.612892,-3.3049 1.012687,-0.93757 1.872332,-1.27072 3.310731,-1.28306 1.009455,-0.009 1.154482,0.0245 2.055454,0.46978 2.306708,1.14003 3.27045,3.45714 2.57695,6.1957 -0.07872,0.31087 -0.02882,0.34573 1.16363,0.81282 1.8677,0.73158 4.596074,2.08593 6.474567,3.21392 6.907432,4.14775 12.527844,9.95452 16.478751,17.02514 0.58387,1.0449 0.77498,1.29235 0.94247,1.22029 0.5629,-0.24216 0.89994,-0.21258 1.03016,0.0904 0.15807,0.36778 0.60327,3.01237 0.71963,4.27474 0.0687,0.74538 0.12232,0.91297 0.27348,0.85497 1.2033,-0.46175 3.06499,-0.41634 4.12145,0.10054 1.09944,0.53791 1.80566,1.24189 2.34929,2.34184 0.44769,0.90586 0.47904,1.04469 0.47845,2.11896 -5.1e-4,1.02658 -0.0437,1.24063 -0.40315,2.00057 -0.8279,1.75034 -2.38965,2.77922 -4.35652,2.87008 -0.75055,0.0347 -1.25033,-0.009 -1.63254,-0.14177 l -0.55084,-0.19173 -0.19047,0.46522 c -1.37101,3.34863 -2.303,5.24856 -3.72731,7.59841 -3.387912,5.58938 -8.107473,10.51011 -13.649538,14.23133 -1.019941,0.68484 -4.082256,2.49639 -4.397802,2.60157 -0.07139,0.0238 -0.04279,0.2319 0.06848,0.49821 0.150891,0.36113 0.158823,0.49865 0.03771,0.65375 -0.179567,0.22996 -1.400421,0.49059 -3.723783,0.79495 l -1.665405,0.21817 0.18287,0.58691 c 0.450878,1.44707 0.125918,3.34096 -0.786535,4.58397 -1.083572,1.47612 -3.119741,2.26929 -4.88569,1.90318 z m 5.912665,-8.69203 c 0.508814,-0.38297 1.437163,-1.12592 2.062997,-1.651 0.625836,-0.52509 1.230962,-0.95471 1.344725,-0.95471 0.113764,0 0.324701,0.19976 0.468749,0.4439 l 0.261906,0.4439 0.84506,-0.46733 c 3.997178,-2.21052 7.051181,-4.50863 10.249616,-7.71278 2.200323,-2.20425 3.694876,-3.99489 5.255505,-6.29669 1.803662,-2.66025 3.534329,-5.92483 4.635109,-8.74327 l 0.46351,-1.18678 -0.50514,-0.54802 c -0.55087,-0.59762 -1.07353,-1.54057 -1.21398,-2.19018 l -0.0892,-0.41275 -2.81566,1.3e-4 -2.815658,1.3e-4 -0.215,0.73007 c -0.761541,2.58597 -3.724091,4.11005 -6.275163,3.22824 l -0.648164,-0.22405 -0.396111,1.56662 c -0.452638,1.79017 -1.132262,3.57126 -1.433551,3.75689 -0.20587,0.12684 -0.388812,0.0826 -0.753668,-0.18227 -0.162574,-0.11803 -0.503731,0.16316 -1.9685,1.62246 -1.966127,1.95878 -3.466006,3.087 -5.542949,4.16945 l -1.358107,0.7078 0.19097,0.53547 c 0.255646,0.71682 0.259652,2.15192 0.0084,3.01526 -0.434963,1.4947 -1.800062,2.84751 -3.293423,3.26379 l -0.73025,0.20356 v 2.82254 2.82255 l 0.469235,0.088 c 0.720487,0.13516 1.621411,0.64291 2.223938,1.25338 0.29993,0.30388 0.568814,0.56136 0.597521,0.57218 0.02871,0.0108 0.468496,-0.29366 0.977308,-0.67662 z m -6.739315,-0.94574 c 0.386563,-0.14463 0.786421,-0.26297 0.888576,-0.26297 0.157459,0 0.185736,-0.4335 0.185736,-2.84741 v -2.84741 l -0.41275,-0.0894 c -1.305636,-0.28264 -2.758534,-1.49621 -3.357435,-2.80438 -0.45808,-1.00058 -0.542367,-2.50401 -0.19725,-3.51842 0.171591,-0.50437 0.206483,-0.75307 0.109427,-0.77997 -0.07837,-0.0217 -0.685417,-0.1654 -1.348992,-0.31929 -1.212322,-0.28116 -3.482117,-1.0633 -3.77825,-1.30194 -0.225603,-0.1818 -0.196868,-0.4528 0.08616,-0.81262 l 0.244915,-0.31136 -1.038665,-0.92376 c -1.954988,-1.7387 -3.776353,-4.09101 -5.108607,-6.59781 -0.43679,-0.82187 -0.645886,-1.09963 -0.787039,-1.04546 -1.167098,0.44786 -2.781951,0.40963 -3.877159,-0.0918 -1.299309,-0.59484 -2.350441,-1.82414 -2.767253,-3.2363 l -0.159313,-0.53975 H 46.49669 43.673427 l -0.08803,0.46924 c -0.135686,0.72326 -0.632129,1.5996 -1.26429,2.23176 l -0.573977,0.57398 0.648691,0.87076 c 0.769429,1.03284 1.502806,1.94004 2.164617,2.67768 0.607619,0.67723 0.616325,0.97546 0.03715,1.27259 l -0.444571,0.22808 0.774395,1.39421 c 3.555958,6.40208 8.917938,12.04934 15.124344,15.92904 1.820876,1.13825 4.923803,2.72014 6.886428,3.51074 l 1.65084,0.66501 0.672993,-0.61508 c 0.394336,-0.3604 0.964006,-0.72396 1.375831,-0.87804 z m -1.55603,-14.49306 c 1.089936,-1.04764 2.751311,-1.55007 4.189781,-1.26707 0.938479,0.18464 1.834979,0.61984 2.483205,1.20548 l 0.477523,0.43141 1.18339,-0.62507 c 2.343038,-1.23759 4.572846,-2.95889 6.146651,-4.7449 l 0.887625,-1.0073 -0.336417,-0.26825 c -0.480827,-0.3834 -0.424982,-0.7174 0.203335,-1.21612 0.781804,-0.62054 2.074538,-1.86845 2.667369,-2.57487 l 0.512991,-0.61129 -0.52011,-0.53171 c -0.28606,-0.29245 -0.680172,-0.87462 -0.875805,-1.29372 -0.318883,-0.68313 -0.355611,-0.90001 -0.354885,-2.0955 7.62e-4,-1.19468 0.03679,-1.40621 0.346458,-2.032 0.190105,-0.38417 0.54817,-0.91735 0.795698,-1.18483 l 0.450051,-0.48633 -0.705739,-1.35517 c -1.18937,-2.28385 -2.944999,-4.53602 -4.817363,-6.17987 l -0.83392,-0.73214 -0.262466,0.33367 c -0.409299,0.52034 -0.741596,0.42972 -1.386131,-0.37801 -0.312342,-0.39143 -1.101315,-1.22164 -1.753276,-1.84492 l -1.185383,-1.13323 -0.579484,0.51008 c -1.953432,1.71948 -4.895441,1.73655 -6.664938,0.0387 l -0.466683,-0.44779 -1.247817,0.66648 c -2.402091,1.283 -4.579847,2.97571 -6.206479,4.82412 l -0.808228,0.91843 0.375195,0.31571 c 0.206356,0.17363 0.375194,0.38915 0.375194,0.47892 0,0.0898 -0.50496,0.59509 -1.122133,1.12293 -0.617173,0.52783 -1.472242,1.35461 -1.900155,1.83727 l -0.778022,0.87757 0.446736,0.43296 c 0.626148,0.60685 1.275202,1.96281 1.382643,2.88853 0.156525,1.34863 -0.252598,2.67496 -1.176448,3.81391 l -0.449752,0.55447 0.476205,0.96953 c 1.045779,2.12916 2.4812,4.06047 4.384712,5.8995 l 1.416819,1.36883 0.368617,-0.3946 c 0.447049,-0.47857 0.618513,-0.41847 1.343302,0.47085 0.452554,0.55528 2.841982,2.95945 2.941307,2.95945 0.02309,0 0.282663,-0.23134 0.576827,-0.51409 z m -19.65249,-15.64666 c 0.278665,-1.28726 1.366336,-2.63753 2.661331,-3.30384 0.976111,-0.50224 2.528263,-0.62506 3.677382,-0.291 0.402281,0.11694 0.742594,0.19495 0.756253,0.17336 0.01366,-0.0216 0.157073,-0.61077 0.318697,-1.30927 0.293733,-1.26944 1.068905,-3.54215 1.31034,-3.84175 0.182418,-0.22636 0.53035,-0.19627 0.865144,0.0748 l 0.288454,0.23357 0.720502,-0.83713 c 1.831674,-2.12819 4.328832,-4.07301 6.870832,-5.3511 0.815207,-0.40988 1.008826,-0.55989 0.943242,-0.7308 -0.223878,-0.58342 -0.345091,-1.55327 -0.29013,-2.32141 0.141734,-1.98092 1.665231,-3.84314 3.536456,-4.32272 l 0.624329,-0.16001 v -2.8234 -2.8234 l -0.41275,-0.0892 c -0.679062,-0.14681 -1.614337,-0.67817 -2.26504,-1.28682 l -0.612061,-0.57251 -0.986906,0.74194 c -0.542798,0.40807 -1.474219,1.15547 -2.069824,1.66087 -0.595606,0.50541 -1.150209,0.91974 -1.232451,0.92075 -0.149567,0.002 -0.616999,-0.51976 -0.706551,-0.78842 -0.02808,-0.0842 -0.537949,0.13369 -1.246709,0.53282 -7.955647,4.48018 -13.978698,10.72197 -18.01805,18.67243 -0.910162,1.79143 -2.167659,4.6786 -2.167659,4.97687 0,0.0666 0.224979,0.38849 0.499953,0.71535 0.553693,0.65816 1.147887,1.83488 1.149806,2.27703 l 0.0013,0.28575 h 2.847409 2.84741 l 0.08935,-0.41275 z m 51.813752,0 c 0.14973,-0.70951 0.68822,-1.65894 1.28948,-2.27352 l 0.57797,-0.59077 -0.4123,-0.59927 c -0.22677,-0.3296 -0.93603,-1.2361 -1.57613,-2.01443 -0.64009,-0.77834 -1.204299,-1.48068 -1.253785,-1.56075 -0.145945,-0.23614 0.02968,-0.51531 0.427975,-0.68029 0.20453,-0.0847 0.37187,-0.19128 0.37187,-0.2368 0,-0.19333 -1.624281,-2.9811 -2.486678,-4.26792 -1.71834,-2.564 -3.243235,-4.40222 -5.638421,-6.79697 -2.999451,-2.9989 -5.538018,-4.97078 -9.060492,-7.03791 -1.495811,-0.8778 -4.397047,-2.28167 -6.038975,-2.92217 -1.166091,-0.45488 -1.193587,-0.4592 -1.364951,-0.21455 -0.294653,0.42068 -1.653124,1.25175 -2.329447,1.42508 l -0.640036,0.16404 1.27e-4,2.80174 1.27e-4,2.80174 0.730075,0.21599 c 1.488927,0.44048 2.66181,1.53382 3.208074,2.9905 0.331404,0.88373 0.365912,2.33326 0.07762,3.26044 -0.219806,0.70693 -0.185342,0.83557 0.22385,0.83557 0.442108,0 2.936241,0.72851 3.975884,1.16132 1.005276,0.41849 1.113202,0.59719 0.721629,1.1948 -0.204672,0.31237 -0.198716,0.32226 0.66675,1.10679 1.292615,1.17172 2.28967,2.25982 3.286267,3.58635 0.741321,0.98674 1.174568,1.70595 2.480685,4.11803 0.04214,0.0778 0.281743,0.0506 0.635,-0.0723 0.875363,-0.30439 2.654238,-0.1902 3.551816,0.228 1.342955,0.62572 2.494112,2.02102 2.733921,3.31374 l 0.08835,0.47625 h 2.833276 2.833269 l 0.0871,-0.41275 z"
         id="path1646"
         inkscape:connector-curvature="0" />
      <path
         style="fill:#fa9ea3;stroke-width:0.127"
         d="m 70.661695,500.52031 c -0.803206,-0.33825 -1.709955,-1.02259 -2.122414,-1.60184 -0.98484,-1.38308 -1.271662,-3.35857 -0.70285,-4.84087 0.0613,-0.15973 -0.208544,-0.3159 -1.293661,-0.74868 -1.948775,-0.77723 -5.299341,-2.48564 -7.153176,-3.64732 -4.867283,-3.05 -9.133269,-7.00358 -12.578782,-11.65761 -1.108433,-1.49722 -2.671878,-3.96412 -3.362108,-5.30495 l -0.490431,-0.9527 -0.425399,0.20286 c -0.31447,0.14996 -0.48157,0.16772 -0.640807,0.0681 -0.245992,-0.15391 -0.528849,-1.4398 -0.830037,-3.77342 -0.106842,-0.82781 -0.220428,-1.53128 -0.252414,-1.56326 -0.03199,-0.032 -0.390071,0.0383 -0.795746,0.15626 -2.262489,0.65773 -4.836774,-0.54164 -5.879733,-2.73939 -0.288745,-0.60845 -0.331479,-0.86248 -0.331479,-1.97045 0,-1.18066 0.0299,-1.33275 0.416633,-2.11897 0.490019,-0.99622 1.354093,-1.83302 2.416457,-2.3402 0.911796,-0.43529 2.447189,-0.5563 3.42427,-0.26988 l 0.642738,0.18841 0.533269,-1.3482 c 1.060798,-2.68191 3.045546,-6.38394 4.718356,-8.80087 2.3087,-3.33569 5.986444,-7.32028 8.930278,-9.67535 1.730774,-1.38462 4.639313,-3.34463 6.511513,-4.38799 l 1.414385,-0.78821 -0.209413,-0.43915 c -0.18772,-0.39365 -0.189339,-0.45921 -0.01563,-0.63292 0.20747,-0.20747 2.031662,-0.57197 4.127915,-0.82481 l 1.287767,-0.15532 -0.182181,-0.43602 c -0.100199,-0.23981 -0.215399,-0.79177 -0.256003,-1.22657 -0.241551,-2.58672 1.515338,-4.91162 4.090968,-5.4136 2.036495,-0.3969 4.247161,0.79237 5.18307,2.78834 0.471077,1.00464 0.603592,2.51272 0.309076,3.51741 l -0.183954,0.62752 1.254982,0.48832 c 7.042145,2.74013 13.863473,7.80614 18.735734,13.91451 1.643823,2.06087 3.822602,5.37279 4.620822,7.02402 0.24579,0.50846 0.33808,0.59619 0.55204,0.52477 0.1413,-0.0472 0.42802,-0.0933 0.63716,-0.10252 0.3525,-0.0156 0.39127,0.0277 0.53137,0.59248 0.0831,0.33509 0.28077,1.53524 0.43922,2.66701 0.15845,1.13176 0.29879,2.07525 0.31187,2.09665 0.0131,0.0214 0.31738,-0.0571 0.67623,-0.17449 0.47466,-0.15525 0.9386,-0.19839 1.70252,-0.15829 4.1755,0.21915 6.25643,5.01718 3.48917,8.045 -1.35637,1.48408 -3.1473,2.02592 -5.05803,1.53029 -0.38184,-0.099 -0.69906,-0.17049 -0.70494,-0.15875 -0.006,0.0117 -0.23152,0.59283 -0.50142,1.29133 -0.61264,1.58549 -2.56294,5.45801 -3.53227,7.01369 -1.984749,3.18534 -3.809512,5.44375 -6.800797,8.41699 -3.079813,3.06122 -6.147106,5.3887 -9.707124,7.36582 -1.277248,0.70935 -1.475086,0.86124 -1.405993,1.0795 0.04422,0.1397 0.08795,0.42545 0.09718,0.635 0.01615,0.36692 -0.01139,0.38673 -0.74523,0.53586 -0.4191,0.0852 -1.61925,0.27624 -2.667,0.42459 -1.04775,0.14836 -1.916607,0.28078 -1.930793,0.29427 -0.01419,0.0135 0.06398,0.33079 0.173708,0.7051 0.293515,1.00127 0.186826,2.5299 -0.241866,3.46538 -0.441097,0.96255 -1.376005,1.93994 -2.316986,2.42226 -0.66413,0.34041 -0.921864,0.39738 -1.970564,0.43558 -1.052192,0.0383 -1.300243,0.004 -1.939465,-0.26472 z m 3.600063,-0.55833 c 0.892515,-0.43881 1.552931,-1.07525 2.031313,-1.95758 0.417453,-0.76996 0.43559,-0.85893 0.43559,-2.13691 0,-1.27777 -0.01819,-1.36704 -0.435246,-2.13625 -0.827167,-1.52562 -2.183806,-2.34271 -3.882755,-2.33856 -1.445053,0.004 -2.563571,0.57082 -3.480517,1.76526 -1.835236,2.39063 -0.63782,6.09854 2.274017,7.0417 0.174625,0.0566 0.803275,0.0905 1.397,0.0754 0.822586,-0.0209 1.217798,-0.0954 1.660598,-0.3131 z m 2.745063,-7.54011 c 0.317858,-0.21869 1.214748,-0.92134 1.993086,-1.56143 0.778339,-0.6401 1.480675,-1.20431 1.560746,-1.25379 0.236143,-0.14595 0.515311,0.0297 0.680287,0.42797 0.08472,0.20453 0.19128,0.37187 0.236801,0.37187 0.203361,0 2.971522,-1.62292 4.434909,-2.60011 4.304737,-2.87452 8.408591,-6.85653 11.451184,-11.11118 1.871279,-2.61673 3.728866,-6.01543 5.016606,-9.17854 l 0.60674,-1.49034 -0.44638,-0.49409 c -0.57828,-0.64008 -1.05357,-1.46749 -1.23215,-2.14499 l -0.14228,-0.53975 h -2.837527 -2.837528 l -0.149316,0.59299 c -0.321038,1.27496 -1.451951,2.58092 -2.749327,3.17488 -0.992209,0.45425 -2.383845,0.53231 -3.450617,0.19356 l -0.794606,-0.25233 -0.07446,0.3362 c -0.499283,2.25445 -1.376147,4.80118 -1.728314,5.01965 -0.167829,0.10412 -0.305183,0.0694 -0.606332,-0.15325 l -0.38935,-0.28786 -0.342899,0.41883 c -1.820929,2.22416 -4.690366,4.51405 -7.313622,5.83647 -0.797667,0.40212 -0.977677,0.54443 -0.906976,0.71703 0.452541,1.10476 0.412771,2.77758 -0.09183,3.86253 -0.61024,1.31209 -1.832965,2.35749 -3.244762,2.7742 l -0.53975,0.15931 v 2.8374 c 0,2.40511 0.0283,2.83739 0.185737,2.83739 0.540875,0 1.660813,0.5835 2.329005,1.21343 0.398067,0.37527 0.742036,0.6844 0.764376,0.68694 0.02234,0.003 0.300684,-0.1743 0.618543,-0.39299 z m -7.89207,-0.22943 c 0.625479,-0.57655 1.578206,-1.09119 2.255174,-1.21819 l 0.469235,-0.088 v -2.82829 -2.82829 l -0.588567,-0.14821 c -2.567234,-0.64643 -4.216442,-3.38349 -3.563881,-5.91467 0.108018,-0.41898 0.231426,-0.85151 0.274244,-0.96119 0.06287,-0.16104 -0.08567,-0.22953 -0.772063,-0.35601 -0.930222,-0.1714 -2.944156,-0.78576 -3.881397,-1.18405 -0.724602,-0.30792 -0.835183,-0.545 -0.478949,-1.02683 l 0.271458,-0.36717 -0.678672,-0.61825 c -0.37327,-0.34003 -0.717597,-0.62084 -0.765172,-0.62401 -0.04757,-0.003 -0.609522,-0.59155 -1.248775,-1.30752 -1.31782,-1.47595 -2.691608,-3.45571 -3.450036,-4.97182 -0.283094,-0.56591 -0.528515,-1.04461 -0.545381,-1.06377 -0.01686,-0.0192 -0.365129,0.0523 -0.773919,0.15875 -2.635983,0.68658 -5.278406,-0.74462 -6.079999,-3.2931 l -0.221532,-0.70431 h -2.831546 -2.831546 l -0.08104,0.432 c -0.124492,0.66359 -0.667686,1.60094 -1.308073,2.25723 l -0.579338,0.59372 0.799595,1.05728 c 0.439778,0.5815 1.115733,1.42875 1.502124,1.88277 0.38639,0.45403 0.782591,0.92142 0.880444,1.03865 0.248471,0.29768 0.08997,0.68288 -0.3572,0.8681 -0.207227,0.0858 -0.376777,0.17757 -0.376777,0.20386 0,0.0263 0.292753,0.57502 0.65056,1.21942 4.965742,8.94306 12.649248,15.74897 22.209441,19.67274 0.803275,0.32969 1.482685,0.60389 1.509798,0.60933 0.02711,0.005 0.293421,-0.21512 0.591793,-0.49015 z m 5.20091,-7.88839 c 0.805404,-0.38424 1.696341,-1.27134 2.09809,-2.08906 0.267729,-0.54493 0.312188,-0.81513 0.313445,-1.905 0.0013,-1.13557 -0.03618,-1.34666 -0.354181,-1.99423 -0.729679,-1.4859 -2.255375,-2.41371 -3.962355,-2.40959 -1.552103,0.004 -2.792356,0.67551 -3.6326,1.96756 -1.506068,2.31588 -0.550611,5.43958 1.991228,6.50997 1.000946,0.4215 2.56975,0.38627 3.546373,-0.0796 z m -5.20091,-7.60561 c 1.8559,-1.71071 4.760004,-1.74679 6.577831,-0.0817 l 0.487188,0.44625 1.036445,-0.51892 c 2.49258,-1.24797 5.004336,-3.20273 6.715038,-5.22594 l 0.515692,-0.6099 -0.334893,-0.34955 c -0.431834,-0.45074 -0.421998,-0.57728 0.07784,-1.00143 0.768036,-0.65172 2.783967,-2.63401 3.037521,-2.98683 l 0.251959,-0.35059 -0.516274,-0.58652 c -0.283949,-0.32258 -0.674036,-0.90776 -0.866856,-1.3004 -0.311816,-0.63494 -0.350585,-0.85433 -0.350585,-1.98389 0,-1.1068 0.04301,-1.36171 0.334667,-1.98374 0.184066,-0.39256 0.551309,-0.95354 0.816097,-1.24663 l 0.481431,-0.53288 -0.352355,-0.72188 c -0.584562,-1.19759 -1.556547,-2.73976 -2.471942,-3.92202 -0.825356,-1.06597 -3.328881,-3.59435 -3.559016,-3.59435 -0.06004,0 -0.202785,0.14288 -0.317203,0.3175 -0.11442,0.17463 -0.311729,0.3175 -0.438466,0.3175 -0.129128,0 -0.668357,-0.48854 -1.22654,-1.11125 -1.019583,-1.13744 -2.528169,-2.57175 -2.70493,-2.57175 -0.05428,0 -0.317398,0.22397 -0.584703,0.49772 -0.267304,0.27374 -0.836114,0.65951 -1.264024,0.85725 -0.681395,0.31488 -0.927852,0.35953 -1.984517,0.35953 -1.451809,0 -2.1345,-0.22571 -3.126443,-1.03366 l -0.683489,-0.55671 -1.047785,0.52463 c -2.284975,1.14408 -4.701854,2.98661 -6.307073,4.80827 l -0.911559,1.03446 0.39543,0.36939 c 0.457853,0.4277 0.434218,0.50188 -0.384081,1.20552 -0.934144,0.80325 -2.017727,1.86292 -2.556133,2.49973 l -0.504434,0.59663 0.510555,0.52609 c 1.719399,1.77173 1.800935,4.66527 0.182198,6.4657 l -0.576161,0.64083 0.661133,1.23856 c 1.259731,2.35997 3.05285,4.67599 4.815906,6.22028 l 0.945566,0.82824 0.265706,-0.33323 c 0.422698,-0.53011 0.698984,-0.42655 1.532424,0.57444 0.651575,0.78256 2.687596,2.77533 2.835563,2.77533 0.02792,0 0.294896,-0.22502 0.593268,-0.50005 z M 40.054285,466.33858 c 1.456735,-0.4326 2.64247,-1.69265 3.027226,-3.21696 0.25803,-1.02224 0.160946,-1.86213 -0.334716,-2.89571 -0.439449,-0.91636 -1.142849,-1.59533 -2.134395,-2.06025 -0.614179,-0.28798 -0.882041,-0.33467 -1.920241,-0.33467 -1.035009,0 -1.305785,0.0469 -1.905001,0.32984 -0.87242,0.41197 -1.663224,1.17456 -2.122802,2.04705 -0.318362,0.6044 -0.353502,0.79736 -0.353502,1.94111 0,1.12869 0.03744,1.34094 0.336477,1.90752 0.58775,1.11359 1.775783,2.05629 2.965328,2.35296 0.650099,0.16214 1.766054,0.12974 2.441626,-0.0709 z m 16.102888,-0.23718 c 1.523656,-0.6971 2.503443,-2.21126 2.516453,-3.88891 0.008,-1.03301 -0.185321,-1.71096 -0.710942,-2.49301 -1.906709,-2.83692 -6.248396,-2.51574 -7.694734,0.56922 -0.452265,0.96466 -0.480868,2.68011 -0.05998,3.5971 0.315463,0.6873 1.147896,1.63406 1.780507,2.02503 1.168136,0.72195 2.840197,0.79839 4.168693,0.19057 z m 36.322002,0 c 1.525813,-0.69809 2.497621,-2.2046 2.508635,-3.88891 0.0068,-1.04479 -0.183621,-1.72006 -0.703124,-2.49301 -1.904456,-2.83357 -6.26146,-2.51112 -7.691426,0.56922 -0.735731,1.58487 -0.447306,3.50332 0.713229,4.74403 1.057195,1.13022 1.977564,1.51772 3.458186,1.45598 0.709871,-0.0296 1.149967,-0.12902 1.7145,-0.38731 z m 15.582455,0.0174 c 0.91796,-0.42025 1.80439,-1.30551 2.23334,-2.23037 0.4759,-1.02611 0.47773,-2.44893 0.004,-3.4692 -0.44699,-0.9636 -1.08598,-1.63887 -2.04068,-2.15657 -0.75436,-0.40907 -0.86263,-0.43169 -2.06608,-0.43169 -1.13184,0 -1.34825,0.0384 -1.98928,0.35323 -0.88142,0.43284 -1.6716,1.20299 -2.10741,2.05398 -0.46936,0.9165 -0.54166,2.39386 -0.16588,3.38997 0.30207,0.80077 1.078,1.75684 1.7912,2.20706 1.22543,0.77358 3.01471,0.89049 4.34034,0.28359 z m -58.567773,-5.20808 c 0.783188,-2.94608 4.035166,-4.44717 6.924033,-3.19609 0.08172,0.0354 0.1994,-0.28384 0.294086,-0.79772 0.185063,-1.00437 0.955312,-3.45014 1.301985,-4.13419 0.270919,-0.53457 0.48677,-0.58642 0.979812,-0.23534 l 0.338324,0.24091 0.811577,-0.95227 c 1.590437,-1.86615 4.08687,-3.81934 6.56792,-5.1387 l 1.273765,-0.67735 -0.174687,-0.42678 c -0.484715,-1.1842 -0.270242,-3.05127 0.48585,-4.22954 0.702746,-1.09514 1.972757,-1.99377 3.129888,-2.21466 l 0.41275,-0.0788 v -2.8307 -2.8307 l -0.634855,-0.1523 c -0.756093,-0.18138 -2.023918,-0.97041 -2.419924,-1.50604 l -0.283186,-0.38303 -1.029767,0.78087 c -0.566373,0.42947 -1.529841,1.19561 -2.14104,1.70252 -1.188646,0.98583 -1.368614,1.02908 -1.690687,0.40626 -0.103985,-0.20108 -0.234487,-0.36561 -0.290003,-0.36561 -0.204286,0 -3.296397,1.83537 -4.715804,2.79914 -2.333226,1.58425 -4.105227,3.06768 -6.357375,5.3221 -4.4452,4.44968 -7.546839,9.14326 -9.845487,14.89876 l -0.558321,1.39796 0.623258,0.68195 c 0.568442,0.62196 1.14919,1.77081 1.14919,2.27336 0,0.15746 0.434142,0.18573 2.852605,0.18573 h 2.852605 z m 51.816003,0 c 0.21796,-0.81989 0.74147,-1.70115 1.33626,-2.2494 l 0.53528,-0.49341 -0.89275,-1.18447 c -0.49101,-0.65146 -1.22794,-1.56537 -1.63762,-2.03091 -0.845842,-0.96118 -0.920162,-1.28812 -0.36467,-1.60422 0.20911,-0.11898 0.38056,-0.26172 0.381,-0.31718 0.001,-0.17707 -1.659237,-3.033 -2.45217,-4.21716 -5.083962,-7.59234 -12.109814,-13.30472 -20.487168,-16.65713 l -1.448342,-0.57959 -0.556633,0.51309 c -0.613636,0.56563 -1.252387,0.92658 -2.074137,1.17208 l -0.53975,0.16126 v 2.82232 2.82232 l 0.60325,0.15045 c 1.269014,0.31648 2.448154,1.30274 3.11438,2.60493 0.528409,1.03282 0.637178,2.69084 0.244076,3.72061 l -0.254748,0.66733 0.337271,0.0747 c 2.223838,0.49271 4.801716,1.37542 5.013154,1.71659 0.128951,0.20807 0.08469,0.38503 -0.193098,0.77201 -0.133708,0.18626 0.02684,0.38668 1.201469,1.49981 2.084308,1.97519 3.621103,4.00505 4.790423,6.32741 0.39815,0.79075 0.581741,1.03824 0.728421,0.98196 1.627956,-0.62471 3.670736,-0.31056 5.055004,0.77738 0.625784,0.49182 1.398661,1.67744 1.596381,2.44891 l 0.164037,0.64003 h 2.828597 2.828593 z M 74.31748,447.98799 c 0.804919,-0.38917 1.69544,-1.27915 2.096271,-2.095 0.267729,-0.54493 0.312188,-0.81514 0.313445,-1.905 0.0013,-1.15746 -0.03189,-1.33583 -0.374958,-2.01291 -0.762205,-1.50429 -2.21657,-2.3827 -3.944995,-2.3827 -1.52905,0 -2.755648,0.66081 -3.614809,1.94741 -1.530464,2.29189 -0.573885,5.44777 1.976854,6.5219 1.010534,0.42555 2.583166,0.39288 3.548192,-0.0737 z m -0.0033,-15.49278 c 0.841024,-0.40713 1.660846,-1.25041 2.075379,-2.13476 0.297533,-0.63475 0.33878,-0.87918 0.336395,-1.99346 -0.0023,-1.06878 -0.04946,-1.3649 -0.297727,-1.86898 -0.683029,-1.3868 -2.062923,-2.39472 -3.529685,-2.57821 -1.382195,-0.1729 -3.119784,0.60084 -3.952139,1.75987 -0.656189,0.91373 -0.853729,1.55023 -0.853729,2.75082 0,0.91633 0.05376,1.19468 0.355695,1.8415 0.553066,1.18482 1.567495,2.10213 2.755805,2.49197 0.174625,0.0573 0.804095,0.0889 1.39882,0.0702 0.832964,-0.0262 1.225989,-0.10403 1.711188,-0.33891 z"
         id="path1644"
         inkscape:connector-curvature="0" />
      <path
         style="fill:#9f9f9f;stroke-width:0.127"
         d="m 70.661695,500.52031 c -0.803206,-0.33825 -1.709955,-1.02259 -2.122414,-1.60184 -0.879286,-1.23484 -1.216443,-2.9583 -0.845304,-4.32098 0.104634,-0.38417 0.151417,-0.7326 0.103963,-0.77429 -0.04745,-0.0417 -0.572055,-0.26479 -1.16578,-0.49579 -1.735271,-0.67513 -4.758139,-2.17968 -6.547889,-3.25905 -6.911219,-4.168 -12.452628,-9.9186 -16.440246,-17.06087 -0.370483,-0.66357 -0.686164,-1.22323 -0.701513,-1.24369 -0.01535,-0.0205 -0.23558,0.0618 -0.489402,0.18288 -0.555084,0.2647 -0.682122,0.17519 -0.857185,-0.60396 -0.208472,-0.92784 -0.614994,-3.70361 -0.616421,-4.20898 -0.0015,-0.54335 -0.02603,-0.55001 -0.991488,-0.26934 -2.235522,0.64988 -4.816688,-0.56132 -5.853879,-2.74691 -0.288745,-0.60845 -0.331479,-0.86248 -0.331479,-1.97045 0,-1.18066 0.0299,-1.33275 0.416633,-2.11897 0.490019,-0.99622 1.354093,-1.83302 2.416457,-2.3402 0.919902,-0.43916 2.446613,-0.55647 3.442558,-0.26452 0.646254,0.18944 0.663396,0.18765 0.76717,-0.0803 3.255995,-8.40687 8.150094,-14.99356 15.118684,-20.34736 1.784634,-1.3711 4.539015,-3.14453 6.109014,-3.93335 0.377017,-0.18943 0.702223,-0.35904 0.722679,-0.37691 0.02046,-0.0179 -0.0621,-0.24073 -0.183464,-0.49523 -0.19224,-0.40313 -0.197029,-0.48576 -0.03719,-0.6416 0.174961,-0.17059 2.316645,-0.6018 3.802964,-0.76569 0.384175,-0.0424 0.908129,-0.10744 1.16434,-0.14463 l 0.465841,-0.0676 -0.185754,-0.44457 c -0.102164,-0.24451 -0.218973,-0.80032 -0.259577,-1.23512 -0.241551,-2.58672 1.515338,-4.91162 4.090968,-5.4136 2.036495,-0.3969 4.247161,0.79237 5.18307,2.78834 0.473868,1.01059 0.60374,2.51221 0.305319,3.53022 l -0.187709,0.64034 0.903001,0.35139 c 9.766802,3.80065 17.94392,10.90813 23.200028,20.16527 l 0.90404,1.59219 0.43521,-0.20754 c 0.38025,-0.18132 0.45849,-0.18427 0.61943,-0.0233 0.21063,0.21063 0.48394,1.53461 0.77123,3.73607 0.10921,0.83681 0.21723,1.54015 0.24005,1.56298 0.0228,0.0228 0.3351,-0.0545 0.69395,-0.17191 0.47466,-0.15525 0.9386,-0.19839 1.70252,-0.15829 4.1755,0.21915 6.25643,5.01718 3.48917,8.045 -1.35637,1.48408 -3.1473,2.02592 -5.05803,1.53029 -0.38184,-0.099 -0.70205,-0.17049 -0.71158,-0.15875 -0.01,0.0117 -0.31813,0.75547 -0.68577,1.65275 -3.917191,9.56054 -11.351254,17.86074 -20.291916,22.65612 l -1.129945,0.60605 0.198554,0.41925 c 0.322687,0.68136 0.142068,0.81004 -1.581845,1.12695 -0.831102,0.15278 -1.947347,0.31674 -2.480544,0.36436 -0.533198,0.0476 -1.030671,0.12441 -1.105495,0.17065 -0.09417,0.0582 -0.07457,0.29378 0.06366,0.76533 0.293723,1.00199 0.187167,2.53028 -0.241664,3.46607 -0.441097,0.96255 -1.376005,1.93994 -2.316986,2.42226 -0.66413,0.34041 -0.921864,0.39738 -1.970564,0.43558 -1.052192,0.0383 -1.300243,0.004 -1.939465,-0.26472 z m 3.600063,-0.55833 c 0.892515,-0.43881 1.552931,-1.07525 2.031313,-1.95758 0.417453,-0.76996 0.43559,-0.85893 0.43559,-2.13691 0,-1.27777 -0.01819,-1.36704 -0.435246,-2.13625 -0.827167,-1.52562 -2.183806,-2.34271 -3.882755,-2.33856 -1.445053,0.004 -2.563571,0.57082 -3.480517,1.76526 -1.835236,2.39063 -0.63782,6.09854 2.274017,7.0417 0.174625,0.0566 0.803275,0.0905 1.397,0.0754 0.822586,-0.0209 1.217798,-0.0954 1.660598,-0.3131 z m 3.524272,-8.08437 c 0.675746,-0.51803 1.560569,-1.23241 1.966271,-1.5875 0.852267,-0.74594 1.154317,-0.80089 1.459017,-0.26542 0.118989,0.20911 0.268631,0.38056 0.33254,0.381 0.06391,3.8e-4 0.778284,-0.3771 1.5875,-0.83899 6.698165,-3.8232 12.189586,-9.17133 16.095433,-15.67544 1.465319,-2.44009 2.637079,-4.84668 3.536609,-7.26359 l 0.2238,-0.60132 -0.44639,-0.49411 c -0.57829,-0.64009 -1.05358,-1.4675 -1.23216,-2.145 l -0.14228,-0.53975 h -2.837527 -2.837528 l -0.149316,0.59299 c -0.321038,1.27496 -1.451951,2.58092 -2.749327,3.17488 -0.99514,0.45559 -2.383522,0.5324 -3.457886,0.1913 -0.570167,-0.18103 -0.813969,-0.21184 -0.843725,-0.10663 -0.02302,0.0814 -0.198657,0.77661 -0.390313,1.54496 -0.397328,1.5929 -1.009416,3.28119 -1.292062,3.56384 -0.170952,0.17095 -0.239526,0.1635 -0.633204,-0.0688 l -0.441492,-0.26048 -0.540489,0.60521 c -0.29727,0.33287 -0.730769,0.82376 -0.963332,1.09087 -1.119698,1.28604 -4.029814,3.43232 -5.968008,4.40155 -0.593725,0.2969 -1.09701,0.55545 -1.118411,0.57455 -0.0214,0.0191 0.05598,0.32485 0.171958,0.67943 0.315894,0.96578 0.215704,2.53381 -0.222036,3.47501 -0.61024,1.31209 -1.832965,2.35749 -3.244762,2.7742 l -0.53975,0.15931 v 2.8374 c 0,2.40511 0.0283,2.83739 0.185737,2.83739 0.540875,0 1.660813,0.5835 2.329005,1.21343 0.398067,0.37527 0.770949,0.6844 0.828628,0.68694 0.05768,0.003 0.657753,-0.41921 1.3335,-0.93725 z m -8.671279,0.31483 c 0.625479,-0.57655 1.578206,-1.09119 2.255174,-1.21819 l 0.469235,-0.088 v -2.82829 -2.82829 l -0.588567,-0.14821 c -2.567234,-0.64643 -4.216442,-3.38349 -3.563881,-5.91467 0.108018,-0.41898 0.231454,-0.85158 0.274306,-0.96135 0.06321,-0.16192 -0.115333,-0.2411 -0.94633,-0.41967 -0.901946,-0.19382 -2.823248,-0.79547 -3.846533,-1.20453 -0.463597,-0.18533 -0.563828,-0.48619 -0.309563,-0.92922 l 0.207023,-0.36072 -1.750694,-1.74514 c -0.962882,-0.95983 -2.099086,-2.23369 -2.524897,-2.8308 -0.636325,-0.8923 -2.211668,-3.54876 -2.349225,-3.96143 -0.01992,-0.0598 -0.375923,-0.0202 -0.791113,0.088 -2.648002,0.68972 -5.288391,-0.73635 -6.091635,-3.29007 l -0.221532,-0.70431 h -2.831546 -2.831546 l -0.08104,0.432 c -0.12431,0.66263 -0.667388,1.60063 -1.305166,2.25427 l -0.576431,0.59078 0.404959,0.58859 c 0.222728,0.32372 0.972287,1.28097 1.665686,2.12721 0.6934,0.84625 1.260727,1.58905 1.260727,1.65068 0,0.0616 -0.200025,0.23006 -0.4445,0.3743 -0.244475,0.14424 -0.4445,0.30079 -0.4445,0.34789 0,0.19265 1.574209,2.89752 2.464591,4.23476 4.945003,7.42676 12.037519,13.24148 20.20491,16.56477 0.90805,0.36948 1.673185,0.67358 1.700298,0.67577 0.02711,0.002 0.293421,-0.22104 0.591793,-0.49607 z m 5.20091,-7.88839 c 0.805404,-0.38424 1.696341,-1.27134 2.09809,-2.08906 0.267729,-0.54493 0.312188,-0.81513 0.313445,-1.905 0.0013,-1.13557 -0.03618,-1.34666 -0.354181,-1.99423 -0.729679,-1.4859 -2.255375,-2.41371 -3.962355,-2.40959 -1.552103,0.004 -2.792356,0.67551 -3.6326,1.96756 -1.506068,2.31588 -0.550611,5.43958 1.991228,6.50997 1.000946,0.4215 2.56975,0.38627 3.546373,-0.0796 z m -5.20091,-7.60561 c 1.866289,-1.72029 4.764151,-1.74724 6.598277,-0.0614 l 0.507633,0.4666 1.0795,-0.55082 c 2.091003,-1.06693 3.636499,-2.2106 5.518752,-4.0839 l 1.772252,-1.76381 -0.407002,-0.31853 c -0.223851,-0.17519 -0.407002,-0.39484 -0.407002,-0.48811 0,-0.0933 0.528638,-0.62892 1.17475,-1.19034 1.091157,-0.94813 2.50825,-2.4317 2.50825,-2.62592 0,-0.0464 -0.227999,-0.34329 -0.506665,-0.65987 -0.278667,-0.31659 -0.66443,-0.89685 -0.85725,-1.28949 -0.311816,-0.63494 -0.350585,-0.85433 -0.350585,-1.98389 0,-1.1068 0.04301,-1.36171 0.334667,-1.98374 0.184066,-0.39256 0.553284,-0.95573 0.820485,-1.25149 l 0.48582,-0.53774 -0.655244,-1.28851 c -0.782054,-1.53789 -1.72891,-2.92487 -2.983485,-4.3703 -0.876172,-1.00946 -2.546402,-2.56972 -2.75084,-2.56972 -0.0523,0 -0.219326,0.14288 -0.37116,0.3175 -0.151835,0.17463 -0.354169,0.3175 -0.449633,0.3175 -0.09546,0 -0.538754,-0.43672 -0.98509,-0.97049 -0.446336,-0.53376 -1.267384,-1.3904 -1.824552,-1.90362 l -1.013032,-0.93314 -0.574468,0.56384 c -0.315957,0.31011 -0.917368,0.72383 -1.336468,0.91937 -0.66646,0.31096 -0.913274,0.35554 -1.968501,0.35554 -1.456834,0 -2.134288,-0.22554 -3.141374,-1.04582 -0.808542,-0.65856 -0.626342,-0.68822 -2.59983,0.42318 -2.124831,1.19664 -4.403361,3.06314 -5.853048,4.79463 l -0.522441,0.624 0.343346,0.27378 c 0.188841,0.15057 0.343347,0.35254 0.343347,0.44881 0,0.0963 -0.772916,0.91486 -1.717591,1.8191 -0.944676,0.90424 -1.774625,1.75064 -1.84433,1.88089 -0.103345,0.1931 -0.03314,0.33326 0.380364,0.75934 1.714832,1.76702 1.795923,4.66344 0.180853,6.45979 l -0.57405,0.63848 0.712357,1.36791 c 1.196888,2.29833 2.947707,4.54533 4.827723,6.1959 l 0.837662,0.73542 0.351706,-0.33695 c 0.193437,-0.18533 0.434913,-0.33696 0.536611,-0.33696 0.101697,0 0.435243,0.31372 0.74121,0.69716 0.578034,0.7244 2.856895,2.98584 3.008833,2.98584 0.04771,0 0.330871,-0.22502 0.629243,-0.50005 z M 40.054285,466.33858 c 1.456735,-0.4326 2.64247,-1.69265 3.027226,-3.21696 0.25803,-1.02224 0.160946,-1.86213 -0.334716,-2.89571 -0.439449,-0.91636 -1.142849,-1.59533 -2.134395,-2.06025 -0.614179,-0.28798 -0.882041,-0.33467 -1.920241,-0.33467 -1.035009,0 -1.305785,0.0469 -1.905001,0.32984 -0.87242,0.41197 -1.663224,1.17456 -2.122802,2.04705 -0.318362,0.6044 -0.353502,0.79736 -0.353502,1.94111 0,1.12869 0.03744,1.34094 0.336477,1.90752 0.58775,1.11359 1.775783,2.05629 2.965328,2.35296 0.650099,0.16214 1.766054,0.12974 2.441626,-0.0709 z m 16.102888,-0.23718 c 1.523656,-0.6971 2.503443,-2.21126 2.516453,-3.88891 0.008,-1.03301 -0.185321,-1.71096 -0.710942,-2.49301 -1.906709,-2.83692 -6.248396,-2.51574 -7.694734,0.56922 -0.452265,0.96466 -0.480868,2.68011 -0.05998,3.5971 0.315463,0.6873 1.147896,1.63406 1.780507,2.02503 1.168136,0.72195 2.840197,0.79839 4.168693,0.19057 z m 36.322002,0 c 1.525813,-0.69809 2.497621,-2.2046 2.508635,-3.88891 0.0068,-1.04479 -0.183621,-1.72006 -0.703124,-2.49301 -1.904456,-2.83357 -6.26146,-2.51112 -7.691426,0.56922 -0.735731,1.58487 -0.447306,3.50332 0.713229,4.74403 1.057195,1.13022 1.977564,1.51772 3.458186,1.45598 0.709871,-0.0296 1.149967,-0.12902 1.7145,-0.38731 z m 15.582455,0.0174 c 0.91796,-0.42025 1.80439,-1.30551 2.23334,-2.23037 0.4759,-1.02611 0.47773,-2.44893 0.004,-3.4692 -0.44699,-0.9636 -1.08598,-1.63887 -2.04068,-2.15657 -0.75436,-0.40907 -0.86263,-0.43169 -2.06608,-0.43169 -1.13184,0 -1.34825,0.0384 -1.98928,0.35323 -0.88142,0.43284 -1.6716,1.20299 -2.10741,2.05398 -0.46936,0.9165 -0.54166,2.39386 -0.16588,3.38997 0.30207,0.80077 1.078,1.75684 1.7912,2.20706 1.22543,0.77358 3.01471,0.89049 4.34034,0.28359 z m -58.567773,-5.20808 c 0.78515,-2.95346 4.010488,-4.43846 6.934292,-3.19267 0.09095,0.0387 0.180889,-0.1447 0.237214,-0.48383 0.249985,-1.50513 1.366999,-4.73873 1.678199,-4.85815 0.106131,-0.0407 0.360071,0.0318 0.564313,0.16107 l 0.371347,0.23512 1.866718,-1.86017 c 2.006981,-1.99994 3.607468,-3.18599 5.754042,-4.26406 l 1.117586,-0.56129 -0.190367,-0.45561 c -0.502703,-1.20313 -0.297039,-3.07321 0.469321,-4.26748 0.702746,-1.09514 1.972757,-1.99377 3.129888,-2.21466 l 0.41275,-0.0788 v -2.8307 -2.8307 l -0.634855,-0.1523 c -0.751679,-0.18032 -1.987301,-0.94698 -2.422511,-1.50307 l -0.309391,-0.39533 -1.269372,0.96535 c -0.698154,0.53094 -1.621054,1.2724 -2.050888,1.64768 -0.923732,0.80651 -1.219466,0.85386 -1.533199,0.24548 l -0.225284,-0.43685 -1.4605,0.82516 c -8.877068,5.01543 -15.763402,12.85403 -19.487314,22.18209 l -0.597244,1.49604 0.635312,0.69514 c 0.580112,0.63473 1.161245,1.77901 1.161245,2.28655 0,0.15746 0.434142,0.18573 2.852605,0.18573 h 2.852605 z m 51.816003,0 c 0.21903,-0.82393 0.74235,-1.70196 1.34606,-2.25844 l 0.54508,-0.50244 -0.93836,-1.23893 c -0.5161,-0.68142 -1.25665,-1.61041 -1.64566,-2.06444 -0.38901,-0.45402 -0.708091,-0.92415 -0.709059,-1.04471 -0.001,-0.12347 0.192419,-0.31884 0.442809,-0.4473 l 0.44457,-0.22808 -0.77197,-1.3942 c -3.152327,-5.69316 -7.908378,-10.97303 -13.276215,-14.7384 -2.703731,-1.89659 -6.559936,-3.96446 -9.347361,-5.01249 l -1.106908,-0.41617 -0.563217,0.51915 c -0.619835,0.57134 -1.256786,0.932 -2.080719,1.17815 l -0.53975,0.16126 v 2.82232 2.82232 l 0.60325,0.15045 c 1.269014,0.31648 2.448154,1.30274 3.11438,2.60493 0.331443,0.64783 0.400822,0.9452 0.445687,1.91027 0.04365,0.93887 0.006,1.2664 -0.210576,1.83393 -0.145043,0.38001 -0.250782,0.69858 -0.234977,0.70794 0.01581,0.009 0.501735,0.11588 1.079843,0.23674 0.920902,0.19251 2.818231,0.78236 3.873399,1.20416 0.490118,0.19593 0.557355,0.47624 0.222781,0.92877 l -0.284424,0.38471 0.489568,0.39763 c 2.163146,1.75693 4.174224,4.25149 5.641794,6.99814 0.482975,0.90391 0.707845,1.21036 0.848547,1.15636 1.623065,-0.62282 3.667856,-0.30735 5.05033,0.77918 0.625784,0.49182 1.398661,1.67744 1.596381,2.44891 l 0.164037,0.64003 h 2.828597 2.828593 z M 74.31748,447.98799 c 0.804919,-0.38917 1.69544,-1.27915 2.096271,-2.095 0.267729,-0.54493 0.312188,-0.81514 0.313445,-1.905 0.0013,-1.15746 -0.03189,-1.33583 -0.374958,-2.01291 -0.762205,-1.50429 -2.21657,-2.3827 -3.944995,-2.3827 -1.52905,0 -2.755648,0.66081 -3.614809,1.94741 -1.530464,2.29189 -0.573885,5.44777 1.976854,6.5219 1.010534,0.42555 2.583166,0.39288 3.548192,-0.0737 z m -0.0033,-15.49278 c 0.841024,-0.40713 1.660846,-1.25041 2.075379,-2.13476 0.297533,-0.63475 0.33878,-0.87918 0.336395,-1.99346 -0.0023,-1.06878 -0.04946,-1.3649 -0.297727,-1.86898 -0.683029,-1.3868 -2.062923,-2.39472 -3.529685,-2.57821 -1.382195,-0.1729 -3.119784,0.60084 -3.952139,1.75987 -0.656189,0.91373 -0.853729,1.55023 -0.853729,2.75082 0,0.91633 0.05376,1.19468 0.355695,1.8415 0.553066,1.18482 1.567495,2.10213 2.755805,2.49197 0.174625,0.0573 0.804095,0.0889 1.39882,0.0702 0.832964,-0.0262 1.225989,-0.10403 1.711188,-0.33891 z"
         id="path1642"
         inkscape:connector-curvature="0" />
      <path
         style="fill:#f85b63;stroke-width:0.127"
         d="m 70.85137,500.57753 c -2.262812,-0.83925 -3.658916,-3.26125 -3.199341,-5.55029 0.254382,-1.26702 0.330774,-1.15326 -1.185455,-1.76534 -9.646586,-3.89417 -17.657949,-11.00404 -22.822549,-20.25441 -0.370483,-0.66357 -0.686164,-1.22323 -0.701513,-1.24369 -0.01535,-0.0205 -0.23558,0.0618 -0.489402,0.18288 -0.345967,0.16498 -0.497808,0.18376 -0.606554,0.075 -0.181266,-0.18127 -0.549127,-2.07063 -0.746705,-3.83514 -0.199292,-1.77981 -0.138812,-1.6642 -0.758855,-1.45058 -2.399874,0.82682 -5.053001,-0.29092 -6.124236,-2.5801 -1.447309,-3.09283 0.676018,-6.61754 4.127414,-6.85148 0.603816,-0.0409 1.159287,0.003 1.617985,0.12792 0.384175,0.10463 0.732607,0.15142 0.774294,0.10396 0.04169,-0.0475 0.26508,-0.57205 0.496431,-1.16578 3.145845,-8.07333 8.958231,-15.37803 16.382276,-20.58836 1.049243,-0.73637 3.563992,-2.2706 4.458014,-2.71978 0.377017,-0.18943 0.702223,-0.35904 0.722679,-0.37691 0.02046,-0.0179 -0.0621,-0.24073 -0.183464,-0.49523 -0.19224,-0.40313 -0.197029,-0.48576 -0.03719,-0.6416 0.174961,-0.17059 2.316645,-0.6018 3.802964,-0.76569 0.384175,-0.0424 0.908747,-0.10755 1.165717,-0.14486 l 0.467216,-0.0678 -0.198492,-0.53012 c -0.307816,-0.82208 -0.268313,-2.51985 0.07957,-3.41962 0.803885,-2.07921 2.619796,-3.23787 4.887889,-3.11876 0.861941,0.0453 1.156642,0.12274 1.828037,0.48062 2.237867,1.19287 3.269448,3.91183 2.371737,6.25123 -0.05179,0.13497 0.178639,0.2819 0.854961,0.54514 9.792942,3.8116 17.961509,10.90781 23.222892,20.17424 l 0.90404,1.59219 0.43521,-0.20754 c 0.38365,-0.18294 0.45743,-0.18533 0.62261,-0.0202 0.20323,0.20324 0.57671,2.08226 0.82216,4.13645 l 0.15412,1.28991 0.46342,-0.20493 c 0.73189,-0.32365 2.68124,-0.27676 3.60624,0.0867 0.95162,0.37396 1.97121,1.31535 2.51917,2.32594 0.41563,0.76654 0.434,0.85689 0.434,2.13393 0,1.17857 -0.0392,1.41724 -0.33787,2.05425 -0.68727,1.46607 -2.03069,2.47815 -3.69699,2.78518 -0.8197,0.15104 -1.5662,0.0913 -2.57122,-0.20583 -0.22681,-0.067 -0.33329,0.1134 -0.93158,1.57878 -3.912841,9.58366 -11.357533,17.90627 -20.315004,22.71066 l -1.129945,0.60605 0.198554,0.41925 c 0.322687,0.68136 0.142068,0.81004 -1.581845,1.12695 -0.831102,0.15278 -1.947347,0.31674 -2.480544,0.36436 -1.30342,0.11639 -1.316935,0.12837 -1.072793,0.95048 0.701167,2.36109 -0.514211,4.96451 -2.793874,5.98465 -0.892911,0.39958 -2.542048,0.45556 -3.454174,0.11726 z m 3.412652,-0.59808 c 2.120563,-0.95165 3.145765,-3.57815 2.274244,-5.82646 -0.214108,-0.55234 -0.510736,-0.97753 -1.078102,-1.54537 -0.679678,-0.68024 -0.904522,-0.82036 -1.707879,-1.06437 -2.142649,-0.65081 -4.258761,0.26582 -5.245645,2.27223 -0.379332,0.77122 -0.41398,0.9428 -0.41398,2.05009 0,1.04423 0.04608,1.30672 0.339113,1.93188 0.577065,1.23109 1.72494,2.1714 3.089887,2.53116 0.667412,0.17591 1.930787,0.015 2.742362,-0.34916 z m 3.522008,-8.10184 c 0.675746,-0.51803 1.560569,-1.23241 1.966271,-1.5875 0.852267,-0.74594 1.154317,-0.80089 1.459017,-0.26542 0.118989,0.20911 0.268631,0.38056 0.33254,0.381 0.197708,0.001 2.988535,-1.6318 4.392303,-2.57034 4.316266,-2.88579 8.108469,-6.53446 11.20248,-10.77848 2.051372,-2.81384 4.041019,-6.42526 5.344529,-9.70088 l 0.55593,-1.397 -0.49798,-0.5022 c -0.55833,-0.56306 -1.065,-1.47982 -1.2137,-2.19603 l -0.099,-0.47677 -2.867975,-0.0341 -2.867969,-0.0341 -0.148794,0.59092 c -0.649129,2.57792 -3.347164,4.20762 -5.862778,3.54129 -0.447845,-0.11862 -0.888879,-0.2243 -0.980076,-0.23485 -0.110287,-0.0127 -0.309009,0.53371 -0.593423,1.63183 -0.45777,1.76745 -1.095722,3.47084 -1.361391,3.63503 -0.09536,0.0589 -0.338687,-0.003 -0.587419,-0.14992 l -0.424625,-0.25053 -0.540489,0.60521 c -0.29727,0.33287 -0.730769,0.82376 -0.963332,1.09087 -1.119698,1.28604 -4.029814,3.43232 -5.968008,4.40155 -0.593725,0.2969 -1.09518,0.55362 -1.114344,0.57048 -0.01916,0.0169 0.05227,0.36513 0.15875,0.77392 0.67387,2.58716 -0.656461,5.16122 -3.0907,5.98019 l -0.843207,0.28369 -0.03408,2.84371 -0.03408,2.8437 0.542081,0.16001 c 0.815416,0.24069 1.66592,0.73873 2.205911,1.29173 0.265771,0.27218 0.533099,0.49486 0.594064,0.49486 0.06096,0 0.663729,-0.42384 1.339476,-0.94188 z m -8.919304,0.54147 c 0.424125,-0.4793 1.681235,-1.22017 2.337579,-1.37762 l 0.634855,-0.1523 v -2.83994 -2.83994 l -0.537622,-0.14476 c -1.973175,-0.53132 -3.338814,-2.05368 -3.677894,-4.09996 -0.137145,-0.82764 -0.08729,-1.21596 0.346014,-2.69483 0.06989,-0.23854 -0.01612,-0.28223 -0.951185,-0.48317 -0.905088,-0.19449 -2.825622,-0.79571 -3.850318,-1.20534 -0.467322,-0.18681 -0.563493,-0.48677 -0.302092,-0.94224 l 0.214494,-0.37373 -1.396236,-1.32851 c -2.095697,-1.99404 -3.364582,-3.65779 -4.697147,-6.15883 l -0.654861,-1.22909 -0.438852,0.18336 c -1.136824,0.475 -2.887186,0.29997 -4.098354,-0.40982 -1.123025,-0.65814 -2.039884,-1.88731 -2.283688,-3.0616 l -0.09899,-0.47677 -2.869062,-0.0341 -2.869062,-0.0341 -0.07923,0.4151 c -0.141873,0.74329 -0.677298,1.71352 -1.305008,2.36475 l -0.614839,0.63789 0.748225,0.99223 c 0.411522,0.54572 1.16908,1.49751 1.683462,2.11508 0.514383,0.61757 0.935241,1.17671 0.935241,1.24253 0,0.0658 -0.200025,0.2377 -0.4445,0.38194 -0.244475,0.14424 -0.4445,0.30079 -0.4445,0.34789 0,0.19265 1.574209,2.89752 2.464591,4.23476 4.945003,7.42676 12.037519,13.24148 20.20491,16.56477 0.90805,0.36948 1.685006,0.67358 1.726566,0.67577 0.04156,0.002 0.184438,-0.11905 0.3175,-0.26943 z m 4.31436,-7.73858 c 2.97403,-0.54461 4.550086,-3.73578 3.180178,-6.43916 -0.427153,-0.84295 -1.554035,-1.85127 -2.393388,-2.14158 -0.419643,-0.14514 -1.02599,-0.23058 -1.629992,-0.22969 -0.827445,10e-4 -1.079277,0.0593 -1.803064,0.41559 -0.933067,0.45935 -1.674054,1.20523 -2.141208,2.15536 -0.244372,0.49702 -0.295051,0.80467 -0.297727,1.8074 -0.003,1.11307 0.02977,1.2755 0.414859,2.05842 0.614882,1.25009 1.730879,2.10747 3.091147,2.3748 0.774133,0.15213 0.742047,0.15216 1.579195,-0.001 z m -4.0438,-7.98867 c 0.316582,-0.27867 0.896851,-0.66443 1.289488,-0.85725 0.634941,-0.31182 0.854331,-0.35059 1.983886,-0.35059 1.106803,0 1.361717,0.043 1.983742,0.33467 0.392558,0.18407 0.955709,0.55327 1.251448,0.82045 l 0.537708,0.48579 1.098051,-0.56143 c 2.114292,-1.08103 3.651568,-2.21776 5.537304,-4.09452 l 1.772252,-1.76381 -0.407002,-0.31853 c -0.223851,-0.17519 -0.407002,-0.39529 -0.407002,-0.48911 0,-0.0938 0.518263,-0.61832 1.151695,-1.16555 0.633432,-0.54723 1.484618,-1.37779 1.891524,-1.8457 l 0.739828,-0.85075 -0.512581,-0.53883 c -1.718916,-1.80696 -1.774043,-4.6649 -0.127095,-6.58899 l 0.461994,-0.53974 -0.65319,-1.28447 c -0.780099,-1.53404 -1.727749,-2.92186 -2.981432,-4.36626 -0.876172,-1.00946 -2.546402,-2.56972 -2.75084,-2.56972 -0.0523,0 -0.219326,0.14288 -0.37116,0.3175 -0.151835,0.17463 -0.354169,0.3175 -0.449633,0.3175 -0.09546,0 -0.538754,-0.43672 -0.98509,-0.97049 -0.446336,-0.53376 -1.264235,-1.3875 -1.817552,-1.89718 l -1.006032,-0.9267 -0.644968,0.58279 c -1.029239,0.93002 -1.808968,1.22659 -3.248469,1.23556 -1.062653,0.007 -1.296292,-0.0345 -1.959626,-0.34518 -0.414221,-0.19398 -1.004202,-0.55843 -1.311071,-0.80988 -0.648618,-0.5315 -0.516836,-0.5603 -2.470507,0.53994 -2.124831,1.19664 -4.403361,3.06314 -5.853048,4.79463 l -0.522441,0.624 0.343346,0.27378 c 0.188841,0.15057 0.343347,0.35254 0.343347,0.44881 0,0.0963 -0.772916,0.91486 -1.717591,1.8191 -0.944676,0.90424 -1.777297,1.75563 -1.850269,1.89198 -0.11088,0.20718 -0.04591,0.34204 0.395469,0.82088 0.290481,0.31514 0.68019,0.89731 0.866019,1.29372 0.295254,0.62983 0.337872,0.88093 0.337872,1.99074 0,1.1068 -0.04301,1.36172 -0.334667,1.98374 -0.184066,0.39256 -0.545965,0.94763 -0.804221,1.23349 l -0.469556,0.51974 0.713453,1.37002 c 1.197978,2.30043 2.948171,4.54688 4.828817,6.198 l 0.837662,0.73542 0.351706,-0.33695 c 0.193437,-0.18533 0.434913,-0.33696 0.536611,-0.33696 0.101697,0 0.435243,0.31372 0.74121,0.69716 0.567249,0.71088 2.855703,2.98584 3.003547,2.98584 0.0448,0 0.340484,-0.228 0.657064,-0.50666 z M 40.76105,466.08665 c 0.891966,-0.44199 1.648639,-1.23437 2.101737,-2.20091 0.285209,-0.60841 0.336945,-0.88901 0.331927,-1.80025 -0.005,-0.90698 -0.06109,-1.19369 -0.351046,-1.79405 -0.858696,-1.77798 -2.907656,-2.84007 -4.864546,-2.52158 -1.946615,0.31682 -3.379682,1.72791 -3.738936,3.68161 -0.128763,0.70024 -0.119846,0.94895 0.05916,1.65002 0.242796,0.9509 0.879902,1.98521 1.526731,2.47857 0.246428,0.18796 0.777795,0.48067 1.180816,0.65047 0.632276,0.26639 0.889511,0.30268 1.875765,0.26462 0.947789,-0.0366 1.268596,-0.10634 1.878392,-0.4085 z m 15.134422,0.18088 c 0.983385,-0.36794 1.966934,-1.3002 2.43023,-2.30352 0.320101,-0.69321 0.367572,-0.94196 0.35849,-1.87852 -0.01276,-1.31568 -0.28226,-1.99885 -1.157742,-2.93481 -1.771159,-1.89351 -4.587874,-1.93017 -6.434307,-0.0837 -1.142466,1.14247 -1.561298,2.95741 -1.041877,4.51481 0.403489,1.2098 1.698779,2.45421 2.929393,2.81434 0.731715,0.21413 2.169301,0.15074 2.915813,-0.12856 z m 36.322002,0 c 1.498164,-0.56054 2.678905,-2.14719 2.828904,-3.80142 0.200342,-2.2094 -1.482741,-4.32123 -3.730255,-4.6805 -2.723612,-0.43537 -5.134308,1.58 -5.154812,4.30949 -0.0078,1.04557 0.273225,1.90394 0.890985,2.72089 0.478498,0.63279 1.525491,1.36827 2.249365,1.5801 0.731715,0.21413 2.169301,0.15074 2.915813,-0.12856 z m 15.987836,-0.17737 c 0.86281,-0.43654 1.76275,-1.35697 2.14495,-2.19378 0.21634,-0.47366 0.27713,-0.85161 0.28108,-1.74739 0.006,-1.37382 -0.23871,-2.01136 -1.14363,-2.97879 -1.79937,-1.92367 -4.75256,-1.94559 -6.61745,-0.0491 -0.8431,0.85738 -1.21893,1.79327 -1.21592,3.02789 0.005,1.886 0.99313,3.32339 2.81372,4.09136 0.60434,0.25493 0.87803,0.29287 1.86012,0.25792 0.96846,-0.0345 1.26687,-0.0994 1.87713,-0.40811 z M 49.487159,461.1455 c 0,-0.49907 0.861639,-2.05373 1.415621,-2.55422 1.220056,-1.10225 3.121999,-1.58133 4.587051,-1.15542 0.395401,0.11494 0.801065,0.24052 0.901479,0.27905 0.134287,0.0515 0.206665,-0.075 0.273675,-0.47843 0.25035,-1.50722 1.367118,-4.74087 1.678577,-4.86039 0.106131,-0.0407 0.360071,0.0318 0.564313,0.16107 l 0.371347,0.23512 1.866718,-1.86017 c 2.00715,-2.00011 3.607463,-3.18598 5.75467,-4.26438 l 1.118215,-0.5616 -0.200938,-0.54107 c -0.310693,-0.83661 -0.276623,-2.41236 0.07143,-3.30358 0.566321,-1.45012 1.712549,-2.5078 3.219593,-2.97087 l 0.73025,-0.22439 v -2.82647 -2.82647 l -0.537622,-0.14477 c -0.863217,-0.23244 -1.665073,-0.69499 -2.272003,-1.31062 l -0.565378,-0.57348 -1.265248,0.96221 c -0.695888,0.52921 -1.616932,1.26925 -2.046766,1.64453 -0.923732,0.80651 -1.219466,0.85386 -1.533199,0.24548 l -0.225284,-0.43685 -1.4605,0.82516 c -8.878101,5.01601 -15.76331,12.85383 -19.488344,22.18467 l -0.598273,1.49861 0.527412,0.57218 c 0.54474,0.59097 1.087464,1.60643 1.214615,2.27259 l 0.07272,0.381 2.912934,-0.0363 2.912933,-0.0363 z m 51.964211,-0.51988 c 0.27692,-0.82087 0.93724,-1.81351 1.45938,-2.19386 l 0.32453,-0.2364 -0.9555,-1.26168 c -0.52553,-0.69393 -1.27379,-1.63316 -1.6628,-2.08719 -0.38901,-0.45402 -0.708091,-0.92415 -0.709059,-1.04471 -0.001,-0.12347 0.192419,-0.31884 0.442809,-0.4473 l 0.44457,-0.22808 -0.77197,-1.3942 c -3.152327,-5.69316 -7.908378,-10.97303 -13.276215,-14.7384 -2.702047,-1.89541 -6.560056,-3.96453 -9.342948,-5.01081 l -1.102493,-0.4145 -0.612007,0.54407 c -0.62444,0.55513 -1.453489,0.99708 -2.136007,1.13866 l -0.381,0.079 -0.03412,2.87858 -0.03412,2.87858 0.542121,0.14413 c 2.681172,0.71281 4.253726,3.57216 3.416128,6.21149 -0.143134,0.45103 -0.248266,0.82675 -0.233626,0.83494 0.01464,0.008 0.499616,0.11376 1.077724,0.23462 0.920902,0.19251 2.818231,0.78236 3.873399,1.20416 0.490118,0.19593 0.557355,0.47624 0.222781,0.92877 l -0.284424,0.38471 0.489568,0.39763 c 2.175589,1.76703 4.193872,4.27597 5.664719,7.04184 l 0.666851,1.25398 0.4445,-0.19245 c 0.722117,-0.31266 2.566839,-0.26411 3.460326,0.0911 1.347138,0.5355 2.704448,2.13825 2.958079,3.49297 l 0.07465,0.39871 2.858651,-0.0635 2.858643,-0.0635 z M 74.210905,448.0556 c 2.964402,-1.34568 3.563131,-5.1816 1.152102,-7.38126 -0.886497,-0.80879 -1.753491,-1.13205 -3.025123,-1.12795 -0.825474,0.003 -1.081001,0.0618 -1.803064,0.41727 -0.931913,0.45878 -1.671981,1.20313 -2.142967,2.15535 -0.250262,0.50598 -0.296475,0.79618 -0.297631,1.86898 -0.0013,1.13532 0.03491,1.33879 0.340751,1.91865 0.463247,0.8783 0.877682,1.34754 1.598941,1.81037 1.274711,0.81798 2.841213,0.94496 4.176991,0.33859 z m 0.128228,-15.56963 c 2.244466,-1.08653 3.182122,-3.89979 2.045544,-6.13727 -0.39168,-0.77107 -1.332471,-1.69108 -2.116465,-2.06972 -0.600361,-0.28995 -0.887065,-0.34605 -1.794052,-0.35104 -0.908733,-0.005 -1.192406,0.047 -1.793241,0.32872 -1.003141,0.47036 -1.692532,1.14251 -2.173166,2.11881 -1.896816,3.85299 2.018872,7.95609 5.83138,6.1105 z"
         id="path1640"
         inkscape:connector-curvature="0" />
      <path
         style="fill:#5e5e5e;stroke-width:0.127"
         d="m 70.85137,500.57753 c -2.23246,-0.828 -3.658364,-3.26365 -3.212121,-5.48679 0.07549,-0.37606 0.16863,-0.82662 0.206987,-1.00125 0.06601,-0.30053 -2.54e-4,-0.34429 -1.238918,-0.81888 -1.710646,-0.65539 -4.885818,-2.23567 -6.642658,-3.30603 -6.8008,-4.14341 -12.684897,-10.28462 -16.345857,-17.06011 -0.505706,-0.93593 -0.682134,-1.16363 -0.846045,-1.0919 -0.113905,0.0498 -0.387613,0.11614 -0.608241,0.14731 -0.393877,0.0557 -0.403688,0.0444 -0.541542,-0.6226 -0.20151,-0.97497 -0.643541,-4.04277 -0.644231,-4.47113 -5.08e-4,-0.29724 -0.04076,-0.34554 -0.222835,-0.26716 -0.122238,0.0526 -0.612887,0.18381 -1.090333,0.29153 -2.82497,0.63736 -5.688173,-1.50625 -5.896249,-4.41438 -0.23683,-3.31 2.911638,-5.87745 6.180023,-5.03955 0.446981,0.1146 0.822292,0.19306 0.834025,0.17438 0.01173,-0.0187 0.268308,-0.66263 0.570167,-1.43098 0.715057,-1.8201 2.445536,-5.22899 3.529209,-6.95223 4.136623,-6.57798 9.859235,-12.04048 16.465692,-15.71727 1.273752,-0.7089 1.471938,-0.86138 1.403114,-1.0795 -0.215162,-0.68192 -0.20872,-0.92735 0.02628,-1.00103 0.419401,-0.13149 3.155442,-0.57313 4.056439,-0.65477 1.255884,-0.11379 1.220072,-0.0876 0.983635,-0.72003 -0.313214,-0.83784 -0.276695,-2.52696 0.07426,-3.43468 0.803885,-2.07921 2.619796,-3.23787 4.887889,-3.11876 0.861941,0.0453 1.156642,0.12274 1.828037,0.48062 1.017786,0.54252 1.951784,1.55419 2.318974,2.51182 0.368489,0.96103 0.456159,2.4263 0.19548,3.26716 -0.107818,0.34778 -0.154825,0.66753 -0.10446,0.71056 0.05036,0.043 0.663072,0.29873 1.361572,0.56823 2.650767,1.0227 6.677118,3.21823 9.271,5.05537 4.285632,3.03535 8.519057,7.37032 11.390416,11.66364 0.843772,1.26162 2.680591,4.34238 2.796681,4.69067 0.0235,0.0705 0.25027,0.0351 0.53313,-0.0831 0.4078,-0.17039 0.52018,-0.17686 0.65503,-0.0377 0.14667,0.15135 0.56188,2.34228 0.75388,3.97797 0.041,0.34925 0.10249,0.81703 0.13666,1.03951 l 0.0621,0.40451 0.47204,-0.20853 c 0.74088,-0.32729 2.68417,-0.2826 3.61487,0.0831 0.95162,0.37396 1.97121,1.31535 2.51917,2.32594 0.41563,0.76654 0.434,0.85689 0.434,2.13393 0,1.17857 -0.0392,1.41724 -0.33787,2.05425 -0.9399,2.00499 -3.25132,3.20775 -5.34663,2.78215 -1.31735,-0.26758 -1.20189,-0.33656 -1.75311,1.04728 -3.854728,9.67738 -11.079362,17.83702 -20.315311,22.9445 -0.661692,0.36592 -1.219813,0.68017 -1.240269,0.69834 -0.02046,0.0182 0.06184,0.24071 0.182878,0.49453 0.167002,0.35021 0.184531,0.49704 0.07269,0.60888 -0.167739,0.16774 -3.036012,0.68907 -4.486107,0.81538 l -0.96573,0.0841 0.23548,0.7566 c 0.754342,2.42371 -0.435229,5.04881 -2.759136,6.08875 -0.892911,0.39958 -2.542048,0.45556 -3.454174,0.11726 z m 3.412652,-0.59808 c 2.120563,-0.95165 3.145765,-3.57815 2.274244,-5.82646 -0.214108,-0.55234 -0.510736,-0.97753 -1.078102,-1.54537 -0.679678,-0.68024 -0.904522,-0.82036 -1.707879,-1.06437 -2.142649,-0.65081 -4.258761,0.26582 -5.245645,2.27223 -0.379332,0.77122 -0.41398,0.9428 -0.41398,2.05009 0,1.04423 0.04608,1.30672 0.339113,1.93188 0.577065,1.23109 1.72494,2.1714 3.089887,2.53116 0.667412,0.17591 1.930787,0.015 2.742362,-0.34916 z m 5.274149,-9.47127 c 0.567331,-0.47503 1.125469,-0.86369 1.240305,-0.86369 0.114837,0 0.303966,0.19958 0.420288,0.44351 l 0.211492,0.4435 1.209929,-0.64648 c 8.713573,-4.65578 16.043038,-12.91544 19.814295,-22.32898 l 0.63216,-1.57795 -0.51175,-0.51175 c -0.56964,-0.56965 -1.07715,-1.48155 -1.22747,-2.20558 l -0.099,-0.47677 -2.867975,-0.0341 -2.867969,-0.0341 -0.152279,0.6056 c -0.364373,1.44906 -1.317517,2.56369 -2.775848,3.24612 -0.74253,0.34747 -0.980134,0.39601 -1.927811,0.39381 -0.794547,-0.002 -1.257531,-0.0728 -1.747647,-0.26798 -0.635237,-0.25291 -0.66675,-0.25443 -0.66675,-0.0322 0,0.40514 -0.735144,3.06856 -1.119317,4.05527 -0.475507,1.2213 -0.658567,1.34209 -1.317072,0.86909 -0.184878,-0.13279 -0.394826,0.0365 -1.547803,1.24828 -1.999145,2.10107 -3.681527,3.39125 -6.112308,4.68742 -0.62865,0.33522 -1.15868,0.62022 -1.177844,0.63333 -0.01916,0.0131 0.05227,0.35831 0.15875,0.7671 0.67387,2.58716 -0.656461,5.16122 -3.0907,5.98019 l -0.843207,0.28369 -0.03408,2.84371 -0.03408,2.8437 0.542081,0.16001 c 0.836993,0.24707 1.666982,0.74134 2.260684,1.34627 l 0.54058,0.55081 1.029409,-0.77905 c 0.566175,-0.42848 1.493589,-1.16772 2.060919,-1.64275 z m -10.671445,1.9109 c 0.424125,-0.4793 1.681235,-1.22017 2.337579,-1.37762 l 0.634855,-0.1523 v -2.83994 -2.83994 l -0.537622,-0.14476 c -1.930267,-0.51977 -3.2992,-2.01023 -3.66393,-3.98919 -0.15118,-0.82027 -0.09521,-1.43584 0.217574,-2.39281 0.109921,-0.33632 0.171159,-0.64018 0.136085,-0.67525 -0.03507,-0.0351 -0.455235,-0.1454 -0.93369,-0.24516 -0.941834,-0.19637 -2.89311,-0.81377 -3.79855,-1.20189 -0.627231,-0.26886 -0.693093,-0.47454 -0.319824,-0.99874 l 0.244043,-0.34273 -0.765911,-0.62938 c -2.023138,-1.66249 -4.28135,-4.55843 -5.518591,-7.07707 -0.36572,-0.74449 -0.532118,-0.96612 -0.67789,-0.90289 -0.451867,0.19599 -1.488752,0.42908 -1.908689,0.42908 -0.667343,0 -1.888524,-0.34793 -2.520188,-0.71803 -1.119805,-0.65612 -2.037021,-1.8867 -2.280558,-3.0597 l -0.09899,-0.47677 -2.869062,-0.0341 -2.869062,-0.0341 -0.07923,0.4151 c -0.142844,0.74837 -0.678926,1.71521 -1.319575,2.37987 l -0.629406,0.65299 0.890705,1.16762 c 0.489888,0.64219 1.225427,1.55663 1.634531,2.0321 0.409105,0.47546 0.743826,0.97416 0.743826,1.10821 0,0.15031 -0.169864,0.33088 -0.443136,0.47108 l -0.443137,0.22734 0.881703,1.54843 c 5.084455,8.92923 12.794981,15.68922 22.207176,19.46953 0.675893,0.27146 1.291476,0.49601 1.367961,0.499 0.07649,0.003 0.247938,-0.11761 0.381,-0.26799 z m 4.31436,-7.73858 c 2.97403,-0.54461 4.550086,-3.73578 3.180178,-6.43916 -0.427153,-0.84295 -1.554035,-1.85127 -2.393388,-2.14158 -0.419643,-0.14514 -1.02599,-0.23058 -1.629992,-0.22969 -0.827445,10e-4 -1.079277,0.0593 -1.803064,0.41559 -0.933067,0.45935 -1.674054,1.20523 -2.141208,2.15536 -0.244372,0.49702 -0.295051,0.80467 -0.297727,1.8074 -0.003,1.11307 0.02977,1.2755 0.414859,2.05842 0.614882,1.25009 1.730879,2.10747 3.091147,2.3748 0.774133,0.15213 0.742047,0.15216 1.579195,-0.001 z m -4.0438,-7.98867 c 0.316582,-0.27867 0.896851,-0.66443 1.289488,-0.85725 0.634941,-0.31182 0.854331,-0.35059 1.983886,-0.35059 1.106803,0 1.361717,0.043 1.983742,0.33467 0.392558,0.18407 0.949429,0.54759 1.237492,0.80784 l 0.52375,0.47318 0.533628,-0.21352 c 2.012816,-0.80537 5.217387,-3.17883 6.956232,-5.15213 l 0.918113,-1.0419 -0.400056,-0.3654 c -0.462343,-0.42228 -0.440013,-0.49331 0.3756,-1.19463 0.928785,-0.79865 2.016626,-1.86163 2.546934,-2.48875 l 0.495236,-0.58564 -0.523143,-0.54994 c -1.74078,-1.82994 -1.787694,-4.73427 -0.107058,-6.62781 l 0.480141,-0.54097 -0.444512,-0.88279 c -1.307229,-2.59611 -3.310519,-5.18298 -5.289328,-6.83016 l -0.74623,-0.62117 -0.333271,0.39771 c -0.403547,0.48158 -0.562956,0.43571 -1.158769,-0.33343 -0.244475,-0.3156 -1.033544,-1.14382 -1.753488,-1.8405 l -1.308988,-1.26668 -0.659512,0.59587 c -1.043944,0.9432 -1.8186,1.23963 -3.263013,1.24863 -1.062653,0.007 -1.296292,-0.0345 -1.959626,-0.34518 -0.414221,-0.19398 -1.003829,-0.55812 -1.310241,-0.80921 l -0.557113,-0.45651 -0.53126,0.23457 c -0.993473,0.43865 -2.687121,1.45623 -3.779942,2.27107 -1.142813,0.85212 -2.974815,2.58527 -3.598225,3.40408 l -0.366442,0.4813 0.336425,0.35115 c 0.185033,0.19313 0.336424,0.40805 0.336424,0.47759 0,0.0695 -0.500063,0.55657 -1.11125,1.08228 -0.611188,0.5257 -1.466081,1.35649 -1.899763,1.84619 l -0.788512,0.89037 0.509849,0.49691 c 0.280416,0.2733 0.692397,0.86719 0.915512,1.31974 0.37449,0.7596 0.405664,0.92063 0.405664,2.0955 0,1.10969 -0.04286,1.36408 -0.334667,1.98641 -0.184066,0.39256 -0.553269,0.95571 -0.820452,1.25145 l -0.485785,0.53771 0.561429,1.09805 c 1.077966,2.10831 2.219771,3.65001 4.101482,5.53795 l 1.767045,1.77289 0.335973,-0.40879 c 0.184787,-0.22483 0.399091,-0.40827 0.476235,-0.40764 0.07714,6.3e-4 0.502149,0.41548 0.94446,0.92189 0.90744,1.03895 2.669582,2.75556 2.832792,2.7596 0.05913,0.001 0.366534,-0.22535 0.683114,-0.50401 z M 40.76105,466.08665 c 0.891966,-0.44199 1.648639,-1.23437 2.101737,-2.20091 0.285209,-0.60841 0.336945,-0.88901 0.331927,-1.80025 -0.005,-0.90698 -0.06109,-1.19369 -0.351046,-1.79405 -0.858696,-1.77798 -2.907656,-2.84007 -4.864546,-2.52158 -1.946615,0.31682 -3.379682,1.72791 -3.738936,3.68161 -0.128763,0.70024 -0.119846,0.94895 0.05916,1.65002 0.242796,0.9509 0.879902,1.98521 1.526731,2.47857 0.246428,0.18796 0.777795,0.48067 1.180816,0.65047 0.632276,0.26639 0.889511,0.30268 1.875765,0.26462 0.947789,-0.0366 1.268596,-0.10634 1.878392,-0.4085 z m 15.134422,0.18088 c 0.983385,-0.36794 1.966934,-1.3002 2.43023,-2.30352 0.320101,-0.69321 0.367572,-0.94196 0.35849,-1.87852 -0.01276,-1.31568 -0.28226,-1.99885 -1.157742,-2.93481 -1.771159,-1.89351 -4.587874,-1.93017 -6.434307,-0.0837 -1.142466,1.14247 -1.561298,2.95741 -1.041877,4.51481 0.403489,1.2098 1.698779,2.45421 2.929393,2.81434 0.731715,0.21413 2.169301,0.15074 2.915813,-0.12856 z m 36.322002,0 c 1.498164,-0.56054 2.678905,-2.14719 2.828904,-3.80142 0.200342,-2.2094 -1.482741,-4.32123 -3.730255,-4.6805 -2.723612,-0.43537 -5.134308,1.58 -5.154812,4.30949 -0.0078,1.04557 0.273225,1.90394 0.890985,2.72089 0.478498,0.63279 1.525491,1.36827 2.249365,1.5801 0.731715,0.21413 2.169301,0.15074 2.915813,-0.12856 z m 15.987836,-0.17737 c 0.86281,-0.43654 1.76275,-1.35697 2.14495,-2.19378 0.21634,-0.47366 0.27713,-0.85161 0.28108,-1.74739 0.006,-1.37382 -0.23871,-2.01136 -1.14363,-2.97879 -1.79937,-1.92367 -4.75256,-1.94559 -6.61745,-0.0491 -0.8431,0.85738 -1.21893,1.79327 -1.21592,3.02789 0.005,1.886 0.99313,3.32339 2.81372,4.09136 0.60434,0.25493 0.87803,0.29287 1.86012,0.25792 0.96846,-0.0345 1.26687,-0.0994 1.87713,-0.40811 z M 49.487159,461.1455 c 0,-0.49907 0.861639,-2.05373 1.415621,-2.55422 1.287791,-1.16344 3.2066,-1.6005 4.802875,-1.09398 0.847447,0.26891 1.013908,0.22877 1.01856,-0.24564 0.0051,-0.52245 1.030783,-3.87625 1.391643,-4.55053 0.171303,-0.32008 0.479659,-0.34197 0.878816,-0.0624 0.288309,0.20194 0.313384,0.18364 1.555806,-1.13555 1.903381,-2.02098 3.814589,-3.48457 6.248423,-4.785 l 1.214056,-0.64868 -0.198005,-0.53276 c -0.307704,-0.82792 -0.272041,-2.40827 0.07436,-3.29527 0.566321,-1.45012 1.712549,-2.5078 3.219593,-2.97087 l 0.73025,-0.22439 v -2.82647 -2.82647 l -0.537622,-0.14477 c -0.868119,-0.23376 -1.666112,-0.69605 -2.284846,-1.32365 l -0.578221,-0.5865 -1.252405,0.94694 c -0.688823,0.52082 -1.619624,1.26673 -2.068447,1.65757 -0.448822,0.39084 -0.893662,0.71062 -0.988533,0.71062 -0.09487,0 -0.289648,-0.19856 -0.432838,-0.44125 l -0.260347,-0.44126 -0.622441,0.31542 c -2.950894,1.49533 -6.679435,4.15346 -9.548107,6.80697 -4.720069,4.36606 -8.942427,10.65601 -11.135904,16.5889 l -0.293658,0.79429 0.532788,0.578 c 0.549454,0.59609 1.092436,1.61015 1.219991,2.27843 l 0.07272,0.381 2.912934,-0.0363 2.912933,-0.0363 z m 51.964211,-0.51988 c 0.27895,-0.82688 0.93803,-1.81408 1.46967,-2.20135 l 0.3348,-0.24389 -0.69059,-0.93669 c -0.37982,-0.51519 -1.1335,-1.46248 -1.67484,-2.1051 -0.54134,-0.64262 -0.984248,-1.2579 -0.984248,-1.3673 0,-0.1094 0.200028,-0.29429 0.444498,-0.41087 0.24448,-0.11659 0.44447,-0.24425 0.44442,-0.2837 -2.5e-4,-0.19108 -1.924246,-3.41781 -2.820765,-4.73063 -2.892741,-4.23599 -6.789213,-8.2276 -10.887765,-11.1536 -2.765176,-1.9741 -6.180586,-3.8411 -9.348843,-5.11048 l -1.403953,-0.56249 -0.628047,0.57076 c -0.632662,0.57495 -1.448296,1.01495 -2.152047,1.16094 l -0.381,0.079 -0.03412,2.87858 -0.03412,2.87858 0.542121,0.14413 c 0.849239,0.22578 1.703324,0.74467 2.33206,1.41685 1.357309,1.45107 1.665847,3.39725 0.868143,5.47603 -0.05028,0.13104 0.131957,0.21671 0.697677,0.32801 1.555285,0.30599 4.427271,1.28612 4.603335,1.57099 0.052,0.0841 -0.02027,0.34759 -0.160603,0.58543 l -0.255149,0.43245 0.927328,0.83774 c 2.31463,2.09101 3.981546,4.23812 5.256988,6.7714 l 0.556569,1.10545 0.477885,-0.20935 c 0.752557,-0.32968 2.573095,-0.2902 3.493713,0.0758 1.347138,0.5355 2.704448,2.13825 2.958079,3.49297 l 0.07465,0.39871 2.858651,-0.0635 2.858643,-0.0635 z M 74.210905,448.0556 c 2.964402,-1.34568 3.563131,-5.1816 1.152102,-7.38126 -0.886497,-0.80879 -1.753491,-1.13205 -3.025123,-1.12795 -0.825474,0.003 -1.081001,0.0618 -1.803064,0.41727 -0.931913,0.45878 -1.671981,1.20313 -2.142967,2.15535 -0.250262,0.50598 -0.296475,0.79618 -0.297631,1.86898 -0.0013,1.13532 0.03491,1.33879 0.340751,1.91865 0.463247,0.8783 0.877682,1.34754 1.598941,1.81037 1.274711,0.81798 2.841213,0.94496 4.176991,0.33859 z m 0.128228,-15.56963 c 2.244466,-1.08653 3.182122,-3.89979 2.045544,-6.13727 -0.39168,-0.77107 -1.332471,-1.69108 -2.116465,-2.06972 -0.600361,-0.28995 -0.887065,-0.34605 -1.794052,-0.35104 -0.908733,-0.005 -1.192406,0.047 -1.793241,0.32872 -1.003141,0.47036 -1.692532,1.14251 -2.173166,2.11881 -1.896816,3.85299 2.018872,7.95609 5.83138,6.1105 z"
         id="path1638"
         inkscape:connector-curvature="0" />
      <path
         style="fill:#070bfa;stroke-width:0.127"
         d="m 71.056379,500.58509 c -0.945766,-0.31336 -1.483778,-0.65682 -2.134197,-1.36244 -0.818238,-0.88769 -1.186552,-1.80764 -1.250585,-3.12365 -0.03839,-0.7889 0.0031,-1.26852 0.146094,-1.68813 l 0.199717,-0.58613 -0.343374,-0.12995 c -8.269161,-3.12939 -15.207784,-8.31707 -20.537762,-15.35513 -1.196999,-1.5806 -2.637048,-3.80576 -3.517469,-5.43519 -0.505706,-0.93593 -0.682134,-1.16363 -0.846045,-1.0919 -0.113905,0.0498 -0.387613,0.11614 -0.608241,0.14731 -0.393877,0.0557 -0.403688,0.0444 -0.541542,-0.6226 -0.198387,-0.95985 -0.643532,-4.03988 -0.644231,-4.45754 -6.86e-4,-0.41063 0.02773,-0.40521 -0.765033,-0.14591 -0.437324,0.14304 -0.953767,0.19012 -1.741567,0.15875 -1.446844,-0.0576 -2.498779,-0.53777 -3.444075,-1.57207 -0.859509,-0.94044 -1.205174,-1.85009 -1.205174,-3.17152 0,-1.31807 0.346044,-2.23149 1.198921,-3.16467 0.79995,-0.87527 1.520047,-1.29547 2.662003,-1.55336 0.896804,-0.20252 1.32371,-0.1793 2.78634,0.15153 0.301047,0.0681 0.343343,0.004 0.81621,-1.23684 0.657989,-1.72662 2.51824,-5.41037 3.594448,-7.11789 4.157691,-6.5966 9.86187,-12.04087 16.467626,-15.71727 1.273752,-0.7089 1.471938,-0.86138 1.403114,-1.0795 -0.215162,-0.68192 -0.20872,-0.92735 0.02628,-1.00103 0.447982,-0.14045 3.287597,-0.59446 4.207817,-0.67276 0.508747,-0.0433 0.948499,-0.11673 0.977227,-0.16321 0.02873,-0.0465 -0.036,-0.38552 -0.143847,-0.75342 -0.301109,-1.02717 -0.19231,-2.5488 0.250653,-3.50558 0.46219,-0.99831 1.440297,-1.98167 2.422692,-2.43569 0.681955,-0.31518 0.920516,-0.35776 1.981781,-0.35375 1.065988,0.004 1.294923,0.0474 1.965731,0.37218 1.977397,0.95747 3.161916,3.24824 2.743897,5.30651 -0.268083,1.32001 -0.339524,1.20236 1.068873,1.76027 8.255273,3.2702 15.861565,9.40787 20.788416,16.77461 0.843772,1.26162 2.680593,4.34238 2.796683,4.69067 0.0235,0.0705 0.25027,0.0351 0.53313,-0.0831 0.40744,-0.17025 0.51955,-0.17674 0.65067,-0.0377 0.17515,0.18571 0.4637,1.68902 0.74787,3.89637 0.10213,0.79332 0.20559,1.4623 0.22992,1.48662 0.0243,0.0243 0.29917,-0.0489 0.61077,-0.16271 0.35275,-0.12884 0.94995,-0.20532 1.58254,-0.20266 1.76233,0.007 3.19954,0.77852 4.12776,2.21466 1.22322,1.89255 0.95868,4.34716 -0.64088,5.94672 -0.94533,0.94533 -1.82504,1.31943 -3.24917,1.38171 -0.83073,0.0363 -1.33805,-0.005 -1.73682,-0.14061 l -0.5633,-0.19194 -0.47648,1.22491 c -3.06879,7.88909 -8.709183,15.12701 -15.749109,20.20972 -1.287843,0.9298 -3.0953,2.06824 -4.638924,2.92186 -0.661692,0.36592 -1.219813,0.68017 -1.240269,0.69834 -0.02046,0.0182 0.06184,0.24071 0.182878,0.49453 0.167002,0.35021 0.184531,0.49704 0.07269,0.60888 -0.169129,0.16913 -3.040931,0.68954 -4.511003,0.81746 -0.837242,0.0729 -0.978403,0.1177 -0.911678,0.28965 0.200478,0.51667 0.441805,1.63368 0.441805,2.04496 0,0.66824 -0.34772,1.88916 -0.718037,2.52119 -1.116424,1.90541 -3.520228,2.86089 -5.525745,2.19641 z m 2.638726,-0.33329 c 1.407441,-0.41797 2.527834,-1.54898 2.996566,-3.02497 0.686281,-2.16103 -0.364901,-4.56797 -2.414555,-5.52872 -0.616067,-0.28878 -0.893121,-0.33912 -1.866456,-0.33912 -0.994217,0 -1.237065,0.0462 -1.865641,0.35487 -1.566962,0.76949 -2.55022,2.37096 -2.55022,4.15363 0,1.54185 0.712286,2.93625 1.950152,3.81769 0.978876,0.69702 2.524603,0.93057 3.750154,0.56662 z m 3.771304,-8.09262 c 0.572139,-0.43302 1.504432,-1.17597 2.071762,-1.651 0.567331,-0.47503 1.125469,-0.86369 1.240305,-0.86369 0.114837,0 0.303966,0.19958 0.420288,0.44351 l 0.211492,0.4435 1.209929,-0.64648 c 8.717032,-4.65762 16.042698,-12.91475 19.817765,-22.33759 l 0.63562,-1.58656 -0.49429,-0.50894 c -0.59272,-0.61028 -1.1246,-1.5809 -1.23103,-2.24645 l -0.0775,-0.48499 h -2.899874 -2.899874 l -0.144767,0.53762 c -0.38351,1.42425 -1.338928,2.59965 -2.624279,3.22851 -0.584863,0.28615 -0.933615,0.36087 -1.869133,0.40046 -1.087262,0.046 -1.443503,-0.0161 -2.388362,-0.41657 -0.169806,-0.072 -0.22225,-0.0331 -0.22225,0.16481 0,0.42646 -0.723575,3.06463 -1.119317,4.08106 -0.475507,1.2213 -0.658567,1.34209 -1.317072,0.86909 -0.184878,-0.13279 -0.394826,0.0365 -1.547803,1.24828 -2.017775,2.12065 -3.682389,3.39323 -6.191719,4.73353 l -1.222412,0.65293 0.16794,0.48744 c 0.924588,2.68364 -0.768342,5.80887 -3.415687,6.30551 l -0.471541,0.0885 0.03405,2.92082 0.03405,2.92082 0.710065,0.21962 c 0.822729,0.25447 1.775873,0.87288 2.172762,1.4097 0.152042,0.20565 0.297642,0.3739 0.323554,0.3739 0.02591,0 0.515229,-0.35429 1.087368,-0.78731 z m -7.17126,-0.72648 c 0.288237,-0.14705 0.739266,-0.31204 1.002289,-0.36665 l 0.478222,-0.0993 0.03409,-2.94713 c 0.03313,-2.86448 0.02703,-2.94714 -0.217486,-2.94714 -0.568582,0 -1.684931,-0.55122 -2.353119,-1.16191 -1.024314,-0.93616 -1.514557,-2.00013 -1.570766,-3.409 -0.03363,-0.84302 0.01347,-1.24629 0.211335,-1.80925 l 0.254615,-0.72442 -0.465335,-0.0766 c -0.815548,-0.13427 -2.844247,-0.72455 -3.893525,-1.13288 -1.118706,-0.43536 -1.248814,-0.61758 -0.845438,-1.18407 l 0.253214,-0.3556 -0.765911,-0.62938 c -1.993541,-1.63817 -4.206448,-4.45364 -5.435749,-6.91588 -0.296423,-0.59372 -0.548678,-1.0911 -0.560566,-1.10529 -0.01189,-0.0142 -0.327463,0.0639 -0.701281,0.17345 -0.471155,0.13811 -1.0152,0.18299 -1.773373,0.14627 -0.932819,-0.0452 -1.20767,-0.11383 -1.868424,-0.46675 -1.302679,-0.69577 -2.355378,-2.02553 -2.545694,-3.21569 l -0.07755,-0.48499 h -2.899872 -2.899874 l -0.144767,0.53762 c -0.233373,0.86669 -0.69574,1.66581 -1.319796,2.28105 l -0.58265,0.57442 0.909885,1.19271 c 0.500437,0.65599 1.244608,1.58172 1.653712,2.05719 0.409105,0.47546 0.743826,0.97416 0.743826,1.10821 0,0.15031 -0.169864,0.33088 -0.443136,0.47108 l -0.443137,0.22734 0.881703,1.54843 c 5.101078,8.95842 12.696504,15.61216 22.229571,19.47352 l 1.4605,0.59158 0.585211,-0.54179 c 0.321866,-0.29798 0.821041,-0.6621 1.109278,-0.80915 z m 4.028747,-7.05717 c 0.911344,-0.44588 1.707857,-1.24448 2.160287,-2.16595 0.327076,-0.66615 0.371478,-0.8932 0.371478,-1.89959 0,-0.97172 -0.04997,-1.24767 -0.333425,-1.8415 -0.494827,-1.03663 -1.144838,-1.70836 -2.114753,-2.18541 -0.772047,-0.37974 -0.955036,-0.41791 -1.99492,-0.41621 -1.381904,0.002 -2.020475,0.2499 -2.994916,1.16138 -3.073376,2.87478 -0.901392,7.97976 3.291118,7.73536 0.667106,-0.0389 1.127528,-0.14952 1.615131,-0.38808 z m -3.881736,-8.49232 c 0.721603,-0.34493 0.961365,-0.39484 1.905,-0.39653 1.288159,-0.002 2.080217,0.24325 2.971357,0.92122 0.342022,0.2602 0.692939,0.526 0.779818,0.59066 0.106001,0.0789 0.497381,-0.0547 1.189786,-0.40599 2.308468,-1.1713 4.757512,-3.04295 6.357383,-4.85854 l 0.918113,-1.0419 -0.400056,-0.3654 c -0.462343,-0.42228 -0.440013,-0.49331 0.3756,-1.19463 0.937575,-0.8062 2.018437,-1.86376 2.562113,-2.50688 l 0.510416,-0.60378 -0.638298,-0.6984 c -1.657747,-1.81383 -1.638355,-4.71046 0.04308,-6.43556 l 0.455678,-0.46751 -0.464956,-0.92328 c -1.329746,-2.64052 -3.318225,-5.21287 -5.313665,-6.87389 l -0.750125,-0.62442 -0.306829,0.39206 c -0.168756,0.21563 -0.358451,0.39205 -0.421544,0.39205 -0.06309,0 -0.301839,-0.21394 -0.530545,-0.47541 -0.811132,-0.92737 -2.454418,-2.60234 -2.906679,-2.96273 l -0.458848,-0.36564 -0.532033,0.50611 c -1.801309,1.71355 -4.667081,1.79901 -6.453942,0.19247 l -0.613456,-0.55155 -1.138936,0.56908 c -2.314402,1.15641 -4.819933,3.07926 -6.410956,4.92003 -0.418264,0.48392 -0.760481,0.91687 -0.760481,0.96211 0,0.0452 0.142875,0.21648 0.3175,0.38053 0.174625,0.16405 0.3175,0.36263 0.3175,0.44128 0,0.0787 -0.500063,0.57313 -1.11125,1.09884 -0.611188,0.5257 -1.46683,1.35734 -1.901428,1.84807 l -0.790177,0.89225 0.327418,0.30453 c 0.918422,0.85422 1.570437,2.35158 1.570437,3.60653 0,1.0214 -0.403491,2.14041 -1.091018,3.02575 l -0.600206,0.77289 0.554839,1.08518 c 1.071286,2.09528 2.216489,3.64046 4.094892,5.52508 l 1.767045,1.77289 0.335973,-0.40879 c 0.184787,-0.22483 0.399466,-0.40827 0.477066,-0.40764 0.0776,6.3e-4 0.553745,0.47263 1.058101,1.04889 0.504357,0.57627 1.346754,1.4367 1.871996,1.91208 l 0.954983,0.86433 0.526914,-0.53093 c 0.289804,-0.29201 0.89839,-0.70849 1.352415,-0.92551 z M 39.606658,466.5147 c 1.447169,-0.30706 2.661659,-1.24613 3.264521,-2.52421 0.28306,-0.60009 0.329251,-0.86848 0.327857,-1.905 -0.0014,-1.02197 -0.04766,-1.29391 -0.30265,-1.778 -0.701007,-1.33086 -1.610119,-2.08551 -2.990329,-2.48226 -1.570605,-0.45149 -3.350827,0.0558 -4.514684,1.28635 -0.910507,0.96273 -1.184341,1.64292 -1.197247,2.97391 -0.0091,0.93446 0.03867,1.18588 0.355232,1.87126 0.379293,0.82119 1.229551,1.7392 1.961314,2.11761 0.487222,0.25196 1.614382,0.56343 2.079985,0.57477 0.18865,0.005 0.64585,-0.0559 1.016001,-0.13443 z m 16.252185,-0.19218 c 1.895307,-0.73761 2.991534,-2.44578 2.873881,-4.47817 -0.09795,-1.69204 -1.038761,-3.0466 -2.641564,-3.80326 -0.578,-0.27287 -0.884727,-0.33039 -1.778001,-0.33343 -0.920792,-0.003 -1.191529,0.0486 -1.8415,0.35187 -0.997001,0.46518 -1.860982,1.32684 -2.303648,2.29744 -0.49542,1.08628 -0.505403,2.48637 -0.02511,3.52176 1.035497,2.23227 3.524779,3.29653 5.715941,2.44379 z m 36.322002,0 c 1.895307,-0.73761 2.991534,-2.44578 2.873881,-4.47817 -0.09795,-1.69204 -1.038761,-3.0466 -2.641564,-3.80326 -0.578,-0.27287 -0.884727,-0.33039 -1.778001,-0.33343 -1.437589,-0.005 -2.372461,0.40625 -3.3674,1.4809 -2.295597,2.47952 -1.056471,6.43204 2.2879,7.29787 0.763656,0.19771 1.874155,0.12837 2.625184,-0.16391 z m 15.936025,-0.16551 c 1.54299,-0.71783 2.45722,-2.03809 2.55557,-3.69052 0.0674,-1.13249 -0.0749,-1.72944 -0.6345,-2.66259 -0.83781,-1.39697 -2.59918,-2.27499 -4.25381,-2.12048 -3.12322,0.29165 -5.06923,3.4686 -3.80977,6.21962 1.0825,2.36448 3.7785,3.35377 6.14251,2.25397 z m -58.629711,-4.8605 c 0,-1.02414 1.380359,-2.87265 2.585369,-3.46221 1.311837,-0.64182 3.059743,-0.69184 4.167017,-0.11925 l 0.342129,0.17692 0.145702,-0.72899 c 0.260118,-1.30144 1.049446,-3.82835 1.401115,-4.48545 0.157464,-0.29422 0.475103,-0.31271 0.850846,-0.0495 0.268328,0.18794 0.336741,0.13534 2.028508,-1.55953 1.87195,-1.8754 3.259153,-2.93502 5.397713,-4.12307 0.718356,-0.39907 1.379666,-0.77055 1.469577,-0.8255 0.131217,-0.0802 0.121975,-0.22077 -0.04684,-0.71241 -0.337597,-0.98319 -0.205043,-2.60648 0.292381,-3.58056 0.634348,-1.24223 1.971101,-2.32655 3.176765,-2.57688 l 0.478222,-0.0993 0.03405,-2.93054 0.03405,-2.93053 -0.487286,-0.0779 c -0.696459,-0.11137 -1.64653,-0.64578 -2.325189,-1.3079 l -0.585374,-0.57112 -1.256126,0.94975 c -0.690868,0.52236 -1.623343,1.26953 -2.072166,1.66037 -0.448822,0.39084 -0.893662,0.71062 -0.988533,0.71062 -0.09487,0 -0.289648,-0.19856 -0.432838,-0.44125 l -0.260347,-0.44126 -0.622441,0.31542 c -2.950894,1.49533 -6.679435,4.15346 -9.548107,6.80697 -4.719691,4.36571 -8.94252,10.65618 -11.135497,16.58782 l -0.293252,0.7932 0.430214,0.4768 c 0.612419,0.67874 0.945056,1.26244 1.176389,2.0643 l 0.201515,0.6985 h 2.921219 c 2.673069,0 2.921218,-0.0185 2.921218,-0.21748 z m 51.816001,0 c 0,-0.56962 0.56957,-1.67604 1.23003,-2.38942 l 0.70049,-0.75661 -0.67951,-0.92174 c -0.37373,-0.50696 -1.12242,-1.44753 -1.66376,-2.09015 -0.54134,-0.64262 -0.984248,-1.2579 -0.984248,-1.3673 0,-0.1094 0.200028,-0.29429 0.444498,-0.41087 0.24448,-0.11659 0.44447,-0.24425 0.44442,-0.2837 -2.5e-4,-0.19108 -1.924246,-3.41781 -2.820765,-4.73063 -2.892741,-4.23599 -6.789213,-8.2276 -10.887765,-11.1536 -2.775892,-1.98175 -6.179593,-3.84065 -9.381221,-5.12349 l -1.436331,-0.57551 -0.527854,0.51226 c -0.598449,0.58078 -1.470819,1.06117 -2.162748,1.19098 l -0.469236,0.088 v 2.95375 2.95375 l 0.420671,0.0683 c 1.797236,0.29165 3.475793,2.16534 3.704399,4.13503 0.09326,0.80356 -0.08527,1.98661 -0.38917,2.57885 -0.171924,0.33505 -0.171464,0.33552 0.417709,0.42387 1.31067,0.19654 4.698662,1.32368 4.884987,1.62516 0.052,0.0841 -0.02027,0.34759 -0.160603,0.58543 l -0.255149,0.43245 0.927328,0.83774 c 2.314835,2.09119 3.981537,4.2381 5.257303,6.77202 l 0.556885,1.10609 0.480132,-0.1694 c 2.129435,-0.75131 4.533992,0.0592 5.724197,1.92949 0.209913,0.32986 0.471934,0.91407 0.582268,1.29824 l 0.200608,0.6985 h 2.921218 c 2.673067,0 2.921217,-0.0185 2.921217,-0.21748 z M 74.352846,448.03936 c 0.917278,-0.44878 1.666892,-1.20585 2.132075,-2.15329 0.326259,-0.66448 0.37074,-0.89221 0.37074,-1.89808 0,-0.97172 -0.04997,-1.24767 -0.333425,-1.8415 -0.49451,-1.03596 -1.14491,-1.70834 -2.113986,-2.18541 -0.770611,-0.37938 -0.955334,-0.41803 -1.994919,-0.41745 -1.381507,7.6e-4 -2.017437,0.24758 -2.995684,1.16261 -3.073376,2.87479 -0.901392,7.97976 3.291118,7.73536 0.678688,-0.0396 1.126955,-0.14923 1.644081,-0.40224 z m -0.658242,-15.22442 c 1.997157,-0.59309 3.363934,-2.65338 3.184003,-4.79959 -0.133067,-1.58722 -0.998223,-2.90613 -2.394543,-3.65043 -1.092436,-0.58231 -2.453955,-0.6747 -3.597404,-0.24411 -1.050399,0.39556 -2.195449,1.53853 -2.599885,2.59518 -0.388962,1.01622 -0.394252,2.37926 -0.01314,3.38418 0.809065,2.13334 3.254694,3.35809 5.420964,2.71477 z"
         id="path1636"
         inkscape:connector-curvature="0" />
      <path
         style="fill:#f4010c;stroke-width:0.127"
         d="m 71.056379,500.58509 c -0.945766,-0.31336 -1.483778,-0.65682 -2.134197,-1.36244 -0.818238,-0.88769 -1.186552,-1.80764 -1.250585,-3.12365 -0.03839,-0.7889 0.0031,-1.26852 0.146094,-1.68813 l 0.199717,-0.58613 -0.343374,-0.12995 c -8.269161,-3.12939 -15.207784,-8.31707 -20.537762,-15.35513 -1.196999,-1.5806 -2.637048,-3.80576 -3.517469,-5.43519 -0.505706,-0.93593 -0.682134,-1.16363 -0.846045,-1.0919 -0.113905,0.0498 -0.387613,0.11614 -0.608241,0.14731 -0.393877,0.0557 -0.403688,0.0444 -0.541542,-0.6226 -0.198387,-0.95985 -0.643532,-4.03988 -0.644231,-4.45754 -6.86e-4,-0.41063 0.02773,-0.40521 -0.765033,-0.14591 -0.437324,0.14304 -0.953767,0.19012 -1.741567,0.15875 -1.446844,-0.0576 -2.498779,-0.53777 -3.444075,-1.57207 -0.859509,-0.94044 -1.205174,-1.85009 -1.205174,-3.17152 0,-1.31807 0.346044,-2.23149 1.198921,-3.16467 0.79995,-0.87527 1.520047,-1.29547 2.662003,-1.55336 0.896804,-0.20252 1.32371,-0.1793 2.78634,0.15153 0.301047,0.0681 0.343343,0.004 0.81621,-1.23684 0.657989,-1.72662 2.51824,-5.41037 3.594448,-7.11789 4.157691,-6.5966 9.86187,-12.04087 16.467626,-15.71727 1.273752,-0.7089 1.471938,-0.86138 1.403114,-1.0795 -0.215162,-0.68192 -0.20872,-0.92735 0.02628,-1.00103 0.447982,-0.14045 3.287597,-0.59446 4.207817,-0.67276 0.508747,-0.0433 0.948499,-0.11673 0.977227,-0.16321 0.02873,-0.0465 -0.036,-0.38552 -0.143847,-0.75342 -0.301109,-1.02717 -0.19231,-2.5488 0.250653,-3.50558 0.46219,-0.99831 1.440297,-1.98167 2.422692,-2.43569 0.681955,-0.31518 0.920516,-0.35776 1.981781,-0.35375 1.065988,0.004 1.294923,0.0474 1.965731,0.37218 1.977397,0.95747 3.161916,3.24824 2.743897,5.30651 -0.268083,1.32001 -0.339524,1.20236 1.068873,1.76027 8.255273,3.2702 15.861565,9.40787 20.788416,16.77461 0.843772,1.26162 2.680593,4.34238 2.796683,4.69067 0.0235,0.0705 0.25027,0.0351 0.53313,-0.0831 0.40744,-0.17025 0.51955,-0.17674 0.65067,-0.0377 0.17515,0.18571 0.4637,1.68902 0.74787,3.89637 0.10213,0.79332 0.20559,1.4623 0.22992,1.48662 0.0243,0.0243 0.29917,-0.0489 0.61077,-0.16271 0.35275,-0.12884 0.94995,-0.20532 1.58254,-0.20266 1.76233,0.007 3.19954,0.77852 4.12776,2.21466 1.22322,1.89255 0.95868,4.34716 -0.64088,5.94672 -0.94533,0.94533 -1.82504,1.31943 -3.24917,1.38171 -0.83073,0.0363 -1.33805,-0.005 -1.73682,-0.14061 l -0.5633,-0.19194 -0.47648,1.22491 c -3.06879,7.88909 -8.709183,15.12701 -15.749109,20.20972 -1.287843,0.9298 -3.0953,2.06824 -4.638924,2.92186 -0.661692,0.36592 -1.219813,0.68017 -1.240269,0.69834 -0.02046,0.0182 0.06184,0.24071 0.182878,0.49453 0.167002,0.35021 0.184531,0.49704 0.07269,0.60888 -0.169129,0.16913 -3.040931,0.68954 -4.511003,0.81746 -0.837242,0.0729 -0.978403,0.1177 -0.911678,0.28965 0.200478,0.51667 0.441805,1.63368 0.441805,2.04496 0,0.66824 -0.34772,1.88916 -0.718037,2.52119 -1.116424,1.90541 -3.520228,2.86089 -5.525745,2.19641 z m 2.638726,-0.33329 c 1.407441,-0.41797 2.527834,-1.54898 2.996566,-3.02497 0.686281,-2.16103 -0.364901,-4.56797 -2.414555,-5.52872 -0.616067,-0.28878 -0.893121,-0.33912 -1.866456,-0.33912 -0.994217,0 -1.237065,0.0462 -1.865641,0.35487 -1.566962,0.76949 -2.55022,2.37096 -2.55022,4.15363 0,1.54185 0.712286,2.93625 1.950152,3.81769 0.978876,0.69702 2.524603,0.93057 3.750154,0.56662 z m 3.771304,-8.09262 c 0.572139,-0.43302 1.504432,-1.17597 2.071762,-1.651 0.567331,-0.47503 1.125469,-0.86369 1.240305,-0.86369 0.114837,0 0.303966,0.19958 0.420288,0.44351 l 0.211492,0.4435 1.209929,-0.64648 c 8.717032,-4.65762 16.042698,-12.91475 19.817765,-22.33759 l 0.63562,-1.58656 -0.48466,-0.50894 c -0.67142,-0.70505 -0.99131,-1.28307 -1.2337,-2.22921 -0.39143,-1.52789 0.0315,-3.07728 1.17798,-4.31563 l 0.70049,-0.75661 -0.67951,-0.92174 c -0.37373,-0.50696 -1.12242,-1.44753 -1.66376,-2.09015 -0.54134,-0.64262 -0.984248,-1.2579 -0.984248,-1.3673 0,-0.1094 0.200028,-0.29429 0.444498,-0.41087 0.24448,-0.11659 0.44447,-0.24425 0.44442,-0.2837 -2.5e-4,-0.19108 -1.924246,-3.41781 -2.820765,-4.73063 -2.892741,-4.23599 -6.789213,-8.2276 -10.887765,-11.1536 -2.775892,-1.98175 -6.179593,-3.84065 -9.381221,-5.12349 l -1.436331,-0.57551 -0.527854,0.51226 c -1.863692,1.80865 -4.700707,1.78719 -6.65098,-0.0503 l -0.653496,-0.61571 -1.251504,0.94626 c -0.688327,0.52045 -1.618722,1.26605 -2.067545,1.65689 -0.448822,0.39084 -0.893662,0.71062 -0.988533,0.71062 -0.09487,0 -0.289648,-0.19856 -0.432838,-0.44125 l -0.260347,-0.44126 -0.622441,0.31542 c -2.950894,1.49533 -6.679435,4.15346 -9.548107,6.80697 -4.719691,4.36571 -8.94252,10.65618 -11.135497,16.58782 l -0.293252,0.7932 0.430214,0.4768 c 1.838547,2.03764 1.811162,4.93231 -0.06411,6.7771 l -0.594968,0.58529 0.909885,1.19271 c 0.500437,0.65599 1.244608,1.58172 1.653712,2.05719 0.409105,0.47546 0.743826,0.97416 0.743826,1.10821 0,0.15031 -0.169864,0.33088 -0.443136,0.47108 l -0.443137,0.22734 0.881703,1.54843 c 5.101078,8.95842 12.696504,15.61216 22.229571,19.47352 l 1.4605,0.59158 0.607305,-0.56246 c 1.641564,-1.52033 4.010323,-1.71116 5.895861,-0.47497 0.363642,0.2384 0.788726,0.606 0.944634,0.81687 0.155907,0.21088 0.304669,0.38341 0.330581,0.38341 0.02591,0 0.515229,-0.35429 1.087368,-0.78731 z m -6.25917,-7.16328 c -1.387644,-0.37289 -2.526938,-1.34592 -3.155718,-2.69516 -0.462782,-0.99305 -0.537734,-2.56727 -0.171806,-3.60841 l 0.254615,-0.72442 -0.465335,-0.0766 c -0.815548,-0.13427 -2.844247,-0.72455 -3.893525,-1.13288 -1.118706,-0.43536 -1.248814,-0.61758 -0.845438,-1.18407 l 0.253214,-0.3556 -0.765911,-0.62938 c -1.993541,-1.63817 -4.206448,-4.45364 -5.435749,-6.91588 -0.296423,-0.59372 -0.548678,-1.0911 -0.560566,-1.10529 -0.01189,-0.0142 -0.327463,0.0639 -0.701281,0.17345 -1.045134,0.30637 -2.674071,0.18686 -3.545286,-0.2601 -2.993993,-1.53603 -3.693163,-5.15942 -1.460828,-7.57061 1.17817,-1.27256 2.811572,-1.83952 4.399582,-1.52709 0.431314,0.0849 0.938166,0.23389 1.126338,0.3312 l 0.342129,0.17692 0.145702,-0.72899 c 0.260118,-1.30144 1.049446,-3.82835 1.401115,-4.48545 0.157464,-0.29422 0.475103,-0.31271 0.850846,-0.0495 0.268328,0.18794 0.336741,0.13534 2.028508,-1.55953 1.87195,-1.8754 3.259153,-2.93502 5.397713,-4.12307 0.718356,-0.39907 1.379666,-0.77055 1.469577,-0.8255 0.131217,-0.0802 0.121975,-0.22077 -0.04684,-0.71241 -0.337597,-0.98319 -0.205043,-2.60648 0.292381,-3.58056 1.816735,-3.55766 6.822275,-3.59624 8.588281,-0.0662 0.677159,1.35356 0.732031,3.05234 0.136106,4.21368 -0.171924,0.33505 -0.171464,0.33552 0.417709,0.42387 1.31067,0.19654 4.698662,1.32368 4.884987,1.62516 0.052,0.0841 -0.02027,0.34759 -0.160603,0.58543 l -0.255149,0.43245 0.927328,0.83774 c 2.314835,2.09119 3.981537,4.2381 5.257303,6.77202 l 0.556885,1.10609 0.480132,-0.1694 c 2.129435,-0.75131 4.533992,0.0592 5.724197,1.92949 1.554908,2.44338 0.633695,5.6926 -1.975943,6.96937 -0.584863,0.28615 -0.933615,0.36087 -1.869133,0.40046 -1.087262,0.046 -1.443503,-0.0161 -2.388362,-0.41657 -0.169806,-0.072 -0.22225,-0.0331 -0.22225,0.16481 0,0.42646 -0.723575,3.06463 -1.119317,4.08106 -0.406733,1.04466 -0.655068,1.3037 -1.007933,1.0514 -0.122237,-0.0874 -0.294771,-0.19365 -0.383407,-0.23611 -0.09787,-0.0469 -0.680754,0.46889 -1.484302,1.3134 -2.006608,2.1089 -3.675734,3.38411 -6.180952,4.72221 l -1.222412,0.65293 0.16794,0.48744 c 0.76675,2.22551 -0.235154,4.83676 -2.251276,5.86746 -1.210174,0.61868 -2.309604,0.74962 -3.533263,0.42079 z m 3.116657,-0.62037 c 0.911344,-0.44588 1.707857,-1.24448 2.160287,-2.16595 0.327076,-0.66615 0.371478,-0.8932 0.371478,-1.89959 0,-0.97172 -0.04997,-1.24767 -0.333425,-1.8415 -0.494827,-1.03663 -1.144838,-1.70836 -2.114753,-2.18541 -0.772047,-0.37974 -0.955036,-0.41791 -1.99492,-0.41621 -1.381904,0.002 -2.020475,0.2499 -2.994916,1.16138 -3.073376,2.87478 -0.901392,7.97976 3.291118,7.73536 0.667106,-0.0389 1.127528,-0.14952 1.615131,-0.38808 z m -3.881736,-8.49232 c 0.721603,-0.34493 0.961365,-0.39484 1.905,-0.39653 1.288159,-0.002 2.080217,0.24325 2.971357,0.92122 0.342022,0.2602 0.692939,0.526 0.779818,0.59066 0.106001,0.0789 0.497381,-0.0547 1.189786,-0.40599 2.308468,-1.1713 4.757512,-3.04295 6.357383,-4.85854 l 0.918113,-1.0419 -0.400056,-0.3654 c -0.462343,-0.42228 -0.440013,-0.49331 0.3756,-1.19463 0.937575,-0.8062 2.018437,-1.86376 2.562113,-2.50688 l 0.510416,-0.60378 -0.638298,-0.6984 c -1.657747,-1.81383 -1.638355,-4.71046 0.04308,-6.43556 l 0.455678,-0.46751 -0.464956,-0.92328 c -1.329746,-2.64052 -3.318225,-5.21287 -5.313665,-6.87389 l -0.750125,-0.62442 -0.306829,0.39206 c -0.168756,0.21563 -0.358451,0.39205 -0.421544,0.39205 -0.06309,0 -0.301839,-0.21394 -0.530545,-0.47541 -0.811132,-0.92737 -2.454418,-2.60234 -2.906679,-2.96273 l -0.458848,-0.36564 -0.532033,0.50611 c -1.801309,1.71355 -4.667081,1.79901 -6.453942,0.19247 l -0.613456,-0.55155 -1.138936,0.56908 c -2.314402,1.15641 -4.819933,3.07926 -6.410956,4.92003 -0.418264,0.48392 -0.760481,0.91687 -0.760481,0.96211 0,0.0452 0.142875,0.21648 0.3175,0.38053 0.174625,0.16405 0.3175,0.36263 0.3175,0.44128 0,0.0787 -0.500063,0.57313 -1.11125,1.09884 -0.611188,0.5257 -1.46683,1.35734 -1.901428,1.84807 l -0.790177,0.89225 0.327418,0.30453 c 0.918422,0.85422 1.570437,2.35158 1.570437,3.60653 0,1.0214 -0.403491,2.14041 -1.091018,3.02575 l -0.600206,0.77289 0.554839,1.08518 c 1.071286,2.09528 2.216489,3.64046 4.094892,5.52508 l 1.767045,1.77289 0.335973,-0.40879 c 0.184787,-0.22483 0.399466,-0.40827 0.477066,-0.40764 0.0776,6.3e-4 0.553745,0.47263 1.058101,1.04889 0.504357,0.57627 1.346754,1.4367 1.871996,1.91208 l 0.954983,0.86433 0.526914,-0.53093 c 0.289804,-0.29201 0.89839,-0.70849 1.352415,-0.92551 z m -14.583317,-9.56069 c 1.895307,-0.73761 2.991534,-2.44578 2.873881,-4.47817 -0.09795,-1.69204 -1.038761,-3.0466 -2.641564,-3.80326 -0.578,-0.27287 -0.884727,-0.33039 -1.778001,-0.33343 -0.920792,-0.003 -1.191529,0.0486 -1.8415,0.35187 -0.997001,0.46518 -1.860982,1.32684 -2.303648,2.29744 -0.49542,1.08628 -0.505403,2.48637 -0.02511,3.52176 1.035497,2.23227 3.524779,3.29653 5.715941,2.44379 z m 36.322002,0 c 1.895307,-0.73761 2.991534,-2.44578 2.873881,-4.47817 -0.09795,-1.69204 -1.038761,-3.0466 -2.641564,-3.80326 -0.578,-0.27287 -0.884727,-0.33039 -1.778001,-0.33343 -1.437589,-0.005 -2.372461,0.40625 -3.3674,1.4809 -2.295597,2.47952 -1.056471,6.43204 2.2879,7.29787 0.763656,0.19771 1.874155,0.12837 2.625184,-0.16391 z M 74.352846,448.03936 c 0.917278,-0.44878 1.666892,-1.20585 2.132075,-2.15329 0.326259,-0.66448 0.37074,-0.89221 0.37074,-1.89808 0,-0.97172 -0.04997,-1.24767 -0.333425,-1.8415 -0.49451,-1.03596 -1.14491,-1.70834 -2.113986,-2.18541 -0.770611,-0.37938 -0.955334,-0.41803 -1.994919,-0.41745 -1.381507,7.6e-4 -2.017437,0.24758 -2.995684,1.16261 -3.073376,2.87479 -0.901392,7.97976 3.291118,7.73536 0.678688,-0.0396 1.126955,-0.14923 1.644081,-0.40224 z M 39.606658,466.5147 c 1.447169,-0.30706 2.661659,-1.24613 3.264521,-2.52421 0.28306,-0.60009 0.329251,-0.86848 0.327857,-1.905 -0.0014,-1.02197 -0.04766,-1.29391 -0.30265,-1.778 -0.701007,-1.33086 -1.610119,-2.08551 -2.990329,-2.48226 -1.570605,-0.45149 -3.350827,0.0558 -4.514684,1.28635 -0.910507,0.96273 -1.184341,1.64292 -1.197247,2.97391 -0.0091,0.93446 0.03867,1.18588 0.355232,1.87126 0.379293,0.82119 1.229551,1.7392 1.961314,2.11761 0.487222,0.25196 1.614382,0.56343 2.079985,0.57477 0.18865,0.005 0.64585,-0.0559 1.016001,-0.13443 z m 68.510212,-0.35769 c 1.54299,-0.71783 2.45722,-2.03809 2.55557,-3.69052 0.0674,-1.13249 -0.0749,-1.72944 -0.6345,-2.66259 -0.83781,-1.39697 -2.59918,-2.27499 -4.25381,-2.12048 -3.12322,0.29165 -5.06923,3.4686 -3.80977,6.21962 1.0825,2.36448 3.7785,3.35377 6.14251,2.25397 z M 73.694604,432.81494 c 1.997157,-0.59309 3.363934,-2.65338 3.184003,-4.79959 -0.133067,-1.58722 -0.998223,-2.90613 -2.394543,-3.65043 -1.092436,-0.58231 -2.453955,-0.6747 -3.597404,-0.24411 -1.050399,0.39556 -2.195449,1.53853 -2.599885,2.59518 -0.388962,1.01622 -0.394252,2.37926 -0.01314,3.38418 0.809065,2.13334 3.254694,3.35809 5.420964,2.71477 z"
         id="path1634"
         inkscape:connector-curvature="0" />
      <path
         style="fill:#060506;stroke-width:0.127"
         d="m 71.056379,500.58509 c -0.945766,-0.31336 -1.483778,-0.65682 -2.134197,-1.36244 -0.817232,-0.8866 -1.186567,-1.80797 -1.250377,-3.1193 -0.0751,-1.54339 0.255811,-2.51452 1.206857,-3.54177 1.296693,-1.40058 3.103193,-1.95068 4.80863,-1.46428 3.651963,1.04156 4.785493,5.62957 2.063395,8.35167 -1.154012,1.15401 -3.168681,1.6416 -4.694308,1.13612 z m 2.638726,-0.33329 c 1.407441,-0.41797 2.527834,-1.54898 2.996566,-3.02497 0.686281,-2.16103 -0.364901,-4.56797 -2.414555,-5.52872 -0.616067,-0.28878 -0.893121,-0.33912 -1.866456,-0.33912 -0.994217,0 -1.237065,0.0462 -1.865641,0.35487 -1.566962,0.76949 -2.55022,2.37096 -2.55022,4.15363 0,1.54185 0.712286,2.93625 1.950152,3.81769 0.978876,0.69702 2.524603,0.93057 3.750154,0.56662 z m -2.487866,-15.2559 c -1.38653,-0.37259 -2.524077,-1.34351 -3.157707,-2.69516 -0.299776,-0.63948 -0.337443,-0.8711 -0.334064,-2.05425 0.0033,-1.16596 0.04516,-1.42125 0.332962,-2.032 0.689416,-1.46301 2.311927,-2.59776 3.9305,-2.7489 1.985551,-0.18542 4.087611,0.9926 4.819991,2.70117 1.264525,2.95002 -0.200425,6.04675 -3.245261,6.8601 -0.803164,0.21454 -1.465359,0.2058 -2.346421,-0.031 z m 3.116657,-0.62037 c 0.911344,-0.44588 1.707857,-1.24448 2.160287,-2.16595 0.327076,-0.66615 0.371478,-0.8932 0.371478,-1.89959 0,-0.97172 -0.04997,-1.24767 -0.333425,-1.8415 -0.494827,-1.03663 -1.144838,-1.70836 -2.114753,-2.18541 -0.772047,-0.37974 -0.955036,-0.41791 -1.99492,-0.41621 -1.381904,0.002 -2.020475,0.2499 -2.994916,1.16138 -3.073376,2.87478 -0.901392,7.97976 3.291118,7.73536 0.667106,-0.0389 1.127528,-0.14952 1.615131,-0.38808 z m -37.306453,-17.7016 c -1.378846,-0.55548 -2.437309,-1.56769 -2.91209,-2.78483 -0.391695,-1.00415 -0.39079,-2.4783 0.0021,-3.48593 0.331465,-0.85001 1.287604,-1.95758 2.101901,-2.43479 1.614623,-0.94623 3.952781,-0.83975 5.4348,0.2475 2.397929,1.7592 2.648797,5.24051 0.529472,7.34748 -0.941341,0.93586 -1.745973,1.25555 -3.291007,1.30758 -1.021346,0.0344 -1.386538,-0.004 -1.865215,-0.19701 z m 2.589215,-0.15923 c 1.447169,-0.30706 2.661659,-1.24613 3.264521,-2.52421 0.28306,-0.60009 0.329251,-0.86848 0.327857,-1.905 -0.0014,-1.02197 -0.04766,-1.29391 -0.30265,-1.778 -0.701007,-1.33086 -1.610119,-2.08551 -2.990329,-2.48226 -1.570605,-0.45149 -3.350827,0.0558 -4.514684,1.28635 -0.910507,0.96273 -1.184341,1.64292 -1.197247,2.97391 -0.0091,0.93446 0.03867,1.18588 0.355232,1.87126 0.379293,0.82119 1.229551,1.7392 1.961314,2.11761 0.487222,0.25196 1.614382,0.56343 2.079985,0.57477 0.18865,0.005 0.64585,-0.0559 1.016001,-0.13443 z m 13.309501,0.27803 c -1.080765,-0.32994 -2.293212,-1.27931 -2.85238,-2.23346 -1.078622,-1.84053 -0.823637,-4.05679 0.649846,-5.64833 2.607374,-2.81627 7.152305,-1.76852 8.223826,1.89585 0.719688,2.46118 -0.713551,5.19365 -3.095158,5.90091 -0.708936,0.21053 -2.358069,0.25845 -2.926134,0.085 z m 2.942684,-0.47021 c 1.895307,-0.73761 2.991534,-2.44578 2.873881,-4.47817 -0.09795,-1.69204 -1.038761,-3.0466 -2.641564,-3.80326 -0.578,-0.27287 -0.884727,-0.33039 -1.778001,-0.33343 -0.920792,-0.003 -1.191529,0.0486 -1.8415,0.35187 -0.997001,0.46518 -1.860982,1.32684 -2.303648,2.29744 -0.49542,1.08628 -0.505403,2.48637 -0.02511,3.52176 1.035497,2.23227 3.524779,3.29653 5.715941,2.44379 z m 33.379318,0.47257 c -0.994233,-0.33979 -1.526525,-0.67788 -2.182124,-1.386 -1.079409,-1.16589 -1.528634,-2.63387 -1.250262,-4.0856 0.335425,-1.74927 1.57778,-3.23374 3.114886,-3.72194 1.436562,-0.45625 2.666815,-0.37928 3.900562,0.24405 3.53416,1.78559 3.462003,6.88885 -0.122196,8.64243 -0.612955,0.29989 -0.904616,0.3579 -1.932633,0.38438 -0.665903,0.0172 -1.353608,-0.0176 -1.528233,-0.0773 z m 2.942684,-0.47257 c 1.895307,-0.73761 2.991534,-2.44578 2.873881,-4.47817 -0.09795,-1.69204 -1.038761,-3.0466 -2.641564,-3.80326 -0.578,-0.27287 -0.884727,-0.33039 -1.778001,-0.33343 -1.437589,-0.005 -2.372461,0.40625 -3.3674,1.4809 -2.295597,2.47952 -1.056471,6.43204 2.2879,7.29787 0.763656,0.19771 1.874155,0.12837 2.625184,-0.16391 z m 12.136455,0.32061 c -0.8523,-0.30515 -1.93825,-1.23192 -2.43324,-2.07657 -1.09021,-1.86029 -0.83162,-4.05902 0.66812,-5.68095 0.79431,-0.85902 1.53153,-1.25675 2.78755,-1.50385 2.07316,-0.40787 4.33427,0.75851 5.3056,2.73685 0.33754,0.68748 0.37333,0.88215 0.37331,2.03038 -3e-5,1.13849 -0.0374,1.34625 -0.36133,2.00628 -0.46118,0.93982 -1.39166,1.87011 -2.32936,2.32889 -0.63694,0.31162 -0.90491,0.36376 -2.0067,0.39041 -1.01935,0.0247 -1.41686,-0.0212 -2.00395,-0.23144 z m 3.79957,-0.48612 c 1.54299,-0.71783 2.45722,-2.03809 2.55557,-3.69052 0.0674,-1.13249 -0.0749,-1.72944 -0.6345,-2.66259 -0.83781,-1.39697 -2.59918,-2.27499 -4.25381,-2.12048 -3.12322,0.29165 -5.06923,3.4686 -3.80977,6.21962 1.0825,2.36448 3.7785,3.35377 6.14251,2.25397 z M 71.207239,448.6739 c -1.530216,-0.41121 -2.83033,-1.60829 -3.309035,-3.0468 -0.408649,-1.22799 -0.320291,-2.7373 0.222469,-3.80017 1.816735,-3.55766 6.822275,-3.59624 8.588281,-0.0662 0.958661,1.91625 0.649712,4.09846 -0.789424,5.57597 -0.697741,0.71634 -1.558152,1.19162 -2.53087,1.39801 -0.862675,0.18304 -1.321634,0.17025 -2.181421,-0.0608 z m 3.145607,-0.63454 c 0.917278,-0.44878 1.666892,-1.20585 2.132075,-2.15329 0.326259,-0.66448 0.37074,-0.89221 0.37074,-1.89808 0,-0.97172 -0.04997,-1.24767 -0.333425,-1.8415 -0.49451,-1.03596 -1.14491,-1.70834 -2.113986,-2.18541 -0.770611,-0.37938 -0.955334,-0.41803 -1.994919,-0.41745 -1.381507,7.6e-4 -2.017437,0.24758 -2.995684,1.16261 -3.073376,2.87479 -0.901392,7.97976 3.291118,7.73536 0.678688,-0.0396 1.126955,-0.14923 1.644081,-0.40224 z M 71.227578,433.1851 c -1.576742,-0.42431 -2.893625,-1.65334 -3.337553,-3.11487 -0.769456,-2.53327 0.31913,-5.10272 2.615635,-6.17383 0.669842,-0.31243 0.907918,-0.35486 1.9685,-0.35085 1.065988,0.004 1.294923,0.0474 1.965731,0.37218 1.361539,0.65927 2.269956,1.79176 2.670374,3.32907 0.240225,0.92228 0.23928,1.44873 -0.0043,2.3838 -0.281635,1.08127 -0.515079,1.50583 -1.223994,2.22601 -1.288775,1.30926 -2.956756,1.78535 -4.654416,1.32849 z m 2.467026,-0.37016 c 1.997157,-0.59309 3.363934,-2.65338 3.184003,-4.79959 -0.133067,-1.58722 -0.998223,-2.90613 -2.394543,-3.65043 -1.092436,-0.58231 -2.453955,-0.6747 -3.597404,-0.24411 -1.050399,0.39556 -2.195449,1.53853 -2.599885,2.59518 -0.388962,1.01622 -0.394252,2.37926 -0.01314,3.38418 0.809065,2.13334 3.254694,3.35809 5.420964,2.71477 z"
         id="path1632"
         inkscape:connector-curvature="0" />
    </g>
  </g>
</svg>
