<?xml version="1.0" encoding="UTF-8" standalone="no"?>
<!-- Created with Inkscape (http://www.inkscape.org/) -->

<svg
   width="292.70401"
   height="236.1965"
   viewBox="0 0 292.70403 236.19649"
   version="1.1"
   id="svg1"
   inkscape:version="1.3.2 (1:1.3.2+202311252150+091e20ef0f)"
   sodipodi:docname="05-5-ex-33-a-4.svg"
   xmlns:inkscape="http://www.inkscape.org/namespaces/inkscape"
   xmlns:sodipodi="http://sodipodi.sourceforge.net/DTD/sodipodi-0.dtd"
   xmlns="http://www.w3.org/2000/svg"
   xmlns:svg="http://www.w3.org/2000/svg"
   xmlns:a="http://ns.adobe.com/AdobeSVGViewerExtensions/3.0/">
  <sodipodi:namedview
     id="namedview1"
     pagecolor="#ffffff"
     bordercolor="#666666"
     borderopacity="1.0"
     inkscape:showpageshadow="2"
     inkscape:pageopacity="0.0"
     inkscape:pagecheckerboard="0"
     inkscape:deskcolor="#d1d1d1"
     inkscape:document-units="px"
     showgrid="true"
     inkscape:zoom="2.3697898"
     inkscape:cx="252.76503"
     inkscape:cy="184.19355"
     inkscape:current-layer="layer1">
    <inkscape:grid
       id="grid1"
       units="px"
       originx="470.41595"
       originy="-30.726607"
       spacingx="1"
       spacingy="1"
       empcolor="#0099e5"
       empopacity="0.30196078"
       color="#0099e5"
       opacity="0.14901961"
       empspacing="5"
       dotted="false"
       gridanglex="30"
       gridanglez="30"
       visible="true" />
    <inkscape:page
       x="0"
       y="0"
       width="292.70404"
       height="236.19649"
       id="page1"
       margin="10"
       bleed="0" />
  </sodipodi:namedview>
  <defs
     id="defs1">
    <marker
       inkscape:stockid="Arrow1Mend"
       orient="auto"
       refY="0"
       refX="0"
       id="marker13951"
       style="overflow:visible"
       inkscape:isstock="true">
      <path
         id="path13949"
         d="M 0,0 5,-5 -12.5,0 5,5 Z"
         style="fill:#800000;fill-opacity:1;fill-rule:evenodd;stroke:#800000;stroke-width:1pt;stroke-opacity:1"
         transform="matrix(-0.4,0,0,-0.4,-4,0)"
         inkscape:connector-curvature="0" />
    </marker>
    <marker
       inkscape:isstock="true"
       style="overflow:visible"
       id="marker14009"
       refX="0"
       refY="0"
       orient="auto"
       inkscape:stockid="Arrow1Mend">
      <path
         transform="matrix(-0.4,0,0,-0.4,-4,0)"
         style="fill:#800000;fill-opacity:1;fill-rule:evenodd;stroke:#800000;stroke-width:1pt;stroke-opacity:1"
         d="M 0,0 5,-5 -12.5,0 5,5 Z"
         id="path14007"
         inkscape:connector-curvature="0" />
    </marker>
    <marker
       inkscape:stockid="Arrow1Mend"
       orient="auto"
       refY="0"
       refX="0"
       id="marker13769"
       style="overflow:visible"
       inkscape:isstock="true">
      <path
         id="path13767"
         d="M 0,0 5,-5 -12.5,0 5,5 Z"
         style="fill:#800000;fill-opacity:1;fill-rule:evenodd;stroke:#800000;stroke-width:1pt;stroke-opacity:1"
         transform="matrix(-0.4,0,0,-0.4,-4,0)"
         inkscape:connector-curvature="0" />
    </marker>
    <marker
       inkscape:stockid="Arrow1Mend"
       orient="auto"
       refY="0"
       refX="0"
       id="marker14079"
       style="overflow:visible"
       inkscape:isstock="true">
      <path
         id="path14077"
         d="M 0,0 5,-5 -12.5,0 5,5 Z"
         style="fill:#800000;fill-opacity:1;fill-rule:evenodd;stroke:#800000;stroke-width:1pt;stroke-opacity:1"
         transform="matrix(-0.4,0,0,-0.4,-4,0)"
         inkscape:connector-curvature="0" />
    </marker>
    <marker
       inkscape:stockid="Arrow1Mend"
       orient="auto"
       refY="0"
       refX="0"
       id="marker1"
       style="overflow:visible"
       inkscape:isstock="true">
      <path
         id="path1"
         d="M 0,0 5,-5 -12.5,0 5,5 Z"
         style="fill:#800000;fill-opacity:1;fill-rule:evenodd;stroke:#800000;stroke-width:1pt;stroke-opacity:1"
         transform="matrix(-0.4,0,0,-0.4,-4,0)"
         inkscape:connector-curvature="0" />
    </marker>
    <marker
       inkscape:isstock="true"
       style="overflow:visible"
       id="marker2"
       refX="0"
       refY="0"
       orient="auto"
       inkscape:stockid="Arrow1Mend">
      <path
         transform="matrix(-0.4,0,0,-0.4,-4,0)"
         style="fill:#800000;fill-opacity:1;fill-rule:evenodd;stroke:#800000;stroke-width:1pt;stroke-opacity:1"
         d="M 0,0 5,-5 -12.5,0 5,5 Z"
         id="path2"
         inkscape:connector-curvature="0" />
    </marker>
    <marker
       inkscape:stockid="Arrow1Mend"
       orient="auto"
       refY="0"
       refX="0"
       id="marker3"
       style="overflow:visible"
       inkscape:isstock="true">
      <path
         id="path3"
         d="M 0,0 5,-5 -12.5,0 5,5 Z"
         style="fill:#800000;fill-opacity:1;fill-rule:evenodd;stroke:#800000;stroke-width:1pt;stroke-opacity:1"
         transform="matrix(-0.4,0,0,-0.4,-4,0)"
         inkscape:connector-curvature="0" />
    </marker>
    <marker
       inkscape:stockid="Arrow1Mend"
       orient="auto"
       refY="0"
       refX="0"
       id="marker4"
       style="overflow:visible"
       inkscape:isstock="true">
      <path
         id="path4"
         d="M 0,0 5,-5 -12.5,0 5,5 Z"
         style="fill:#800000;fill-opacity:1;fill-rule:evenodd;stroke:#800000;stroke-width:1pt;stroke-opacity:1"
         transform="matrix(-0.4,0,0,-0.4,-4,0)"
         inkscape:connector-curvature="0" />
    </marker>
    <marker
       inkscape:isstock="true"
       style="overflow:visible"
       id="marker5"
       refX="0"
       refY="0"
       orient="auto"
       inkscape:stockid="Arrow1Mend">
      <path
         transform="matrix(-0.4,0,0,-0.4,-4,0)"
         style="fill:#800000;fill-opacity:1;fill-rule:evenodd;stroke:#800000;stroke-width:1pt;stroke-opacity:1"
         d="M 0,0 5,-5 -12.5,0 5,5 Z"
         id="path5"
         inkscape:connector-curvature="0" />
    </marker>
    <radialGradient
       id="XMLID_49_-3"
       cx="262.59329"
       cy="180.0088"
       r="8.9438"
       fx="262.59329"
       fy="180.0088"
       gradientUnits="userSpaceOnUse"
       gradientTransform="translate(-405.20076,-40.27221)">
				<stop
   offset="0"
   style="stop-color:#FFFFFF"
   id="stop7-7" />

				<stop
   offset="0.4888"
   style="stop-color:#73BE1E"
   id="stop8-5" />

				<stop
   offset="1"
   style="stop-color:#005447"
   id="stop9-9" />

				<a:midPointStop
   offset="0"
   style="stop-color:#FFFFFF" />

				<a:midPointStop
   offset="0.5"
   style="stop-color:#FFFFFF" />

				<a:midPointStop
   offset="0.4888"
   style="stop-color:#73BE1E" />

				<a:midPointStop
   offset="0.5"
   style="stop-color:#73BE1E" />

				<a:midPointStop
   offset="1"
   style="stop-color:#005447" />

			</radialGradient>
    <radialGradient
       id="XMLID_50_-2"
       cx="291.35501"
       cy="217.8159"
       r="10.8249"
       fx="291.35501"
       fy="217.8159"
       gradientUnits="userSpaceOnUse"
       gradientTransform="translate(-482.43088,-35.117378)">
				<stop
   offset="0"
   style="stop-color:#FFFFFF"
   id="stop10-2" />

				<stop
   offset="0.4888"
   style="stop-color:#FF9900"
   id="stop11-8" />

				<stop
   offset="1"
   style="stop-color:#5B3E1C"
   id="stop12-9" />

				<a:midPointStop
   offset="0"
   style="stop-color:#FFFFFF" />

				<a:midPointStop
   offset="0.5"
   style="stop-color:#FFFFFF" />

				<a:midPointStop
   offset="0.4888"
   style="stop-color:#FF9900" />

				<a:midPointStop
   offset="0.5"
   style="stop-color:#FF9900" />

				<a:midPointStop
   offset="1"
   style="stop-color:#5B3E1C" />

			</radialGradient>
    <radialGradient
       id="XMLID_51_-7"
       cx="266.59329"
       cy="260.00781"
       r="10.2955"
       fx="266.59329"
       fy="260.00781"
       gradientUnits="userSpaceOnUse"
       gradientTransform="translate(-405.20076,-40.27221)">
				<stop
   offset="0"
   style="stop-color:#FFFFFF"
   id="stop13-3" />

				<stop
   offset="0.4494"
   style="stop-color:#9957F7"
   id="stop14-6" />

				<stop
   offset="1"
   style="stop-color:#000000"
   id="stop15-1" />

				<a:midPointStop
   offset="0"
   style="stop-color:#FFFFFF" />

				<a:midPointStop
   offset="0.5"
   style="stop-color:#FFFFFF" />

				<a:midPointStop
   offset="0.4494"
   style="stop-color:#9957F7" />

				<a:midPointStop
   offset="0.5"
   style="stop-color:#9957F7" />

				<a:midPointStop
   offset="1"
   style="stop-color:#000000" />

			</radialGradient>
    <radialGradient
       id="XMLID_52_-2"
       cx="214.59081"
       cy="221.9937"
       r="10.8245"
       fx="214.59081"
       fy="221.9937"
       gradientUnits="userSpaceOnUse"
       gradientTransform="translate(-327.5857,-42.657154)">
				<stop
   offset="0"
   style="stop-color:#FFFFFF"
   id="stop16-9" />

				<stop
   offset="0.382"
   style="stop-color:#22ADF2"
   id="stop17-3" />

				<stop
   offset="1"
   style="stop-color:#000000"
   id="stop18-1" />

				<a:midPointStop
   offset="0"
   style="stop-color:#FFFFFF" />

				<a:midPointStop
   offset="0.5"
   style="stop-color:#FFFFFF" />

				<a:midPointStop
   offset="0.382"
   style="stop-color:#22ADF2" />

				<a:midPointStop
   offset="0.5"
   style="stop-color:#22ADF2" />

				<a:midPointStop
   offset="1"
   style="stop-color:#000000" />

			</radialGradient>
    <marker
       style="overflow:visible"
       id="ArrowWide_Fnone_S-e01b24"
       refX="0"
       refY="0"
       orient="auto-start-reverse"
       inkscape:stockid="Wide arrow"
       markerWidth="1"
       markerHeight="1"
       viewBox="0 0 1 1"
       inkscape:isstock="true"
       inkscape:collect="always"
       preserveAspectRatio="xMidYMid">
      <path
         style="fill:none;stroke:#e01b24;stroke-width:1;stroke-linecap:butt"
         d="M 3,-3 0,0 3,3"
         transform="rotate(180,0.125,0)"
         sodipodi:nodetypes="ccc"
         id="path7" />
    </marker>
  </defs>
  <g
     inkscape:label="Layer 1"
     inkscape:groupmode="layer"
     id="layer1"
     transform="translate(470.41592,-30.72658)">
    <path
       style="font-variation-settings:normal;fill:none;fill-opacity:1;stroke:#e01b24;stroke-width:1.88976;stroke-linecap:butt;stroke-linejoin:miter;stroke-miterlimit:4;stroke-dasharray:none;stroke-dashoffset:0;stroke-opacity:1;marker-end:url(#ArrowWide_Fnone_S-e01b24);stop-color:#000000"
       d="m -429.06624,244.35501 197.58107,-0.82507"
       id="path86"
       sodipodi:nodetypes="cc" />
    <path
       style="font-variation-settings:normal;fill:none;fill-opacity:1;stroke:#3584e4;stroke-width:1.88976;stroke-linecap:butt;stroke-linejoin:miter;stroke-miterlimit:4;stroke-dasharray:none;stroke-dashoffset:0;stroke-opacity:1;stop-color:#000000"
       d="m -281.74582,202.99979 66.5099,44.79761"
       id="path101"
       sodipodi:nodetypes="cc" />
    <path
       style="font-variation-settings:normal;fill:none;fill-opacity:1;stroke:#3584e4;stroke-width:1.88976;stroke-linecap:butt;stroke-linejoin:miter;stroke-miterlimit:4;stroke-dasharray:none;stroke-dashoffset:0;stroke-opacity:1;stop-color:#000000"
       d="m -361.28261,203.81579 -69.44609,40.09437"
       id="path102"
       sodipodi:nodetypes="cc" />
    <path
       style="font-variation-settings:normal;fill:none;fill-opacity:1;stroke:#e01b24;stroke-width:1.88976;stroke-linecap:butt;stroke-linejoin:miter;stroke-miterlimit:4;stroke-dasharray:none;stroke-dashoffset:0;stroke-opacity:1;marker-end:url(#ArrowWide_Fnone_S-e01b24);stop-color:#000000"
       d="M -216.46484,242.16212 -312.95644,76.16565"
       id="path103"
       sodipodi:nodetypes="cc" />
    <path
       style="font-variation-settings:normal;fill:none;fill-opacity:1;stroke:#e01b24;stroke-width:1.88976;stroke-linecap:butt;stroke-linejoin:miter;stroke-miterlimit:4;stroke-dasharray:none;stroke-dashoffset:0;stroke-opacity:1;marker-end:url(#ArrowWide_Fnone_S-e01b24);stop-color:#000000"
       d="M -326.42011,74.457682 -426.57015,230.65649"
       id="path104"
       sodipodi:nodetypes="cc" />
    <path
       style="font-variation-settings:normal;fill:none;fill-opacity:1;stroke:#3584e4;stroke-width:1.88976;stroke-linecap:butt;stroke-linejoin:miter;stroke-miterlimit:4;stroke-dasharray:none;stroke-dashoffset:0;stroke-opacity:1;stop-color:#000000"
       d="m -319.86958,143.99041 -1.9e-4,-80.189862"
       id="path105"
       sodipodi:nodetypes="cc" />
    <path
       style="font-variation-settings:normal;fill:none;fill-opacity:1;stroke:#e01b24;stroke-width:1.88976;stroke-linecap:butt;stroke-linejoin:miter;stroke-miterlimit:4;stroke-dasharray:none;stroke-dashoffset:0;stroke-opacity:1;marker-end:url(#ArrowWide_Fnone_S-e01b24);stop-color:#000000"
       d="m -355.24775,193.00332 26.17103,-38.15206"
       id="path106"
       sodipodi:nodetypes="cc" />
    <path
       style="font-variation-settings:normal;fill:none;fill-opacity:1;stroke:#e01b24;stroke-width:1.88976;stroke-linecap:butt;stroke-linejoin:miter;stroke-miterlimit:4;stroke-dasharray:none;stroke-dashoffset:0;stroke-opacity:1;marker-end:url(#ArrowWide_Fnone_S-e01b24);stop-color:#000000"
       d="m -292.78423,204.4243 -52.17067,-0.002"
       id="path107"
       sodipodi:nodetypes="cc" />
    <path
       style="font-variation-settings:normal;fill:none;fill-opacity:1;stroke:#e01b24;stroke-width:1.88976;stroke-linecap:butt;stroke-linejoin:miter;stroke-miterlimit:4;stroke-dasharray:none;stroke-dashoffset:0;stroke-opacity:1;marker-end:url(#ArrowWide_Fnone_S-e01b24);stop-color:#000000"
       d="m -313.24773,154.60143 26.17104,38.15206"
       id="path108"
       sodipodi:nodetypes="cc" />
    <text
       id="text108"
       y="131.81581"
       x="-337.42395"
       style="font-style:normal;font-variant:normal;font-weight:normal;font-stretch:normal;font-size:16px;line-height:1.25;font-family:'Ubuntu Mono';-inkscape-font-specification:'Ubuntu Mono';font-variant-ligatures:normal;font-variant-position:normal;font-variant-caps:normal;font-variant-numeric:normal;font-variant-alternates:normal;font-feature-settings:normal;text-indent:0;text-align:start;text-decoration:none;text-decoration-line:none;text-decoration-style:solid;text-decoration-color:#000000;letter-spacing:0px;word-spacing:0px;text-transform:none;writing-mode:lr-tb;direction:ltr;text-orientation:mixed;dominant-baseline:auto;baseline-shift:baseline;text-anchor:start;white-space:normal;shape-padding:0;vector-effect:none;fill:#000000;fill-opacity:1;stroke:none;stroke-width:0.999999;stroke-linecap:butt;stroke-linejoin:miter;stroke-miterlimit:4;stroke-dasharray:none;stroke-dashoffset:0;stroke-opacity:1"
       xml:space="preserve"><tspan
         style="stroke-width:0.999999"
         y="131.81581"
         x="-337.42395"
         id="tspan108"
         sodipodi:role="line">e</tspan></text>
    <text
       id="text109"
       y="227.81821"
       x="-293.42395"
       style="font-style:normal;font-variant:normal;font-weight:normal;font-stretch:normal;font-size:16px;line-height:1.25;font-family:'Ubuntu Mono';-inkscape-font-specification:'Ubuntu Mono';font-variant-ligatures:normal;font-variant-position:normal;font-variant-caps:normal;font-variant-numeric:normal;font-variant-alternates:normal;font-feature-settings:normal;text-indent:0;text-align:start;text-decoration:none;text-decoration-line:none;text-decoration-style:solid;text-decoration-color:#000000;letter-spacing:0px;word-spacing:0px;text-transform:none;writing-mode:lr-tb;direction:ltr;text-orientation:mixed;dominant-baseline:auto;baseline-shift:baseline;text-anchor:start;white-space:normal;shape-padding:0;vector-effect:none;fill:#000000;fill-opacity:1;stroke:none;stroke-width:0.999999;stroke-linecap:butt;stroke-linejoin:miter;stroke-miterlimit:4;stroke-dasharray:none;stroke-dashoffset:0;stroke-opacity:1"
       xml:space="preserve"><tspan
         style="stroke-width:0.999999"
         y="227.81821"
         x="-293.42395"
         id="tspan109"
         sodipodi:role="line">r</tspan></text>
    <text
       id="text110"
       y="227.81821"
       x="-381.42395"
       style="font-style:normal;font-variant:normal;font-weight:normal;font-stretch:normal;font-size:16px;line-height:1.25;font-family:'Ubuntu Mono';-inkscape-font-specification:'Ubuntu Mono';font-variant-ligatures:normal;font-variant-position:normal;font-variant-caps:normal;font-variant-numeric:normal;font-variant-alternates:normal;font-feature-settings:normal;text-indent:0;text-align:start;text-decoration:none;text-decoration-line:none;text-decoration-style:solid;text-decoration-color:#000000;letter-spacing:0px;word-spacing:0px;text-transform:none;writing-mode:lr-tb;direction:ltr;text-orientation:mixed;dominant-baseline:auto;baseline-shift:baseline;text-anchor:start;white-space:normal;shape-padding:0;vector-effect:none;fill:#000000;fill-opacity:1;stroke:none;stroke-width:0.999999;stroke-linecap:butt;stroke-linejoin:miter;stroke-miterlimit:4;stroke-dasharray:none;stroke-dashoffset:0;stroke-opacity:1"
       xml:space="preserve"><tspan
         style="stroke-width:0.999999"
         y="227.81821"
         x="-381.42395"
         id="tspan110"
         sodipodi:role="line">r²</tspan></text>
    <circle
       transform="rotate(120)"
       style="vector-effect:none;fill:#e6e6e6;fill-opacity:1;fill-rule:nonzero;stroke:#000000;stroke-width:1.88976;stroke-linecap:butt;stroke-linejoin:round;stroke-miterlimit:4;stroke-dasharray:none;stroke-dashoffset:0;stroke-opacity:1;paint-order:normal"
       id="circle110"
       cx="215.72733"
       cy="244.80322"
       r="12.142858" />
    <text
       id="text111"
       y="51.814579"
       x="-337.42395"
       style="font-style:normal;font-variant:normal;font-weight:normal;font-stretch:normal;font-size:16px;line-height:1.25;font-family:'Ubuntu Mono';-inkscape-font-specification:'Ubuntu Mono';font-variant-ligatures:normal;font-variant-position:normal;font-variant-caps:normal;font-variant-numeric:normal;font-variant-alternates:normal;font-feature-settings:normal;text-indent:0;text-align:start;text-decoration:none;text-decoration-line:none;text-decoration-style:solid;text-decoration-color:#000000;letter-spacing:0px;word-spacing:0px;text-transform:none;writing-mode:lr-tb;direction:ltr;text-orientation:mixed;dominant-baseline:auto;baseline-shift:baseline;text-anchor:start;white-space:normal;shape-padding:0;vector-effect:none;fill:#000000;fill-opacity:1;stroke:none;stroke-width:0.999999;stroke-linecap:butt;stroke-linejoin:miter;stroke-miterlimit:4;stroke-dasharray:none;stroke-dashoffset:0;stroke-opacity:1"
       xml:space="preserve"><tspan
         style="stroke-width:0.999999"
         y="51.814579"
         x="-337.42395"
         id="tspan111"
         sodipodi:role="line">f</tspan></text>
    <circle
       transform="rotate(120)"
       style="vector-effect:none;fill:#e6e6e6;fill-opacity:1;fill-rule:nonzero;stroke:#000000;stroke-width:1.88976;stroke-linecap:butt;stroke-linejoin:round;stroke-miterlimit:4;stroke-dasharray:none;stroke-dashoffset:0;stroke-opacity:1;paint-order:normal"
       id="circle111"
       cx="427.75089"
       cy="253.21074"
       r="12.142858" />
    <text
       id="text112"
       y="239.81563"
       x="-461.42392"
       style="font-style:normal;font-variant:normal;font-weight:normal;font-stretch:normal;font-size:16px;line-height:1.25;font-family:'Ubuntu Mono';-inkscape-font-specification:'Ubuntu Mono';font-variant-ligatures:normal;font-variant-position:normal;font-variant-caps:normal;font-variant-numeric:normal;font-variant-alternates:normal;font-feature-settings:normal;text-indent:0;text-align:start;text-decoration:none;text-decoration-line:none;text-decoration-style:solid;text-decoration-color:#000000;letter-spacing:0px;word-spacing:0px;text-transform:none;writing-mode:lr-tb;direction:ltr;text-orientation:mixed;dominant-baseline:auto;baseline-shift:baseline;text-anchor:start;white-space:normal;shape-padding:0;vector-effect:none;fill:#000000;fill-opacity:1;stroke:none;stroke-width:0.999999;stroke-linecap:butt;stroke-linejoin:miter;stroke-miterlimit:4;stroke-dasharray:none;stroke-dashoffset:0;stroke-opacity:1"
       xml:space="preserve"><tspan
         style="stroke-width:0.999999"
         y="239.81563"
         x="-461.42392"
         id="tspan112"
         sodipodi:role="line">fr</tspan></text>
    <circle
       transform="rotate(120)"
       style="vector-effect:none;fill:#e6e6e6;fill-opacity:1;fill-rule:nonzero;stroke:#000000;stroke-width:1.88976;stroke-linecap:butt;stroke-linejoin:round;stroke-miterlimit:4;stroke-dasharray:none;stroke-dashoffset:0;stroke-opacity:1;paint-order:normal"
       id="circle112"
       cx="285.01004"
       cy="204.80261"
       r="12.142858" />
    <circle
       transform="rotate(120)"
       style="vector-effect:none;fill:#e6e6e6;fill-opacity:1;fill-rule:nonzero;stroke:#000000;stroke-width:1.88976;stroke-linecap:butt;stroke-linejoin:round;stroke-miterlimit:4;stroke-dasharray:none;stroke-dashoffset:0;stroke-opacity:1;paint-order:normal"
       id="circle113"
       cx="316.97272"
       cy="140.16078"
       r="12.142858" />
    <circle
       transform="rotate(120)"
       style="vector-effect:none;fill:#e6e6e6;fill-opacity:1;fill-rule:nonzero;stroke:#000000;stroke-width:1.88976;stroke-linecap:butt;stroke-linejoin:round;stroke-miterlimit:4;stroke-dasharray:none;stroke-dashoffset:0;stroke-opacity:1;paint-order:normal"
       id="circle114"
       cx="356.97147"
       cy="209.44351"
       r="12.142858" />
    <text
       id="text114"
       y="239.81563"
       x="-203.42386"
       style="font-style:normal;font-variant:normal;font-weight:normal;font-stretch:normal;font-size:16px;line-height:1.25;font-family:'Ubuntu Mono';-inkscape-font-specification:'Ubuntu Mono';font-variant-ligatures:normal;font-variant-position:normal;font-variant-caps:normal;font-variant-numeric:normal;font-variant-alternates:normal;font-feature-settings:normal;text-indent:0;text-align:start;text-decoration:none;text-decoration-line:none;text-decoration-style:solid;text-decoration-color:#000000;letter-spacing:0px;word-spacing:0px;text-transform:none;writing-mode:lr-tb;direction:ltr;text-orientation:mixed;dominant-baseline:auto;baseline-shift:baseline;text-anchor:start;white-space:normal;shape-padding:0;vector-effect:none;fill:#000000;fill-opacity:1;stroke:none;stroke-width:0.999999;stroke-linecap:butt;stroke-linejoin:miter;stroke-miterlimit:4;stroke-dasharray:none;stroke-dashoffset:0;stroke-opacity:1"
       xml:space="preserve"><tspan
         style="stroke-width:0.999999"
         y="239.81563"
         x="-203.42386"
         id="tspan114"
         sodipodi:role="line">rf</tspan></text>
    <circle
       transform="rotate(120)"
       style="vector-effect:none;fill:#e6e6e6;fill-opacity:1;fill-rule:nonzero;stroke:#000000;stroke-width:1.88976;stroke-linecap:butt;stroke-linejoin:round;stroke-miterlimit:4;stroke-dasharray:none;stroke-dashoffset:0;stroke-opacity:1;paint-order:normal"
       id="circle115"
       cx="318.88461"
       cy="67.467628"
       r="12.142858" />
  </g>
</svg>
