<?xml version="1.0" encoding="UTF-8" standalone="no"?>
<!-- Created with Inkscape (http://www.inkscape.org/) -->

<svg
   width="653.49438"
   height="93.214653"
   viewBox="0 0 653.49436 93.214662"
   version="1.1"
   id="svg1"
   inkscape:version="1.3.2 (1:1.3.2+202311252150+091e20ef0f)"
   sodipodi:docname="07-6-ex-18-h-2.svg"
   xmlns:inkscape="http://www.inkscape.org/namespaces/inkscape"
   xmlns:sodipodi="http://sodipodi.sourceforge.net/DTD/sodipodi-0.dtd"
   xmlns="http://www.w3.org/2000/svg"
   xmlns:svg="http://www.w3.org/2000/svg">
  <sodipodi:namedview
     id="namedview1"
     pagecolor="#ffffff"
     bordercolor="#666666"
     borderopacity="1.0"
     inkscape:showpageshadow="2"
     inkscape:pageopacity="0.0"
     inkscape:pagecheckerboard="0"
     inkscape:deskcolor="#d1d1d1"
     inkscape:document-units="px"
     showgrid="true"
     inkscape:zoom="1.1848949"
     inkscape:cx="367.12117"
     inkscape:cy="-67.094558"
     inkscape:current-layer="layer1">
    <inkscape:grid
       id="grid1"
       units="px"
       originx="1274.6169"
       originy="645.23814"
       spacingx="1"
       spacingy="1"
       empcolor="#0099e5"
       empopacity="0.30196078"
       color="#0099e5"
       opacity="0.14901961"
       empspacing="5"
       dotted="false"
       gridanglex="30"
       gridanglez="30"
       visible="true" />
    <inkscape:page
       x="0"
       y="0"
       width="653.49438"
       height="93.214661"
       id="page1"
       margin="10"
       bleed="0" />
  </sodipodi:namedview>
  <defs
     id="defs1">
    <marker
       style="overflow:visible"
       id="marker51639"
       refX="0"
       refY="0"
       orient="auto"
       inkscape:stockid="Arrow1Mend"
       inkscape:isstock="true">
      <path
         transform="matrix(-0.4,0,0,-0.4,-4,0)"
         style="fill:#0409fb;fill-opacity:1;fill-rule:evenodd;stroke:#0409fb;stroke-width:1pt;stroke-opacity:1"
         d="M 0,0 5,-5 -12.5,0 5,5 Z"
         id="path51637" />
    </marker>
    <marker
       style="overflow:visible"
       id="marker51629"
       refX="0"
       refY="0"
       orient="auto"
       inkscape:stockid="Arrow1Mend"
       inkscape:isstock="true">
      <path
         transform="matrix(-0.4,0,0,-0.4,-4,0)"
         style="fill:#0409fb;fill-opacity:1;fill-rule:evenodd;stroke:#0409fb;stroke-width:1pt;stroke-opacity:1"
         d="M 0,0 5,-5 -12.5,0 5,5 Z"
         id="path51627" />
    </marker>
    <marker
       style="overflow:visible"
       id="marker51619"
       refX="0"
       refY="0"
       orient="auto"
       inkscape:stockid="Arrow1Mend"
       inkscape:isstock="true">
      <path
         transform="matrix(-0.4,0,0,-0.4,-4,0)"
         style="fill:#0409fb;fill-opacity:1;fill-rule:evenodd;stroke:#0409fb;stroke-width:1pt;stroke-opacity:1"
         d="M 0,0 5,-5 -12.5,0 5,5 Z"
         id="path51617" />
    </marker>
    <marker
       style="overflow:visible"
       id="marker48237-2"
       refX="0"
       refY="0"
       orient="auto"
       inkscape:stockid="Arrow1Mend"
       inkscape:isstock="true"
       inkscape:collect="always">
      <path
         transform="matrix(-0.4,0,0,-0.4,-4,0)"
         style="fill:#0409fb;fill-opacity:1;fill-rule:evenodd;stroke:#0409fb;stroke-width:1pt;stroke-opacity:1"
         d="M 0,0 5,-5 -12.5,0 5,5 Z"
         id="path48235-6" />
    </marker>
    <marker
       style="overflow:visible"
       id="marker48227-6"
       refX="0"
       refY="0"
       orient="auto"
       inkscape:stockid="Arrow1Mend"
       inkscape:isstock="true"
       inkscape:collect="always">
      <path
         transform="matrix(-0.4,0,0,-0.4,-4,0)"
         style="fill:#0409fb;fill-opacity:1;fill-rule:evenodd;stroke:#0409fb;stroke-width:1pt;stroke-opacity:1"
         d="M 0,0 5,-5 -12.5,0 5,5 Z"
         id="path48225-4" />
    </marker>
    <marker
       style="overflow:visible"
       id="marker48217-9"
       refX="0"
       refY="0"
       orient="auto"
       inkscape:stockid="Arrow1Mend"
       inkscape:isstock="true"
       inkscape:collect="always">
      <path
         transform="matrix(-0.4,0,0,-0.4,-4,0)"
         style="fill:#0409fb;fill-opacity:1;fill-rule:evenodd;stroke:#0409fb;stroke-width:1pt;stroke-opacity:1"
         d="M 0,0 5,-5 -12.5,0 5,5 Z"
         id="path48215-5" />
    </marker>
    <marker
       style="overflow:visible"
       id="marker48207-0"
       refX="0"
       refY="0"
       orient="auto"
       inkscape:stockid="Arrow1Mend"
       inkscape:isstock="true"
       inkscape:collect="always">
      <path
         transform="matrix(-0.4,0,0,-0.4,-4,0)"
         style="fill:#0409fb;fill-opacity:1;fill-rule:evenodd;stroke:#0409fb;stroke-width:1pt;stroke-opacity:1"
         d="M 0,0 5,-5 -12.5,0 5,5 Z"
         id="path48205-4" />
    </marker>
  </defs>
  <g
     inkscape:label="Layer 1"
     inkscape:groupmode="layer"
     id="layer1"
     transform="translate(1274.6166,645.23829)">
    <path
       style="display:inline;vector-effect:none;fill:none;fill-opacity:1;stroke:#32fd00;stroke-width:1.88976;stroke-linecap:butt;stroke-linejoin:miter;stroke-miterlimit:4;stroke-dasharray:none;stroke-dashoffset:0;stroke-opacity:1"
       d="m -1000.1971,-586.26614 c 27.97767,27.97769 314.28892,33.28214 345.63052,1.94053"
       id="path5"
       sodipodi:nodetypes="cc" />
    <circle
       style="font-variation-settings:normal;display:inline;vector-effect:none;fill:#cccccc;fill-opacity:1;fill-rule:evenodd;stroke:#000000;stroke-width:1.88976;stroke-linecap:butt;stroke-linejoin:miter;stroke-miterlimit:4;stroke-dasharray:none;stroke-dashoffset:0;stroke-opacity:1;stop-color:#000000"
       id="circle48189-7"
       cx="-1248.5536"
       cy="-598.86731"
       r="15.118111"
       inkscape:tile-cx="31.824605"
       inkscape:tile-cy="418.90732"
       inkscape:tile-w="8.4999993"
       inkscape:tile-h="8.4999993"
       inkscape:tile-x0="27.574605"
       inkscape:tile-y0="399.47724"
       inkscape:transform-center-y="-15.180068" />
    <circle
       style="font-variation-settings:normal;display:inline;vector-effect:none;fill:#cccccc;fill-opacity:1;fill-rule:evenodd;stroke:#000000;stroke-width:1.88976;stroke-linecap:butt;stroke-linejoin:miter;stroke-miterlimit:4;stroke-dasharray:none;stroke-dashoffset:0;stroke-opacity:1;stop-color:#000000"
       id="circle48191-1"
       cx="-1168.3662"
       cy="-598.86731"
       r="15.118111"
       inkscape:tile-cx="31.824605"
       inkscape:tile-cy="418.90732"
       inkscape:tile-w="8.4999993"
       inkscape:tile-h="8.4999993"
       inkscape:tile-x0="27.574605"
       inkscape:tile-y0="399.47724"
       inkscape:transform-center-y="-15.180068" />
    <circle
       style="font-variation-settings:normal;display:inline;vector-effect:none;fill:#cccccc;fill-opacity:1;fill-rule:evenodd;stroke:#000000;stroke-width:1.88976;stroke-linecap:butt;stroke-linejoin:miter;stroke-miterlimit:4;stroke-dasharray:none;stroke-dashoffset:0;stroke-opacity:1;stop-color:#000000"
       id="circle48193-7"
       cx="-1087.582"
       cy="-598.86731"
       r="15.118111"
       inkscape:tile-cx="31.824605"
       inkscape:tile-cy="418.90732"
       inkscape:tile-w="8.4999993"
       inkscape:tile-h="8.4999993"
       inkscape:tile-x0="27.574605"
       inkscape:tile-y0="399.47724"
       inkscape:transform-center-y="-15.180068" />
    <circle
       style="font-variation-settings:normal;display:inline;vector-effect:none;fill:#cccccc;fill-opacity:1;fill-rule:evenodd;stroke:#000000;stroke-width:1.88976;stroke-linecap:butt;stroke-linejoin:miter;stroke-miterlimit:4;stroke-dasharray:none;stroke-dashoffset:0;stroke-opacity:1;stop-color:#000000"
       id="circle48195-2"
       cx="-1007.1852"
       cy="-598.86731"
       r="15.118111"
       inkscape:tile-cx="31.824605"
       inkscape:tile-cy="418.90732"
       inkscape:tile-w="8.4999993"
       inkscape:tile-h="8.4999993"
       inkscape:tile-x0="27.574605"
       inkscape:tile-y0="399.47724"
       inkscape:transform-center-y="-15.180068" />
    <path
       style="display:inline;vector-effect:none;fill:none;fill-opacity:1;stroke:#0409fb;stroke-width:1.88976;stroke-linecap:butt;stroke-linejoin:miter;stroke-miterlimit:4;stroke-dasharray:none;stroke-dashoffset:0;stroke-opacity:1;marker-end:url(#marker48237-2)"
       d="m -1234.299,-599.2502 h 47.803"
       id="path48197-7"
       sodipodi:nodetypes="cc" />
    <path
       style="display:inline;vector-effect:none;fill:none;fill-opacity:1;stroke:#0409fb;stroke-width:1.88976;stroke-linecap:butt;stroke-linejoin:miter;stroke-miterlimit:4;stroke-dasharray:none;stroke-dashoffset:0;stroke-opacity:1;marker-end:url(#marker48227-6)"
       d="m -1154.1116,-599.2502 h 47.803"
       id="path48199-2"
       sodipodi:nodetypes="cc" />
    <path
       style="display:inline;vector-effect:none;fill:none;fill-opacity:1;stroke:#0409fb;stroke-width:1.88976;stroke-linecap:butt;stroke-linejoin:miter;stroke-miterlimit:4;stroke-dasharray:none;stroke-dashoffset:0;stroke-opacity:1;marker-end:url(#marker48217-9)"
       d="m -1073.3275,-599.2502 h 47.803"
       id="path48201-2"
       sodipodi:nodetypes="cc" />
    <path
       style="display:inline;vector-effect:none;fill:none;fill-opacity:1;stroke:#0409fb;stroke-width:1.88976;stroke-linecap:butt;stroke-linejoin:miter;stroke-miterlimit:4;stroke-dasharray:none;stroke-dashoffset:0;stroke-opacity:1;marker-end:url(#marker48207-0)"
       d="m -1015.8326,-611.57654 c -48.9156,-28.24176 -163.3029,-32.20742 -218.784,-0.17365"
       id="path48203-6"
       sodipodi:nodetypes="cc" />
    <circle
       style="font-variation-settings:normal;display:inline;vector-effect:none;fill:#cccccc;fill-opacity:1;fill-rule:evenodd;stroke:#000000;stroke-width:1.88976;stroke-linecap:butt;stroke-linejoin:miter;stroke-miterlimit:4;stroke-dasharray:none;stroke-dashoffset:0;stroke-opacity:1;stop-color:#000000"
       id="circle55"
       cx="-888.55359"
       cy="-598.86731"
       r="15.118111"
       inkscape:tile-cx="31.824605"
       inkscape:tile-cy="418.90732"
       inkscape:tile-w="8.4999993"
       inkscape:tile-h="8.4999993"
       inkscape:tile-x0="27.574605"
       inkscape:tile-y0="399.47724"
       inkscape:transform-center-y="-15.180068" />
    <circle
       style="font-variation-settings:normal;display:inline;vector-effect:none;fill:#cccccc;fill-opacity:1;fill-rule:evenodd;stroke:#000000;stroke-width:1.88976;stroke-linecap:butt;stroke-linejoin:miter;stroke-miterlimit:4;stroke-dasharray:none;stroke-dashoffset:0;stroke-opacity:1;stop-color:#000000"
       id="circle56"
       cx="-808.36621"
       cy="-598.86731"
       r="15.118111"
       inkscape:tile-cx="31.824605"
       inkscape:tile-cy="418.90732"
       inkscape:tile-w="8.4999993"
       inkscape:tile-h="8.4999993"
       inkscape:tile-x0="27.574605"
       inkscape:tile-y0="399.47724"
       inkscape:transform-center-y="-15.180068" />
    <circle
       style="font-variation-settings:normal;display:inline;vector-effect:none;fill:#cccccc;fill-opacity:1;fill-rule:evenodd;stroke:#000000;stroke-width:1.88976;stroke-linecap:butt;stroke-linejoin:miter;stroke-miterlimit:4;stroke-dasharray:none;stroke-dashoffset:0;stroke-opacity:1;stop-color:#000000"
       id="circle57"
       cx="-727.58197"
       cy="-598.86731"
       r="15.118111"
       inkscape:tile-cx="31.824605"
       inkscape:tile-cy="418.90732"
       inkscape:tile-w="8.4999993"
       inkscape:tile-h="8.4999993"
       inkscape:tile-x0="27.574605"
       inkscape:tile-y0="399.47724"
       inkscape:transform-center-y="-15.180068" />
    <circle
       style="font-variation-settings:normal;display:inline;vector-effect:none;fill:#cccccc;fill-opacity:1;fill-rule:evenodd;stroke:#000000;stroke-width:1.88976;stroke-linecap:butt;stroke-linejoin:miter;stroke-miterlimit:4;stroke-dasharray:none;stroke-dashoffset:0;stroke-opacity:1;stop-color:#000000"
       id="circle58"
       cx="-647.18518"
       cy="-598.86731"
       r="15.118111"
       inkscape:tile-cx="31.824605"
       inkscape:tile-cy="418.90732"
       inkscape:tile-w="8.4999993"
       inkscape:tile-h="8.4999993"
       inkscape:tile-x0="27.574605"
       inkscape:tile-y0="399.47724"
       inkscape:transform-center-y="-15.180068" />
    <text
       xml:space="preserve"
       style="font-style:normal;font-variant:normal;font-weight:normal;font-stretch:normal;font-size:16px;line-height:20px;font-family:'Liberation Sans';-inkscape-font-specification:'Liberation Sans';font-variant-ligatures:normal;font-variant-position:normal;font-variant-caps:normal;font-variant-numeric:normal;font-variant-alternates:normal;font-variant-east-asian:normal;font-feature-settings:normal;font-variation-settings:normal;text-indent:0;text-align:start;text-decoration-line:none;text-decoration-style:solid;text-decoration-color:#000000;letter-spacing:normal;word-spacing:normal;text-transform:none;writing-mode:lr-tb;direction:ltr;text-orientation:mixed;dominant-baseline:auto;baseline-shift:baseline;text-anchor:start;white-space:normal;shape-padding:0;shape-margin:0;inline-size:0;vector-effect:none;fill:#000000;fill-opacity:1;stroke-width:0.2;stroke-linecap:butt;stroke-linejoin:miter;stroke-miterlimit:4;stroke-dasharray:none;stroke-dashoffset:0;stroke-opacity:1;-inkscape-stroke:none;stop-color:#000000"
       x="30.727699"
       y="71.33419"
       id="text80"
       transform="translate(-1283.7149,-665.97492)"><tspan
         sodipodi:role="line"
         id="tspan80"
         x="30.727699"
         y="71.33419">e</tspan></text>
    <text
       xml:space="preserve"
       style="font-style:normal;font-variant:normal;font-weight:normal;font-stretch:normal;font-size:16px;line-height:20px;font-family:'Liberation Sans';-inkscape-font-specification:'Liberation Sans';font-variant-ligatures:normal;font-variant-position:normal;font-variant-caps:normal;font-variant-numeric:normal;font-variant-alternates:normal;font-variant-east-asian:normal;font-feature-settings:normal;font-variation-settings:normal;text-indent:0;text-align:start;text-decoration-line:none;text-decoration-style:solid;text-decoration-color:#000000;letter-spacing:normal;word-spacing:normal;text-transform:none;writing-mode:lr-tb;direction:ltr;text-orientation:mixed;dominant-baseline:auto;baseline-shift:baseline;text-anchor:start;white-space:normal;shape-padding:0;shape-margin:0;inline-size:0;vector-effect:none;fill:#000000;fill-opacity:1;stroke-width:0.2;stroke-linecap:butt;stroke-linejoin:miter;stroke-miterlimit:4;stroke-dasharray:none;stroke-dashoffset:0;stroke-opacity:1;-inkscape-stroke:none;stop-color:#000000"
       x="30.727699"
       y="71.33419"
       id="text81"
       transform="translate(-1203.7228,-664.48273)"><tspan
         sodipodi:role="line"
         id="tspan81"
         x="30.727699"
         y="71.33419">b</tspan></text>
    <text
       xml:space="preserve"
       style="font-style:normal;font-variant:normal;font-weight:normal;font-stretch:normal;font-size:16px;line-height:20px;font-family:'Liberation Sans';-inkscape-font-specification:'Liberation Sans';font-variant-ligatures:normal;font-variant-position:normal;font-variant-caps:normal;font-variant-numeric:normal;font-variant-alternates:normal;font-variant-east-asian:normal;font-feature-settings:normal;font-variation-settings:normal;text-indent:0;text-align:start;text-decoration-line:none;text-decoration-style:solid;text-decoration-color:#000000;letter-spacing:normal;word-spacing:normal;text-transform:none;writing-mode:lr-tb;direction:ltr;text-orientation:mixed;dominant-baseline:auto;baseline-shift:baseline;text-anchor:start;white-space:normal;shape-padding:0;shape-margin:0;inline-size:0;vector-effect:none;fill:#000000;fill-opacity:1;stroke-width:0.2;stroke-linecap:butt;stroke-linejoin:miter;stroke-miterlimit:4;stroke-dasharray:none;stroke-dashoffset:0;stroke-opacity:1;-inkscape-stroke:none;stop-color:#000000"
       x="30.727699"
       y="71.33419"
       id="text82"
       transform="translate(-1125.7863,-664.48273)"><tspan
         sodipodi:role="line"
         id="tspan82"
         x="30.727699"
         y="71.33419">b²</tspan></text>
    <text
       xml:space="preserve"
       style="font-style:normal;font-variant:normal;font-weight:normal;font-stretch:normal;font-size:16px;line-height:20px;font-family:'Liberation Sans';-inkscape-font-specification:'Liberation Sans';font-variant-ligatures:normal;font-variant-position:normal;font-variant-caps:normal;font-variant-numeric:normal;font-variant-alternates:normal;font-variant-east-asian:normal;font-feature-settings:normal;font-variation-settings:normal;text-indent:0;text-align:start;text-decoration-line:none;text-decoration-style:solid;text-decoration-color:#000000;letter-spacing:normal;word-spacing:normal;text-transform:none;writing-mode:lr-tb;direction:ltr;text-orientation:mixed;dominant-baseline:auto;baseline-shift:baseline;text-anchor:start;white-space:normal;shape-padding:0;shape-margin:0;inline-size:0;vector-effect:none;fill:#000000;fill-opacity:1;stroke-width:0.2;stroke-linecap:butt;stroke-linejoin:miter;stroke-miterlimit:4;stroke-dasharray:none;stroke-dashoffset:0;stroke-opacity:1;-inkscape-stroke:none;stop-color:#000000"
       x="30.727699"
       y="71.33419"
       id="text83"
       transform="translate(-1045.3855,-664.48273)"><tspan
         sodipodi:role="line"
         id="tspan83"
         x="30.727699"
         y="71.33419">b³</tspan></text>
    <text
       xml:space="preserve"
       style="font-style:normal;font-variant:normal;font-weight:normal;font-stretch:normal;font-size:16px;line-height:20px;font-family:'Liberation Sans';-inkscape-font-specification:'Liberation Sans';font-variant-ligatures:normal;font-variant-position:normal;font-variant-caps:normal;font-variant-numeric:normal;font-variant-alternates:normal;font-variant-east-asian:normal;font-feature-settings:normal;font-variation-settings:normal;text-indent:0;text-align:start;text-decoration-line:none;text-decoration-style:solid;text-decoration-color:#000000;letter-spacing:normal;word-spacing:normal;text-transform:none;writing-mode:lr-tb;direction:ltr;text-orientation:mixed;dominant-baseline:auto;baseline-shift:baseline;text-anchor:start;white-space:normal;shape-padding:0;shape-margin:0;inline-size:0;vector-effect:none;fill:#000000;fill-opacity:1;stroke-width:0.2;stroke-linecap:butt;stroke-linejoin:miter;stroke-miterlimit:4;stroke-dasharray:none;stroke-dashoffset:0;stroke-opacity:1;-inkscape-stroke:none;stop-color:#000000"
       x="30.727699"
       y="71.33419"
       id="text89"
       transform="translate(-923.7149,-665.97492)"><tspan
         sodipodi:role="line"
         id="tspan89"
         x="30.727699"
         y="71.33419">g</tspan></text>
    <text
       xml:space="preserve"
       style="font-style:normal;font-variant:normal;font-weight:normal;font-stretch:normal;font-size:16px;line-height:20px;font-family:'Liberation Sans';-inkscape-font-specification:'Liberation Sans';font-variant-ligatures:normal;font-variant-position:normal;font-variant-caps:normal;font-variant-numeric:normal;font-variant-alternates:normal;font-variant-east-asian:normal;font-feature-settings:normal;font-variation-settings:normal;text-indent:0;text-align:start;text-decoration-line:none;text-decoration-style:solid;text-decoration-color:#000000;letter-spacing:normal;word-spacing:normal;text-transform:none;writing-mode:lr-tb;direction:ltr;text-orientation:mixed;dominant-baseline:auto;baseline-shift:baseline;text-anchor:start;white-space:normal;shape-padding:0;shape-margin:0;inline-size:0;vector-effect:none;fill:#000000;fill-opacity:1;stroke-width:0.2;stroke-linecap:butt;stroke-linejoin:miter;stroke-miterlimit:4;stroke-dasharray:none;stroke-dashoffset:0;stroke-opacity:1;-inkscape-stroke:none;stop-color:#000000"
       x="30.727699"
       y="71.33419"
       id="text90"
       transform="translate(-847.99235,-666.06476)"><tspan
         sodipodi:role="line"
         id="tspan90"
         x="30.727699"
         y="71.33419">bg</tspan></text>
    <text
       xml:space="preserve"
       style="font-style:normal;font-variant:normal;font-weight:normal;font-stretch:normal;font-size:16px;line-height:20px;font-family:'Liberation Sans';-inkscape-font-specification:'Liberation Sans';font-variant-ligatures:normal;font-variant-position:normal;font-variant-caps:normal;font-variant-numeric:normal;font-variant-alternates:normal;font-variant-east-asian:normal;font-feature-settings:normal;font-variation-settings:normal;text-indent:0;text-align:start;text-decoration-line:none;text-decoration-style:solid;text-decoration-color:#000000;letter-spacing:normal;word-spacing:normal;text-transform:none;writing-mode:lr-tb;direction:ltr;text-orientation:mixed;dominant-baseline:auto;baseline-shift:baseline;text-anchor:start;white-space:normal;shape-padding:0;shape-margin:0;inline-size:0;vector-effect:none;fill:#000000;fill-opacity:1;stroke-width:0.2;stroke-linecap:butt;stroke-linejoin:miter;stroke-miterlimit:4;stroke-dasharray:none;stroke-dashoffset:0;stroke-opacity:1;-inkscape-stroke:none;stop-color:#000000"
       x="30.727699"
       y="71.33419"
       id="text91"
       transform="translate(-769.87217,-666.06476)"><tspan
         sodipodi:role="line"
         id="tspan91"
         x="30.727699"
         y="71.33419">b²g</tspan></text>
    <text
       xml:space="preserve"
       style="font-style:normal;font-variant:normal;font-weight:normal;font-stretch:normal;font-size:16px;line-height:20px;font-family:'Liberation Sans';-inkscape-font-specification:'Liberation Sans';font-variant-ligatures:normal;font-variant-position:normal;font-variant-caps:normal;font-variant-numeric:normal;font-variant-alternates:normal;font-variant-east-asian:normal;font-feature-settings:normal;font-variation-settings:normal;text-indent:0;text-align:start;text-decoration-line:none;text-decoration-style:solid;text-decoration-color:#000000;letter-spacing:normal;word-spacing:normal;text-transform:none;writing-mode:lr-tb;direction:ltr;text-orientation:mixed;dominant-baseline:auto;baseline-shift:baseline;text-anchor:start;white-space:normal;shape-padding:0;shape-margin:0;inline-size:0;vector-effect:none;fill:#000000;fill-opacity:1;stroke-width:0.2;stroke-linecap:butt;stroke-linejoin:miter;stroke-miterlimit:4;stroke-dasharray:none;stroke-dashoffset:0;stroke-opacity:1;-inkscape-stroke:none;stop-color:#000000"
       x="30.727699"
       y="71.33419"
       id="text92"
       transform="translate(-689.47538,-666.06476)"><tspan
         sodipodi:role="line"
         id="tspan92"
         x="30.727699"
         y="71.33419">b³g</tspan></text>
    <path
       style="display:inline;vector-effect:none;fill:none;fill-opacity:1;stroke:#0409fb;stroke-width:1.88976;stroke-linecap:butt;stroke-linejoin:miter;stroke-miterlimit:4;stroke-dasharray:none;stroke-dashoffset:0;stroke-opacity:1;marker-end:url(#marker48237-2)"
       d="m -661.80039,-599.2502 h -47.803"
       id="path1"
       sodipodi:nodetypes="cc" />
    <path
       style="display:inline;vector-effect:none;fill:none;fill-opacity:1;stroke:#0409fb;stroke-width:1.88976;stroke-linecap:butt;stroke-linejoin:miter;stroke-miterlimit:4;stroke-dasharray:none;stroke-dashoffset:0;stroke-opacity:1;marker-end:url(#marker48227-6)"
       d="m -741.98779,-599.2502 h -47.803"
       id="path2"
       sodipodi:nodetypes="cc" />
    <path
       style="display:inline;vector-effect:none;fill:none;fill-opacity:1;stroke:#0409fb;stroke-width:1.88976;stroke-linecap:butt;stroke-linejoin:miter;stroke-miterlimit:4;stroke-dasharray:none;stroke-dashoffset:0;stroke-opacity:1;marker-end:url(#marker48217-9)"
       d="m -822.77189,-599.2502 h -47.803"
       id="path3"
       sodipodi:nodetypes="cc" />
    <path
       style="display:inline;vector-effect:none;fill:none;fill-opacity:1;stroke:#0409fb;stroke-width:1.88976;stroke-linecap:butt;stroke-linejoin:miter;stroke-miterlimit:4;stroke-dasharray:none;stroke-dashoffset:0;stroke-opacity:1;marker-end:url(#marker48207-0)"
       d="m -877.3693,-611.57654 c 48.9156,-28.24176 163.30291,-32.20742 218.78401,-0.17365"
       id="path4"
       sodipodi:nodetypes="cc" />
    <path
       style="display:inline;vector-effect:none;fill:none;fill-opacity:1;stroke:#32fd00;stroke-width:1.88976;stroke-linecap:butt;stroke-linejoin:miter;stroke-miterlimit:4;stroke-dasharray:none;stroke-dashoffset:0;stroke-opacity:1"
       d="m -1080.1971,-586.26614 c 27.9777,27.97769 314.28892,33.28214 345.63052,1.94053"
       id="path6"
       sodipodi:nodetypes="cc" />
    <path
       style="display:inline;vector-effect:none;fill:none;fill-opacity:1;stroke:#32fd00;stroke-width:1.88976;stroke-linecap:butt;stroke-linejoin:miter;stroke-miterlimit:4;stroke-dasharray:none;stroke-dashoffset:0;stroke-opacity:1"
       d="m -1160.1971,-586.26614 c 27.9777,27.97769 314.28892,33.28214 345.63052,1.94053"
       id="path7"
       sodipodi:nodetypes="cc" />
    <path
       style="display:inline;vector-effect:none;fill:none;fill-opacity:1;stroke:#32fd00;stroke-width:1.88976;stroke-linecap:butt;stroke-linejoin:miter;stroke-miterlimit:4;stroke-dasharray:none;stroke-dashoffset:0;stroke-opacity:1"
       d="m -1240.1971,-586.26614 c 27.9777,27.97769 314.28892,33.28214 345.63052,1.94053"
       id="path8"
       sodipodi:nodetypes="cc" />
  </g>
</svg>
