<?xml version="1.0" encoding="UTF-8" standalone="no"?>
<!-- Created with Inkscape (http://www.inkscape.org/) -->

<svg
   width="330"
   height="307"
   viewBox="0 0 330 307"
   version="1.1"
   id="svg1"
   inkscape:version="1.3.2 (1:1.3.2+202311252150+091e20ef0f)"
   sodipodi:docname="10-8-ex-17-q.svg"
   xmlns:inkscape="http://www.inkscape.org/namespaces/inkscape"
   xmlns:sodipodi="http://sodipodi.sourceforge.net/DTD/sodipodi-0.dtd"
   xmlns:xlink="http://www.w3.org/1999/xlink"
   xmlns="http://www.w3.org/2000/svg"
   xmlns:svg="http://www.w3.org/2000/svg">
  <sodipodi:namedview
     id="namedview1"
     pagecolor="#ffffff"
     bordercolor="#666666"
     borderopacity="1.0"
     inkscape:showpageshadow="2"
     inkscape:pageopacity="0.0"
     inkscape:pagecheckerboard="0"
     inkscape:deskcolor="#d1d1d1"
     inkscape:document-units="px"
     showgrid="true"
     inkscape:zoom="2.3697898"
     inkscape:cx="228.71227"
     inkscape:cy="171.95618"
     inkscape:current-layer="layer1">
    <inkscape:grid
       id="grid1"
       units="px"
       originx="57.000004"
       originy="-42.000046"
       spacingx="1"
       spacingy="1"
       empcolor="#0099e5"
       empopacity="0.30196078"
       color="#0099e5"
       opacity="0.14901961"
       empspacing="5"
       dotted="false"
       gridanglex="30"
       gridanglez="30"
       visible="true" />
  </sodipodi:namedview>
  <defs
     id="defs1" />
  <g
     inkscape:label="Layer 1"
     inkscape:groupmode="layer"
     id="layer1"
     transform="translate(57.000004,-42.000046)">
    <image
       width="330"
       height="307"
       preserveAspectRatio="none"
       xlink:href="data:image/png;base64,iVBORw0KGgoAAAANSUhEUgAAAUoAAAEzCAYAAABXBEoMAAAABHNCSVQICAgIfAhkiAAAIABJREFU eJzt3XdUVGf+P/D3wNClV2kKiDQBBUERVxBLxIKamK/G9E1yTEzM98fuZo0xriZRj19jmkYT46Zo TDEaDxoxdhFQEZQmUkQRGEBGZOh9mPn9wXJ3roBDmZk75fM6hxPuMNz5EJk3z33uU3hSqVQKQggh A9LjugBCCFF3FJSEECIHBSUhhMhBQUkIIXJQUBJCiBwUlETt+Pr6cl0CISw8Gh5EVKWurg4AYG1t DQAoLS3F2LFj+zyPx+OBfi2JOqEWJVGJS5cuYc6cOdi6dSsAoK2tDQEBAaisrOS4MkLko6AkKhEV FYX33nsPt27dAgCYmJjgs88+g6OjI8eVESIfBSVRGTc3N1RXVwMAGhsbYWRkBD6fz3FVhMhHQUlU xtHRkQnKQ4cO4dlnn+W4IkIGh27mEJXp6OjAqFGj8Oeff8LT0xOenp79Po9u5hB1Qy1KojJGRkaw tLSEiYnJgCFJiDqiFiVRGaFQiFOnTuHFF1987POoRUnUDfWkE6WrqamBnp4eTpw4gVdeeYXrcggZ Mrr0JkrVO17y0KFD+Otf/8p1OYQMC116E6WTSqXg8XiDfj5dehN1Qy1KonRDCUlC1BEFJSGEyEFB SQghclBQEkKIHBSUhBAiBwUlIYTIQUFJCCFyUFASQogcFJSEECIHBSUhhMhBQUkIIXJQUBJCiBwU lIQQIgcFJSGEyEFBSQghclBQEkKIHBSUhBAiBwUlIYTIQUFJCCFyUFASQogcFJSEECIHBSUhhMhB QUkIIXJQUBKNcuDAASxbtozrMoiO4Ulpp3miZng8Hgb6tRQKhSgvL0dYWJiKqyK6jFqURGNIpVK0 tbXBz8+P61KIjqGgJBqhvb0de/bsgbe3NyQSCdflEB1DQUk0grGxMby8vBAZGQkLCwuuyyE6hoKS aIxTp04hNjaW6zKIDqKgJBojMTER8+bN47oMooMoKIlGKC4uRnNzMywtLdHY2Mh1OUTHUFASjZCX lwc+n4+ioiLqoyQqR+MoidrpbxylRCJBY2MjrKysOKqK6DIKSqJ2HjfgnBAu8LkugGg/qVSKlpYW tLa2or29HR0dHcx/Ozs70d3dDQDo6OhgvufcuXPQ09ODgYEBAIDP58PQ0BBGRkYwNjZmPkxNTWFq asrJz0V0B7UoicI0NTVBJBJBJBKhsbERTU1NaG5uRnNzc59B4u+99x5qa2uHdH5bW1ts3bq1z+P6 +vowNzdnPiwsLGBrawsbGxuYmJiM6GciBKCgJMPU3NyM6upqCIVC1NbWQiQSobOzUyHnXrVqFfbu 3auQc5mYmMDGxgZ2dnZwdHSEk5MTjI2NFXJuojsoKMmgNDQ0QCAQMOHY0tIy5HMYGhqyLpuNjY1h aGgIPr+nB4jP50NPTw+TJk1CVlYWuru7mcvyrq4udHR0MJftbW1t6OjoQFdX15DrsLKygqOjI0aP Hg1XV1e6dCdyUVCSfonFYlRVVUEgEEAgEAx67OKoUaNgY2MDKysr1uWwubk5E4jyDOVmTkdHB5qa mlgfdXV1EIlEaG9vH9Q57Ozs4OrqCjc3Nzg6OkJPj0bNETYKSsIQi8UoLy9HSUkJysvLIRaLH/t8 CwsLODo6wsHBATY2NrCxsYGRkdGI61DUXe/W1laIRCLU1tZCKBRCKBSira3tsd9jbGwMDw8PeHp6 wtnZGTweb8R1EM1HQanjpFIpBAIB7ty5g7KyssdeylpbW8PV1RVOTk5wdHRU2iWrMocHNTY2orq6 GtXV1aioqEBzc/OAzzUxMYGHhwfGjx8PBwcHpdQzUteuXYODgwM8PDwAACKRCJ9++ikcHR1RWVmJ LVu2IC0tDT4+PrCzs+O4Ws1FQamjmpubUVhYiKKiogH7Gw0MDODi4gI3Nze4ublh1KhRKqlNleMo 6+rqmO6F+/fvD7iEm42NDXx9feHt7a2QVrMiHDhwAFZWVoiLiwPQ0w0RHR2Nffv2YcKECXj55Zfx xBNPYPny5di4cSOee+45jB8/nuOqNRMFpY4RCATIy8tDRUVFv2FkYGCAMWPGwNPTE25ubtDX11d5 jVwNOO/s7ERpaSlKSkpQUVHRb2jq6+vD09MTgYGBnLbQMjMzsXXrVhw5coR5bMOGDSgpKcFPP/0E ANi4cSNqamqwZ88etLS04KWXXsJvv/1G3QnDQAPOdUB3dzfu3LmD3Nxc1NXV9fm6np4e3N3d4e3t DTc3t0HfdNE2hoaGGD9+PMaPH4+Ojg6Ulpbi9u3buH//PvOc7u5uFBcXo7i4GM7OzggKCoK7u7tS 66qvr8e9e/cQEBAAQ0NDAMCmTZvw6quvMs9pbW3F7t278csvvzCP1dTUoLW1FQBgZmYGa2tr7N27 F6+//rpS69VGuvmO0BFdXV24desW8vLymDeMLAsLC/j6+mL8+PE0ROYRRkZG8PHxgY+PD+rr61FY WIjbt2+z7qRXVVWhqqoKVlZWmDhxIsaNG6fwO+Zbt26FsbExFixYgKVLlyIxMRGVlZVITEzE119/ zTzvl19+QUNDAyorK3Hw4EEAQEpKClasWME8Jzw8HF999RUF5TBQUGohsViMW7duIScnp98hMu7u 7ggMDISLiwsH1WkeKysrTJ06FeHh4bh37x5yc3NRU1PDfL2+vh5JSUnIyspCSEgIxo0bp5DL2w8+ +AAWFhaIj49HRUUF03LNy8sDj8eDo6Mj89y0tDRERkYiKCgIANDS0oL8/Hz4+/szz7G3t0dWVhY6 OzuZlikZHApKLdLd3Y2CggJkZWX1GQajr68Pb29vBAUF0Qo8w6SnpwcvLy94eXnh/v37yM3NRXl5 OdOf2tDQgIsXLyI7OxuhoaHw9PQc9mulpaXhwIEDuHPnDgDA1dUVX331FYCefmZLS0tW/3FxcTGi oqIwefJkAMDRo0dhb2/PWhHezs4OUqkUIpEITk5Ow65NF1FQaonS0lKkpaX1GRjO5/MxYcIEBAYG 0rxnBRo9ejRGjx6N+vp6ZGdno7i4mAnMuro6nDt3Do6OjoiIiBjW0KKEhARER0f32zI1NzdHfX09 JBIJ61J/zJgxzOcHDhxAfHw8a7pmS0sL9PX1YWtrO+R6dB0FpYarr6/H1atXIRAIWI/r6enBx8cH oaGh1P+oRFZWVoiOjkZoaCiys7NRWFjIBKZQKERCQgI8PT0xderUIQ2v6ujoQGVlJXN879498Hg8 jB07FsHBwZBIJHj48CETwiEhIcwwr6ysLIhEIrz99tusc1ZVVcHDw4NZkYkMHg0P0lBdXV1IT09H fn4+ayiNnp4efH19ERISorEBqcnrUYpEImRkZKCsrIz1uIGBAUJDQzFhwoRB3fDJz8/H7NmzERUV heDgYEyePBmzZ89mvj5x4kR8/vnniI6OBtBzOb569Wo899xzOH36ND799NM+XSzr1q2DsbExNm7c OPIfVMdQUGqg8vJypKam9plV4uLigoiICNjY2HBUmWJoclD2qqqqwpUrVyASiViP29raYsaMGbC3 t5d7jo6ODgiFwn6HH2VkZODw4cPYvn0781hXVxeqq6vh5ubW5/nd3d2YNGkSzpw5Q/2Tw0BBqUE6 OjqQnp6OgoIC1uOWlpYICwsb0c0DdaINQQn0TA8tLi7GtWvXWDfX9PT04O/vj/Dw8BGNWf3oo4/w 9NNPw9fXV+5zv/vuOzg7O9MulsNEQakhKioqkJSUxBoPqaenh6CgIISGhnIyg0ZZtCUoew30B87K ygoxMTEjmuGTmJiI4OBguLq6Dvicy5cvo7u7GzNmzBj26+g6Cko1JxaLkZ6ejry8PNbjdnZ2mDFj hlYudKBtQdnr/v37SE5ORkNDA/NY7/qbISEhNLVQjVFQqrGHDx/iwoULqK+vZx7j8/kIDw9HQECA 1r6xtDUogYH/8Lm4uGDmzJkaewNO21FQqqnbt28jNTWVtSakjY0NYmJiNP5mjTzaHJS9KisrkZSU xFq5ydjYGLNmzaIZU2qIglLNdHd348qVK336syZMmIApU6ZoVV/kQHQhKIGe1YpSUlJw9+5d5jEe j4ewsDBMnDiRw8rIoygo1UhzczPOnj3Lmkesi60MXQnKXgUFBbhy5QqzP1BLSwuKiorg7e2N1157 DRYWFhxXSCgo1URtbS1OnTrFuhSzs7PDnDlzYG5uzmFlqqdrQQn09EefPXsWIpEIH374IR48eAAA CAoKwvXr12k2DcdoFyU1IBAIcPz4cVZIent7Iy4uTitCsqOjAz/88ANWrVqFhQsXsm5ODYTH47E+ Ll++zHwtLy8Penp6rK/b2tqy+nM/+eSTPueQXXIMAGbNmtXnOQcOHGC+Xl9fD1NTU9bXDQ0NUVVV xTwnISGhzznCw8NZr7Nq1ao+z/nXv/7Fek5ISAhWrlyJt956iwlJAMjNzUVqaqrc/19EuahFybG8 vDxcvXqVaUHp6ekhMjISfn5+HFemGL/99hv+3//7fwgNDcWiRYvg4+ODGTNmPPaOvS62KHvduXMH Pj4+zOrqfD4fn3zyCZ588snHjpUkykWLYnDo2rVryMnJYY4NDQ0xe/ZsrXlD/POf/0RCQgISExMx adIkrsvRCE1NTTA1NUVzczPMzc2xbNkyGBsb49SpU4iOjsa4ceO4LlEn0aU3R65cucIKSVNTUyxc uFBrQnLHjh04d+4cMjIyKCQH6f79+1i6dCl+/PFHAD0LY/zlL38BAEgkEly4cKHP+EuiGnTprWJS qRTJyckoKipiHrOxsUFsbCzMzMw4rExx0tLSsGzZMly7dm1Yd+t18dK7ra0N0dHRePLJJ7F27VpM nDgR2dnZqKmpwalTp1hzxSMiIhAYGMhhtbqHglKFJBIJLl68yBo3Z29vj/nz56vNFqgjJZFIEBER gfj4+D43TwZL14JSKpVi5cqVMDQ0xP79+/t8vb6+HomJiaybfWFhYdRSVyG69Fah1NRUVkg6OTlh wYIFWhOSQM8WBHw+H8uXL+e6FI3xr3/9CwKBAN98802/X+/du1t2PGVGRgays7NVVaLOo6BUkZSU FBQWFjLHLi4umD9/vtZt8vT111/j7bff1tp56Ip2+PBh/PTTTzh69Ohj/2Cam5tj0aJFrMV4exdu JspHQakC165dY01JdHJywhNPPKF1+2dXVFQgJycHS5cu5boUjXD9+nWsWbMGx44d67OvzokTJ/o8 38zMDAsWLGC1LFNTU1l/gIlyUFAqWWZmJuvutoODA2JjY7UuJAHg4sWLmDlzpta1kpWhrKwMixcv xr///e9+b8wsWrSo3+/rDUvZG38pKSl9tp4gikVBqUR3797F9evXmWNbW1vExsZq7XS0S5cuMXu4 kIE1NzcjLi4Oa9euxcKFC4f8/ebm5li4cCGzJJtUKsX58+dZM3qIYlFQKsn9+/eRlJTEHFtaWmrd jZtH5efn06o3ckgkEjz77LMICwvrs0viUFhaWiI2NpZpvYvFYpw5c6bPPkpEMSgolaC+vh5nzpxh VoMxNjbGvHnzWHssayOBQNDvxlbkv/75z3+ivr4ee/bsGfG5bG1tMXfuXGZXx9bWVpw8eRIdHR0j Pjdho6BUsK6uLpw5c4b5ZdXX18fcuXNhaWnJcWXKd//+fYwePZrrMtTWDz/8gISEBPz+++9y+3EH e+Xh7OzMzN4Bev5Inz9/XqfGoaoCBaWCJSUlsVbHiYqK0pntQbu7u7XyJpUipKSkYN26dTh58uSg 9jkqKSkZ9Ll9fHxYXR4VFRW4cePGsOok/aOgVKDMzEzcu3ePOQ4NDaVFDAju3buHFStW4ODBgxg/ fvygvsfZ2XlIrxEeHg4PDw/mODMzE6WlpUM6BxkYBaWCCAQC1l9xNzc3hISEcFgRUQeNjY1YtGgR NmzYgFmzZin1taKiolhdPElJSWhsbFTqa+oKCkoFaGtrQ1JSEtMvZG5ujpkzZ9LsFB3X3d2NlStX Yu7cuXj99deH9L0ikWjIr2doaIgnnniCGX7W2dmJc+fOMWtbkuGjoFSApKQkZnUXPp+PuXPnav0d biLf//7v/0IsFuPjjz8e8vcOd7k9KysrzJgxgzl++PAhaywvGR4KyhHKy8uDQCBgjqdOnQpbW1sO KyLq4Msvv8SFCxdw6NChYe2cKbus2lB5eXnB19eXOc7JyWFtX0GGjoJyBEQiEa5du8Ycu7u7w9/f n8OKiDo4c+YMNm/ejD/++IOzYWERERHMa0ulUiQlJdH4yhGgoBym3l8+2UHlspc8RDcVFhbi+eef x6FDh+Dl5cVZHQYGBpg1axYzGL25uRlpaWmc1aPpKCiHKTc3Fw8fPmSOo6Ojmbm3RDeJRCLExcVh y5YtiIqK4roc2NnZITQ0lDkuKipCZWUlhxVpLgrKYWhqamINBRo/fjzc3d05rIhwraurC8uWLcPT Tz+NV199dcTnO3TokAKqAoKDg1kD3JOTk1nb+pLBoaAchpSUFOaXzdjYGFOnTuW4IsK1t956C1ZW Vvjoo48Ucr7/+Z//Uch59PT0EBUVxVyCP/pHngwOBeUQFRcXo6KigjmOjIykoUDo6bPV1XGjH3/8 MTIyMvDjjz8ygaRObG1tWWte3rx5c1jjNHWZ+v2rqjGxWIz09HTm2N3dndMOe3UiFot1cp73n3/+ iZ07d+LYsWNqvYtmaGgoszK6RCLB1atXOa5Is1BQDkF2djazE56enh4iIiI4rkh9iMVinVvZPD8/ Hy+//DKOHDmi8OXlpk2bptDz8fl81u9rZWUlzQUfAgrKQWpubkZubi5zHBQUpBNLpw2WUCjUqYH2 QqEQ8+fPx2effYYpU6Yo/PzKaPGNGTOGNeMnLS2NGd5GHo+CcpDS09OZGzimpqa0p/Ij8vLyEBAQ wHUZKtHe3o6lS5filVdewTPPPMN1OUMSERHB9KM2NjYiLy+P44o0AwXlINTV1bH24w4LC9PafW+G 68aNGwgKCuK6DKWTSqV49dVX4erqivfff5/rcobM2toafn5+zHFOTg46Ozs5rEgzUFAOQkZGBrMy kLW19aDXFNQlhw8fxpIlS7guQ+k++ugjFBUV4YcfftDYu/yhoaHMH/r29nZqVQ4CBaUcDx8+ZHV6 h4aGcvoG+e6777Bjx44hf9+1a9eYRYVFIhHef/997Nq1C++++y66u7tx+fJl1kyjocjKykJzc7NS +urUye+//459+/YhISFB6bOw3nrrLaWd29jYmNVNkpubS/PA5aCglOPR7WY9PT05rAbw9PSEj4/P kL7nwIEDEAqF8PDwQEdHBxYsWIAVK1ZgzZo1EAqFOHz4MKZNm4adO3fi9u3bQ65p/fr1+Oc//6mx LazByMzMxJtvvokTJ07AxcVF6a+3a9cupZ4/ODiYGaXQ2dmJmzdvKvX1NB0F5WOIRCKUl5czx5Mn T+awmh7R0dFYtGjRoJ+fmZmJ48ePIy4uDgCwefNmeHp6YsKECQB6xoImJyeDx+Nh7dq1WL9+/ZA2 pjp69CiKi4vx2muvDe0H0SBVVVVYunQp9u7di+DgYK7LUQgjIyPWIPS8vDzqq3wMCsrHyMnJYT63 s7PDmDFjVPba+fn52LlzJ3799VdkZGQwj+fm5uKPP/4A0LOCdkJCAoqLi5GVlYUvvviiz6IHmzZt wgsvvACgZzvT3bt3M8cAUFNTg9bWVgCAmZkZrK2tsXfv3kHVmJWVhTfeeAO//vqr1t7camtrw5Il S7BmzRosXryY63IUKjAwkNWqLCoq4rgi9UVBOYCWlhbWnW5V3tGtrKzEtm3b8Oabb8Lc3JwJxps3 b+Kll17C77//DqCnz2z58uX48ssvcfHiRZw7d441R7iyshKJiYlMS/iXX35BQ0MDKisrcfDgQRw8 eBApKSnw9vZmvic8PBz79u2TW+Nvv/2GefPm4ZtvvmGtUKNNpFIpXn75ZQQEBOAf//iHSl97w4YN Sn8NQ0ND1gK/ubm5tG3EAHRvztkg5eXlMb80ZmZmKu2bLC0tRXp6OsrLy7FgwQJm9ZfAwEDMmTMH QqEQQM/CCWvXrsXMmTOxZMkSzJo1C2FhYZBIJNDT00NeXh54PB4cHR0B9AwwjoyMZEK/paUF+fn5 rMWG7e3tkZWVhc7OTtZMm/b2dly6dAkFBQU4ePAgOjo6cPr0adY2qdpm/fr1qKysxLlz51T+2ps3 b1bYAhuPExgYyPyut7S0oKSkhHYO7Qe1KPshFotRUFDAHAcGBqp0sYMpU6bA09MT/v7+iI+PZ/WL PXqJq6+vzyzK4ejoiK6uLqavSSAQwNLSktmKoLi4GFFRUZg8eTImT56M2tpa2NvbIzY2ljmfnZ0d pFJpn0UTbt68iXfeeQfvvfceKisrsWXLFq0OyUOHDuHQoUM4evQojIyMuC5HaR5tBNBNnf5RUPbj 7t27TNgYGBiwLk9UobOzEydPnsTPP/+MhIQELF++fFjnMTc3R319PetySraf9cCBA4iPj2etftTS 0gJ9ff0+0xHDwsKQm5uLxsZG7Ny5E+vXr8eLL77I9G9qkytXrmDNmjU4duwY7O3tuS5H6WS7lWpq aoY9TEybUVD2Q7Y16e3trfLFHpKTk3Hq1CksXboUJ06cQEpKCvM1iUTCCj6xWMwc996t7j0ODg6G RCJhfvFDQkKYRT2ysrIgEonw9ttvs167qqoKHh4eA96c4fP5ePrpp5Geno7u7m4sWbJEqxaCLS0t xbJly/D9998zIwO0nZ2dHRwcHJjjwsJCDqtRTxSUjxCJRHjw4AFzrOrWZK/4+Hh89913OHLkCDZu 3Aigp6WblJSE9PR05OXlITExEQKBAAkJCRAIBPjxxx8B9AxK7609ODgY+fn5zDnPnTuHQ4cOYdeu XTh+/DhMTExYr1tUVITnnntObn0mJibYv38/jIyM8Le//U2RPzpnmpqaEBcXh/Xr12PBggWc1qLq Tepkf8/v3LmjVX/8FIEnHcqgOR1w5coVZkqXnZ0dnnzySZXX0NnZCX19fZSWlsLc3Jz1136oMjIy cPjwYWzfvh1Az5YF1dXV/S4L1t3djUmTJuHMmTNwcnIa1PkbGxvh5+eHEydOKGyhEB6PN6SxnIog kUiwZMkSODo6Duquv7YRi8U4ePAg0+UUHR1NU3VlUItShkQiQXFxMXMsu3iAKhkaGkJfXx9eXl4j Ckmgp2/R3NycuZwyMDAYcO3E/fv3Y/v27YMOSQCwsLDAxo0bsW7duhHVybW///3vaG9vx1dffcV1 KZzg8/msRahpTCUbBaWMiooKZs5rb1Bpgw0bNuDu3busLSwedfnyZYwbNw7z5s0b8vlfeuklZGZm QiAQjKRMznz33Xc4deoUDh06pJOrtPeSnRpbXV3N9GcTCkoW2QHm7u7uWrVi94IFC1iLtj4qMjJy 2PuSGxoaYunSpfjtt9+GWx5nkpOTsX79ehw/fhzW1tZcl8M4ffq0yl/TwcGB2S5CKpUyi6gQCkpG d3c3ysrKmGOuF7/QNDExMUhLS+O6jCEpKSnBihUr8NNPP7FmJ6kD2bGtquTh4cF8Lttw0HUUlP8h EAiYjmw+n0/7dA9RUFAQa6sMddfY2Ii4uDhs3LgRMTExXJfTB1f3WGW7m4RCIZqamjipQ91QUP6H 7JqT7u7uWrvIg7KMGTOmz4Ic6kosFuOpp55CbGwsVq1axXU5asXOzo65/AbAusrSZRSU/yF7o2Ps 2LHcFaKhDAwM0NXVxXUZg/L222/DwMAA27Zt47oUtST7+6+pN+gUjYISPauY907F4/F4KlmYVdvw +XyNCMovvvgCly5dwi+//MLMgVdHXN5IlB0+dv/+fRp8DgpKAOzWpL29fZ/ZKkQ+LgaJD9Xp06ex bds2/PHHH2q/1fBwVppXlNGjRzNdT2KxGNXV1ZzVoi4oKAHWKuaK3sieqIeCggK89NJLOHr0qEaM aFDlItGP0tPTg7OzM3Ms+/7QVbo7uvY/xGIxa243BaX2qa2tRVxcHD7++GNEREQM+ftFIhE+/fRT ODo6MkvMqfNluyK4ubkxN3Kqqqo4roZ7Ot+irKmpYVbb4fP5zCK5RDt0dnbiqaeewooVKwa12Mej BtqMTdnq6+uV/hqPM3r0aObzuro6nd+lUeeDUrb/xcHBQaUL9BLlW7RoEXJzc4e9/etAm7Ep2+Nm UamCtbU1s2CxVCplXXXpIp1Phd5tFQAMaTEIov62bduGhw8fIj4+HtHR0UMe6iJvMzZlUod51r1b iADQ+Rs6Ot9HKRuUsr8YRLOdPHkSu3fvxtWrV+Hq6opRo0YhKioKqamprBsVj/PoZmwAkJKSghUr ViizdLXh5OTE3MihoNRhjY2NrL6XkS5pRtRDdnY2XnrpJZw4cYK5hI2Pj0dHRwcWLVqES5cuYdSo UXLPM5jN2LSZbMNB17eH0OlL79raWuZzCwsLrd5ESldUV1dj8eLF2LlzJ8LDw1lfe/fddxEaGopn nnlmUNuyDmYzNm0mu29SV1cXGhsbOayGWzodlLI7DdrY2HBYCVGE9vZ2LF26FKtWrRrw8njPnj1o bm7Gjh07BnVOeZuxKUvvpT6XDA0NWS3vR3fm1CUUlP9BQanZpFIpXnnlFbi7uz92tXU+n4+DBw/i s88+Q05OzmPPOZjN2JTl2WefVcnryCPbqtTloNTpPkrZS28KSs32wQcfoLS0FBcuXACPx3vsc11c XLB9+3a88MILuHHjxoCrmsfHx2P16tVwcnLC6dOn+92MTdvZ2NgwA891OSh1tkUpkUhYa+1RUI6c vr4+JwsoHDlyBPv378fRo0cH3c/8/PPPw9HREd9+++2Az3Fzc8PRo0cxbdo0fPfdd7CyslJUyRpD 9n3B9SB4LulsUDY3N7MWcTA3N+ewGu3g4uLy2H15lOHGjRt46623cOzYsSEP7/r444+xadOmxy5O +7jN2JQpKipK5a/ZH9n3hS4v4qv1QSmRSPDbb7/1GQcm+49uZmam9XPq4+EiAAAc1UlEQVR3VWHs 2LGsBZCVraqqCkuXLsU333zDDOEZiuDgYMyePRu7du1SQnUjo4rZP4MhG5RdXV1ob2/nsBruaHVQ 1tTUYMOGDVi+fHmfcWCyQUmtScWYOHEi0tPTVfJabW1tWLx4MeLj4xEXFzfs87z33nvYvXu3Rqyl yQUTExPWav+PtioHaohoG60OSnt7e3z00Uf9fk32H3wwg4+JfLNmzcL58+eV/joSiQQrV65EYGAg 4uPjR3QuPz8/eHl54cSJEwqqTvvIvj9k3zePa4hoG60OSqBnbb3+Lqtl59JSUCrGzJkzkZGRgZqa GqW+zrp161BbW4uvv/5aIed7/fXX8c033yjkXNpI9oqrubmZ+fxxDRFto/VBOZC2tjbmc1NTUw4r 0R7m5uZYtmwZ/v3vfyvtNfbv348jR47g999/V9h2CUuXLsWVK1fQ0NCgkPMpwl//+leuS2DIDol6 tI9yoIaIttHZoJSd462KmRa6Ys2aNfjyyy+VMpQkNTUV77zzDo4fPw57e3uFndfExAQREREq6TYY rMcNW1I12SFXuroupcYOOK+vr8fnn38+4NdXr1792EUuZP8y0hxvxQkMDMSSJUvw/vvv48svv1TY eUtLS7F8+XL8/PPPCAgIUNh5e82fPx8nT57Ek08+qfBzazrZhoSu3vWGVAfo6+tLb968yXrs+++/ l9ra2kr37t0rffDgAUeVaae6ujqpp6en9McffxzW9z/6a9nY2CgNDAyU7t69WxHl9Ss7O1saEBCg tPNrsoKCAunevXultra20uPHj/f5en/vL22jE5feUqmUNbhcKpWis7OTmcJILUrFsrKyQmJiIt55 550RL+7Q3d2NlStXYubMmVi9erWCKuzL19cXJSUl6OzsVNprDMUHH3zAdQmM3hZlbW2tzl56a3VQ trS0YN++fZBIJPj111+ZsV7d3d2s5w0015cMn6+vL86dO4ctW7bg+eefR35+/rDOEx8fj87OTnzy yScKrpDNyMgI7u7uuHPnjlJfZ7A2bdrEdQkM2Zs1j753gL4NEW2k1UFpZmaG1157DVKpFFu2bGG2 enj0H1sX7tpxISAgABkZGfD19cWcOXPg7e2NRYsWDfru8rfffouzZ8/i0KFDKvlj5uvry+l+2upq oKAcqCGijXSyKfXooq20oZjyjBo1CuvXr8fatWtRWlqKysrKQY1bTU5Oxvvvv4+UlBSVLUZhbW2t VkOE1IXs+0M2KHsbIq+99hoXZamUTgYltShVj8/nY9y4cRg3btygnv/000/j119/HfTzFcHCwoKC sh/yLr11AU+q4M6F8ePHo7i4WJGnJISQEfH29h5Rt4rCrzlv377NdO6q60dDQwP27t0LANi7dy8k EgnnNdFHz0dvtwgXr11WVoZ79+5x/v9A3T4ePnzIvF++/fZbzusZzsdI+5518tL70UttiURCl99q Qt7q5Mrk7u7O2WurM9nLbV19n+jkXYxHb97oar8LIYMhe/OTglKH9NeiJIT0j1qUOhqUj7YoKSgJ GZhsUKrrULqHDx9CIBAwx3l5eQo9v3r+1ErG5/NZ/+DqMm2NEHUku2Gc7Grn6qKiogJffvklpk6d itbWVmzYsAFvvPGGQtdF1cmgBHo2d+/ds1hnV0TRAFevXuW6BE6UlZWhqqqK6zIA/HftVltbW7Vc ktDV1RWbNm3C2LFjER8fj/j4eKSkpCh0KT6dDUpjY2Ns3boVgO6usafupFIpZs+erZN/yHbs2IGE hASuywDw3/fH1q1b1XoBmZiYGJiZmSll62mdDspeuvhG1AQ8Hg8eHh64desW16WoXHZ2Nry9vbku AwD7/aGOLcpe1dXVSEtLU8q5KShBQanOVq5cid27d3NdhkplZ2ejtLQU0dHRXJcCQDOC8tixY1i7 di2ys7PR3NyM3NxchZ6fghLs/XOIennjjTdw4cIF/PHHH1yXohLNzc14/vnnsXnzZrW5cSL7/lC3 oDx48CDmzZsHGxsbjBs3DjNmzMCaNWsUvkaATs7MAQbegpOoF2traxw6dAhxcXHYs2cPnnrqKa5L UpqqqiosXrwYM2fOxIsvvsh1OQzZ94fsjozq4JlnnkFcXBwsLCwAAAkJCeDz+Qpflk9nW5Sy/+AU lOptypQpOHPmDP7xj3/g2WefRVlZGdclKVRLSws+++wzTJw4EcuWLcPOnTu5LokhlUpZW9SqW1Dq 6+szIQn0tHiVsXapzrYoKSg1S3BwMG7duoVt27YhNDQUU6ZMwfz58zFt2jS4uLjAzs5ObQdDy5JI JKitrYVQKMT169dx6dIlHD9+HNHR0UhJSYGPjw/XJbK0tLSwJmQMZi1RbURBiZ7hD52dnQrbJ5oo h6mpKT788EOsW7cOCQkJuHjxIvbt24fq6mrU1NQMaYaVtbU17OzsEBQUhOnTp2P58uUYPXr0oL73 6tWrSExMxPXr11FYWIiGhoZBb8/L4/FgZ2cHOzs7TJo0CREREdi6deugX1vVZBsRxsbGatNvqmo6 G5SmpqbQ19dnpmc1NDQodIAqUR4TExM888wzeOaZZ4Z9jrq6OgiFQmRmZuLixYuYMGEC5syZg23b tmHs2LF9ni+VSvHTTz/hww8/hIGBAZYtW4Y1a9YgICAAVlZWKluFXdVkFzKWvcTVNToblDweD9bW 1nj48CEAQCQSUVDqEGtra1hbW8PX1xcrV67EF198gS+++AJhYWHYsWMH62aKUCjE008/DbFYjO+/ /x6RkZEcVq5aIpGI+dza2prDSril/p06SiQ7gl/2F4LoHlNTU6xbtw6pqanYvHkzdu3aBaBnEPPU qVMxa9YsXL58WadCEmC/L5Qx40VT6GyLEqCgJH35+Pjg/PnzmDJlCsLDw/Huu+/ilVdewfvvv891 aZyQfV/0ro2gi6hF+R+1tbUcVkLUibu7O7Zs2YLly5ejvr4e69ev57okTrS0tLBm5dClt46S/QvZ 3t7OGi9GdNuzzz6LmpoavPrqq5xuT8Gl3v57oKdrwsTEhMNquKXTQWliYsIaJqTNG7iToTEyMsL4 8eMxYcIErkvhjOz7wcHBgcNKuKfTQQkAjo6OzOdCoZDDSoi6OXbsGKZPn851GZyRfT84OTlxWAn3 dD4oZX8BKCiJLHd3d53dI6a7u5u1QjgFpY6T/QWora1FV1cXh9UQoh5qamqYyRj6+vo6fccboKCE tbU1M3VRKpXi/v37HFdE1N21a9dw7949AD3DZ95//33s2rUL7777Lrq7u3H58mXWjRBNJLsNhb29 vc62rHvpfFDyeDw4Ozszx7I7uRHyqAMHDkAoFMLDwwMdHR1YsGABVqxYgTVr1kAoFOLw4cOYNm0a du7cidu3b3Nd7rDJvg9cXV05rEQ96HxQAj19Ub3Ky8s5rISos8zMTBw/fhxxcXEAgM2bN8PT05O5 M+7u7o7k5GTweDysXbsW69evh1Qq5bLkYeno6MCDBw+YYzc3Nw6rUQ8UlGD/IjQ1NbEWAiCa7fTp 0/j888+RnZ3NejwtLQ1ffPEFEhMT+4RZfn4+du7ciV9//RUZGRnM45s2bcILL7wAAGhtbcXu3buZ Y6CnX6+1tRUAYGZmBmtra+zdu1dZP5rSVFRUMP9PjI2NYWdnx3FF3KOgBPrs3EatSu3wxhtvwNjY GC+//DIWLlyIr776CkBPS7CkpARvvPEGjh8/zlqFqLKyEtu2bcObb74Jc3NzZguKyspKJCYmYvLk yQCAX375BQ0NDaisrMTBgwdx8OBBpKSksDYECw8Px759+1T4EyuG7GW3m5ubzg64l6XTc71lubm5 MfNa7927h8DAQI4rIiORkpKCsrIyREVFAQB2794NY2Nj5OfnY+/evUwY/N///R9cXV1x4sQJLFy4 EKWlpUhPT0d5eTkWLFjAtKby8vLA4/GYcbdpaWmIjIxEUFAQgJ7pfvn5+fD392dqsLe3R1ZWlkat dSqRSFgryNNldw9qUf6Hh4cH87lQKERLSwuH1ZCRunbtGuuScfHixXjiiSeQlJTEmmRgZWUFX19f pKenA+jZdsLT0xP+/v6Ij49HcHAwgJ5WlqWlJXP3t7i4GFFRUZg8eTImT56M2tpa2NvbIzY2ljm3 nZ0dpFKpRi24UlFRwezjra+vz+q/12UUlP/h4ODALEwqlUpRUlLCcUVkJIyNjZGZmcl6rLS0FN3d 3aioqGA9bmVlxSzW29nZiZMnT+Lnn39GQkICli9fDqBnRfz6+nrWKupjxoxhPj9w4ADi4+NZuxS2 tLRo3BjEu3fvMp+7u7trTEtY2SgoZci2KikoNVtMTAwKCwuxc+dOSKVSZGRk4OLFi4iLi0NdXR2S k5MB9PxRFAqFmD17NgAgOTkZp06dwtKlS3HixAmkpKQA6NmzRyKRMOMjQ0JCmKuOrKwsiEQivP32 26waqqqq4OHhoTHbJ3R3d7Muuz09PTmsRr1QH6UMLy8v5OTkAOi5/G5qalK7XefI4Pj7+2PHjh34 29/+hnXr1mHWrFk4cuQIDA0N8dNPP2HVqlX4+9//jsrKSuzYsYN1iRkfH4+qqioIBAJs3LgRAODr 64vg4GDk5+fDwcEB8fHxWL16NZycnHD69GkcP368z+o6RUVFeO6551T6c4+EQCBAZ2cnAIDP57Na zLqOJ9XEgV5KdOjQIWZ4UEhICHOXk6gOj8dT2PjDhoYGiEQi1tUCAHR1daG8vByenp6su7qdnZ3Q 19dHaWkpzM3NWavmZGRk4PDhw9i+fTtzjurq6n5veHR3d2PSpEk4c+aMxsyTPnXqFDPiw8vLC7Nm zeK4IvVBl96PkN0utLCwcEg7+xH1Y2lp2SckAcDAwABeXl59hr4YGhpCX18fXl5efZYWCwsLg7m5 OQoLC5lzDHRXeP/+/di+fbvGhGRLSwtrWJC6bZvLNQrKR/j4+DD7Q7e2ttKURsKyYcMG3L17t88N IVmXL1/GuHHjMG/ePBVWNjJFRUVMK97c3BwuLi4cV6ReqI/yESYmJhgzZgyz6EFBQQH11RCWBQsW PPbrmrYBmVQqRVFREXPs4+NDg8wfQS3Kfvj6+jKfCwQCNDY2clgNIcpVVlaGpqYmAD39w+PHj+e4 IvVDQdkPV1dX1pjKmzdvclwRIcqTm5vLfD527FiMGjWKw2rUEwVlP3g8HjM1Dejpv5HdjY4QbVFT U8PaG0f29578FwXlAMaPH8/MshCLxSgoKOC4IkIUT3ZVJScnJ9b0TvJfFJQD4PP5rAUObt26BbFY zGFFhChWQ0MDSktLmWNaCGZgFJSPERAQwCyC0Nraivz8fI4rIkRxbty4wQwJsrS0ZOa7k74oKB/D xMQEfn5+zHF2djZtPka0QkNDA2sBjEmTJtGQoMegoJRj4sSJ4PN7hpu2t7fj1q1bHFdEyMhlZGSw WpPjxo3juCL1RkEph6mpKQICApjjnJwcZuEAQjRRbW0tM6ECAEJDQ5nZaKR/9H9nEIKDg5mlsjo6 Ovqsc0iIJrl27RrTmrS2toaXlxfHFak/CspBMDY2Zo0vy8vLo9k6RCOVlpay5qmHh4dT3+QgUFAO UnBwMDNjQSKR4OrVqxxXRMjQSCQSXLt2jTl2dnamdQwGiYJykPh8PsLDw5njsrIyVFZWclgRIUOT m5vLrLWqp6eHadOmcVyR5qCgHIJx48ax1hdMTU1Fd3c3hxURMjjNzc3Iyspijv38/FhbNJPHo6Ac ooiICKZPp6GhgW7sEI2QkpLCjAE2NjZGaGgoxxVpFgrKIbK3t+8zXKh3wylC1NGdO3dYC1BHRESw dosk8lFQDkN4eDizDJtEIkFKSorC9nghRJHa29tZNx6dnZ3h7e3NYUWaiYJyGPh8PmsV65qaGtYq LISoi8uXL6OtrQ1Az+/tjBkzOK5IM1FQDpObmxvrL/ONGzdQU1PDYUWEsBUVFbHmc0+ePJm5EiJD Q0E5ApGRkayxlefPn6dFM4haaGxsxJUrV5hjJycnWkZtBCgoR8DQ0BAzZ85k7oI3NjbSQHTCuUf/ aBsZGWHWrFk0A2cEKChHaPTo0QgODmaOCwsLWTvaEaJqaWlprG6g6dOnw8zMjMOKNB8FpQJMnjwZ 9vb2zPHly5dRW1vLYUVEV925cwd5eXnMsY+PDy16oQAUlAqgp6eHOXPmsPbYOX36NG1IRlRKJBIh OTmZObaxsdG4PcbVFQWlgowaNYrVX9nc3IyLFy/S+EqiEp2dnTh79iyzr5OhoSHmzp3LLDpNRoaC UoHc3NxYU8MEAgFSU1M5rIjoAolEgnPnzjELXvB4PMTExNBQIAWioFSwkJAQ1iZNBQUFrD4jQhQt OTmZtcZkSEgI3N3dOaxI+1BQKkFMTAwcHByY46tXr7K2BSVEUW7cuIHbt28zx56enrTghRJQUCoB n8/H3LlzmcHoUqkUFy5cgFAo5Lgyok2Kiopw48YN5tjJyQkzZ87ksCLtRUGpJKampoiNjYWhoSGA njvhf/75J600RBTi3r17SElJYY4tLCwwd+5cZh96olgUlEpkbW2NOXPmML+8nZ2dOHnyJOrq6jiu jGiy8vJynD9/HhKJBEDPH+X58+fT0mlKREGpZC4uLpg1axazHWh7ezsSExNpczIyLFVVVTh79iwT kkZGRpg/fz7d4VYyCkoVGDt2LGJiYpgxlq2trTh+/DhEIhHHlRFNUlVVhdOnTzPbjxgaGmL+/Pm0 pYMKUFCqiKenJ6Kiopjj1tZWJCYm0lRHMihlZWX4888/mYUuem8Yyk6dJcrDk9LUEZUqKChAamoq M2PHyMgIsbGxrOFEuo7H49GMJhnFxcW4dOkSc7nN5/PxxBNPwMXFhePKdAcFJQce/cU3MDDAnDlz 4OrqynFl6oGC8r/y8vJw9epV5v+HoaEhYmNj4ejoyHFluoWCkiNlZWU4d+4c09/E4/EQGRkJf39/ jivjHgVlz9jbq1evsmZ10dUHdygoOSQQCHDu3DnWqugTJ05EeHg4h1VxT9eDUiwW48KFC6zZXKNG jcL8+fNhZWXFXWE6jIKSYw8fPsSpU6fQ2trKPNZ748fAwIDDyrijy0HZ3NyMs2fPshbetbOzw7x5 82BqasphZbqNglINtLS04NSpU6w74FZWVpgzZw6sra05rIwbuhqU9+/fx7lz55hdEwHA1dUVs2fP ZmZ4EW5QUKqJ3vUEKysrmccMDQ0RHR3NWo1IF+hiUObk5CA9PZ31c/v7+yMyMpL2ulEDFJRqRCKR ID09Hbm5uazHg4ODERYWxszu0Xa6FJQdHR24dOkSqz9SX18fkZGR8PX15a4wwkJBqYbKyspw8eJF dHZ2Mo/Z2NggJiZGJ2Zh6EpQVlVV4eLFi2hpaWEeMzMzw5w5c+jOtpqhoFRTdXV1OHv2LOrr65nH +Hw+IiIi4Ofnx2FlyqftQSmRSJCRkYHc3FzWz+nq6oqYmBha3EINUVCqMbFYjCtXrqCwsJD1uLu7 O6ZPn86sd6lttDkoa2pqkJyczLpxp6enh7CwMAQFBVF/pJqioNQApaWlSE5OZu3qyOfzERISguDg YK17c2ljUIrFYmRmZiInJ4f1s1lZWSEmJgZ2dnYcVkfkoaDUEK2trUhKSmLtjQIAjo6O+Mtf/qJV fZfaFpQVFRVISUlBU1MT63E/Pz9ERETQTokagIJSw5SUlCA1NZXVuuTxeBg3bhymTp0KExMTDqtT DG0JysbGRqSnp6OkpIT1uIWFBaZPn05z+zUIBaUGamtrQ1paGoqLi1mPGxkZITg4GEFBQRo9lEjT g1IsFiMnJwfZ2dnMXH6gpy/S398f4eHh1IrUMBSUGqy8vBxXrlzps1q6lZUVJk+eDA8PD43sv9TU oOzu7kZ+fj6ys7NZs2uAni6S6dOnw9bWlqPqyEhQUGo4iUSC/Px8XL9+nTXuEujZsyc0NBSenp4c VTc8mhaUEokERUVFyMzMZI2JBHrGRYaFhWH8+PEcVUcUgYJSS7S2tiIjIwO3b9/uEzJ2dnaYOHGi xrQwNSUoxWIxioqKkJOTg+bmZtbX+Hw+goKCMHHiRLrM1gIUlFqmrq4O2dnZuHPnTp+wMTc3R2Bg IHx9fdX6zavuQdnW1ob8/HzcunWLdVMN6OmH9PHxQWhoKK32o0UoKLXUw4cPcePGDZSVlfX5mpGR Efz8/ODr66uWu/epa1A+ePAAhYWFKC4uZt2kAf4bkJMmTdLaiQC6jIJSy9XU1CAnJwf37t3rN3yc nZ3h6+sLDw8PZv9xrqlTUHZ0dKC4uBiFhYX97prJ5/Ph6+uLwMBAmJubc1AhUQUKSh3R1NSEmzdv oqioiLWiei8jIyN4enrCy8sLo0eP5rQvk+ugFIvFEAgEuHv3LsrKyvq0HgHA1NQUAQEB8Pf3h5GR EQdVElWioNQxHR0dKCoqQmFhIWvBDVkmJibw9PSEh4cHnJycVD4mk4ugFIvFqKioQElJCcrKyvr9 YwIATk5O8PX1hZeXl9q0wInyUVDqsIcPH6KgoADFxcUQi8X9PofP58PZ2RljxoyBm5ubSvrfVBWU jY2NqKysRFlZGSorK/ttOQL/bW0HBARo1VRRMngUlASdnZ0oLS3F3bt3UVlZyWyj2x9ra2s4OTnB 0dERTk5OSrkZpIyglEqlqKurQ3V1NfPx6JAeWQYGBhgzZgw8PT3h7u6u0TOdyMhRUBKW9vZ2lJaW oqSkBFVVVY8NTaCnr87BwQE2NjbMh6Wl5Yj6OEcalBKJBCKRiPXx4MGDPgPyH2VoaAhXV1d4eXnB zc1NrYdQEdWioCQD6urqQlVVFQQCAQQCQZ/VbwbC5/NhYWEBc3NzmJubw8LCAqNGjYKZmRlMTExg ZGT02B0m5QVlZ2cn2tra0NHRgebmZjQ1NbE+Ghsb5QZ8L1tbW7i5ucHV1ZWT/liiGSgoyaDV19cz l61CoRANDQ3DPpe+vj6MjIxgZGTE3BQxNDQEj8fDwoULceLECUgkEuamilgsRkdHBzo6OgYdgo/i 8XiwsbFhug6cnZ1pUDgZFApKMmxtbW0QCoWora2FSCRCbW0tmpqaBnXZ/N5777FW+R4MW1tbbN26 dVDP1dPTg5WVFdMdYGdnBwcHB9r2lQwLBSVRKLFYjLq6OjQ2Nva5JG5tbR1w2I2sVatWYe/evXKf Z2RkBFNTU9blvYWFBSwsLGBlZUWX0URhKCiJSkkkErS3t6O9vZ11KS2VSpmbLf7+/sjPzwePx2Na gHw+H4aGhjA2NoaRkRGMjY01YoEPoh0oKIna4XpmDiGPomsTonUOHDiAZcuWcV0G0SLUoiRqZ6Qt SqFQiPLycoSFhSmwKqLLqEVJtIpUKkVbWxv8/Py4LoVoEQpKojXa29uxZ88eeHt7D3usJSH9oaAk WsPY2BheXl6IjIxUywWJieaiyaxE7dXX1+Pzzz8f8OurV6+Gg4MDAODUqVOIjY1VVWlER9DNHKJ2 RnIzx9vbG0eOHEFwcLCCqyK6jC69idYoLi5Gc3MzLC0t++x1TshIUFASrZGXlwc+n4+ioiLqoyQK RZfeRO0M99JbIpGgsbERVlZWSqiK6DIKSqJ2aAojUTd06U0IIXJQUBJCiBwUlIQQIgcFJSGEyEFB SQghclBQEkKIHBSUhBAiBwUlIYTIQUFJCCFyUFASQogcFJSEECIHBSUhhMhBQUkIIXJQUBJCiBwU lIQQIgcFJSGEyEFBSQghclBQEkKIHBSUhBAiBwUlIYTIQUFJCCFyUFASQogcFJSEECIHBSUhhMhB QUkIIXJQUBJCiBwUlIQQIgcFJSGEyEFBSdSOn58f1yUQwsKTSqVSrosghBB1Ri1KQgiRg4KSEELk oKAkhBA5KCgJIUQOCkpCCJHj/wOGaPYCV7A90wAAAABJRU5ErkJggg== "
       id="image12249"
       x="-57.000004"
       y="42.000046"
       style="display:inline" />
  </g>
</svg>
