<?xml version="1.0" encoding="UTF-8" standalone="no"?>
<!-- Created with Inkscape (http://www.inkscape.org/) -->

<svg
   width="376"
   height="204"
   viewBox="0 0 376 204"
   version="1.1"
   id="svg1"
   inkscape:version="1.3.2 (1:1.3.2+202311252150+091e20ef0f)"
   sodipodi:docname="10-8-ex-29-q.svg"
   xmlns:inkscape="http://www.inkscape.org/namespaces/inkscape"
   xmlns:sodipodi="http://sodipodi.sourceforge.net/DTD/sodipodi-0.dtd"
   xmlns:xlink="http://www.w3.org/1999/xlink"
   xmlns="http://www.w3.org/2000/svg"
   xmlns:svg="http://www.w3.org/2000/svg">
  <sodipodi:namedview
     id="namedview1"
     pagecolor="#ffffff"
     bordercolor="#666666"
     borderopacity="1.0"
     inkscape:showpageshadow="2"
     inkscape:pageopacity="0.0"
     inkscape:pagecheckerboard="0"
     inkscape:deskcolor="#d1d1d1"
     inkscape:document-units="px"
     showgrid="true"
     inkscape:zoom="2.3697898"
     inkscape:cx="164.57156"
     inkscape:cy="77.01105"
     inkscape:current-layer="layer1">
    <inkscape:grid
       id="grid1"
       units="px"
       originx="-6.9999962"
       originy="-137"
       spacingx="1"
       spacingy="1"
       empcolor="#0099e5"
       empopacity="0.30196078"
       color="#0099e5"
       opacity="0.14901961"
       empspacing="5"
       dotted="false"
       gridanglex="30"
       gridanglez="30"
       visible="true" />
  </sodipodi:namedview>
  <defs
     id="defs1" />
  <g
     inkscape:label="Layer 1"
     inkscape:groupmode="layer"
     id="layer1"
     transform="translate(-6.9999962,-137)">
    <image
       width="376"
       height="204"
       preserveAspectRatio="none"
       xlink:href="data:image/png;base64,iVBORw0KGgoAAAANSUhEUgAAAXgAAADMCAYAAAB5sbhxAAAABHNCSVQICAgIfAhkiAAAIABJREFU eJzsnXd8Tfcbx9/3ZkrIlBArEWKEhAhij5Jq7b35GTWKalGKqlGUKqq2UnvW3rtiRyqidkQkIZEE GbLnvb8/joTIuDOJxHm/Xn0dvec7nhPxud/zfJ/v80jkcrkcEREREZFih7SwDRARERERyR9EgRcR EREppogCLyIiIlJMEQVeREREpJgiCryIiIhIMUUUeBEREZFiiijwIiIiIsUU3cI2QEREJP9ITk7m 0qVL/PPPP/j4+PDs2TNiY2PR09PD2NgYe3t7GjRoQJs2bWjUqBESiaSwTRbRIhLxoJOISPEjPDyc JUuWsHnzZuzt7WnevDlOTk5UqlSJUqVKkZqaSlxcHIGBgfj4+ODh4UFcXByTJ09m5MiR6OvrF/Yj iGgBUeBFRIoRaWlpLFmyhEWLFtGzZ0+GDh2Kra2tUn3v3r3LkiVL8PX1Zf78+QwYMCCfrRXJb0SB FxEpJsTExNCtWzdkMhmLFi2iQoUKao3j7e3NDz/8QOPGjVm1ahUGBgZatlSkoBA3WUVEigEvXryg efPmVKlShe3bt6st7gCurq4cOXKE169f07JlS16/fq1FS0UKEnEFLyJSxImNjaV+/fr06dOHr7/+ WmvjyuVy5s+fz3///cf58+fFlXwRRBR4EZEiTq9evTAxMWHevHlaH1sul/PNN9+go6PDnj17xCib IoboohERKcKsXbsWf39/Zs6cmS/jSyQSFi9ezKNHj9i1a1e+zCGSf4greBGRIkpiYmKmz71mzZr5 OtfNmzcZO3Ysvr6+lChRIl/nEtEe4gpeRKSI8ueff1KvXr18F3eA+vXrU69ePZYuXZrvc4loD3EF LyJSBJHJZNja2rJx40Zq165dIHM+fPiQr776Cn9/f9EXX0QQUxWIiBRBbty4QalSpTQS98OHD1Ot WjWl3wBq1qyJjo4O3t7e1K9fX+15izthYWH4+PgQEBBAbGwsALq6upQpU4aaNWvi7OyMnp5egdgi umhERIogFy5coFWrVmr3v3fvHuPHj8ff31+lfh07dmTfvn1qz1tc8fX1ZerUqVSvXp3atWuzaNEi vLy8eP78Oc+fP8fPz49Dhw4xePBgzM3N6dKlC7t37yY1NTVf7RJX8CIiRZBbt27h7u6uVt/k5GS2 b99O1apVVe6bcbpVRODu3btMmzaNmzdv0rt3b5YvX46Tk1OeLqyYmBjOnTvHmjVrmDRpEjNnzmT4 8OHo6mpfjsUVvIhIESQwMJCKFSuq1Xf58uWMGzdOLT96tWrVePz4sVrzFieSkpKYMmUK7u7uNG7c GC8vL6ZNm4azs7PCn6uJiQndu3dn9+7dbNq0ie3bt+Pm5sbDhw+1bqco8CIiRZDo6GjMzc1V7nfx 4kUcHBzUTmVgYWFBREQEn3JsRnBwMM2aNcPX15fz588zbNgwtX3qTk5O/P333/Tr14+WLVty6NAh rdoqCryISBFEHYGNjo7m8uXLdO3aVe159fT0kMlkpKenqz1GUebx48c0bdqUDh06sHbtWiwsLLK1 SY2SIlPRtT5gwAC2bdvGmDFj2L59u5asFX3wIiJFEjMzM968eaNSn9mzZ1OuXDnWrFkDQEREBGfP nsXc3JymTZvm2df4q3FIg1+QVqkCs+V6SLbuQlalMpIqlZGULwefQNhkSEgIbdq0YdKkSfTp0yfz 86RgHcL2GBF50YC4u3rIUsHUNRWXw6olaXN2dmbPnj307t0bS0tLvvzyS41tFgVeRKQIUr58eUJC QqhTp47SferWrUtISAiRkZEApKenExsbS0JCQt4dZTJ07t5H+jwEnTv3mIQuKcPHvLtvaIg0Q+yr VhGuVSojrWKPxLYiFFBIYH6SkpJC586dGTp0aKa4p7ySErCoFGF7jZCnCe0k+nL0y8oo6ZSi1jxV q1Zl3bp1DBkyhH///ZdKlSppZLd40ElEpAgya9YsYmJimDJlitpjtG3blu+++46OHTsqbCtJTkbq H4DP/oM887jEkBYtkT15itz/KfLnIZCby0ZXF4ltRSRV7IUvgar2SKrYv/0CqAxFJO3BDz/8wP37 91m/fj0AEf8Y8GiCGakRUqSGcsr2TKRMt0RM6qUi0dNcUlesWIGPjw8nT57UaBxxBS8iUgRp2bIl U6ZM0UjgVUFuYEC6Yw22b46i4dfD0fvmm3c3U1ORPw9B/jQA2dNA5E8DkD8NRP40ENkjX+T+Acj9 A5DlMK7E3AyJfWUk9nZv/6uM1N4OSa2aSGzKFsizKeLhw4ds2rQJDw8PAII3GPNkjgnIofTnSTjM jcGgvHb3JEaPHk27du04deoUX3zxhdrjiCt4EZEiSGpqKjY2Npw4cULtcEl1cHNz49y5c1SrVk3p PvKo6EzRl91/iPzBI+EL4Ik/8jcxufbLVfztKyOxqwTSgokR6dGjB87OzowcOZIXO4x4/IMpEh2o OjuG8kPj823eY8eOsWnTJq5du6b2GKLAi4gUUSZOnEhycjIzZswA4NUrKavXGfNlu2QaNlDPB5wX Z8+e5ffff8fHx0drY74v/vK3q//Mt4CAIMhNngwMkJS3ySr6jjWQ1qqJpFIF0NKhIX9/fxo3boyn pyclSpQgZLMRAYtKUWPpG0p/kaSVOXIjPT2dRo0acfLkSZycnNQaQxR4EZEiSnh4OLVr1+bw4cOE vKjGNxPMCA+X0r9vIot/zX1lrC4dOnRg1qxZdOnSRetj50hSEvIXYe+t+t8T/6Dnufv99fSQVCyf VfzfvgVIa1QHYyOlTZg9ezahoaHMnj1bZfPDw8Px9PQEhLz67du3V/m06oIFCzA1NWXu3Lkqzw+i wIuIFGnmz1/Ilu2VeBrYl/R0cG+bwrLFbzA3z8njrT6HDx/mzz//xNvb++PIJJmSgjz4Rc5+/weP IDEx165ZXD8Zq357OyECyNQkS9u6desyd+5ctZKrTZ06lRs3bgDg6OioVoqHa9eusWjRosxxVEXc ZBURKaK8fAkeVybj5y9BKpUxaUIiE8bHIZVCyFYj/OeaUGtdFJafJWs0T0BAALNmzeLEiRMfh7gD 6Ou/W5XncFseFY38/kNkb1f+meL/2E+45+0D3tldTe+Lf0p5G5r6PqXmfQNkhqFIa5VVOt4/ICCA atWqsXDhQo0es27duty7d4/09HR0dHRU7i8KvIhIEeT8P3IGDpETFiahnE0ayQk9cXHug1T6GWH7 SvBkhilyGaRGaLYRGRcXx8iRI5k7dy6urq5asj7/kZibIWnWGGmzxtnuyUPDkD95KkT2+AtXeUbI Z2RUpvjrAFMkn3HtR3fKyw9R36QT8ZvWkNaogcL5ly1bxn///UdYWBhjx47F1NRUrecwMjLC0tKS 58+fY2dnp3J/UeBFRIoQaWkwb4GcufPlyGTQpZOEjev18fP7kU6dOrG4327013yG/K2HxlSDzdbw 8HAGDx7MZ599xsiRI7X0BIWPxKasEILZvAkfronlUdGC0PsH4PP3cfyPzYE0CZYmt5EkJIKiQ2Fv adeuHZUqVWLbtm3s37+f/fv3qyXQ8C7/jzr9RR+8iEgRITgE+g2UceUqGBjAr79IGD9Okuk1uLT6 MUHj7dCV6wOgby2jya1wteby8fFh9OjRjBkzhqlTp2rrEYoUGzv+S4mTDTBxTcHlYAQSNV6GXr58 yciRIzE1NWXLli1q2dG1a1eWLl2qMJ1ETogreBGRIsDR43KGfiUnIgJsK8HuHVIaub27//IihE2p hu57y7Uk22fI5fpK+81To6SEXI9nxfkZXLx4kRUrVtC9e3ctP0nRICUaDC44I0dOtfkxaok7gLW1 NatWrdIor0xycrLahc7FbJIiIh8xaWkwe66crj0Ece/eVcLtm1nF/c19uNwd0j8IHPnnxR7at2/P 5s2befHiRa5zpKSkcPnyZfZ0fkzgSHscac2jR48+WXEH8P0DpEkGhJf3pmRtzaoulStXTqWDYR8S GhpK2bLqneoVV/AiIh8pz55D3wEyrnuCoSEsnC/h22+yrsYTgsGjg7Di/JDFR6bgGerMjh07WLZs GXp6etjb21PKvCRSQ4iPSSDiRRR+fn7UrVuXwY6/QAC00RtBqVIF9JAfIakx8HiF8Ofr1hvoyyzV +qemEhISkukzP3fuHEOHDlXLlpiYGOLj47GxsVGrvyjwIiIKCAkJ4d9//yUwMJDQ0FCioqKQSqVY WVlRtmxZHB0dcXFxwczMTGtzHjoiZ9gIOVFRUL0a7NkppY5z1japMXCxMyQ8z95ftySYOUn4su6X me6BgIAA/P39uRB1lJ0Jy2li1pZF5f/C0dERIyMjEkPhsC0EH4S0VcIYnyK+yyElCizaJHLpziFQ UeCfPXvGF198gYuLC/Xq1cPR0ZHOnTurZYuXlxcNGzZUOzxV6wIfFxfH5cuXCQ0NJTIykvT0dGxt bbGzs6NevXro6+tre8pPgmfPnvHgwQMCAgKIiorCxMQECwsLXFxcqFmzZmGbV+y4desWO3bs4MCB A8THx+Pi4oKtrS3W1tY4ODiQnp5OVFQUN2/eZPv27dy/fx8nJyd69OjBwIEDsba2Vmve5GSYMk3O 8pWCM33QAAmrV0go+YHYylLhSi+I/i/nccxdQPJBiEjlypWpXLkyUmI4zXLsKUN93h3gKWEDZT6D sLMQfATs+qv1CEUaeRo8WSv8uf68Euj31OfJkycq1a+tUqUKDx48IDIykjJlymhkz4ULF9SuvQta Eni5XM6hQ4dYtWoVXl5e1K1bl4oVK2JmZoZEIsHT05OAgACeP39Oly5dGDFiBI0bZ49PFclKbGws 69evZ/fu3QQGBlK7du3Mn6u/vz/R0dFMmzYNiURC9+7dmTx5stqvciICFy5cYM6cOQQEBNCrVy82 bdpE9erVFfZLSUnhxo0bHDx4kLlz59KtWzd++uknKleurPTcfk+gT38ZPreFLLoL5mV3yWTgPR7C zuU+loVL7vcMMAQgmey5VCoPFAQ+cNunKfAhxyExFCzqg2VDIT3DqVOnGDdunErj6OnpaSzuqamp HD9+PDPdgTpoLPCenp6MHTsWmUzGuHHjWLduHUZGOed6CAsL4+jRo/Tp04dGjRrx22+/YWtrq6kJ xQ6ZTMbmzZuZMWMGTZo0YfLkyTRu3DjXk2x+fn7s2rULJycnRo4cyezZs8U3JRUJCwtjzJgx+Pj4 MGXKFDp27KhS3hB9fX2aN29O8+bNmT17NuvXr6dhw4aMGTOG6dOnY2BgkGf//QflfDVKTnQ01Kwh uGScaufePtYvb3ss8jiTZIAQkZGSg8BX6Aa6Y4Uvj8QQKFE+73mKG6+uCteqI4TrkCFDGDBgAGPG jEFaQNkrMzhw4AB169ZVaZHwIRpZvGHDBrp06cKoUaM4fvw47du3z1XcAcqWLcuIESO4ePEi9vb2 NGzYkH/++UcTE4odiYmJ9OrVizVr1rBp0yZWrFhBs2bN8jym7ODgwMyZMzl37hz//fcfn332GWFh YQVoddHm7NmzuLi4YGdnh4eHB127dlU5KdT7mJiYMGnSJM6ePYu3tzdubm74+/vn2DYpCb6dKKdn H0HcBw2Q8O/1vMUdoOUxcF0OJXKpnZ2XwOu/XcHnJPC6xlChC8hl8Gxv3jYURxynQJMdYP92T9TN zQ0rKyuOHj1aoHYkJyezfPlypk2bptE4agv8okWL+O233zh48CCdOnVSaRPA0NCQb7/9lnXr1tG/ f3927dqlrhnFipiYGFq3bo2Ojg779+/H2dlZcaf3KFOmDOvXr6dZs2Y0adKEV69e5ZOlxYeNGzcy aNAgVq9ezeTJk7X65pPx99G3b1+aNGnClStXstx/5AtuTWUsXymnVCnYvkXC1k0SjI0Vj61jCNXG QoVOwv8bWL67p1sSSuXhVcpw0SSRc0Iuu4HCNUB7tZ+LDAalwbZv1v2LX375hV9//ZXEXBKYrVpj zOSpJrlmNlaHFStW4OLiQqtWrTQaR62TrIcPH2bs2LEcO3ZMYz+Tn58fvXr14siRI7i5uSnuUEyR y+V07doVCwsL5s+fr3FSp8WLF3Pjxg3Onz+v0D3wqbJ582ZmzpzJ7t27NXoNVobLly8zbtw49uzZ Q+vWrdm6Xc6Yb+TEx0MtR8ElU8tRtTGTwuFIFZClQPs7EHVbiACxagYui3LvF8BDeuFIDeqxHe9s 9+UyOGwnuGi+vA1m6qUiL1YMGjQIAwODbGl7T50xYNgIM4yN5dzzeYWBgeYq7+XlxahRo7h16xbl ypXTaCyVV/ARERF89dVX/PXXXxqLOwjuhcWLF9OzZ8/MYsCfIgsWLODVq1fMmTNHKxn7Jk2ahImJ CQsWLNCCdcWPs2fPMm3aNHbt2pXv4g7QvHlz1q5dS58+fejZ+z/+N0wQ90EDJHhdU13cAfzWCIeb bPuCSQ3h+vm1vMUd3q3gc3LRAEikYNtb+PPzfarbVRxZsWIFHh4e7Nv37gcS/lKH738Q0gvPnR2r FXEPDAxk9OjRbN68WWNxBzUEft68eXTq1Ell90FetG3bljZt2rBokYLfzGJKeHg4S5cuZcWKFehp qQK9RCJhzpw5rFy5UvTHf0BwcDCDBg1i1apV2NvbF9i8jRs3ZvbsOZw83pNSpWLZtV1wyeSxbZUn prXAvC44qRamnbnJmlMUTQYOY4U3ActP5KU6cAfsM4cIr5zvm5mZcfjwYebPn8+pU6eQyWD8BBMi I6V0+DKZvr1zzz+vLAEBAfTu3Yd58+ZpVIf1fVRy0URFRWFvb8+lS5coXbq0wvZ+fn5cuHABZ2dn GjVqlGfb8PBw2rZty927dz+5UL9vvvmGtLQ0Zs6cqbCtTCbj2LFjNGrUSKlY69mzZ2NhYSGu5N+j a9euVKtWjQkTJhTK/BMmTEUm0+HvvzcWyvyxRNMac6wox0lCCsWGj42zzeD1dWh9CsrmEXZ+69Yt OnbsiFOdbZw53xqbsumcPx2JmZlmBVYuXbrE2BHf0t9gAXM9hmJaS6PhMlFpBX/ixAkaN26slLif OnWKZcuWMWjQII4fP65wI7VMmTJ8+eWX7N69WxWTijypqans2LGDUaNGKWwbERHBokWLGD16tNLu rB49enDgwAFNzSw2nD59mgcPHqgc16xN5s6dwdWrp7l+/XqhzP8uDl7zVWdRJWg33PsZ3jwQ9jIi boCeCVi3zLtfvXr1WPfnv5z9pxkSiZzZPwVoJO5xcXH8NOMnxg2dyJj4PTSOHMr5NhB9R+0hs6CS wB85coTPP/9cYbu0tDSmTZvG6NGjKVGiBGPGjGH+/PkkKMil7O7uzuHDh1Uxqchz5coV7O3tldrP sLS0ZMqUKSqNX7t2beLj43n8+LG6JhYrZs2axaRJk7TmClOHkiVLMnXqVI1D4NRFDwMkSPJ00RR3 vMfD3TlwwglONxQ2lq2agVRBEFV8PEyeaoNcrkezJpeZPq0JCxYsIDxctbTMkZGRrFy5kmbNmiGR SlhX6x41Eb5dkl/BP+4QfVfdp3uHSgL/6NEjatdWEKCLUIk8PDycGjVqAGBjY0NCQgIeHh559mve vDk3btwgLS1NFbOKNBcuXKBFixZKt5dKpSqV7pJIJNSuXRtfX191zCtWeHl58erVKzp27FjYptC1 a1eCgoJUrrUpTwevUfDkT/XnliBBDwNSSEJO3h7a1FhBCGOL0/pALuSaySAhWLi+OAFnGkPAtty7 jp8gx/cxNKgP58+04tatWwB89tln9O/fn7/++ovbt28TGxubpV9iYiJ37txh69atDBs2jKZNmxIc HIyHhwfr16+nelfzLO2TXwsir+nPXaXTHGFhYVhZWSls5+vri4mJSZZVUsWKFQkKCsqzn6GhIWZm Zpw9F4WenmI3UHHg6dMoXF3zd6PP2tqa0NDQfJ2jKLBlyxZ69epV4CcSc0JXV5eBAwfy119/qRQe /PwA+G8QTrJW1aDIkgGGpJBEKinok3sY7cuLgisjyhtaHFF/vo+J1BgyK159SIQXRPkIaRo+zOVz 4JCcjZvllCwJO7ZK0dODSpUqsXz5chYuXMjJkyc5c+YM+/bt4/ETX2QSGQa6BqSlpCOTyXBwcMDF xYXBgweza9euLMnpyneCOx9swSW/Ao+O4H4ZDNUMWFRJ4OPi4iilRB7RkJAQTEyyVifX19fnzZs3 CvuamjWlfWdLULCyKC7YlOnF558H5uscJiYmREfnkE/2E+P48eNs3bpVozFevnzJ0aNHSU9Pp1ev XpibmyvulAvdunXD3d2d1atXK31y1neZcK0yXO1pASGSJpZoUkjKU+CtW4COEbw4Lfiq1RWaj4lU BTJUbVx2cQ8OgRGjBU1as1KCwwe5x4yMjOjRowc9evQAYBb/40jMVmalr6OtXk9Kfpgt7gPMnIW0 EIkf7HnH+cPFTtDWQ/h7UBWVBN7KyorXr19TsWLFPNuVLl06m789Pj5eqX8MOtJAeveMRC63VNi2 OPAs8DwyWf7GYb98+ZKGDRvm6xwfOwEBAaSkpODg4KD2GE+fPmXkyJFs2LABmUxGr169+Pvvv7Gw sFBrPBsbG2xsbPDx8aFBA8WFnF9fg9eeghBU6qXWlJlkTVeQe0FoPRMo3xGe/Q3P9gmnZ4s6OeXO z6BkZXCak/UzmQwGD5UTGQm9ekgY2F/xOZUoXqFjAhWxoyTK5V22rC98kXxIpDfc+EpIoYCKR2RU Evhy5coRFhamUOBdXFx48+YN8fHxGBsbk56eTmhoqFJV2cPDA7m4HEqX1vywT1FgzJhXhIWpV45L WcLCwqhQIZekJZ8Id+/exclJsyOZ06dPp0OHDpmFHFxcXFi9ejUzZsxQe8yGDRty9epVpQT+8Urh Wm2s4s1ARShKV/A+dgMFgQ/cUTwEPscVvAQkEnDbKOTjeZ9fFsq54CGnYgVYt1o5XYpGSBNijmKX dgYWrhCcQ4yJRAJBe8CsDjj+oPRwgIoC7+rqyo0bNxT+MlatWhU3NzeuXr3K559/jpeXF1WqVFEo 8FFRUaSkpGBpWfRX7wE84j+u8IhbBPKIKF4SxxsSiCeFRNJIJZ10XtpJ+eKJau/bcrkcZY8vJCcn c+fOHerUqaPOYxQb/Pz8NDqxGh4ezqVLl7KEszZs2JBp06YxdepUtZOTOTg48OjRI4XtksLg+UGQ GrxLhKUJeSUc+5By7QTXTMQNiPEFE8XZkz8K0tPTCQsLy3LQz8TEBEmkDXy4qpZD1a8Fl9T7/HsT fp4vR1dXqIOrrEcu6q3Am6ki8PVz/jzjn/rTjfks8N27d+f7779XKoZ49erVzJw5k5iYGE6fPs36 9esVHsE/c+YM7dq108pR/YImmtcMpTEvCXkbfqacAJt9KeV0p9PMmTNHYduEhAQOHjyITCbj8OHD WFpaKjzsdOnSJerVq1csvjQ1ISoqSiN/ube3kLPl/SCDMmXKkJCQQGhoqMK32tywtbXl4sWLCtv5 bxRyztgNBEP1aolkQVG6gveR6AouoccrIWhndhfGx0JiYiKnTp3i5MmT3LhxA19fX8zNzbG2ts7U lJiYGMJCwzApYUVlqQs14t1xoQO2leyo+8FZwLg4GDBYRmoqzJkpoYkKJSyieIUECaYo776zqJfz 5xIdqNgNak1Xfv4MVBL45s2bExoayr179xSGS1pbW7N27VpCQ0Pp1q2bUqF9x44dY9iwYaqY9NFw i0s854lKfSrhwDqnCzTSaaGUC8HIyIgBAwYwYMAApefYsWMHffr0Ucmu4khcXJzavnIQDpkBWb4k Mirdh4SEqC3wxsbG2ULqPkQuA/+/hD87jFZrmmwok67gfewGCAIfsA2cZqOyLzg/uXfvHsuXL2fP nj24uLjQtm1bunXrRq1atXI87yCXywkKCuLOnTv8c+oSc87NobqpI8knxtCzZ8/MKKsx38jxewJN m8CP05R/4CQSSCIBUyzRUUFiDazA2Bbi3wYb6hhAejJYN4eme5QeJgsqxYvp6uoya9Ysfv75Z6X7 2NjYKCXu3t7e+Pr60rVrV1VM+mj4jO4Yotw2txQpw5jGAR5jRXm+++47Fi9erHWbPD09efz4MUOG DNH62EUNY2PjXNO9KkNGRs73f5czxtPk0JSOjo7Ccx8vTkB8oBBpUVpLhdBUcdGAUN3IpIYgPq+u accGTXn27Bn9+/fH3d0dc3NzLl++zK5duxg+fDh169bN9e9FIpFgZ2dH586dWbZ6MT73bzJkTH+W LFmCs7Mzx44dY+9+Odt2yDE1he1bpKhw9CTTPaOK/z2DqqOEcov1V0InfzAsC+EeQqUpdVA5IHj4 8OG8fv2a/fv3qzdjDqSlpTFnzhx++eWXPAuGfOy0QvGXkzlWbMebMfyS+dno0aMJCAhQeBBMFeLj 45kxYwa//vqrmC4YYeWtSaho+fJCaaP3Q31jYmIAlNrA1vEPwHjYGErMnI/+zr3o+NxBkpBIXFxc tpDiD8moEaqt1TvkXbYvN2z7CdfAQs4TL5fLWbNmDa6urpQvX54rV67w3XffKXVGJyf09PTo1KkT hw4d4ocffmDChIl89VVf4DVrVkqwU7HonCYC7/gDfHETHL4WauQ6v81OfGsCpKtx8FjlnSFdXV32 7dtH69atsbe3x8Ulj+KPSjJr1iysrKxUcj18TPjiw2YWcp68c6u2ZxA/kz0OW09Pjw0bNtCnTx8O HjyYGaWhLnK5nO+++46mTZvSu3dvjcYqLlSpUkWj6mH169fHxMSEx48fZ9Zo9ff3p3r16kqlmdDx 9kHv1AdFVKVSWluYUcnIkNRZ85E61ULqXBtJlcq8v2SMCwB9C7DVYo1UfTXy0dgNgLuz4cUp7dmh KgkJCQwaNIjAwEAOHjxIlSpVtDp+27Ztad68OXPn/sqhQw2pWf0QUFelMdSJoMkN+yHgv144gOW7 DBynqtZfra3/WrVqsXHjRoYNG8bq1avVLqAtl8v5/fff8fLy4tq1ax/YFS35AAAgAElEQVTFCUNV +ZH+nEZIpFYCY8yx5gUBWdroostMNtGegbmO07JlS+bNm8fAgQPZvn272iKfnJzMpEmTCIzz4/eV YgbJDGrVqsWDBw/U7m9gYMDw4cM5f/48nTp1Qi6Xc+rUKcaMGaNU/5Re3ZDZ2aJz/yE6D33ReeiL 1NcPk9eRuABpPy9817hECaSONZA410Ja25HWs13AoQZ6pbR3ultVFw0IMeIN16p34EYbRERE0K5d O6pWrcrBgwfzLZ+QgYEB8+bNpFGjenz++efs3LmTtm3bKt1fnQia3JBIod7vcLYpPFoqHMLSVS6s HtCg6HbHjh3ZtWsX/fr1Y8yYMQwdOlSlULGYmBi+//57IiMjOXfunMLX1I8ROXJucwUTLOjDOPoy ngTi6ERlMqJozCnNRq5REcUHbL766itkMhndunXjt99+U+mXCoRQwAkTJlCpRgX0Tz1mqn4vtuNN CZSoAVfMcXBwIDk5mefPn6u9ITpp0iQmTZrEunXrePbsGW3atKFXLyVPHEkkpDV0Ja1h1lDhER07 Mat3X1wMjZB530b+4BGyew+QefuAtw/pvNvPTDI3Q+JYA2mtmsLV1QVpXWcoqfrfr6GKm6wZVPlK 5am0QlRUFG3btqVZs2ZMn65GOIkadOzYEWtr68yyom3atFGqnyYumpwo3UhIYRx2Fp6shxoqZLlW q2Tf+/j7+/P1118TGBjI5MmTcXd3z9PnGxsby9atW/nzzz/p168fv/32m1brYBY0ySQiQZrluPdQ GnMXT+rRgtWcR1fF79Fr167xv//9jwoVKjBp0iSF5wcCAgJYv349x48fZ9asWYwZM4YFkq85wDq6 M5LprFPr2YobQ4YMoWrVqgwfrtk5/6ioKCQSSZZcIuoQGxuLq6srL1++zIzIASA1FdnjJ4LY33+I 3NsH2YNHyAOCyKnwp8SmLFLXukhq1RRW/q4uSGtUI6+dwWV8z3aWMJXV9ORrjZ4jv0lLS6Ndu3ZU qVJFqXBibXPjxg1GjRrFxYsXMxMo5sUKprKFX5nEMvrxrVZseOkB59sIm66d/YWavMqgfun4t1Sp UoUzZ85w+vRpFi1axOTJk2ndujXVq1enfPnymJqaEhERwYsXL7hx4wb//fcfHTp04OrVqxodGy9I 0kjlCBsxxoR29MtyLyPc7H02cZ0AHlEZxb8MOdGkSRMePHjApk2bmDBhAklJSbRp04aqVatiaWmJ sbExwcHBBAcHc+nSJaKiohg0aFBm3C/ARJZyi4scZD1t6IkbeVQx+EQYNGgQEydO1FjgNYmnf59j x47h7u6eVdwB9PSQ1qpJsnVNJG26of82ulMe/Qb5vQeC2N9/iMzbB9mde8hDw0g/dgqOvecc19dH UtVeWOVnrPhr1URibyfcVsNFU1j88MMPSKVSpQri5Adubm5MmzaNbt26cevWrex/Xx+g7RU8gHUr IYLq9XUhVLXqCOX6abyC/5DXr19z/PhxHj9+TOVzF3EMDGZruxaUrlSJxo0b07p16yIVKXODsyzm WwJ4iAVlOEPBl7/z9fXl5MmTPH36FPubt2niF8i+Lu2wql6NZs2a4ebmluP+xR2u8xXNaUdf5lLI oQ8fATKZjJo1a/LLL7/QpEmTwjaH9u3bM2/ePDp06JDtnixZKKitZwod7uc9jvxFaOZq/303D8nJ 2dpK3rp5HtdK5ISjF46uX9HJZTEYq/Zv0muEYJuL9qN7s3D58mX69OnD+fPnNX5j0pRx48ZRsWJF li1blme7iXTmEkdZxRmtLqxCT4FHByGaqv4q5fpoXeDfJ7mZO7Krnhj4XBV8hUWIN0SwhAmcQEgO 7YAz01iLM1oKRFaTlK59ST98HIOzR5C2ba2w/X28sMEOC7Rw/LEYsHXrVtauXcu+ffsK9cT0P//8 w8KFC7lz506OdgQfgss9wKq5kElQZXJz8zwNzLG5qm6eA9aQHAmdfKGkdgNZMklPT8fJyYkpU6bQ rl27/JlEBaKjo2nVqhXnz5/P86Bnhot2Jz5UUzECRxGRN4XzCMputGrsolGK/PsOyTdmMIDrnMYY E8Yyn558jRQVTjvkN0r+TGvxaWeR/JABAwbwxx9/cODAgczUrgVNamoqc+fO5ddff831SyZwp3C1 65fjbcW8dfNQqyY6vbplfpzh5vF6sAa/+3/T3LsiZf6LVd7NU98FiU1ZKvaEJ+sEO2v/pKaNCtiy ZQsWFhYfhbiDUHh7/Pjx/PDDDxw/nvvJo2heC+216KLJILd8NblRMAJfBPmMHlhSljHMw5pPOxNj cUJHR4d169bRoUMH3NzcCiXL5h9//IGDgwNdunTJ8X5qrHB6VaILFbrl2ERtJGamSJo1JqzZff5g G+G053v+QP4i9J175/5D4Xr3PvIHj0h/8Ij098cwN6N8hR48YRkBK9/g2OoB0np1VHbz5IVcLmfh woUsWrRIa2Nqg0GDBrFy5UoePHiAo6Njjm3ehUkWftEiUeBzoRsj6IaSOxlFgDRS2c1yPqM75cjf /PMfO/Xr12fKlCmMGjWKvXv3Fuie0KVLl9i9e3dm8rKcCDkM6Ylg84V2EovlxIcHnSTlbNApZwOd vnzXKA83j3nUX5SUfkPc6yqEtZiOOTfViubJjXPnzlGiRAmVql0VBHp6epkiv3r16mz3U0khnhiM McmzkIqmpMVnT2ucE0XvZJGWSSGJixwmgbjCNiVfCeAhy/ieX1GcCfRTYOLEidStW5cRI0aQkpJS IHPeuXOH8ePHs3v3bsqWLZtru0Dh3Jz67hklUCpVwVs3j06vbujNno7+0b0Y+t/FMCoYg8tnqNRB SJIWXO47KGmc6eZJ+/V3Uv43iuTaDUk0siapVgNSBo8k7dffST96Enmo4kCFXbt2fbSnsLt3786B AweQybLX/YvmNXLkWo2g+ZBwD9hnBn5rFLf9pAX+GX4MpiGT6MpelNyWLqI44Ext3LjKCR6S++rx U0EikfDnn39iZWXFwIEDFWZ01BQvLy8GDx7Mhg0baN68ea7tUqIh/B8hzrl85/yzJyO8V50wSYmZ KdJmjbFfWhckEJzaBYOIMAxDHqN/5G/0Fv6MzqB+SBxrQHq64ObZtovUqTNJ6dybpHIOJFlUJLmZ O6nfTiHtz03IrlyHeKEKnEwm4/jx43z++edafWZtYWtri5WVVY4F0/MjRPJD5KlChtFnexW3/WRd NJc4wkwGE8cbqlE3W3x7cWQYPzKRzuxgKfPYUdjmFDq6urrs2rWL7777jg4dOrB27dpc/aqasH37 dn777Teljry/OCbkfS/fSSiXl19oIw6+VFUhy2TEDQg9C+U7qObmkV/1RHbVM8uYEpuyPK5uT0l9 fa3tj9y/fx8/Pz+tZqp1c3Pj+vXr2dK0aDMPTW6UbgxSPeHnnp6U96GnT3IFv5H5TKIrcbyhM0PZ zHXKUqmwzcp3mtGBSlTjHHuJRSzCDSCVSlm+fDlz586lX79+LFq0iKQk7Rz+efbsGUOGDGHnzp1c vnxZqdQTzw8KV21vrn6IOtkkc8LubX7AwG25NMjNzfMyAINzR9H7fSE6wwcjbeAKRkbIQ8O46XEJ p+rqHRJ8n+TkZDZt2kSXLl20mqkVoE6dOty8eTPb59rMQ5MbuiWFaJr0JIj8N++2n6TAb2cpeugz nbXMZGPmaqa4I0XKVFbTj28xpujl/slP+vbty+3btwkLC6NJkyasWbMmS2pgVQgKCuLHH3+kQ4cO tGrVihs3bmRmoMyL9EQh34hEVyh0nZ+ok00yJ2z7CvVhQ47mXcz6QyRWpZG2aYXud2PR37AKAy8P SsSGYuj3H0G9u1LFWbP6uSAkDRs6dCgtWrRQ3FhF7OzsePr0abbPC8JFA++qP715mHe7T9JFs56L SNGhMjUL25QCpyFtaIhySZM+NcqVK8euXbu4c+cOCxcupFGjRrRs2ZLWrVvTqFEjKlWqlGPcenp6 Oo8ePeL69eucOHECPz8/Ro0axf3795VKJZyBPF1wy5RvAQb5XGFRlZJ9eY5jCeXaCwezYh8LLhu1 kUqRVLUn3NwUOwWlKFVBUWoBdShTpgyhoaHZPi8ogS9pL1zjsn/HZOGTFPgq5F1uUOTTxtnZmZ07 dxIVFcXBgwc5c+YMS5cuJTIyEjs7O0xMTNDX1+d1UjiREZFEBr/BvrJ9ZqbDdu3aqZVAT7ckdH4q +FfzG30tuWgAGv4pHJ/XSNzf482bN5iammpnMMiXE8slSpTIsUJYQQm8sSjwAuE8pxTmGH1YRV1E RAHm5uYMGzYss05wTEwMgYGBREdHk5KSwnzDr8DyJVftH1LZQHOfMQjujoJAkyiabGNZCulstYVE IiEfM6hohdxsLIhNVoBSosDDGXYzk8E0ph2/c7SwzfmoOMYW/uUfZrEJ6ae5FaMyJiYmODu/y6m0 D3tiCSKWyEK0Sj20tcmqLWSpEHUbIjyhwY1v0U1IhnzeaNaE2NhYSpUqle3zgthkBaFAN0BKVN7t iq3AH2Ej8xiJjHQxVW4O/Ms/HGcrPRhd6AnUiiqlsQHgtRYyjKZEQ+ILMNV+lGaOaGuT9UMUhe1l kBoDLy/D6yvw6jpEekO6EAZPWdxITMju3/6YCAsLy6zT+z4FlaYg401PlqqgXb5aUUjsZy3zGIEc GRNZSl/GF7ZJHx1NaQ/AdQqxwGYRxxLhNOprNBejq33gpAskFVA26vzIB3/vZ9hvBTG5RHbIZXB/ PpxuBPtLw6XO8GARvLosxP6b14NqYyF5uAcXG8/Sml35gb+/P/b29tk+LygfvK6RUM5PYbt8taIQ uM5pFvA1UqT8yJ90pZBqjH3kuNEWKVK8OM8oCr5KTnEgQ+AjNFzBp0QJx8+l+qBXQCnPpUjRQ1+r LhpZirAKf7Ie6i3Nfj8pDO7MAuTChrJVE7BqAVaNwaLBu9wqOrfN+LXfZe3ZJZNp3ad/586dbHly ZKQTSxQGlMj3MplSA2i8DfQV/L4UO4EvjQ3VqMsQpvI5fQrbnI8WUyypihP38SKdNHSK369CvpPh otFU4MPOgzwNynyufCk2baCPIfHEkEYqumgeulOxO9xfIKQRDtotRAN1fAQ6b6MUS5SDNv+AVFeI uJHk8itXu3ZtQkNDef36NaVLa+bqOHr0KLdu3UIqlXLixAnat2+v0XgZXL16lUmTJmX5LJoIZMjy ffWegW1fxW2K3b9qB5zZiU9hm1EkGMsv+HFHFHc1Ka0lF03YaeFqU8Bpzw0oQTwxpJCktsCnxgip jZ/vgxdvnyM9SfivdKPsIm6txJkjXV1dvvjiC86cOUP//v3VsiuDTp060alTJ43G+JBHjx6Rnp5O nTp1snxeUBE0qlAsffAiytGU9gxhamGbUWTRlosm9KxwLXiBVy+SRpYKwYfhcnc4aAPXBggpFmQp YPK2zHL5zuB+Vf2Y/t69e7N//371Oucze/fupV+/7LmrMgp9iAKvRRKI1XokgIiIMryLolF/BR99 FxKeQ8nKUKqAa9CrE0mTGgNHqwniHnxY2Di1aQcN10O3EGhzSVi1h50TCpeoS+fOnXn+/DkPHyo4 i1/AJCQksHfvXkaNGpXtXkGFSAIkhsDd2ZD0Mu92RVrgn/GYrjjwtXj0XqQQMMECPfSJ5CUysucG V4bQDPfMl3m3yw/USlcgETZDSzeGBmug2wtodQKqDAOD0kKBkrJthM3W4EPq26arq8u3337LkiVL 1B8kH1i/fj3u7u7Y2dllu1dQETQAvsvh3lzhSzYviqzAR/Oab+lAJOHYfYI5ZbTFba5wgHWFbUaR RIIEC8qQTlrm67mqhBaS//3169ekxguF+G7e/Rc/P78sWTSTXgoCcqmzEJ+fgV4p6HAP3K9A1ZGg b5597MqDhGvgds1sHDduHPfv38fT01Nx4wIgLCyMDRs2MH/+/BzvF6TAR3gJV5NqebcrkgKfQjIT 6cJznuBCc6aSvXSWiHJs4Vd+YTRviChsU4okmkTSpCfAq6tCeGSZVlo27ANSUlI4duwYAwYMwMzM jBo1avD0YSAAvyyeR/v27bG2tqZ7y4FsbH6HQ7Zy7s6GkOMQH6jaXBW6CF8E4f9AQrD6NhsaGrJ8 +XK+//57EhIS1B9IS0yePJnx48dTuXLOJS8LSuDlMojyEeLgzV3yblskBX4pE7jDNSpRjcUczNfa h8UdC4Rshy8JKWRLiiaaHHZ6fQNkyUK0iW4+pUqSy+Xs3r2bqlWrsnDhQurUqcOVK1e4e/cubrWF E8y/LfmNs3uucrDLc3p6bqHENWdSU1J5U+s/Gp+NoXQT1ebUMRLy2ctl8Oxvzezv3LkzLVq0YPr0 6ZoNpCFr167lzZs3edpRUFE0EV7C/oaJo+KiMEVS4K9xkpKYsoyjmJLPeVWLOdrYKPyU0WQFLxc8 JPlWmi8sLIyWLVuycOFCVq1axd69exk0aBCWlsK/mcGx0xgR9CvSqa3wbGrFy52m6Eh0sOmfQNVD j7juspQWQ2qr5SKpOhIkOpCerPlzrFq1iidPnrBy5UrNB1ODM2fOsGHDBg4cOICubu4hxQW1yfp8 n3CtqESBqiIZAP0nF5Ehoxx2hW1KkSfjC1JdH/Knjiax8GXbCpEnhrnX31abhw8f0r59e/r27cu4 ceOQSrOv5fQ21cNyUUteREmR6kHZfgnYjo/DsGI6YMXC+gs5d+4cXbt2Zf78+QwfPlzp+Us3hp6R 2nkzMTIy4siRI7Ro0QIDAwNGjBih+aBKcv78eaZMmcLx48epWLFinm0LxEUjh+cHhD9W7Km4eZEU +E+hvF5B4Uh9rChHebLn1RBRjKax8Pkh7v7+/rRu3ZoZM2bQo0ePHNtEXTbg8TQh53rpz5OoMjOW EnZp2dq1bduWQ4cO0bNnT8zMzHIdLye06XYqX748Hh4etGnThpcvXzJ16lR0dHS0N0EObN++ncWL F3P06FHq16+vsH1BCPyrqxAfBKWqgZkSRa+KpItGRHvUpRknCREzSqqJtg47aYvExES6d+/OhAkT 8hTjUnVSqDAinjo7I6m9MSpHcc/A1taWLVu2MGbMGLy8vPLDbKWoWLEinp6ePHz4kIEDB+ZYUUkb xMTEMGHCBDZt2sTVq1dp2FBxJRM5ct4QgS56+VoO89HvwtX+f8q1LxIC/5wnvOKF4oYiIgWM2imD 5cJxfm0zadIkatSoweDBg7N8nhKug/y9UH1dEzlVZ8Vg3kI5J7mjoyM///wzI0aMID09XSWbXl+D tHiVuuSKhYUFp0+fxt3dnS+++IINGzaQmqogZ66SyGQyDh48SNu2bbGwsMDLy4uqVasq1TeWaNJI xRwrJGi/ghRAjC+EHBEilKqOVq7PRy/wT3lAP+rwLdpJEiQiok3UjaK5OQ4OlYekcO3ZEhQUxN69 e5kz51120PR4CY+nmnKtvjUBi7IXqFCFzp07Y2FhwZ9//ql0n/ALcLY53Jqo0dRZ0NXV5ccff+Ti xYvcuHGDFi1asH79emJiYtQaLzk5mT179tCuXTu2bdvG7t27Wb16NSVLKu9jKogImsAdQmSS/XDF WSQz+Kh98KmkMIMBJJFAfT4rbHOKLTFEYUIOJ1ZEFGJJWSRIVHPRyOHZXkh5A9pc7P38888MGTIk s55pwhNd7o80J/6xLtISckwbpOTa19PTk+fPn9OyZUus8yh4PX36dIYPH87o0aOVqnVqUl2Ipnm2 B1x/F0IotUXNmjU5duwYnp6eLF++HDc3Nxo3bsxnn31GvXr1qFatWo5RL3K5nKdPn+Lj48OFCxfw 8PCgUaNGLF68mHbt2qlVw7UgImgq9YDUN1BrmvJ9PmqB38QCHnObKtRmHL8UtjnFEi/OMxZ3FrGf 1h9zjbSPFH0MKIU5MUSSSLxSecDf3IfkCDCpIRzt1wbJycns27cvM6Tx5VFDHk82Iy1OQinnVBxX R+foZw8LC+P777+nd+/e9OrVS+E8tWvXxtTUlKtXr9KsWTOF7UuUA+uWwqGn4KNgmw8ZvBs1akSj Ro148+YNJ0+e5MSJE2zatInAwEDMLE0pZW2MTrou+hgSExNDaGgoZcuWpWHDhnz55ZesWbOGMmXK aGRDQVRyMqsDrn+o1uejFfggfNnMAqToMJvNmYmRRLTLMx4jR04cbwrblCJLacoSQyQRhFGBKgrb v7wiXK0U66PSXL16lRo1amBibMaTWSYE/yV80dj0T8BhbgxSg+wFL1JSUhg0aBA//vgjrVq1Unqu zp07s2fPHqUEHsBuoCDwgdvyR+AzMDU1pW/fvvTtKyRKT0pK4q+wRawMn0UH3cH0ZTwmJiZUqFCB EiVKaHXugkxToAofrQ/+HHtJIZk+jKMmroVtTrEllmgASmJayJYUXVQ97PTqbbEi6+bas+HcuXO0 auTO3f9ZEPyXMVJDOdWXRlN90ZscxR0El46Dg4NK4g7QoEEDbt26pXT7Sj2EBGWhZwuuJCEIqQ6M 7fQxdgMHV3tcXV1xcHDQurhD/gl88it46aF+/49W4HvyNbPZzDgWFLYpxZqMzcGMzUIR1VF1o/XV NeGqzRX8S99YnA59R9QlAwzKp+N6JAKb3rmnAU5JSWHbtm2YmZkxf/582rdvr3T+dVtbWwICApS2 TbcklO8kVK0K0jB1gaokIoTvGJFPuSDekh+54NPi4Xwb4b/Yx+qN8dG6aEyxpCNKBnuKqE0CQtJu a7JXiBdRDlVW8EnhkPAMDMuAsZ32bKh/bjI6caUxdkylzrYo9MvkHcp49+5dUlNT+fbbbylTpgzn zp1jyJAh1KhRg1q1auXZt0yZMkRGRpKSkoK+vr5S9tkNFMr4Be6A6uOVfiyNSSQOKAiB1/IKXg5e o4T9GgtXKKnmOcSPdgUvUjB8zVz+4Lh4OlgDMhK2KRMLH3FTuFoqPhipEi9L+KLTOASX/REKxR0g JCQEY2PjzM3F1q1bY2RkhIeHh8K+MpkMmUyGnp7y5Zps3IVTu5E3BdEqKBLeCnyJfBZ4bUfReH8H QbuEdMxNd+dev1YRH+0KXqRgsKYC1lQobDOKNKqs4CPfCry5lreVHrT6C+tWrdAt1UWp9g4ODiQk JJCQkICRkRE6OjrUrl0bI6O84xilL0KJv/+QiqZmKoUTSnTBtrdQqCJoNzjPVbqrRrwTeMXRTaqQ mJjIrVu38PPzIyoqCr9BD6E0BN8Nw9EhCUND9YNC7syExyuFkNIWB9VfvcNHtoJfxXT+ZlVhmyEi ohKq+OCjvIWrhZZX8FWqVCEoKEjp9tWrV8fFxYXz588DQmx4VFQUX36Zd2kp46FjKP+/0dx5nUiS Y31S/jeKtBVrkXn+C0l5H821Gyhcg/YobabGJGnRBx8dHc3ixYtp0KABpUuX5ttvv+X06dP4+vry RirUU5j5zc9YWlrSrl07Dhw4oNopWzn8Nw3uzwepAbQ4BFYabsR/NCt4Dw6xiQU44Exvxha2OSIi SqPKCj4+GJCApQYr+AgvuNQNqn4FTm8PrTo6OrJ7926lx5BKpaxcuZKJE4Ujpn5+fvz000+ULZv3 ZnvyqKG8+m0ZZV6EYfjQl/SHvqRv3Snc1NND6lQLaYN6SBu4ImlQD6ljDXh72MjCFWz7gU4Blm/Q hovmzZs3zJgxgx07duDu7s706dNxcXHBwODdg/Qw34IUHY7vOkVSQjJnz55l6dKljBs3jhkzZjB6 9OgcM3pmIEsGz2HC242OoeCWKauFSqQfhcDLSGc1MwDoz4RCtubT4TLHOMpm5rBF66+wnxKqpAxu uAYSw9XPIhl9Fzy+hJRokL8X/dihQwfGjh1LXFyc0kfs7ezs2Lt3L6GhoXTo0CFPAcogpXtnvt63 m4krFtGxlhOyK9eQed9G5u2D7NZ/yG7dRnbrNqzbKHTQ00PqXBtp00ZIXevSaJoL0prVKSjnQYKG m6wXLlxg6NChtG7dGg8PD6yssvvYZcjQQx/L9LJI0cHIyIguXbrQpUsXfH19mTZtGjt37uSvv/6i evXq2fonv4IrveHlJTCwhOYHtBdh9VEI/HG28ZT72FKd9gwsbHM+Gfaxhquc4HuWiQKvAaUwRx/D t8W305GSexpbSzf150l4Dhc7CuJeeTA4zX53z8zMjJYtW3LixAl69+6t9Jg6OjpUqKD8Hoy/vz8P HjygTZs2SIyM0LG3Q2dwf+FmWhoyXz/k3j7vRP/fW8LV2+fdICalhJW+qwtS17pIXF2Q1sqfusqJ GqzgV6xYwcKFC1myZAktW7bMtZ0UKb+/PoWePHtEUfXq1dm/fz9btmyhefPm7N+/n+bNs/pd7i8U xL2kPbQ8JqR30BaFLvBppLIe4T1zLL+gU/gmfRKkk8Z/XBU3WbWABAmWlCGUIKJ5nRlVo01SY+Bi Z6HGqc0X4LZeqMn5Pt999x3Dhw+nS5cuWdwH2uT3339nwoQJOW/G6uoKQl2r5jvRj09A5vPfW5EX RF/+0BfZVU9kV99VipLYlH0n9q4uSBs1QGKl+bF/dVfw69evZ/HixRw4cIBKlRRHmNmk2eV6TyKR ZIag9uzZk+3bt+Pu7p5532EUGFiAw9egb6GSmQopdDV9QwThBONMYzEXSgHygJvE8YZWKFH3S0Qh lpQllCBeE6p1gZelwOUeEH1H8GM325Nz2Fzr1q2pV68e69atY/x47QebX79+nevXr7N161blOxkb IW3WGGmz9+oNxMQS9Eco8qCnlEs5gOzqdeRPA0k/dgqOncpslk30mzVGYq5kGsW3ZBx0UuUN9dCh Q8ybN499+/ap9HajiEaNGrH+zw2M7TeZY9f+plq1aoBQvKPWj1qbJguFLvCWlOUAvphROt/yKItk xxsPABrStnANKSa8i6QJo1oubXy+B6MKUP071cb2HCbkcilZGVoezbtS0pIlS2jYsCGurq5Yl2lJ 7/7mtP8imfk/q5dKN4OXL18ybtw4tm7dirGxhu48k1LcXFaKtAqNWyQAACAASURBVIRqdH3+BYal Qf4i9N0K39sH2Y2byEPDsoq+jg6S6g6Zrh2pqwvS+i6QR0hiInFI0cEA5dITREZGMmbMGNasWaNV cQdIDpeiM+8L5kR14qcOE9l2f6HSB8XUpdAFHhDLxRUCzehAJC/FtyYtoSiSJj5IqMZjUl01gX/0 +9sDLxbQ6oRwAjYvbG1t+fvvv+nZ8xt0DDwJfylFVzfnXDTKEhERwdChQ/n6669p21Y7C4KybeHZ PiFtssPXIClng045G3Q6vQvTfF/0ZVc9kV2/gfzBI9IfPCJ92y6hka4ukmpV34l+s8ZI6zqDjg6p pJBKikp5liZOnEjnzp2VquKkKm88DYi5pUcJ23TSbSJZtGgRM2bM0Po87/NRCLxIwVMVJyaytLDN KDYoioWPervHaOqo/JivLsPtqUI+9aY7hVd5ZahXryWlzD0ICDSkZo1wfpya9c04PV5C6C4jrDol YlBGlssoAgEBAQwcOJBBgwZpVYzsBgoCH7hDEPicyCb66enIHj3OuonrfTu76Jc0RlrHibjmNWEB GKUagq4cFBzMCg4O5tixY9y4cUNrz/k+Vp0ScbFJp1SdVMqEjqJr165MnDhR4eEyTfioDjqJiBRV SiuozRp9R7ia1VV+zKC/hQRdzj9DWXfF7QFSU6FXPzkBgWZUsU8kLrod8+b9RERERGabsL0leDLb hICFudcOTUlJYcWKFXTu3JkZM2YwZ84ctQph5IbNF2BQGl5fVyGRlo4O0rcbuHp/LMLgyllKxLzA 4J4X+lvWoTtyKBLHGpCQiOyqJ7E7hVBNg4BXJJlXILmZO6nfTiF970HkYdlLaa1fv55u3brlm+BK pGDaMAWpgRw7OzsaNGig2n6GGhTaCv4UOzGghOgiECkWKHLRRN8Trma1lR/TeY6QhdFGSXGXy2Hk 13JOn5FTvhxcOGeMUYkLzJ49m5YtW9KnTx+6du2K3v2mALw6bkjVuRJ0S75z4QQFBXH48GH27NlD nTp1+Pfff6lcubLwDHeEknHmKnxJ5YZUDyr1Ar81ELgLnGapOZCeXpbIHT2AuHhkt++QFnASmEuJ NEPkMbHIMyJ3lq8Bsm7iSurV5cD6DazYuUOl6b29vQkODs7ymZOTE/b2it3Ow4YNY+7cuYwerWSB VTWQyOVyzRx0eZDczB3ZVU8Mbl1B6lIn8/NnPKYnNbGiPMd5ll/TF0tSuvYl/fBxDM4cRuquXBnD XxlHZWrSm7H4c4+VTGMyyylH5Xy29tPhPl78DzdcaM56LmW7f9xRKJrc0RdKKVfHWWVmzJIzf4Ec U1O49I8UZ6d390JCQvjjjz84duwYA/23UDmtAQCPW20jpMplgoKCePr0KbGxsfTq1YuBAwfi5pY1 aP+wLSS9hNYnwbqV5va+9oSzTaFkFejki1bLFwI84F8G05B6tGDdq/3I/vVG/u8tZDdvIfv3/+2d eVyN6fvH3+dUiJIWyZ4iu8gySNYsobGbGcsMxjbDWMb2m2H4jplh7AZZx75kkDEyyBYTUUJZQ9YI SaW0n87z++OhpE6dczqtnvfr1YvO89zLiT7nfu77uj7XZYQX4RnuFwClbQ0UXTqR8NP0HPtPSUmh VatWmJiYpCWX3b17ly1btqi1h5+amkqjRo24detWritKqaJAVvC7WI4SJZ3oXxDDf1Sc5gB73/r7 rGAGllTmMXcYxGRJ4HVIdiv41ESIDRHNo3JjHJUdf24Sxb1ECfD4S5ZB3AEqV67MwoULWbhwIXvN lCjeFvCqcacb5VwjcXV1pWbNmtjZ2aGnl3Wilu0ouDYHfAZAl3PqnwmowqKl2EfsHVHsLVrl3EYT 3rcpkJW3QK97V+jeNe268DhUTMS6eIlnh45gdCcEw3sPkG/dSeKMSQg5RLj4+/uzadMmGjVqJPYn CPTs2ZPmzZurNT89PT3s7e25fPlyjh5A2pLvAp9AHIfZjhw9Pue7/B7+o+Ms/6b9PZE4HnMHGTJ2 sxIb6mL+VpgkcocZFZAhy/KQNeYmCKlgUj9zctL7JIaDTx+o3Avq5byATOPfwwLfjBeQyWDjehmd OqpeCqcmguJ1+iQMwsozsM5EKnbLeZwGMyEmWIzqOeMKnbzFmqu5wfoLuPazeNiaVwKvKslJVq0q etWqotevF7vNjHj04AFzBg0Bff0cxR3A0dExw/cBAQE0bdpUo7MKGxsbQkJC1L5fU/L9kPU0B4jn DS3oJK0g84FbZC6tJiBwhgN0ozKr+bEAZlX8MKAEZTEjnjdpwvIOtfbfBfD7WlzJxt5Wf9yAS/DZ YAGFAhYvkDFkUPbikpj5bJEb6tazl8Enf4oOh7EhcKqL+KGUG6wHi/0++ks03NIlmtgUxMbGYlS2 LKk1bUi11q42gqenJ59++qlGbUxNTYmMjNRqPHXId4E/jxcALgzO76E/Sp5yT+U1AYFLWewXS2iH uYpIGnUE/u4aCDsMpSzB/jf1xrv/AHr2VhIXB9+MkfH9pJxXjkkvM7/28hw8OaDemHqloN1BMG8B MbfAu2vWfaqLka24ck+OhAgdRydq4gUvk8lQKrMPGc0OQRC4cuUKTZtqbhOah8eg+S/wnzOBEcyk K1/k99AfHW+I4Q2vVV4vjRHLOJiPMyreqNqHj7kp/mmiQuBjQ+DKdEAGLTer5zQZEQHdXZW8eAGf 9pSxcrl62wKpKlbJgf8HSjWtyw3KiklXpo3FyJrjTvBG/RKtmWi6DOpMFm0YdIkm9VgtLCxytZK+ dOmSxtszID45GBsbaz1uTuS7wNejGd/yK/qoX+5LQjuOsEPlNT302cJ5yqJjd6OPGFW2wZbtwaK1 CidJAS6OgdQE0XRKnb3whATo1U/J7Tvg1Ab+2iVDxblo5uFUVPOLvQu3FqrXB4il5DoeF99X7F04 4QRRgeq3fx+zZtBkMejr2NA0QYMVfOPGjbl27ZrWY3l6euLq6qpxu8ePH6sVUqktUqJTMeYEe7N8 XYacRezHBg2CsiVyRNUKvu5U6OwDBlks1O5thBenxcNKezX2wlNTYfCXAr7noW4dOLBPnp0VS2ay 2YW4/ptm9VJLmEHHY2KsfsIzCChkMRPpRmM5r+CbN2/OzZs3SUrS/CBAEASCgoJwcHDQuG1gYKBW 2zrqIgl8MeYmF7N4Vcb/2EJbNF9tSGSPqj34NAR4flz0cwdRFAP/T/x789VgoIZlyqQpAn//I1Cx Ihz2lGOm4QOYPJsPA2USXNSwmJqeITh5gMNSaJC3tioao4lVsKGhIfXr1+fChQs53vshly9fxsHB QePtmStXrmBsbKyWHbG25JnAR0ZGEmNYCkFfn3vRUXl6UvwxkJycTGhoKBF6cpDJCFOmZlvv8Q6B aSuYd8iAqfxBD4bm8Ww/TnLyo3lyELy7waHacO9PCBgHyVFiGbvKanzezvtdYNVqAWNj+PcfOdbV NZ9jCdPsr8vV3Op5H5ke1J4IFbvmfG92PD2U+0Pb99G02Mfo0aPZtGmzxuNYW1szceJEjdvt2LGD UaNGadxOE3Qm8EqlksOHDzNixAgsLCywtbWl+9P7DGlUk55jx2BjY4OdnR3ff/89AQEBuhq2WBMX F8fatWvp0aMHFhYWtGrVij73bvJlYzscR4/E2NiYVq1asWTJkkzp0hvJGIohQ8YsNkq5B3nI+5bB 70iJSfeheX5c/DMpAvzHwJN/oEQ58ZAxJ9z/Epg1R8DAAPa6y2iipV2AKoGv2keMa+9wXLt+PyTm NvzbAIJ+hNR49do8PyF+hWzQzRzUXcG/uQf3t4DtscEEnA3k/v37Go1jbm6OiYn6jpUgFvA+evQo w4YN06idpugk0cnLy4tp06ZRsmRJevfuzbFjx6hYMWMCjSAI3Lhxg5MnT9KnTx+aNWvG/PnzqVOn ji6mUKxQKBSsWbOGefPm0aJFC3r16sXSpUspW7ZspvvOnz/P4cOHmT9/PsOGDWPmzJmYmppmSHCS I+d39tKRvvn9Vj4q3u3Bv7+C9/taDEHseUfca/+QlBgI/EHcfy9lmXW/p88IDB8phtKtWy2jaxft c/pLmouWwymvoVJ3QAahHlDCHCzbat1tJlLjReG8uUBMYmr4s1hmMLtEr2r94M5KeLAN6usgPUNV sY9XfuIYMbfh9c33cwNK0UNvKtMn/MBez906NVf7kLlz5zJkyJAsa7zqklx50SQnJzN69Gh8fX2Z OXMmXbp0UatdUlISW7duxc3NjRUrVvD5559rO4ViR0REBAMHDiQ1NZU5c+ZQt656tSojIiJYunQp Xl5ezNs3i1Wtxc1UA0ryJ2eoTy6KgUqoRQxRdMQMc6zweivyB21EL3iXS3CkGaLhyfvIxNcMK0Ov h5kF8PoNcOqgJDoafvmfjFk/5l50Ul6L4xqUhfjHcLCWaP7V+7FuS8ZFX4WACaLtMUC5RmLloqp9 xG2dTAjgWUsMuezqJ0bX5IZRtOUKPmzjIvVI7+yUM7zwzrqNgJL5hh0YMNWZUWNG5m4CKvDx8WHG jBlcu3ZN7QLp2qL1Fk1UVBQdO3YkMjKSo0ePqi3uACVLlmT06NHs3r2bH3/8kXnz1E2lK948efKE Fi1a0KhRI3bt2qW2uIMYxztv3jyWLFnC1D6ziXKXY4IZnjySxD2fKIspJTEkipcoSSU1QSyUrV8G XgeTWdxJf824ZmZxfxomxrpHR8PIEboRdxAPcw3ePgyWrgaVe4hhmve36qT7NMo1AufT4PQ3lK0j Cv65z8QziNt/vP2geR+ZeB4B8EB1hK/aqNqiye6sQIackQmb+WPRKk6fPp3hWmysjOUryvA0TIuD irfcvn2biRMnsnnz5jwXd9BS4BUKBQMHDqR27dqsXbsWQ0P1ymF9SN26dfnnn39Yv3497u7uWvVR XHjz5g09e/bkyy+/ZMaMGcjl2n32tm/fHo89HryZbMEs731Y5EEBaAnVmFMBJalE8ZLYu6K9rnFt CD+tuo1pYzES5X1evxbFPfQJdHeRsWZV3m0X1HobOROyVvSf1zVVPoXuQdBqq/he3zyAy9/D35Xg 7ICM9gk1vhT/fLRb/cQrVSRkIfCpCWL2bHZbRRVL2fDXH4eZPHkyx44dS3t92QojFi4xwv0v7fTu 3r17DB48mCVLltC+fXut+tAUrVRk2rRpADopAmBhYcGWLVuYOHFinpruFHbGjx9Pw4YNGTNmTK77 srOzY7Xbar744gseP5bsmPOT9yNpYt4WsihrB+E+Wd9friF0OJbx8DM5Gfp9JnD1GjRrCn/tlKGf h7aAVh3F1XZsCNzTPIhELWT6YhWnbpeg4wlR9AUlhO6Hl77p9xnXErdmkl6KB665IUGIw+S+Da// MeXaz3CyI+wzFz9UBBX5ACVMoP2/4DyyKZ6ensyYMYM//viDZ88Etm43RE8PerkmajyXAwcO0K9f PxYvXsygQYNy98Y0QOM9+OvXr+Ps7MyZM2cyHfrlBjc3N4KDg9m3b5/O+iwqXLlyhe7du+Pj45P7 gsbvsWzZMkJDQz/6p6P8ZBp98eZvVnAYk99cuDpbPDC8+XtmUSlbW4xceb/OqiDAl8MFduwSsKkB vv/JySOr8Aw8Owqne4iZqZ1VfBjpmuRIMbHKwjHjivrf+qJrpb6RePBrUk+0byhpLp4RlDQDZKCI F+0NSpRLb5saL+YWRF6CZzfeYBCbcRtEXkL00SldVXTFfB/DyqK4l/vAR3/UqFFcvDyIiMhB9O+b yIplqu0/PuTBgwf8/vvvPHjwgG3bttGkSRMNfkK5R2OB79GjB61bt2bEiBHZ3pecnMzevXsJDw+n W7duOe4nJyUl4eTkxMGDB/P9h1DQuLq64uTkxNChuo1Pj4+Px8nJCU9PzzzNlvvYiYyMxMvLi1On ThHY7SBCv3BCR8npv3ErbWRDOG66hM5RUzK0KWMNzmegdJWMfU2ZLrB0uYC5OZw7I6d2Lj3XNeHe n+KHTnmn/BszKy5+CyHr1LvXqjN0OJr+fVQgHH37X12QK4mxeUCDhraYNITyjlC+tejLL6TCQVvx jATE9+y4UxT5D3n2DKxrpZCcDLVq9GXk10507doVS8usw55evXrFxYsX2blzJ9evX2fcuHFMnz6d kiVLavBT0A0aCfzjx49p1qwZAQEBGBhk7yWzcOFCSpQoQUBAAGfPnsXPzy/HqiULFizA0NCQ+fPn qzulIk90dDTW1tZcvnw5x7OMxMRE9u7dS0REBO3atVMrNXrt2rWEhYWxYYOOgosl0rh48SILFy7k +PHjODo64ujoSGS/G5yuvYvBr6dTq+OvxAYaYDI8lNebq6a1S5LHoZj1L0P/r1eGX/o16wS+/U7A 0BBOHJXTWsf+6EWJM66iu2bt76FMVTF3IPkVJEWKfwIgB5uv0g9m3/HKH5JlifStZ0HpMqU4SUSW YwQvEVf7daeL5RFlKrbBxk0QWL1WYMQwGYM/92bdunWcOHECY2NjbG1tMTIywsDAgLi4OG7evElM TAwtWrRg8ODBfPbZZwUi7O/QSOBXrFiBn58fixcvzva+qKgoEhMTqVixIkqlkmbNmvHzzz/naMZz 7do1JkyYQHBwsLpTKvLs2rWLHTt2sHHjxmzvS01NZejQoZibmxMfH4+XlxcrVqygb9/sY9tDQ0Nx dXXl2bNnWh/cSmTk8ePHTJw4kYCAAL755hv69++f5gh4tPQO3Eym0zNuBPWrbEARK6fKsHiebBYL OcvkoD/jPOv95xASEsKKFSvo2bMnBw8J9B0g/iru3S2jT6+8O1TNicvfQ+nKUGdKzvfmFY/3iRE3 tb6BZqs0bx9JOF2oQEWq48lDlfcp4rI3OXscCnb1lCiVEHxdjs3bEhaCIHD//n3u3r1LbGwsycnJ lC1blrp161KzZh7VZNQCjY5uvLy86N8/5zJ7pqbpJ0ZyuZxatWrh5JTzc1+DBg14/PgxiYmJlNLI QanoEhQUpNb2yYULF5gwYQItW7YE4KeffsLNzS1Hga9atSoWFhYEBgZqZYYkkRF3d3cmTJjA119/ zfLlyynxQeUfM6X4lBofoUARI6dkpVTiQtLD6mx+jKHqWGscx23Fx8eHCRMmsHHTdY6dmk5qKqxY VrDiLijg/mZIiRUPXq3ULPita6r1A9ke7ZOv1LUpyMnB8rf5AklJMHqkLE3cQfSPt7W1xdbWVrsJ 5hMaCfzDhw/TKqyrQ1JSEitXrqRTp06UK1cux/tlMhlWVlZc8AvH2DjvDHgKEw8fPqddu5zj1Fu0 aJFhW8zR0ZGrV6+qNYaNjQ0PHz6UBD4XCILArFmz2L17N7t376ZevXpZ3ldBIW7FKKPFf6sytRW8 uSn+mln1T6Dq2HR/ICcnJ9xWn6JXP1NSUuD7Scl8N65gFzYyfTGrNmA8XPhaDG/Myb8mbyYCVftp 31xVFqsmPHoMW7aJ9hD/N73gPnRzg0YCHxYWplH171OnTnH37l0OHTpE2bJl1cpYLWPUlE5dq+Sq ukpRomKFofTunbO70odnHiEhIXTrpoZ5OFChQgWePn2q1fwkRCZPnszZs2fx9PTM8IT6IdUVdfg1 8i+qVKwJW6Iwqp/Cw0XGpMTIqL0wY/TFixdyxnxbmZQUPWysL3Lh3BTi449RunTpvH472VJrLDw9 CM+OwZWp8En2u4eFEk2cJFUx91eB5GT4dqyMGta6mVd+o5HAp6amqqy4nhUuLi64uLiwaNEi3N3d 1RL4+Li7dO38hhRF3lU5KUzEv7lBdHTOBX7fJzExkQsXLrBp0ya17tfT00OhyIMMlo+EZcuWceLE CTw8PNQKDbZPersd6SzGS9deGp3pnjdvZHw5ohyhT/Ro45jMji3VmDq1Il9//XXBh7XKoMUGOGIv mnBVdoUqvQt2SpqiqZPkh9y7D9t2CJQsCT/MKJqrd9BQ4K2srIiIiNC4xJSLi0umtF9VhIffIzBQ hrFx0f2hasLkyQ95+VKzZ+AVK1bw22+/Zdr/VUVEREQm8zcJ9fD19WXBggVpT6G6YtWaMly7bkDd OilsXBdNiRJi5JmrqytbtmzJc5fBnChdBRovBP/RYtiiefOsQwjzmphg8PoEGvwkFk5Rl9yu4Of+ KhYy/3asjCoF8L51hUZhFRUrVlT7Uf99r/KQkBC1Dmfv3LmDmZlZntYoLGw0aNCAwED1a53t3LmT Ll26UL26+mbgoaGhVK5chP+XFhDJycmMGDGC+fPn6/zn59wxmQH9Etm57TXGxmL0TKlSpVi+fDkz ZswoFPUTbEeIGaeJL+BC9mkveYaQCoo3oneNqnKDWZGVTYG63A2BXbsFSpWC6VOL9kJTI4Hv2LEj 3t4qbNje4+zZszRo0ICZM2eyatUq4uLi1FqRHD9+nE8//VSTKRV5XF1d8fb2zrZ4xzt27dqFpaUl tWrVIiYmhoCAAPz9/bNtEx0dzZ07d2jevLmupvzR4ObmhrW1tdpnHZrQrGkyfyx9jVWFjKpVv359 unXrxtKlS3U+psbIoOUWKGdfcFMwqS+OnxCm2gEyK96t4Etpccj6v7npq/fKlTRuXqjQKA4+KCiI vn374uPjk6MHzcuXL0lJSaFSJfV+Qkqlks6dO+Pm5kaHDh3UnVKxwNHRkREjRtC9e3eV92zfvp0Z M2ZkeK1MmTIEBQVleyi3d+9ezpw5g4eHh8p7JDKTlJREjRo12L59u8qImbwiNDQUFxcXnj59+tGE C2dH8FK4Mg1qDBU/cNRhO4v5g2mM5CfGMlftsW7egoZNlBgawr3g/LGJyEs0WsHb29tjamrKoUOH cry3fPnyaos7iGY8ZmZmH524A8yePZtFixaRmqr6GXTo0KGEhYVl+Lp792624p6amsqaNWsYOTJv fK2LMwcPHsTOzk4rcVcqlezfv5/Zs2fz559/Eh+vZkmjt1StWhV7e3v++ecfjcfOS5KjxD35iPP5 O271L0T/+ND94naNOqQfsmq2gv/fXAGlEsZ/Kyvy4g5auEkuWrSIBQsWqLWloC7R0dEsWLDgo7Io eJ+uXbtiZWXF5s26tfLbvXs3VlZWuLi46LTfj4Fdu3bRr592gdhTpkxh3bp1RERE8Pvvv+Pi4sKb N2oq01u6d++u1kIqP4kKgnsb4XR3iA7Kv3ENK0KFDmLW6ZOD6rVJj4NXfw/++g3w+FvAyAi+n1i0 997fobHAd+jQgWbNmmXaLtAWpVLJuHHj+Pzzz9XKdi2ubNmyBTc3N62qumfFrVu3WLhwIcuXL9dJ fx8TCoUCb29vrZ4mHz16hLW1NV5eXqxevRoPDw/u37/Pnj17NOqndevW+Pjkk62jmlRoD3bjxDKD p3tA3MP8G7vGWx++e3/ChWGwzwx2l4TXKnL9tImimf0/cfU+8TsZKnzEihxamZNs3ryZO3fu5Fo8 UlJS+P7777mjd4XL87eyjjkkotnjbHFBaR1Hux12jPlmTK6Lkj99+pThw4ezatUq7O0L8ISsiBIc HIylpSXm5uYaty1VqhTjx49P+97e3p46depovE1TvXp1Xr58SVxcXM435yMOS6FyT0h4Jor8+8U6 8gplMsTeBZkMws/Ag+1iNShBAaEHsm6jaRTNlUA4cFCgbNnis3oHLQW+dOnSeHp6cuzYMSZNmkRS UpLGfbx48YJBgwaRqEjA8mA00XrhbGAuThjRjzqs5kciCddmekUKAYG9rGYozbnn7MO4bUMZOXKk 1r74vr6+9OzZk2nTpjFw4EAdz/bjIDg4GDs77Xx6K1SokCkZ8NWrV3zyiWZlE+VyOVWqVCl0BVtk +uDoDhatxBj1U855K/JXZsAeI7j+q+iV/yFxj7JuF69hotOcnwUEASZPlGGmw7q0BY3W9oKVKlXC 19cXfX19nJ2d+fvvv9WyF0hISMDNzY3OnTuL7fYeYJjh9LTrAgKPuM0m5tOFCrTHlFG0ZTPzeco9 badbKHnNK77FmQWMw4AS/MYu5nRZwsmTJ9m4cSMDBgxQ22/myZMnTJkyhfHjx+Pu7p5hFSmhGeHh 4Tqrdh8YGIidnZ1WYapGRkYa793nB3qlod0hMGsOr2+KIp+Us9uGVjz9J/v493gVaTnxGhyyXroM hw4LmJjAxPHFZ/UOGmayfoihoSE7d+7k9OnTzJw5k0WLFuHs7Ey7du2oWrVqmmfHkydPePDgASdP nuTUqVN06dIFf3//NOOyCSzgIbf4D89MY7whmiv4cAUf3PgROXqYUp6FeGBP69xMv8AJ4RoXOcUn dGYWG6iImLzUoEEDLl26xKZNmxg5ciQmJia4urrSqFEjqlevjpmZGTExMURERHD58mVOnz5NYGAg 48aNY82aNZiYmBTwOyvaxMXF6cQPRqlUsnr1apYtW6Z1+9yWxMwrSpQTC214d4PIi+JWSc1Ruh/H 0R28WqgusZeo4iE/8e0hqzpbND/9T1y9T5kkIxuboSKJxhWdsuPq1ascOXKEEydOEBYWxqtXr1Aq lVSvXp0aNWrQuXNn+vbtq3Jv83MaEsJ1tcbqx1h+YI2upl5gPOMRVlRDRta/yEqlEl9fXzw8PLh2 7RoPHz7k1atXlCtXDgsLCxo3boyLiwvOzs46TaX/mFm1ahWBgYH88ssvuernXXFlbatpOTk5ceTI EWrVqpWreeQlKbGiMVmV3jlb72pL0Eyx5GFWlK4CvbLYpvmcRoRwjb+5S1VU+7OfvwCt2yoxN4f7 t+UUt18hnQp8blGgoB92POVBtvfJkHGEZ1hQNAJVBQROc4CDbOJrZtEAzfZjJfKXXbt2sW/fPtzc 3LTuY/fu3VhaWtKxY0f1GigUlNy+G8HMlJTWn5BiWo7atWsTFRVVoBWBNCExHG4uEC0OTOrrtu9D dcSDVgEyLIUMykH/V5nv/xQbwniAF8/SCqFnRZfuAsdPCMz/VVZkLYGzo1CV+NFHn73cpDzZJ0jV pGGREPdkkviHjXxOI6bRl7P8S1gOH14SBY+trS0PHmj/e7/k0QAADjRJREFU77R161aeP39OtWrV CAkJ4fr168yZMyfb/XT9oOsYzpxL6W8mY9LYkTJtu+FWygT9I8cRojK7URZGXnjD7eVwoi2E/6fb vp3/EwtmfyjBShXBSeq4SZ7zheMnBCwsYNw3xU/coZCt4N+RSDwDqM+zbEptDeP/GE/hToxawDj2 sho5enSiHyOYSS0aFfS0JHIgPj4eS0tLrl69mmOd3A/ZtWsXU6dmtj3s3bs3q1evVt1QqaSE+z4M Tp1B/7w/suj3vOP19JA3boS8Y1vkHdqi5+QIRnm0H5ILBAX4jxEthvVKQattuSva8SEPt8P5YR+8 KIMvsnDCdqQ0ySTihwK5inVsh85KTp+BRb/LmPq9JPD5igIFX9CIB9zK8LoZFahJA9rQg0FMznAt hWQM0MxbXVc85g6mWGJMeuWqIM5xjiP0ZiSVsC6QeUloh5OTE2PHjlV/i0WXKJVM7t6TGW07UP9F BMrjpxCyEnzn9ug5d0DephUUFs8aAYJmvd0zl0HD2aLVr4ojJo051RlenMr4Wr+XUOJtaGNKSgox b2LoZlqeUpTGh6yfmk55C3TqKmBlJXrOFHCNlTyj0Ar8O76jG+fxSvt+AXvpRGbr4TX8xHYW05g2 tKATDrSlLs3yTPDjieUs/3KRU/hxgjAe0JF+LES7+HWJwsWqVas4ffo0K1euzPexb9++zRdffEFo aCj6+vqQmooy8CrKE6dJPeGN8twFSEhIb6Cvj9y+Ybrgt3UENWsF5BX3/oSA78Qkpap9RZMwXRzC KhWwvwKkREMqCm4LPkR9cYRrT/y4desW0dHRGFuVpsbj1yjCZUQ2q0LDhg1p1aoVPXv2pHHjxgC0 66TkPx9YtljGpAnFc/UORUDgAf5gOjtYhBlWePEsy3v+4yB/MJ1H3E57zYXB/MKODPc95g5GmGCK pcrIlXckkcBLwojkRaYPi0VM4C/EX35DytCcjgxhCg600/ZtShQiXr16Ra1atTh58iRWVqoP6fKC CRMm4ODgwA8//JD1DQoFyqBr6YLv4wvvJxuWKY281Sei2Du3R97EHuT5f9z20gfODhQPX62coYNX zm3UIdgzgln9VnJafz1WFa3o3q8LzZo1pU6dOlhYWBClH85Xlk2wUlRnzpW9XL9+HX9/f7y8vDAw MKBL1+9YtfYrKlYsw71gORruwhUpioTAA8QQSWmM0M9hRR7OEy5yiiB8aUVXOtAn7dopPJj+dvUv Rw8jTLChHms4mUG8x9GFq/imGRYBTGQRQ0nfW73Hdf7DE3scaUjLAtsaksg7pk6dSkRERL6a4F26 dIkxY8YQHBysfuGb+HiUvn6i2J89j9L/ErxvBmhshPyT5umC79BYzPvPB+Ifw4XhYGQLLdbnri+F QsHixYtZvHgx3bv25OvRw7PMOA7Tv8+Y8m2okVKPFREnMlzz9/dn5coN+J4PpF//X9i2ZVihzTXQ BUVG4HXBS8LYwM+E85RIXhBDFGZUYB3eGQR6Ov15SDAmmFGeylhSmc/4Li0RSeLjICoqinr16rFx 40aaNGmS5+MlJibSvXt35syZo1b9YpW8iUN5wV8U/BOnUV4OzJDnL7Msj7xdG+TOHZA7tkRev64O Zq8ecQ/h+SnRPExukOPtady7d4/PPvsMExMTfv31V6ytrVXfa3CNSRZdqZPcjEWvsrafDAwM5Mcf Z2JlVYEtW7ZQoTh4A2fBRyXwEhKasn//fqZOncqRI0fyNJFMEAQmT56Mvr4+O3fu1G3f4S9RnjmL 8oQ3qWfPI9wMznBdVtEKeZtWyJ07oNfNGVm1qjod/30uDIcH28CiJbTeBWXUWDP5+PgwYMAAJk6c qFZluBsl/Pg/8z40SWrH3EjVBcwVCgVLly5l//79eHp60qhR8YtwkwReQiIHpk6diq+vLzt37syz Ckvz5s3D398fb29vndgkZIfw7Lm4lXPCm1SvkwiPMhqayWysxe0cx5bInTsgq6S7gu0xt+C/vhB7 B0qYQvO1UC2bcs3e3t589tlnuLm50aZNG7XGuFLyDLPNvqB1Yg9+iNqQ4/0HDx5k9uzZHD58WOus 48KKJPASEjmgVCoZNmwY9+/fZ+PGjTpdySsUCubMmUNQUBBeXl5YWFjorG91Ee4/TN+/P3UG4WlY hutpgv/2S2ZaTkVP6pESCwHfwsNd4vfVP4dmK9NDHd9x48YNOnTowLp162jZsqXa/cfJYvjTZA7t E/pin6RejYljx44xY8YMzp49S82aqq0NihqSwEtIqIFSqWTKlCl4enqyevVqGjZsmOs+Q0NDmTRp Eqampri7uxcaL6E0wX/7lSGT9r0YfLljK/TatYGyah4Gf8DDnXBpAiRHi1WbPtkEFbuI1+Li4mjc uDETJ07UurKWpmzfvp0tW7Zw8eJFypQpfIlk2iAJvISEBuzZs4fx48fTt29fJk6cSLlymq9m4+Li 2LRpE+vXr2f69OlMmzat8EZyvIvBP3se5bkLpHqdgJjY9OsfxuA7tQYNvHMSnoLfKHjmBXqGMCAG ZHIYP348L1++zPeKZJMmTcLS0rJA8h/yAkngJSQ0JCIiglmzZrFnzx569epFv379cHBwyFakBUHg +vXr7N+/Hw8PDzp37swvv/yCra1tPs5cB3wYg3/2PCQmpl8vXRp560+QO7ZEr00r5O3agEEO4TKC uJpXpoDNcLh58ybt27XnP5//8t36OiYmhvbt23Po0KFisR8vCbyEhJY8e/aMDRs28Ndff/H8+XMc HByoUaMGlpaWGBoakpCQQEREBPfu3SMoKAhzc3P69+/P8OHDsbGxKejp64aEBJSXAsXV/QlvlP+d g+Tk9OtGZZC3bKFR0lXvzgOwb1mfsd+OyePJZ82OHTs4duwYx48fL5DxdYkk8BISOuDZs2f4+/sT EhKSVku1dOnSlC9fHjs7OxwcHKhSpUpBTzPviYtHed4vPQb/ShC8V+lNVt4C+SfNkLdpnWXSVWho KE0aN+GC34UC2wdXKBS0bt2aQ4cOFfmaxpLAS0hI5BlCxCuU5/1RnjufddKVVQXkTq3FGPzOHVnw lzt37tzht99+K8BZw8qVK4mMjGTt2rUFOo/cIgm8hIREviG8CEf53zkxBv/4KYQHGcsxhZU0QPlJ c8x6uqDo2BalhjH4giDg6elJQEAANWrUYMiQIRjkdAaQBY8ePaJ3796EhYUhLwAfH10hCbyEhESB Idx/SOqpMyi9/yP15Gl4kbHIqrJ2LRLHjSK5f2+1+tu8eTPXr18nOTkZT09Punbtyrp167SaW8eO Hdm5cycODg5atS8M5KrotoSEhERukNlYo29jDSO/ws/Pj/lfDmPTVyPQP3cBfV8/5LfvYuBxUC2B T0hIoE6dOgwfPhyAypUrs379egRB0CoMtWnTpvj5+UkCLyEhIZFbHj16hLJ2LZKGDyFp+BBQKtEL uY/SSj0jMENDQ1q1apX2ff369Wnfvr3WOQZ16tThxo0bWrUtLBTdzSUJCYlixYsXLyhfvnz6C3I5 qXY1EbTIlE1JSeHcuXMsWbJE6/lUqlSJ0NBQrdsXBiSBl5CQKBQkJydTQgeVqK5cuUKvXr3YuXMn mzdvRttjRmNjY2JjY3O+sRAjCbyEhEShQE9Pj9TU1Fz306RJE/bs2cPw4cNZvHgxAQEBBTqfgkQS eAkJiUJB+fLliYyM1ElfRkZGzJ07l9q1a+Pr66tVHzExMYXGAE5bJIGXkJAoFFSrVk3ne9716tXT uqZueHh4vtfj1TWSwEtISBQK7O3tuXnzJsr3rA00ITU1lbCwdC/7hIQEnj9/zqeffqpVf7dv36Z+ /fpatS0sSGGSEhIShYKyZctibW1NUFCQVjVwb968iYuLC61bt6ZFixYkJiayevVqDA0NtZpPUFAQ X331lVZtCwtSJquEhESh4YcffiAhIYEZM2Zo1T4yMpKoqCiqVaumlUXBOyIiImjbti0vXrzQSWRP QSFt0UhISBQaBg0axL59+7SOXjEzM8PW1jZX4g5w6NAhunbtWqTFHSSBl5CQKEQ0bNiQ6tWr8++/ /xbYHARBYMeOHYwePbrA5qArJIGXkJAoVMyZM4elS5eiUCgKZPzDhw9TsmRJOnToUCDj6xJJ4CUk JAoVXbp0wdramvXr1+f72ImJicyfP58FCxYU3jq5GiAdskpISBQ6Hj58SPPmzXF3d8/XUMW5c+cS HR2Nu7t7vo2Zl0greAkJiUKHtbU1bm5ujBo1ilevXuXLmIcOHeLIkSOsWrUqX8bLDySBl5CQKJQM HDiQL7/8kkGDBvH69es8Hevs2bPMnDmTAwcOYG5unqdj5SeSwEtISBRafv75Z1xcXOjTp0+eWfce PXqUcePG4eHhQePGjfNkjIJCymSVkJAo1CxYsIAqVarg6urKvHnz6N69u076TUlJYenSpXh4eHDk yBGaNm2qk34LE9Ihq4SERJHAz8+PIUOGUKtWLWbNmkWNGjW07uvMmTP88ssv1KxZkw0bNmBpaanD mRYeJIGXkJAoMiQlJbF8+XIWL15My5YtGTRoEI6OjmplrsbFxeHl5cXWrVuJiYlh/vz59OnTJx9m XXBIAi8hIVHkiIuLY9u2bezYsYPg4GCaNWuGvb09VatWpUIFsYZrSkoKERERhISEcPXqVa5cuUKb Nm0YO3YsPXr0QE9Pr4DfRd4jCbyEhESR5vnz5/j6+hIQEMCjR494/vw5AAYGBlhaWmJnZ4eDgwNt 27bFyMiogGebv0gCLyEhIVFMkcIkJSQkJIopksBLSEhIFFMkgZeQkJAopkgCLyEhIVFMkQReQkJC opgiCbyEhIREMUUSeAkJCYliiiTwEhISEsWU/wfzoP6/BFL9ngAAAABJRU5ErkJggg== "
       id="image5775"
       x="6.9999962"
       y="137"
       style="display:inline" />
  </g>
</svg>
