<?xml version="1.0" encoding="UTF-8" standalone="no"?>
<!-- Created with Inkscape (http://www.inkscape.org/) -->

<svg
   width="408.99997"
   height="394.99997"
   viewBox="0 0 408.99997 394.99997"
   version="1.1"
   id="svg1"
   inkscape:version="1.3.2 (1:1.3.2+202311252150+091e20ef0f)"
   sodipodi:docname="10-8-ex-26-q.svg"
   xmlns:inkscape="http://www.inkscape.org/namespaces/inkscape"
   xmlns:sodipodi="http://sodipodi.sourceforge.net/DTD/sodipodi-0.dtd"
   xmlns:xlink="http://www.w3.org/1999/xlink"
   xmlns="http://www.w3.org/2000/svg"
   xmlns:svg="http://www.w3.org/2000/svg">
  <sodipodi:namedview
     id="namedview1"
     pagecolor="#ffffff"
     bordercolor="#666666"
     borderopacity="1.0"
     inkscape:showpageshadow="2"
     inkscape:pageopacity="0.0"
     inkscape:pagecheckerboard="0"
     inkscape:deskcolor="#d1d1d1"
     inkscape:document-units="px"
     showgrid="true"
     inkscape:zoom="2.3697898"
     inkscape:cx="324.92333"
     inkscape:cy="350.03104"
     inkscape:current-layer="layer1">
    <inkscape:grid
       id="grid1"
       units="px"
       originx="153"
       originy="135.99997"
       spacingx="1"
       spacingy="1"
       empcolor="#0099e5"
       empopacity="0.30196078"
       color="#0099e5"
       opacity="0.14901961"
       empspacing="5"
       dotted="false"
       gridanglex="30"
       gridanglez="30"
       visible="true" />
  </sodipodi:namedview>
  <defs
     id="defs1" />
  <g
     inkscape:label="Layer 1"
     inkscape:groupmode="layer"
     id="layer1"
     transform="translate(153,135.99997)">
    <image
       width="408.99997"
       height="394.99997"
       preserveAspectRatio="none"
       xlink:href="data:image/png;base64,iVBORw0KGgoAAAANSUhEUgAAAZkAAAGLCAYAAAAVu+9eAAAABHNCSVQICAgIfAhkiAAAIABJREFU eJzsnXl4TOcXx7+zhywim0gERW0VWyiK2mnRqjWWUlXLD1X7VlQpqrWrvYulat9qV1sQS+17rSFE IiS2JDNz1/P742UIQsTk3gn38zzzYGbuPeeOmft93/Oe9xwdERE0NDQ0NDQyAb3aDmhoaGhovLlo IqOhoaGhkWloIqOhoaGhkWloIqOhoaGhkWloIqOhoaGhkWkY1XZAQyMrcerUKVy5cgXJyckIDg5G mTJl4OXlpbZbGhouiyYyGhovgeM4TJ06FdOnT4fJZEKhQoXg7u6OuLg4nD59GjVq1MCoUaNQokQJ tV3V0HA5NJHR0HgBV65cQcOGDZEvXz788ccfKFasWKrXrVYrli5dilq1aqF///7o16+fSp5qaLgm Om0zpobG87lx4wYqVKiA7t27o3379i98782bN9G2bVuEh4dj2LBhyjiooZEF0ERGQ+M5EBGqVq2K GjVqoFu3boiMjMSNGzdQv359eHp6Ot735PN2ux3169fHn3/+iRo1aqjovYaG66Bll2loPIdVq1Yh JSUFXbt2xejRo5GYmIiaNWuiQ4cOEAQBAJ553tvbG99//z369+8PbeymocHQREZD4znMmTMH3bp1 w82bN7F8+XI0atQI/v7+yJMnD1asWIG4uLjnPl+/fn3cu3cPR48eVfsSNDRcAk1kNDSeguM47N27 FzVq1MDJkycREhLieC0kJAQRERFpPq/T6VCnTh1s2bJFDdc1NFwOTWQ0NJ4iNjYWfn5+cHd3x/nz 5+Hj4+N4LTg4GDExMWk+DwAFCxZEVFSU4n5raLgimshoaDxFSkoKsmfPDgCQZRkGg8HxGsdx8PX1 TfN5APD09ERSUpKyTmtouCiayGhoPEWuXLlw69YtAGxWkpiY6HgtISEBhQsXTvN5AIiPj0fu3LmV dVpDw0XRREZD4yn8/Pzg5uaGqKgo1KlTBzdu3ADHcQCAo0ePonr16mk+DwCHDx9G2bJl1XJfQ8Ol 0PbJaGg8hx49esBkMqF///6IjIxEREQEChQogLi4OPTt2xcAnvv8nTt3ULVqVVy4cAF+fn4qX4WG hvpoIqOh8QibDXLUVdCVaFw9fAQVJv2MrRERCAwMhCAI4Hke7u7uqQ55+vmh334Lt7ibmL5mNeDm psZVaGi4FJrIaLw9yDIo5gboSjQo6irkK1dBUVdBV66CLl4G3U5I9fZJRsLK9wph2cqVjkSAF7Fm zRr8PPhb7L0vwMfXF4b2n8PYpQN07xbMpAvS0HB9NJHReCvg6zaCFLEHeLhb34FeDxAAklM/7+EO 07zZ+HrrJuzfvx+zZs1C/vz5n3tuURQxZ84czJ07F5s2bMB7t+9AnDID0oYtABH0lSvC2LMbDJ81 BEymzLg8DQ2XRRMZjbcCrmINyP8eTtd79SWKw7xqkWMG8nWPX/DH7yPx8cd10bRpAxQtWhQWiwXx 8fGIjIzEokWLEBISgj/++CPVBk26FAXxt3mQfl8ASkiELjAXDF+0hvF/HaHLnzczLlNDw+XQREbj rUBavBx86w5pv0GvA2SC4fOWMM+aAriz8Ni9e0CJ0jJuxiWA5D/h4b4e2bJdgt1mQ548gahUqRJa t2794oKYdjukZasgzvod8v6DgMEAQ8OPYOzVHfrqVZ17oRoaLoYmMhpvBXT2HOzvVwOsNuDpr7xe DxiMMI37Acae3VK91LotYckySnVIrx46TJlG4JL1rxz9kk+cgjTrd4gLlwDJKdCHlYGxbw8Ymn2m hdI03ki0fTIabzRy5H7wjcJhD60A2OzPCoxOB11Qblgi/3lGYFb/TVi8NLXAGI2AycxOIz+1jJMe 9KVCYZo5GdluXIRp8k+gW7fBt+4Ae95iEL4fA7p7LwNXqaHhumgio/HmIcuQ1m0CV7k2uKp1IW3Z DkObcFj2bX+YVqwDdDoAgKFBPVhOHoD+/bBUp4iNA77qTNA/9QvJmdNJPnp5wtizG9wunYB52QLo QvJAHPEj7PmKQeg5ABR9zUmGNDTURRMZjTcHmw3ijF9hL1wa/KctQJevwPTDMLjduADzgjnQVygH 4xetARCg18P04wiY1y6DLqd3qtMQAR27EO7de3a2EuDvZJ/NZhiaN4bl352w/PM39JUqQPxlFuyF SoFv3QHyiVNONqihoSyayGhkfVKsEKfMgL1QKQjd+wA6HUyTf4LbldMwDh0Ane/jasnG/r2gr/Eh LNvWwTioj2NG8ySzfyVs2kzPLt3ogICAZ9/vFHQ66OvUhGXLGridOwpjt06Q1qwHV6Yy+E+aQz50 JHPsamhkMtrCv0bWJSkZ4vQ5ECf+ArqdAH25sjAOHQDDJx/jmThXOrkcBZQsK8P2nPwAgx7IlUsH SSbExwMV3geGfatDg/qZIzwUfwvipGkQp84CbDboa9eAadR30Fcolyn2NDQyA20mo5H1SE5hM5d3 S0EYPBy64CCYly2A5WAEDI0aZFhgAODgIYLVygTm6UmOTMDtBCYwAPDvQeD8hde4jpegyxUA09iR cLt6BsaBvSHv+xdcxRrgqtSBvHN35hnW0HAi2kxGI8tA9x9AnDQN0tSZoLv32E76YQNhqFfbqXbO nAWWrSBMm064c5c9p9ez9Zl339Xh0qXHobTjh/UoVdKp5tOEbiewmdukacCDJOgrV4RpxBDoa1VX xgENjQygiYyG68PzEOf9BXHYD6Bbt5m4DOzDwmKZSMEiMq5GA19302H9BkLUFaBlC2DJMva6ry9w O1b/vGWdTIVuJ0Cc+AvE6XOApGQWRhs7AvqwMso6oqGRDjSR0XBdBAHi3IUQR44F3YiFvkI5mMZ8 D33Naplu+ugxIKyCjMofAJERLPx24SLAcWzNBgBattBh8UKFFeYJKPEOW7OZPB2w2mBo0QSmUd9B V6iAaj5paDyNtiaj4XoQQVq+GvYS70Po8g3g5cnWXPbvUERgAGDlajb2atr4sYgUfhcILQF4PKz2 X/MFlWSUQOfrA9Oo7+B29SyMA3pBWrMe9uLlIHT5BhR3U13nNDQeos1kNFwKafNWiN+OgHzsBHT5 8sI04lsYPm8JGAyK+lEsVMb5C8CVi3rke6qWZWgZwukzhKgLeryTX1G3XghFX4M4ZjzE3+YDbm4w 9ugC4+B+0OXwUts1jbcYTWQ0XAI6dwFCv28hbdgCnZ8vjP16wtizqyqNv86cZUUxy5cDDu5jk31J krBz505s2LABh49cQvxNOypUYAUyGzdujNy5cyvuZ1rIR45BGDQc8rad7LMc0h/Grh0Bi0Vt1zTe QrRwmYaqUEIihG69YQ+tAGnHbhiHDoDbFZayq1ZnyZWrUofKtm/fjpIlS2LAgAFwd3dHx6+aYeTI r1C+fHns2bMHoaGh6NOnD1JSUlTx92n0YWVg2boWlq1rocuXF0LvQbC/Vx7S8tVqu6bxFqLNZDTU QRAgzvgV4vdjQPfuw9DwI5imjofunXxqe4ZSYTJOngLOndZj86Yp+PnnnzF27FjUrv38VOnExET8 8MMPuHDhAjZu3OhSsxoQQVq6EsKAYaDrMdDXrQXz5J+gK1ZEbc803hI0kdFQHHnbTvA9B4DOnoO+ XFmYJo2Fvkoltd0CAFy5ChQoLKNkKPDtgOUYNGgQVqxYgaCgoJceO3HiROzatQu7d++Gm0qzsDSx 2SBOnQVh1E+AnYOxQ1sYRw+Hzs9Xbc803nC0cJmGYtCFS+DqNgJX51MgKRnmhb/BcjDCZQQGAFav YWOuj+reQffu3fH77787BCYyMhJLly5FUlJSqmMePHiA7du3o0+fPsiVKxfGjh2ruN8vJVs2GAf2 htt/R2Bo1Rzir/PAFSkDccoMQJLU9k7jDUYTGY3Mx2qFMHQk7CUrQt6zD8bhg+F27ggMbcKfW6BS TdZvZH8mJkxGo0aNUKxYMQDA6NGjkZiYiJo1a6JDhw4QBAEAcO3aNfTq1Qvz588HAAwbNgzTpk17 RohcBV2eYJgXzIFl50bo8gRD6DUQXPlqkPfsU9s1jTcUTWQ0MhVp3SbYS7wPcfQ46KtUgtuxvTB9 /y2QPbvarj3DgwfA3n2E3LmB3buWoXXr1gCAuLg4LF++HI0aNYK/vz/y5MmDFStWAADy5s2LJk2a OM4REhKC0qVLY8uWLapcQ3rRV6sCy5E9ME2fCIq+Bq7aR+C/6AJKSFTbNY03DE1kNDIFirkBvkU7 8J+2AHgB5vmzYdm2DrqihdV2LU22bCXwPFC7xh3cvn3bMYs5efIkQkJCHO8LCQlBRESE499GozHV eSpVqoT9+/cr4vNrYTTC2K0TLBdPwNilA6SFS8AVC4M0/69nS1BraGQQTWQ0nIsgQBw9DvYiZSGt Wc/WAc4fg6Fda7U9eykbHobKypePR65cuaB7GMo7f/48fHwe96QJDg5GTExMmucJCgpCbGxspvrq THQ+OWGaORmWPf9AF5gLfPv/gav+MehcJpaY1nhr0ERGw2nIJ06Bq1gTwtCR0JcvC8uxvTCNHQm4 u15o7GlkGdj8D8FsBqp/mA0cxz3xmgzDExUHOI6Dr2/aWVl2ux3ZsmXLVH8zA/0HFWA5GgnT5J8g HzkGe5nKEL4fwwq2aWhkEE1kNF4fmw3CoO/AhVUFRV2BafZUWHZuhP69Ymp7lm4OHQbi44FqH+pQ qFBu3Lp1C3a7HQBQsGBBJCY+XqtISEhA4cJph/2io6ORN2/eNF93aUwmGHt2g9uJA9BX/QDiiB9Z wobWv0Yjg2gio/FayJH7YS9bBeJPk2D4uA4sp/6FsfOXLpc19jI2bGJrEA0+BrJly4Zy5cphz549 AIA6dergxo0bjtnN0aNHUb169TTPtX37dtStWzfTfc5MdAXfgWXLGpjnzgIS74Cr/QlrbZ2UrLZr GlkMTWQ0MobVymYv1T4C7t6Def5smNcthy5PsNqeZYj1Gx6KzMNWyh07dsTMGTMBAG5ubpg8eTLG jRuHRYsWoUyZMqhSpQoA4Pbt29i9ezcuXbqEEydOYNeuXRBFERUrVlTnQpyJTgdD+zaw/MfSzcUZ v8JeqiLkXZFqe6aRhdB2/Gu8MvI/28F3/Bp0PQaGdq1hmjQWOp+carv1ytCNWNClKNw8GY88/Rqj kOctnH6/O+hqNITrMagsp6DV0G/xRfv2AABBEMDzPNzd3Z97vvv376N+9RoYZ/ZAoz69YGjXOkt+ LmkhbdkG4avuoNg4GDu1h2ni2Cyx3qahLprIaKQfqxXCgGEQZ/wKXZ5gmOZMheGjOmp7lS7krTsg /bMDdDkKdPEy5EtRwMM1lyX6Fuhg+BX/k3/FRBrAsgAAXC2YDzUe3MKw4cNT7YV5HomJifjqq69Q OYcPxkTfBF24BLi5wdC0EYyd2kP/YeUsF0J8HnTvPsSBwyDOmQtdgfwwz5sNfdUP1HZLw5UhDY10 IB08TLaiZckKD+KatyU58Y7aLr0S9tAKZIUHWQ052J9PPNoZFhBMEi3Vh5NV78Wu8atuRCkpdObM GSpQoAA1b96cDhw4QLGxsake0dHRNHXqVAoKCqKhQ4eSLMtERCQdPkp85x5kzR5AVniQrXBpEsZO JDn+lsqfhHMQl68mm18+shpyED9wGJHdrrZLGi6KNpPReDGiCHHCLxC+GwVd9mwwTZvAysFkMcTx UyD0H/rc1wobzyBOlxvXpYLwzsbBPHtqqmtMTk7GuHHjMGPGDAQFBaFw4cLIli0b4uPjcejQIZQu XRpjxox57joM3bkLacEiiL/OA509B1gsMLRsBmPPrtCXKZVp16sEdOs2hP/1hLR6HfTvFYNpwRzo y5ZW2y0NF0MTGY00oair4Nt1grz3ACsR/8cM6IJfXo3YFaF792EPKgTY7Kmev6B7F6WNh/E+HcLu 93rDvPxP6N4t+NxzSJKEQ4cOYd78i9i4yYppU4NQocL7yJUrV7p8kCP3Q5z1O+vrwvPQV68KY6/u MHzyMaDPujk40ry/IPQaALLZYRoxBMYBvbL09Wg4GXUnUhquijDzNxbqcQ8gYeZvRA/DQFkRaf9B 4pq2IavO85lQ2URDX4JJoiHlN6Y75NN/kEwwSRmOEMk344kfPpqFm+BBtgIlWCjt7r2MndAFkK9d J3uthmSFB9nrfEpy3E21XdJwEbThhkYq6N598M3bQujaC/rQ4nA7tg/G/32V9RatZRnS3xvAVa0L rlJNSBu2wBjeNPV1GAzYqa8BAKgz/mPF2hPrcgXA9P23cLv2H0yzpwJubiwdPH9xCP2GgGLjFPHD mehC8sCydS2rFrArElzJipA2unaRUA1l0ERGw4F8+Ci4clUhrfwbxm+6wrJ7S5qhI5eF5yH+Nh/2 4uXAf9YSdO4CjN8Nglv0WZgWz4WhQT1Apwd0Osi5gxHpVRfZswMVK6jga7ZsMHb+Em6nD8K8eTX0 lSpAnPgL7AVCIXTtBbp6TQWnXgOdDsae3WCJ/Afw8gTfsDmEngMAnlfbMw01UXsqpeECyDIJk6eT 1exDNr98JG7YrLZHr47dTsKMX8mWtxgLQRUMJWH6HKKUlFRvk7ZHOEI6+7bcJ5gk+viTVwsFvm64 7EVIJ08T17YTy4LTe7FMvrPnnG8os7n/gLhWX7LPutyHJF+8rLZHGiqhicxbjnw7gbgGTdnNoPrH JN+IVdulV4PjSJj9B9nyFHksLrP/IBKENA+Rz54jkiQa/SMTi/ET0y8yZ/8jatFKIpgk2rqNyGp1 xkU8x8fLV1gKtCknE5uGzUg6dCRzjGUi4vy/yOoeQFav3CT+tVRtdzRUQBOZtxhpVyTZgt4lqyEH Cd+PIRJFtV1KPzYbCZOmkS13ISaQoRVIXLKCSJLSfYp6DZjIHDqcvvdzHJExGxOYR4+RozI3IUKO ukr8/3qS1eJLVp0ncY1bkXT6bKbadDbSqTNkf688WeFBfOceRDab2i5pKIgmMm8pwsRfyGr0Jltw YZIi9qjtTvqRJBKXrSLbO+89Fpf5f72yQIoiUQ4/iTxySi+a9DxD4eKpRWb5SmWy7uQbscT3HMDE xpCDuHadSb4SrYhtp5CSQnzH7o/DZ9HX1PZIQyE0kXnbsFqJ+6IL+7FXrZt1Uk1lmYlLkTIsLFa0 LInLVmU4tfrIUSKYJKpb/9WO/7qn7BAYvUWixMQMmc8w8vUYFkYzepPVlJP4zj1Ijo1T1onXQPxz MVmzB5DNNy9JW7ap7Y6GAmjZZW8RdCkKXIUakOb/BWPnL2HZvh66wPRtJFQTafNWcOU+BN+iHWCz w/z7DLidPghD88YZTq3eE8n2IFet/GrH1an9+O+lSgJPNMxUBF2eYJhmT2XX37IZy6QrVArCoO9A d+8p60wGMHze0pF9xtVvypqiPawVp/GGorbKaSiDuH4z2XLmIWs2fxLnLVTbnXQh/3eeuIbN2MzF Ny8JYyc6LZ7ftAWbkUTserXjHjwg0lvYTGbAYPU3qEqHjxJX7zP2GfmEkDBlBhHPq+3WS5ETEsle txGrE/dJc5Lv3VfbJY1MQhOZNx1ZJmHsRLLqvchWqCRJJ0+r7dFLkW/dJr5rLxYSyuZP/NCRREnJ TrWRO69EZnfp6QzndBGUl4nMln/UF5lHSDt3kz2sKhObYmEkbvpHbZdejigSP3w0+24WLp3lEho0 0ocmMm8w8p27xH3cJOuMFnmehMnTyeYdzDKpmrclOeqq082cO8/WYypXS38m2iNkWab6n9wgveUy JSZmUv5yRnm0bvVwr5C99icknTqjtlcvRVz5N1k9A8nqGUjiqrVqu6PhZLQ1mTcUunwFXOXakDZv hXFgb5jXLIEuh5fabqWJtOkf2IuXg9BrIHTFisCyfwfMyxZA904+p9tyrMdUSf96TkREBJo3b44c OXLgyMGyyJOrBvLk8UWpUqUwatQoJCUlOd3PV0ang6F5Y7idPQzj8MGQI/eDK1MZQpdvQLcT1PYu TQxNPoXbwV3QBQeBb/Y5xLET1XZJw5morXIazkeK3E82//xkdQ8gcfU6td15IfLVaOIat2JhnjxF SFy8PNOLcbb/iq3HbNj4cjvJycnUvHlzeuedd2jChAl05swZRy+ZmJgYWrduHYWHh1NgYCBt3uxa lRLkK9HENW/7eE3r13muXej0QZJjYzDXsr22n+YNQROZNwzxjz9ZeZigd0k6fFRtd9LmYWjM6pGL rEZv4r/pT/QgSRHTRUtIpDNLlJDw4vclJydTWFgYff755xQdHf1Mw7InH3///TcFBgbSkiVLFLmG V0HaFUn2UpVYCK1KHdcOoYki8d/0Z75+UOuNafL2NqP1k3lTIIIw4keII36EvnRJmNcuhS4kj9pe PRd5ewT47n1A5y9CX70qzNMnQle8qCK2798HfHLJKFgAuHD2xdHi8PBwmEwmjBs3Ll3nPnfuHMLD w7F9+3aEhoY6w13nIYoQp8+BMOwHwGaHsVsnmEYPBzzc1fbsuYhz5kL4ui90IcGwrFuu2PdDw/lo azJvAnY7+NYdII74EYamjWDZu9UlBYbu3YfQ5RtwdT4F7j+Aef5sWHZsUPQGcugwQZaBCu+/eD1m 9+7dOHjwIEaPHg0AiIyMxNKlS59Ze7l9+zZ+//13LFmyBPnz50ffvn3Rr1+/TPM/wxiNMPbsBrdz R2H4rCHEqTNhL1nBZcvxGzt/Ccv65cCdu7BXrAFpg2v6qfFyNJHJ4lBsHLiq9SAtWQHjN11hXrYA yJ5dbbeeQVq+GlzRshB/nQdjlw6wnDsKQ7vWivepOXiI/Vm+3IvfN3nyZPTo0QNmsxmjR49GYmIi atasiQ4dOkAQBACALMsYMGAAbt++jQULFqBp06Zo3rw5zpw5g3PnzmXylWQMXVBumJf/CfOqRYAg gm/QDHyLdqCb8Wq79gz6urVg+TcCutyB4BuFQ/xlltouaWQEteN1GhlHOnWGVR+2+JK4YJHa7jwX Oe4m60r5sEKytD1CVX8aNWGL/gf+Tfs9PM+Tl5cXnT17lo4cOUIBAQGOtZfw8HCaMGECxcbG0ubN m+ns2bMUGxtLx48fJ4PBQFu3bqUvv/ySJkyYoNxFZZSUFOIHDiOrIQfZvINZ9WoXRE5IJHu1j1iB zW/6v1IRVA310WYyWRR5zz7wH9YDUlJg2boWhrat1HbpGcTf5oMrWhbS3xtgHNQHbqcPQl+zmqo+ HTpMMJuB0qXSfk9sbCy8vLzg7e2NkydPIiQkxPFaSEgIIiIiAAAlS5aEt7c3ACAgIAAhISEICgpC 0aJFcf78+cy8DOeQPTtMY0fCcmQPdPnyQujyDfiGzVyuM6fO1weWLWtgCG8KcepM8O3/BzycTWq4 PprIZEGktRvB1fsMcHODeedG6Kt+oLZLqaCb8eAbNoPQ6WvoCrwDy8EImH4cAbi5qerX9RggNo7V HHtRp+WkpCR4enoCAM6fPw+fJwqUBQcHIyYm5pljrl27hrCwMOTMmRM5cuTAvXuuX0fsEfpSobAc 2AHjwN6QNm8D9155iHPmqu1WaiwWmBfPhbFfT0h/LgZXvymQlKy2VxrpQBOZLIY07y/wTdtAlz8v LAd2QF/KtbKYpBVrwIVWgLRlO4wDezMfy7xg2qAg/x5kiZQvW/T39/dHYmIiALbuYjAYHK9xHAdf X99njpk7dy5++OEHAEBCQgICAgKc5bYyuLmxWc3ebUBgLjaradHOtTZx6nQwjRsF0+SfIG+PAFer IejWbbW90ngJmshkIcSfJoH/8n/Qly0Fy+4t0OUNeflBCkH3H7AbU/O2gJcnLDs3wjR2JGA2q+2a g8NH2J/lwl78voCAAOj1ely7dg0FCxZ0CA7ABKRw4cKp3j9//ny0adPGETo7evQoSpcu7VTflUJf oRzcjkbC2KcHpJV/gyvxPqS1G9V2KxXGnt1gnjcL8vGT4CrVBF2KUtsljRegiUxWQJIgdO0FYdB3 MHzyMSw7N0Ln9+xoWi3kHbvAlXifZY71+B9be6lSSW23nuHoMfZn+XIvnsnodDo0atQIq1atQp06 dXDjxg1wHMfOcfQoqlev7njvihUrULZsWRQqVAiiKGL79u2IiIhAgwYNMusyMp9s2WCaMAaWXZsB Tw/wn7WE0KMfYLer7ZkDQ7vWsGxYAbqdAK5qXcjHTqjtkkYaaJsxXZ2He2Ck1etg6NAW5tlTAaNR ba8Yogjh+zEQf5zAUmPnzYK+VnW1vUqTwBAZ9+4ByXf1z3yEdPceW/COjQPF3cTlU6fxwZzp2LZr Fy5evIiIiAgUKFAAcXFx6Nu3LwA2g/n++++R/WHKeHJyMqpWroyCbtkx5+/VLjWLyzBJyRD6fQtx zlzoiheFefFc6EuWUNsrB/KBQ+AbNgNEEeY1S6CvXlVtlzSeQhMZV8ZqBfdZK8hbd8D4TVeYJv+k +L6StKDrMeBbd4AcuR+GT+vD9MdM6HwV7uD1CsTFSAgqoENYoSQc6LEcdCkKdOky6OJlyFHRAPfs KP1no4z1xQthyapVMJlM4Hke7u5p75Bft24dRvfpi8gUgr+fHwxtwmHo0NalbsoZRVq+GkLnHiA7 B9PYETD27Ka2Sw7ov/PgPmoMup0A8+pFMNSr/fKDNJRD3QxqjTRJTiF7zQZkhQcJo35W25tUiKvX kc0nhKwWXxImT3ftoosPWVvlJ4JJovaGeWSFB3sYcjz++9MPsw/xk6dTp06dKDQ0lPbs2ZNm3bLo 6GgaMmQIBQUF0fF//yVx4RKy1/6ErHovVoOrbBUSfplF8t17an8Mr4V8JZrsH9RiBSw/a0lygsK9 p1+AHH2NbIVKktXso7ULcDE0kXFB5Hv3yV6pJll1nuwm7irY7cR36802VhYpQ9KxE2p7lG5G1fyH YJJogr5v2sLy8GErXIak4ycdx06bNo38/PyoRYsWNG/ePNqzZw8dO3aMNm7cSEOGDKGCBQtSvXr1 6Pr166lsyjE3SBg7kWwFQ9m53fyIa9sp1bmzHDxP/IChrNFYSFGS9r24StmjAAAgAElEQVRgV6vC yHE3yV7ifbIavUn8c7Ha7mg8RBMZF0O+e4/sFaozgZk2W213HMjXrpP9/WpsFNu+C1FyBlpKqkjL JikEk0T/6Oo9X1wezjr4Tl/T89plJiYm0tSpU6levXpUsGBh8vMLpLCwMOrevTvt2bPnxcZlmaTt EcQ1ae2YPdmrfUTi8tVEgpBJV5y5SFt3kC1XAbKafVzrexp/i+wlK5LVkCPLtBl/09FExoWQb91m JdkNOUic6zo/ECliD7uhPAqPZUGKFkohnUmkWOR5jsB4ks0zkN3008HgoTLpLRLx/Kv7IUdfI37Q d2Tzy+fooSOMnej6XUufg3wjluyVa7OBR+sOLjPwkO/cZQMiFxuova1oIuMiyDfjyR5agQmMq0z1 ZZn1fDF6s9DIgUNqe/TKSNt20t0aTchg4imf6Uoa4bHSJJ89l+5z9h/E6p/Z7a/hmM1G4tyFZC9b hfnhlZv4gcNIjrv5GidVAUFg9c/gQbaiZV/pc8xMXDbk/BaiiYwLIF+PIVvh0mzR0lU6WT5IchS2 tNeon7WaR8kyiWs3kr1iDbLCg/a4f0QwSfTpx1Y28tZ7kVXnyUbgrb585RG4U0TmCaQ9+4hr2Iz5 ZPYhrm0nkv8775yTK4S4aBlZ3QPI6pWbxJV/q+0O40ES2T+sx4RmwlS1vXlr0URGZeTYOCYwbn4k bnCN9r3S6bNke7cUWXWexA8dmXWq3koSictWka14OTay9s9P/PDR9MeMZIJJoiHfySSuWMNmDkZv EqbMyJAZZ4uMw/3DR4lr0Y6t2+i9iGvdgeTzF51rJBORTp1h32WdJ/HDfnCNrMOUFLLXasiyNKfO VNubtxJNZFREvnWb7O+VZzOYtRvVdoeIiMQNm8nqlZts3sEkrtuktjvpQxBImDOXbPmKM3HJX5zF 4q1WIiIaMJiJwl+LZdbed9B3JO09kGFzmSUyj5AvXia+09dkNeUkq9GbuPZdSI66mjnGnIx87z5x jcLZLLFpm+cmUSiO1Ur2GvXZjGbmb2p789ahiYxKyHfvkT2sKluDWbpSbXeIiEiY/QdbfykY6jKx 9Zch/r2BbMXCmLgUCyNx/l/09Ir8J58xUThy9PVsyTJR929kKvIeO1/TFjLt2v1653yhvavRxHfu QVajN1lNOVkY7fKVzDPoLGSZ+OGjWai1VCWSo6+p7RGb0VSty4Tm13lqe/NWoYmMGtx/wLJfDDlI /Gup2t6wxduv2f4Re+XaJN+6rbZHL0X697CjkZUtuDBruJVGOvC7xSTSmSVKSno9mzxP5OYpEUyP H2N/zvyQkHzuAnGtvmRrSRZf4vsMJvnO3Uy3+7qIi5eTNZs/2XIXIungYbXdYckA5R/+7hYtU9ud twZNZJQmJeXxYuScuWp7w9I9H8asuQ5diThObZdeiHz+InHN27JFco9cxA8cRvQgbfXgOCJjNony FXTOulK9BjLpLI9F5qCCCXfSqTPEfdaSCatPCMuacvH/L2nfvyz93c2PxIVL1HaHRRDKVnGpCMKb jiYySvJkbHjGr2p7Q/L5i2yh1pCDhPFT1Hbnhci3E1iqrMWXrKacxHfuQfLN+Jced+o0EUwS1Wvg nBnHuAmyQ2By+Ekkik457Ssh7T/oKO9iy1echQhdYZE9DeSoq2wnvs6ThJFjVfc11VpoVll3zMJo IqMUdjvZ6zZiWS4ZzGpyJtK/h8nmn5+sHrlIXLNebXfShudJ+GkSWT1ykVXnSVz4FyRfikr34ctW MFHo1dc5N7Zjx8khMk2aq3izlCQS/1xMtpCiLMxZtS5JJ06p58/LSEom7pPmbMb8RZdn1s2URo6N YxmUbn4kbdupqi9vOprIKIEksRAPPEgYM15tb0hct4ms2QNYrNyF649JkfvZBlV4kL1KnQzF9UeO YiIza45zBEGWibLnYCIzbYYLzB6sVhJGj2MibPQmvtdAovsP1Pbq+Ygi8f/ryYTmk+aqZ57J166T LX9xsnoGknT4NbNCNNJEExkF4L/pz+piDR6utiskzv+LrKacZCtQguSLl9V257nId++xz0zvRbac edjaQwb36rRuy0TGmVlgxULZOf9zoQQ8+UYscW07sRBa7kIuHUITxk5kA4f3q6meZCJfiiJbrgJk 88tH8rkLqvrypqKJTCYjjBzLRm6fd1T9Ry9Mnk5WnSfZy1dz2R384rJVZAt4h4XG2nZ67ZtQWAU2 67jphGot8fHxNH/+fGoR/j0VLdaPJk6cSHv37iXJhTaripu3sjAQPMhe+xOX3cwpzl3I0uWLliX5 arSqvkiHjpDVM5ANvLJaWZ8sgCYymYi4YBG7WTZoqm61XVkmvs9gx43nRdlYaiFfvEz2Op+ykfi7 pUjausMp580ZIJFHztcTgcuXL1Pz5s3J29ubGjduTH379qWhQ4c6es2EhITQ3LlzSXaVmQPPswGF ewBZ3fyIHz5a9TWQ5yH+vcFlwrbS9giyWnzJHlohy/f9cTU0kckkxHWbyGr0Jvv71dStTstxxDX7 3GUWXJ+B54n/bhTLGsvmzxq0OSkt9949tkhfsmzGRWbjxo3k7+9PgwcPpqioqOc2LVu/fj2FhYVR kyZNKMUVdrg/RL4U5dhLZC9fjaRTZ9R26RmkyP1k8wkhm3cwSZH7VfVFXLycrHovslf/mDKtnMNb iCYymYB04BBZ3QPIVqikumEpm424Bk3ZetDAYaqH655GPnuOVT2AB3EfNXb6bvYjR5nINGqSseuO jIykXLly0bp169Lsivlkd8ymTZvSp59+6lLhM5JlVsnBM5Clfg8c5nJ7a+Qz/5EtuDBZ3QNI2h6h qi/C9DmOzp+q5Ke/gejVbv/8pkFnz4Gv3wS6HDlg2boOugB/dRyxWsF9Gg5pwxYYB/aGaexIQKdT x5enIYI4Zy7s5T+EfPYcTJN/gnnjSugK5HeqmStXCQBQoMCrH2u1WtGyZUtMmTIFYWFhiIyMxNKl S5GUlJTqfcnJyVi5ciXWrFmDn3/+GfHx8Zg1a5Yz3HcOOh2Mnb+E28l/oa9WBeJPk8BVqAH59Fm1 PXOgK14Ulsit0AXmAle/KaS1G1XzxditE4wDekFasx5Cj36q+fFGobbKvUnIsXFky1uMTf1PnlbP keQUstdswFKmR/2snh/PQb4Zz8raP8ouysSF6Z/HsyywqdNefSbz008/0WeffUaxsbHUvXt3mjlz Jp04cYIqV65M0dHRjtnL119/TSNHjqRChQpR165dafv27RQYGEg2my0Trug1kWUS5swlq1dusrr5 kfDLLJea3crXrrOkBbOPuu0CZJm4dp3Z72fcZPX8eEPQRMZZWK2sHpnZh6SdmVg18SW4crMmcdVa 1hHS6M3CNpm8PtT1ayYy6ze8+o00NDSU1q1bR0eOHKGAgABHWCw8PJwmTJhAsbGxdOrUKbp27RrF xsbS/PnzqXr16hQbG0uVK1emDRs2ZMIVOQf5ajQrFgkPstf5lOQbsWq75CBV874Fi9RzhOfJXvsT suq9XHuzchZAC5c5AyLwX3WHfPAITL+Mh756VXXcuHsPfN1PIR84BNMv42Hs2U0VP54hKRlCl2/A N2kNeHrAErGJhe9Mpkw1e+Uq+7NAgVcLE96/fx9Xr15FmTJlcPLkSYSEhDheCwkJQUREBADA19cX RqMRAJCQkIDevXsDAD788EPs3r37tf3PLHT58sKyYwNMY0dCjtgDrvQHkNZtUtstAIAuVwDM29dD X6I4+C+7Qpq7UB1HTCZYVv4FfbEi4Ft3gHzoiDp+vAFoIuMEhOGjIS1eDuOAXjB2/lIVHyjxDvga 9SEfOQ7z/Nkwdu+sih9PIx86AnvpShB/nQdjlw5wO3UQ+soVFbEdFUXQ6YB8eV/tuLi4OAQGBkKv 1+P8+fPw8fFxvBYcHIyYmBjHv0VRxPTp0zFmzBgkJCQ43nP9+nWnXEOmYTTCOLA3LDs3Ah7u4BuF Q+g9CBAEtT2Dzt8P5h0boC9bGnzH7pDm/aWOI16eMK9bDp17dvCftQLF3FDHjyyOJjKvibRsFcRR P8NQvx5MY75XxQe6/wD8R40hnz4L81+/w9C2lSp+PI048zdwVesBSckwr10G06wpgHt2RWzLMhB9 DQgMBLK/okmj0QhZlh+eR4bBYHC8xnEcfH19U723W7duGDZsGL7++mvYbDYIggBTJs/SnIW+ckW4 Hd8PQ8tmECdPB1f9Y9CNWLXdgs4nJ8xb10JfrgwTmsXL1fHjnXwwr1rEBnGNWgIpVlX8yMpoIvMa yPv+Bf9FF+hLhcK8dD7wxM1IMaxW8J80h3zkGEyzpsAQ3lR5H57GZgP/VTcI3XpDH/oeLAd3wdDw I0VdiI8HOA7In+/Vjw0KCsLNmzchCAIKFiyIxMREx2sJCQkoXLhwqvfrdDq0aNECxYsXx9WrV3H9 +nXkzfuK0yc18fKEedEfMM2eCvnwMXClP4D8z3a1vYIuhxfM/6yFvnRJ8G07QVq6UhU/9FUqwTx7 CuSjx8G368RGMBrpRhOZDEJXr4Fv0ho67xwwr10KeLgr74TNBq5hc8iR+2GaMQnGjl8o78NT0IVL 4CrUgPTHnzB2/hKWvVuhy6/8DfdRZCM46NXTtrNnz47SpUtj7969qFOnDm7cuAGO4wAAR48eRfXq 1Z85hohgsVhQqFAh7NixA7Vq1Xod91XB2PlLWPZtAzw9wH3UGMKg71S/oepyeMG8eTVbG2nbSbW1 I8MXbWAc2BvSqrUQhv2gig9ZFrUzD7Ik9x+w/hjZ/NXr+MdxxNVv6lJpluKKNWzTn2eg6g2hVq15 vRL/v06eTNWqVqXY2FhatmwZdevWjcaPH099+/Z1ZJrNnTuXQkND6bvvvqOePXvS9u3bacWKFVSw YEES1Cwj9JrICYnEfdSYbUps2MwlqjrL8bdYm22zD4kbt6jjhCQR16Q1WeHBCpBqpAsdEZHaQpel IALfuBWktRthXjofhuaNlfdBEMA3bQNp3SaYfhwB46A+yvvwJEQQR/0MYfho6IoVgWXlX9AVLfzy 4zKRX6YTvulNGDdWh359Us9mKO4m6FIU6PIVyJejQFeiQXE3gVu3QfG3QHfuQpQkVMwOdPphBMJb tYIgCOB5Hu7uqWescXFxcHd3h5eXF5KSktCwRk38IBnQpFNHGFs1h654USUv23nIMsQffoIw4kf2 f7puudM3y74qFHMDXLWPQDdvwbJhBVTJ4kyxgvuwHuSz52DZswX6cmWV9yGrobbKZTWEUT+zMi1D R6rjgCQR16Idm8GM+FEdH57EbneUmOfqfUbyvftqe0RERAO/ZTOZxUvZTEb8czHbf5HNj6zwSP3Q e7HHU8+fCMhPAb6+NGvWrJeWlTlz5gx98MEH1L16TbKX+9BxDnvpD0iY+AvJtxNU/kQyhrhiDSuR 5BOieskXIiL5SjRr1OYZSNKRY+r4EH2NbP75yZa3mOqtCrICmsi8AtK2nWQ15GCVjFWqa8T36MdE rt8QVew/iRwbxzagwoP4zj3UrTT9FG3aMZHZE8n+zQ/74Vlxed7jodhwrb4k+e49OnHiBOXPn5/C w8PpwIEDz61Z9ssvv1CePHlo8ODBjrpl8vmLJHw/hrW3hgdZLb7EtWzPbtQutMs+PUgnTpEtX3Gy Gr1ZlQCVkc9fZDf5XAVeqUuqM5G2R7ACuDUbuNT33hXRRCadyNHXyOaXj2z5iqs2KhXGjGc3wNYd VL9RSUeOsaKGZh8Sf1+gqi/Po3pt1kfmylX2b/lGLFlNOV8sMDpPsnnlJnHRslTnevDgAQ0dOpT8 /PyoZMmS1KxZM2rTpg3VqVOHcubMSdWrV6e9e/em6Yu0ey+b7WXzd7QyEKbOJEpKzsyPwKnIcTfJ XrEGG1D0HKB68Ujp0BGyeuRStQfMo+Zr/MBhqtjPKmgikx5sNhYCcfNTrU2ruHAJazhWs4HqVXSl LdvYD9wvH0m70765qkmR95jIOEqISRLZa9QnKzzTFBl7jfokX7ue5jlFUaT9+/dTz14LqHiJOfT3 32spPj4+3T7Jd+6SMHUmW8CGB9lyBBHfb4jqTbvSjc1G3Ocd2UCnaRsileuzSdt2ktXsQ/aSFdUJ 08oya6uu8yRx2Srl7WcRNJFJB1yHriyjRKURu7R1B/sxlftQ9dGv+Odi1r75nfdctusiEZG3v0Q5 /CQiQSBxwSKyv1c+7fCYzpONRtM5Ou8/iIXiMtxyRJZJ3LiF7HUbkVXnSVajN3GfdyT5zH8ZPKGC yDLxw0czUa5YQ/W1JvGvpY8HX2r0gElKZt8tj1wknT6rvP0sgCYyL0GY+RubEnfrrYp96eBhNmso GEryzfSPmjMDYfJ01tSpZEWXKqr4NDxPpDNL9G7wPUcrYlu+4iRMns6aeD1a5Nd7ks0zN4nrNr3S +V9bZJ5AOn2WDWJMOcmq9yKueVuSjp98/RNnMuJv81n75OLlSI6+pqovj8JWXMv2RCr08pHPXyRb jiCyFS7tMokvroQmMi9AOnCItWStWEOVEJV8KUr1BU7miEx8vyFs9FqroUvsm0gTQaBrPy0mmCSq aNxHtmJhJM5b6Kj4LK7f/Dg8FlohQ5+rM0XmEfLVaOK79mIdQnWexDVuRfLZc84zkAmIq9eRNZs/ a5+ssjDyPQeouj4irlrL/t+atFZ9vdTV0EQmDeS798iWvzjZAt4hOeaG8vbv3Wexe/cA1daBiIhI EIhr9SUbKX7e0fXaNz+BuGot2YqUoX91lQgmiT6tGPvsyFaWyV79Y+I6dCWyWjNkJzNE5hFyzA3i v+nPxMaQg7gOXV+4TqQ20q5IsuXMQ7aceUj6V6WNyUQstf9hm3Fx7kJVXOAHDmNbC6bOVMW+q6KJ TBpwrb5kC3qvGEpxCqLI2ibrPElcskJ5+4/gOMcOZ773IJcdoUn7D5L9w3osLJanCG3uvYlgkqjT /5zv7+3bRJ26MpH571zmRWfkq9HEfdGFrIYcZHXzI77/EJedQUonT5MtVwGyeuUmac8+9Rx51NPJ lJNU6ekkCGSvXJusFl/V9vC4IprIPAfHOsyAoarY57/uy0ZEP05QxT4RsU2WjcJdOkVTjr7mEEGb dzAJP00islpp0RImAt8Oc67IcBxRNi+WtfboMWZs5gqvdPoscZ+2YNcYWJDEuQtdUuzl8xfJlqcI WbMHkPTPdvX8iI0jW0hRsvnmJfniZeXtX7tONt+8ZCtU0mUHBUqjicxTSKfPkjV7ANnLV1NlHUb8 bT4LTbXtpLhtBykpZK/zqesKDM+T8NMksroHkNWUk/g+g0lOvON4eeo0JjITJzv/Zpy/UGqRWbhI mRu+tHUH2YqXc7StVjU0lQby1WiyFQwlq8VX1W6S0tHjrEpBsTCS795T3L64bhNbnwn/QnHbrogm Mk9is5G9ZEWy5QgiOeqq4ualiD0sVfmDWuqkYxIRPUhioSedJwnjp6jjwwuQdu9lxUnhQfaqdUk6 efqZ94wcxURm7nznC0DnrjLpzExgdGaJ4uKcbiJtBIGE2X+QzTcvS7vu3MPlRsvyteusyoHZh8RV a1XzQ1z5N8vWq/eZKjvyH0UjxHnqrA+5EprIPAHfsTv7Yvy1VHHb8rkLbAE1f3GS428pbp+I2Azm kcBMm62OD2kgJySyXfM6T7IFvMN+vGmEjfoNZCKzcrXzRWbZCtkxi3mvlPLpskSsIjHX5isWQgsp SuLajar4kRZy3E22d8Tso86a5kOE0eMeVyhQGrud7GWrkNU9wOWzBDMbTWQeIi5fzb6Qnb5W3nhS Mssk8wwk6dQZ5e0TsUX+j5uwtSAXm8GI6zeTLbAgWfVexHf5huQ7d1/4/k7/Y0KwbbvzRSYhgRwz mYy2EXAW4qZ/yJa/OAuvtmin+sbIJ5Hjb7HwntmHxA2bVXJCdlQoEBcuUd78+Ytk9chF9lKV1ItM uACayNDDumQ585CteDmilBTF7XMt2rFMsuWrFbdNREQ8T9wnzZnAjJ2ojg/PIyWFpfPqPMmWrzhJ O3al67AWrZjIHDyUOW7lCmYis3adCyzAJ6cQ33sQWfVeLDFArRv6c5BjbrA1mmz+pEq2FxELgYdV ZSWhVMj4Euf/5TIFbdVCExlRJPsHtdgPQYVZhDB+CvsS9lfpSyiKxIV/wQTmh5/U8eE5SHsPkK1Q STZKb972lRZwP2rIRObc+czxrXY9th7zwIWWQ6R9/z7+vNp2Ur380CPka9fZbMs9QLU6d/LVaJbx lb84yQmJitvnWrQjq94r3YOkN423XmQelaQQpsxQ3La09wBZTTnJXv1jdcqFS5Ijts8PHq68/ech CGxT26OReQZi+pWqspmGMxflr127RsOHD6fy5cuTv78/ubllowIFClCrVq1ozZo1JLtCWvH9B446 e7Z3S5F07ITaHhERkXzhEtlyFyKbd7BqPkn/bGebWxs2U7z0jHznLtnyFCFbniIvDfW+ibzVIiOf PUdWNz+yV6mj/Bcv7ibZgt4lW2BBkmOVTFF6DN97EBOYXgNVsf808vUYtpkNHsQ1aZ3hNYb3SjGR cUbkU5Ik+u6778jX15c6d+5Ma9asoZMnT1JUVBTt27ePxo0bR2XLlqWwsDA6c0al9bSnEFevI5tP CFnd/EiY+Zva7hARkXzmP9YqI3chVTI3ichR2FONGbv0z3aW1ty+i+K21ebtFRlBIHv5aiz7Q+m6 YIJA9qp12c5klUIIwrjJqhYVfBpp2062a9yUk60LvcbMIH8hFs56XQRBoEaNGlHVqlXp+PHjaXbF vHHjBk2aNIn8/f1p926V1h6eQr52nYWBHwm2CvtFnkY6eJjtXykYqk4GpSQRV78pWfVeJG7corh5 /n89WRLCW9YW4K0VGceo5td5ytvuM1i1EB0Rkbh4OaumXKO++lkvkkT8kBFscb9ACZIOHXntU+bO K5Gb5+uLTK9evahWrVoUHR390vbLsbGxtHTpUgoMDKToaBfpD8PzbLaq8yRbkTIk/5dJi1SvgLh+ M+soWb4aUbLySTZy4h2yvfMeqwhwPUZZ4ykpZCtcmmx++VRrtKYGb6XISEePs7WQOp8qXqJD3LiF TZtbtFPU7iOkHbtYZenQCuqPbh8kOUqmcJ+1dFqZdN9Aibx8X09kjh8/ToGBgXTu3DmKjY2lZcuW 0aRJk+j8+fPPiMu5c+do6tSpFBsbSwMGDKDw8HCnXIezEFevI6tXbrLlCHKJ7DPxz8XsN9CgqSpr kdLho2zTc7WPFO/wKe0/yPoHNWymqF01eftExm4ne2gFsnkHKz6SkeNvkS2wINlCiqYqg6IU0vGT 7GbzznuqrQM9Qr4UxXbuP2oY5sSQnUdOifyDXu98bdq0oREjRlBsbCx1796dZs6cSSdOnKDKlSs/ M7MJDw+nKlWqUGxsLF2+fJn8/f3p6lV11h3SQj5/kWxFy7LPe/ho1eufCSPHqrcvjYiECVNZNGHE j4rb5oeMYGGzBYsUt60Gb53IPOqLoviufllmlZWN3iTtPaCsbSKSb8aTLW8xFiY4d0Fx+08i7dzN FqbdAzJlb5DZXaLgfBkXGVEUycfHh44dO0ZHjhyhgICAVIIyYcIEx79//fVX6tWrl0NkYmNjqXXr 1vTLL7848Yqcg5x4x1GTjvu8o+ptvPlOX7Mb/YSpyhuXZbY3TI3UYo4je4n3yeYTonojQiXQ4y1C 3vcvxEnTYGjaCIbWLRS1LY6fCmnDFpiGD4b+gwqK2gbPgw//AhR3E+ZlC6Ar8q6y9p9AWrIC3EeN AQ8PWPZug6HZZ049PxEgCIDFkvFzxMXFwc3NDbly5cLJkycREhLieC0kJAQREREAgJs3byImJgbl y5dPdXxoaCjOnj2bcQcyCZ1PTlg2roTxm66QFi4B93ET0P0Hqvljmj4R+lrVIfQfCmn9ZmWN63Qw /T4DusBc4Nt1BiXeUc622QzT7zNA9x9A+Ka/cnZV4u0RGZ6H0LkHdDm9YZo5WVHT8pFjEIaOhP7D yjAO7quobQAQuveBvCsSpik/Q1+zmuL2HyFOmQG+zVfQv1sQlr1boS8V6nQbgsCExmzO+Dnu3r0L b29vAMD58+fh4+PjeC04OBgxMTEgIsybNw9fffXVM8fnzJkTCQkJGXcgMzEaYZryM0yTf4IcsQd8 5dqg6zHq+GIysUFPwXfAt/4S8qkziprX+fvBvGAOKDYOQsfuitrWvx/GxH7ZKkir1ipqW2neGpER f54M+cx/ME0YA52/n3KGU6zg23wFnXt2mP/8FTAYlLMNdt3ib/Nh7PE/GLt2VNS2A1mG0HMAhF4D oa9ZDZa926DLE5wppnie/WkyZfwcfn5+uHOHjWxlWYbhif8zjuPg6+uLBQsWoF69erBarbBarZAk CcnJyQCAxMREBAQEZNwBBTD27Abz4rmQL0WBq1wH8pn/VPFD55MTlnXLoTMYwH/aAnRbWXHW16oO 44BekNash/THn4raNo0aBl2hAhC69wHdvaeobUVRO16nBPKFS2zTZfWPFV/w5Dp0ZXXJVOivIa7b xFKV63yqTkUBIla2pn0XxdYBkpOJYJIotEzG12QkSSJ/f386fPgwzZ49m8qXL+9Yb+nXrx9169aN mjVrRiVLlqSSJUvSO++8Qx4eHtSgQQPHus3MmVmjBa8UsYds3sFk88unajdHcdM/ZDXkYBlfSrf4 FgSyl/uQ7ZlTuNGZtHM3y7T7qpuidpXkzRcZWSZ7rYZktfgqvuAtbtisWgaNfCmK3TwKl1avlIUg OKrg8v/rqcimT6uVnFKGv0OHDjRkyBCKioqioKAgunLlCsXGxlLNmjVp2bJlqbLL/vrrL8fC/4UL F8jX15diYhTeg/EaSKfPsrIvOYJUSUp5hDBpGvuu9BmsuG35zH9sIFq5tuJpzXzH7mTVeZK0ZZui dpVCR0Sk9mwqM5HmLgTfoStMo4fD+G0/xezS/QfgSrwPGAxwO9dLulEAACAASURBVHkA8PJUzDbs dhYC+e88LPu2QV+6pHK2H8Hz4Fu2h7R6HYz9e8L08yhFzHIc4OYpo1hR4OzJNKLBRKDrMaCLlyFf vAy6FAW6GQ8k3gElJIISEnCe51An6RZ27t+Ps2fPIiIiAgUKFEBcXBz69k29rrZz507MnDkTy5Yt w9gffsDdAwcxb8ZM6CuUA3Q6Ba769aFzF8DV/gR07x4sa5ZAX7uGKn7w7TpDWrgE5qXzYWjeWFHb 4rgpEAYMhWnCGBj79FDMLt27D+698kA2N7idPgi4uSlmWxHUVrnMRE5IJJt/frKXeF/xKTjXrjML k23eqqhdIiLuq27qduWz24n7qDEblQ4frahpnmczmSLvpZ7JSMdOENe0DdubY/ElKzxSPwxe7PHE cwNN7vRB2bJ05coVio6OposXL75wx/+8efMoyNOLonTseFtwYeK79yFp207FR8cZQb4URbZ8xVlF 8m071XEiKZn1ofHIpXyzL0kie7WPyGrxfW7H1cxEXLZKld+LErzRIsN93pHlwUfuV9SuuG4T+8J0 662oXSIiceESZrvLN4rbJiLWm6ZRONv/MGa84uZFkYnMu8VSi4ww+49nhSWth86TbD4hxC9cQp9/ /jmFhYXR/v370xSX69ev04gRIygwMJAOHTpE8rXrJMz+g7iGzchqyskEJ3ch4gcOU76UySsiR197 XJp/zz51fDh3gaxeudngUOHSM3LUVbJ6BpI9rKri65hc/aaqhPUzmzdWZKQdu9juZoVv9PLde2QL Lky2/MWJHiQpals6eZqs2QNYJz6rVVHbRMQW+Vt9qeqITJaZyBQs8tSaTEoK2wCq80xbXPRej7tM PizgKMsyjR8/nnx9fal169b0559/0r///ksnT56krVu30vDhw6lIkSJUvXp1iop6ttCqfDuBhNl/ sFa88CCr2Ye4lu1J2hWpxMeRIeToa2xG45WbpIOHVfFBXLTscW8chXk0IFG6gZ988TJbF6rbSFG7 mc2bKTJ2O9kKlSRb0LtOq4eVXrjWHdjsSelOgMkpZCtShmw586hTSl2WHTu41W4doDNL9M67zy78 8/2HvHj2ElCAxFVrn3vOW7du0YQJE6hGjRqUL19+8vX1p9DQUOrcuTPt2LEjXX5JBw4R90UXsrr5 kRUeZC9VidlzhV40TyGfu0C2XAXI5hNC0olTqvjAf92XhX3/XKys4SeThRQuKsoP+4Fds1pdcjOB N1JkHjUiExctU9SuuHYju8l+3VdRu0SPS3SIS1YobpvocW8a7qtuqt803Twlyp33scjIt24z/x7e 3K14djZjr1In3ZVxh30vkym7lOFoipyQSMK4yWQLLsxsl61C4nr1C1c+jXTyNOsombsQyVdUqCxt t5O9ZEWy5Qgi+aqy9uULl8iazZ+lVCv5fbZayVagBNnyFHGZ7qavyxsnMvLNeBbP/aCWsl+O5BSy 5StOtrzFFP9yiKvXMXHr2F1Ru48Qps9hAhP+hUv0pnFUYX6QRMLYiWTLEcRu5rU/Ia5dpydmL16P Z16voBj9B7H2zq/dJcFmI2HSNLIFvMP8q1iDpK3pmxUphaMHTKGSJN+6rbz902cfNxZUOHnC0TV3 9h+K2hU3b1W3JbuTeeNEhmvbiYWrnNCX5FXg+37LZhJ/b1DUrhxzg402C4YqvgZE9DArRu/FRnxq 96Z5SL6CEunNIll98jrERTpwiIiI5Ng4spofZpe5+WWoUKrTROYRySkkTJ7OmrbBg7iGzRQfub8I Rw+Y96uRU9qNviKPGuwJP09W2LBA9rCqZPXKrXjCBte4FWtqePqsonYzgzdKZKT9B9lif+ceyto9 eZqsppzENWmtqF2SJBY7Nno7bqKKmt+9l40yQysovvaVFvJ/56m4VxTBJNGdEtXpeWtjfL8hZCtU MsNrDU4XmUfcf8DWjYzeZPUMJGHSNJdJfRZm/ubosqn4bFWSyF6zAUstPn5SWdNHj7P+Lwr/tuXo ayxc9wYkAbw5IiPLZH+/GusTo+S0XpLIXqkmWT0DFR/tCOOnsBHejxMUtUtEJF+JZj3b8xRxjbRc nmfhDYsvlTcfIpgkio/JnL1RmSYyD5FOnna0TraXqkTS/oOZY+gV4QcPZ2GcISMUty1fjyFbzjxk K15O8cxJR3sQhVs2O5IAXHC97lV4Y0RGnLuQ3XAnT1fU7qP1CKXtyucvspFO1brKjyyTkslesiJZ 3fxUS3F9EunocbIVC2Mj7Y8aU82qVoJJosvPZhS/NsNHylQqjInMV51lOnLU+TaIiEiSSJj5G9m8 g8lqyEH8t98rX9PraWSZuBbt2CbjxcsVN+/YA9Z7kLKGUx6utxYMJbLZlLUbUpRsRcqo/3//GrwZ IvMgidVeKham6H+GHHeTbN7BZC9ZUdmNW5JE9qp1yZrNn+QLl5SzS5T6RqNw9t7zfBHGTyGrxZds OfM4/Pm0MROBk07OvOV51hANpsePUWMyN7lEjrvp2Nxqf7+a4gUcnyEpmeyhFVhVAIXXPYmIuJbt 2Xdv0z+K2hWXrlSlk6Zj8Dw1axRcfR5vhMg82v+g9BePa/UlWQ05FP+xPSok+H/qrju+pvONf89N IglJBFmyRAQJasWWEESNVovaqz+lZmvUrhUUbVGrNWsrtXeFoEgEtUcQCdlDJCTEnee8z++PIzfr 3sx7j/b7+dwPuefc8z3PGe/zvs/8EB0FtW1zZ86TnDsv2KvXpOrWWxx8A7oRi0/Qbhs8TFQyYVcM zxsQyIirkKtkjMGhC5oNW0he0YHk1k7EHzwqDakesGcxYrCJu4/kEWfs1WtSuNb9IFGcqm69xYnd sxjpSAWBlM3bi/lv6RnS8RoQ/3klw2LiSG5ejVSf9ZOUV7hyTQwyGDtJUl72PJbkVo6kbBkguVNY OPc3yWU2pOr+xQcNVRbu3ieFZwOSy2xIs/DHQucyaYqoZA4fNfwqY/FSplUwVlUESa0Y7NET0SzI WZN6xtwPGhQgnL9IcpPKpOraS/JngT8Z/EGqNbOn0eJY07WXpLzasWbidEl5DYX/vJJRDR5BcpPK 0hbTEwQxyKCKK7GX6dLxMkbKDt3FTOSIx9Lxkph/pKjuRQo3b2llLgD+0DGSV3QQzWN6HLFLfhQV wYZNhlcy1/8hrZL59PMPkHT65i2p+gwR/U9dehJlvZH+HN4jZ1WrWbxMcm7VF4PFqMrbdyXlVc9e IFpNTpyWlFcr738wpPk/rWSEew9ILrORPGT5QwUZ8Ft3fZiXWhBIGdhDfMglLjaaF5oVa0gusyFF vWbEovV79X/fKiqZBYsMrwR4nsjcSlQyv6z6QJUNGCPNkuUk56xJ2bDVh4vuEwRSdekp5qVJXLWZ JaeQorIzKZu3l3YlJZeTwt1Hcmc8exYjrqJ6DpCM01D4TysZVddeoo1UypfsbTYpnGtL/5BlvCKF vYcYwilxpIl6/mJRuS2TOBkuB4KgrWOl7PgJsdeZRe5+4qSoZL6ZaBwlUKeeePy794xy+BKD//Mg yS3sSOFS54PNcNmLNLEgrHNtyf0zWt/k+t8l5eV3/PFBnPE5pZs+ZGO5suA/q2SES2GiXXbWfEl5 tcvlU9LGrqtHfSt2z7twSVJeIfy6aHv/5IsPU5OM58WikrAi1bBRJWrfnGPS6jvAsOfL8zxdu3aN vhqxmzxqbaYTJ07QixcvDMpRWgih4WL+yAdsnyxcChN9dVInI/M8KZv6ibXNkpKl42Xsgzjj2ct0 sWSW/8eScRoC/00lwxgpW3cUb3LGK+lo4xPEUvqdPpWMk4hIuHFLfImHjZKUl7LfkaJ2I1LYe5S4 eKRBoVaL4dKwIvX470qs5GJiRSXTvpNhzChZWVk0Z84csrOzo4YNG1KfPn1o0KBB1LlzZ6pSpQoF BARQaGioQbjKAuHOPVI41Pyg7ZO1EZ4SV0wWbtwSJ0GDR0jLm+OMl7jieI5V4UM0Qywr/pNKhj9w 5IOYb1QD/kdyU1tpne7vgwzkNtWJJadIx0vvV0+w+jAhszxPqv5f5hYKLMUq6t07Ucn4fFR+JXPn zh1yd3engQMH0vXr1ws1LIuLi6Nff/2V3NzcaOrUqcR/oIgv9uiJWNX5Q/WAUSpJ+VFLcVURFy8p tXr8d6IZSeLioqovBpPcrAqxyCjpSN9mk8LRU+wZ9S8oRlsS/PeUDM+TwseXFC51JC0vIdy8/UGa oGl+3Sgq1N82ScrLnwomOWdNqq/GSspLRPl705QxbLOqo0CVbIVyWfgePXpE9vb2tGnTpiLbLicn J9OjR4/Iz8+PxowZU3bCcoI9jRYjAG1dJI+6IhJXVPIKVUkZ2ENS0yrLzBLlrt1I0ox8Fv1cdMZL bCbM8UXx+w5JyltW/OeUjGbDFvECb90lKa/y489JXslBUrMRe51JimrupGzSVtqciDdvxXIWH6C7 JxGReuL03PbVZRysmrUSI8BSy3i71Go1eXt705o1ayg5OZn2799PK1eupMjIyEIKJiQkhLZu3Urr 1q2jWrVq0d69EjfZygNtDxinWh+keZ1mwVJxUrRus6S8OZ00pbZu5DyrktaXU6lIUbO+qFT/A+Vm /ltKRqkUI1nqNZN00BUuXxEHve+DJOMkym0fILUZQNuRUOJcACIizarfRCf/4BHlMgf0GyhGgIWX MeJ6w4YN1LFjR0pOTqbx48fT+vXr6d69e9S2bVuKi4vTKpiYmBjy9/engIAA6tChA23dupU8PDxI I3F/+LwQrt8Uc4l8fIm9ei0tuUZDyubtxYKxiUnS8eb4aW1dpPXTvkwnubWT2OpCQmjTGTZtk5S3 LPhPKZmcYpRSLxOVbTpJ//A+j/0wlQyu3xQdqYO+kpSXiIg/epLkJpXFF7YEUWRFYeZsUcns3lO2 lVCrVq1o3759dOvWLXJwcNAqlf79+9OKFSu0fy9evJjCw8PzrWx8fX3p/Pnz5Tr/8sKQ17K0EO4/ FMvj9/9SWt6ciFOJm33lVEuWNFcox23g7iP5/S0tZPivQKMBv2wVOJ+6MOnTUzJa4fhfYOHXYTpr KriqVSTj1cycBwgCzJYukIwTGg00I8aBs60Ms5U/SscLgEU8hnrICHC1a6HCkb1AhQrlOl5ND/Hf 589L/9vs7Gw8ePAArVq1wv379+Hm5qbd5ubmhosXLwIAeJ7HunXr0KlTJ0yaNAlv3rwBAHTo0AEX Llwo1/mXFyaffwKzX5aCXQqDZsI0SbllH9WH6fhREPYdgvDXGel427WFyaddwa/dCIpPkIzXbNok cA720MycDxBJQ2piArPZ00DxCeB37JGGs4z4zygZfttuUGw8zOZMB2QSnTZj4Of9AK66E0y/GSUN JwB2/SaEA0dgOmYEuHrekvHyv24Ee/gIZssWg3Owl4wXb7Oh7jsU4DiYH94DroptuQ9Zy1P8Nya2 9L9NSkpC9erVYWZmhsjISFStWlW7zcXFBYmJiQAAU1NThIWFYf/+/YiIiMDAgQMhCALc3NwQHx9f bhnKC9MJY2E68kvwG7dC2LJTUm6zRXPBuThDM3E6oFRKx7tsMcDz0MxbLBknrK1gOn0S2M3bEI6c kIzWZEAfcHVrg1+8DNBoJOMtLf4bSkajAf/jCnBenjDp11syWmHvAbB7D2A6byZQsaJkvJqp34Oz sRZ5JQKlvQS/8EfImjWFyZeDJOMFEdRDR4KePEWFXb+D86lrkMN6enIAgOcxZZtZcpz4e8YYTExM tN+rVCpUq1ZN+7e5uTl8fX1x8uRJpKWl4f79++A4DiTVjLYYmK1dDllzX6i/mQJ2+650xNZWMFu+ GBT9HPzPqySj5bzrwGTYQAi79oLduScZr+m4r8G5uoCf9wPAmDSkJiYwmzUFFBcP4Y/90nCWAf8J JSPs+hMUEwezuTMAU1OJSAVoFiwF5+kB0xHDpOEEIJw5BxZ2FabTJoGzt5OMVzNrPujNW5j99ot0 K0UA/LrNEI6dgumsKTD5/BODHdfNFTA3B55Glf63Li4uSElJAc/zqFWrFjIyMrTb0tPTUadOnUK/ MTc3R9euXSGTyZCYmAhXV9fynL7hYGGBCgd3gatUEepBXwHv5JJRmwzoA1lgB2iWrgDFxEnGa7Zo LmBhAX72Qsk4YWkJ01lTwCIeQzh0TDJakyEDwNWuBc0PPwE8LxlvafDvVzKCAM2PK8DVqgmTQf2k o913CBT1DGazpwNmZpLx8vMXg6tWFaYTxkrGyW7ehrD9D5j8bzBkLXwl46VHT6CZNgey5r4wC/re oMc2NQV8vIGUFCAtrZjzSEkFC78O4eBR8Ju2wWLPAXhXr47r16+jc+fOSEpKgkqlAgDcvn0bAQEB 4u+IoMxjCuI4DvXr18fly5fRoUMHg8pTHnDubjDb/CsoMgqaSdMl5a6wdrlovpq7SDJOzrk6TCeM gXD6LNi5vyXjNR0xDJyLM/gFS6Vdzcz4DvQsBsKfB6XhLC0+cOBBseC3ixWP+S07pSNlTMxedvOW NHKDP3ZKDEv8WdpYf2VAN7GiQKqEdbg0GlI2biOGuhZRUbk8GDZcjDA7dz5/hBl7HEma5atJ9Wkf Uth5kBxWhT6/yCypi5+/Nkdm3LhxtHz5cpoyZYo2iuzYsWPk6OhII0aMoJkzZ9K1a9fo1KlT5FrJ it52702aXzd+kFwVfchJcOWPnZKWd/QEse7eTWP1qi4Mlpkl5pg1aydpYmhOCD5/+LhknKRW5+bN fMAeQ/rw71YyPE+Kuk0kD9PjDx8XB/tfN0rGSYyRsnEbUjjVEuuiSAT+rzMfpK2sZtkqkXfzdqNx LFvBckvyq9WkWbtBbB2co0xkNjoVjBxWlAkr8qxYiTZu3KgtHxMVFVUoETM6OlqboPns2TP6yNub tjRrTQq7GuKxOGtS+n9M/PbdREql0WQtEbLfkcKjnjh5krCrJHuRJuaSdOguGScRia25pS5mq1CQ wrk2KRu3kVa5bdwqyrr3gGScJcW/Wsnwfx4UB6KNWyXlVTZvTwpHT0nL1vD7D4uyrl4nGScxRsom bUlh71GuzH61mujVq9zPm2L6aLG4eLG7p19no76IZ86KSmb4SCZ29Xw/6OtTLKLiqSwmgw4ZSXfO nCV7e3vatWtXsWVlnj59SoGBgTRs2DCRXBBIuH6T1NPnkMKpFslhRQrXuuLE5QMqG/702Q/SVVI9 Z6GYS3JWwvyh7HeksKtBylYdpOOk3AkUf/wv6UhVKlK41hWrg/zLwBH9S8JgdEDVMgAUlwCL2AjA wkISTiE4BOpuvWH28w8wnTZREk4QQdWoNejVa1hE35NEVp4HXmw6jpRvliDz2+/xsk0PpKcDmZnA m7fAmzfA69c5/ye8eQMoFED2u9xoydevS84nkwGVKwNWlQDL18mo9O4lbJvXQUX7irCqBNjbA/Z2 gIMD4OQE2NtxsLcHqjsB1tZlkzE1FajuzuDbFLgZDqgCe4BdDANIj72c48C5OKPCjo2QdWwPALh2 7Rq++OILdOvWDRMmTIC9ff7QbsYYQkJCsHDhD+jSpTPWrFkDs4I+PJ6HcPg4+EU/gT18BM67Dips XANZu7ZlE6ycUPcbBuHwcZj/cxGypo2lIc1+B6VXQ3BOjjC/HSZZcAm/YCk0QUtgHnoWMr/WknDi nRzKmvXB1awB8+sXpeEEwC9fDc20OTAPOQ5Z4L/IJ/hvVTLsUhhUAd1gtiQIprOmSMaratcFFPEY FrGPAGsrSTiFk8FQ9+gLs1U/wXTiuHIf78ULIDkFSEwiJCQASclAYiKQmAQkJxNepgN5AqZ0wtJS HNxtrEXlYGvLwcZadKibmAA2NuJ+FhbivkUhO1tUTAoFII9KxuvrkVC41oLCzg1v3oiKKyMDEATd v69UCfCsCXjW5ODpmfN/MUy5pocYRaYPjq4MWVlA9msZTFKToPLxBb2T60yaM+nRDWbbNxZKuk1P T8eiRYuwY8cO1KtXD7Vr14aFhQXS0tIQHn4VKrUr7BwW4enjbkWPnYxB2HsAminfg9JewnT0V2LS q0QTqBxQ6guofHzBedWC+bUL4g2VAPya9dBMnI4K+3fCpG8vSTjp1WsoPerBxL8tKpySzjHOL14G zZyFML94GrL2ftKQvs2G0t0bXItmMD9zVBrOEuBfq2TUn/WDcP4SLOIfg6tWtfgfGADs8hWo2neF 2YLZkuaoqPw/Bj16Aou4x+JUvxgoFMDzGDEH5PnznP8Dz58Tnsfozn2zthbDep2dOTg6ANUyolDl 9F44DwuEY+82sKsmrhyqVRUViFEC6uRyKOs0ASzMYfHgej7tRAS8fAm8TAdeviSkpOb+HR8PxMSK sian5NcPMpmocBp+xKFBA6BBfeCjBhy8aokKsXM3wrnzhId3Zagbsg6aKd/r1GamE8aKA34RWkKp VCI0NBQxMTF49+4dnJyc0KpVKxw74YHJUwm7tnMYMogr9jLQq9fQTJkFYfsfkDVrigqH/wDnJm3I M79uMzTjv4PZprUw/fp/0pCqVFB6fgTO3g7md64AXPHXyhDQTJ0NfsUamN8KlWzlRq8zoXT3hkmA PyqcOCAJJwBops8Bv2w1zG+HQdakkWS8ReIDmur0gkVGkVxmQ+pvpkjKq/qsH8mtHCUtKihcuyHa yOcvzve9RkP0+AnRwcOMFi1mNPR/jNq2F6i6u1hdOO/HxEKgGrUE6tCZ0YhRjBYsYrRtB6MzZxlF PNLhI/lA0XOan9/bqo+eLPMxFArxupz6i9Ha3xhN/I5RYFdGjq75r4mljUBt2wvUsq3ol1ncSuxB pGzXRewLlMcPo573Q7nkUquJ6tQTyKWGUKqYDX7rLrF9sqMnCXck7uXM86So14wUzrUl9T1qnfF/ nZGMk6WkktzCTvJaauoJ08SoOglbY7PEJJJXqEqqISMl4ywO/0olox71LclNKhOLeiYZJ4t6Jiq2 b6dKxklElP3JALpl6U/7tmZR0EJG/QYyatBYoAqV8g+a1lUFauQrUK8+jKZMZ/TbekbBZxg9jSq9 nuAPHpU+eu5tNikcapLS199ozv60NKLzFxitXsvofyMY1WsoEFch9xo62mRSz148rV6upBtuvegd rEk9YZpBuI8cE5XZD0tKJ5tw7QYp7GqQopo7CXfvG+RcSgpt87+Vv0pHmuOMb91ROk56H75tUlnS BmMsJk4sFJq3JxPPGz3MWDVslNhMLU/zOJb20qicReFfp2RY2kuSW9qT6ovBkvKqv51Kcs6a2JOn RuN49Yro3HlGPy9nNGAwo3p1FWRmpsynTKo6CuQXINCosYxWrWEUco6RoduXK339SVHdS9IGT5pF P32QtrFRgxcQZ6ahalZvqEdPRlUdc6+1fZVs6tNPoN/WM4o2wHymfSdxMpCeXrrfCXfviz1g7Grk GwT5g0dJuHGr/CemD4yRskV7UtjVEKMLs9+RZtVv5V7ZFYecnjPCpTBiCYmknj6HVF16GnVVzZ7F kNzUltQjxxOLTxCj/lzrknApzGicRO+76ZpXI+HhI9IsXUGK6l6k6jPEqJzCgwhta2h+5x4xH01m I21H3zz41ykZTdAS8QEMvy4dadYbkttUN2hZ/RcviE4HM1q8lNEX/RjVrJ1/ZWJTTSA/10gaabaF 1izKoHPnGaVI0F1ZuBgqzl5//MX4ZO/BMrNIUdWNlG0DJeMkItKs/53ksCIfu0TiKgj04oXYoubO XaJfVjHq0ZNRZbvce1K3vkBTpjO68DcrUy+o8Kti2+fZ80q/UhPu3CO5lSMp6jUjFpcgtvaFFSnr Ny/9iZQCOSHNqo6fkKKqmzZ/yJh5NCwzixRWjqSoXpvkprZas6XwIMJonEREys6fiblRJpW1nJpF PxmVM2e1mCuntTjBMyJY2ktS1m6cG67//t8P1Unz36VklEpSONUiZfP2ktLmxLULFy6V6fdyOdGl y0RLfmT0WS9Grh75FUo1J4E6d2M043tG+w6IJi4h4zXJKzqQqu9QA0tTNFQ9B5C8ogOx9AzJONXz fijX9S0LhPDrYivgNp3o61E8wUygI8cKD/48T/TPDaKghYyatco1r1W2E6jfQPF+lcbP0rkbI6sq AqWllf6c+YNHxQHBwi5fPo+xVjMsKZnUU2eT3MSmUHKq8M9NIxAy4o//Rcr2XXXmKJXHV1ck5/7D pGzVQUdOlDWpvhxteE4iEkLDSfXx57rzsjhro/jBWOoLUo0YR/IK1d7z5OfVLF1hcM6S4F+lZDSb t4sP24Ej0pHyPClq1idlgxYl9hUkJRMdOMRo0hRGLdsKZFYxV6E4uQn0yeeM5gYxOnyUUWyc7mNo flqpNRlIBfY8luQmlcW2xlJBoRBt8O26SMepVJLCuykpHD2JJafQ9p2iv2TqjOLvb0oK0ZZtjHr3 FZUFzASqWFmgvgMYHThUvMIp82pGpSL1tNnvB6X8A5N6xtzSHasE0GzaRvIKVfUmqPLbdhuec+GP RVZa0KxYY3BOITRcfxIuZyMmBBsBirpNikz6Ncaqjf99h35OzprUo741OGdJ8K9SMsrGbUhRo56k 9XdyMu35rbt0bhcEonv3iX5dx2jwMEYeXrkKRWYuUMOmAo39htHO3YyelbQElyCIiq1+c0lLT6gn zRD9To8jJePkd/wh+cQhZ+WUU2LjaZQ48Lf2L107Z7mc6NAR0X+Wo3Aq2Qo0aCijsyFMb3fo0q5m 2OtMUjZqrWdwsCFlvWalOu+SIKfGlr6PeuY8g3MKN2+Lik2me3ZvlMkPz4u1+fRUelA41DQ8JxHx p4JFTk739eWPnDA8qVpNyjadSM7pUOIyG1IG9jA8Zwnwr1EywtV/xNnM4mWS8ir9PxYftDxO8CeR ROs3Muo7gJFd9fwRXoFdGc1bIEZ2ZWWVjZM/elKUVcr+3HI5Kaq4ig5WCaFs1UG0QZfFyVEGsLh4 sW11t9653zEilxoCmVoKlJlZtuPmKJz+gxhZ2ojPg1tN07ZtmgAAIABJREFUgebMZxQVnX/f0q5m WFIyKSo76y95w1kbvvU3Y6TqO1Q3n8yGVAOHG5bvPXJqbOnkNNKzyV6kif4fXSsozpoo2zi1AtXz F+tV4pplximCy1JSSeFQU1seKZ9CrVnfKJzF4V+jZFRfjhbD7gwdSlUEWMRjksOKnn/7C23fyWjY cEYuNXKVSmU7gT7rJYbE3rlruAWWsvNnpLB1MdrDrQv8zj3iDOrQMck4hTv3xFlxgRwgY0I9egLJ ZTYk3H+Y7/vhI0WT2cHD5V85ZmYSbdjEqJWf+JxwFQRq11GgPX8ybYBUYFdWqkgz4UEEKZy89JqS hJAL5T7vQnibTQrvpoVXFpy1UUOMVV+N1b2q8GxgNE7h2g2Sm1XVqcgLPiuGIxVI1a13YU7OmtRj JhqHk4iEC5fE56ggr6ntB6nS/K9QMux1pugElyhZKitLTHL8uvFV8jJ9qlUqFSuLDvqlPzG6/o9x 7gd7Gi0+ZBIXKFT6fywW/ZRoRUFEohPS1JZYYpIkfCwpWUxEG/C/Qtv+3C8qma/HGNY8+egx0fRZ jJzccn1yc4MYHToirmYWLS45H4uJ0zvjNoa/gkhseyCv5FCIU+FUyyh8REQkl4vmwYJymtqSXhuk AaD5daNu05URWx+wV69J4VEvv6xGXLXlQLN4mU5ZWYweJ7ER8a9QMppf1oozir8vG43jSSTR8l8Y dfyYaR31ZmYqamP3gOYtYHTxkjTFcdXfB4k3+9ET45O9B3vyVFRsRrCz68W7dySv5ECq3oMko9Qs WS4+Rzoio169IjKxEMjVwziDmEpFtOdPRm3aic+WqaWY81TFQSiUjqRQELVpJyqjgi45FvGYFLYu BcwdYs6DscAfPl541mtWxaj+QvY89r2c+RWNsaMeVUNGFlbg6383Kqdw5x7Jzavlk1Xh3dSonMQY qT7vX+i+ShnhmYN/hZJR1GsmXnQDPtQKBVHwGUbfTmJUq26uCcylhjibPTQllNLgSPz+wwbjLBaC QAo3b+mznWfMFe36ElZQyKkqwB88KhmnonYjUn7UUu/21v7iMxBh5Coft24TffU101ZtqO0j0ImT uQrlt/VM+zwOH8lIo8n/e+Hs+fxOY5PKRg91V383q9DgS1nF9GwoJ3J8k/mUjLEnX9nvSFGncW7Y NqxIPXeRcTnpfTRfXlkr2hudU9cqiv99h9F5C+KDKxnh/EVxNrHqt3IfKzWVaONmMVelkm1uXa82 7QRavFT0q+RAGdBNzHSWsLdHTuKbpA5/xkjhUY+UbTpJx0lEqsEjSG5pL5nfSXj4SLy2RSSZBi0U B/cVK6WJ6EtJIapsJ5CJpfgsNmgs0Nbtot9PZp478en+WeHQaPXcRbkDkokNqbp/YdyTlctJ4dUw 34DEnsUYl5Pem1TzzrQlCOkX7twTo9w4a5JzNqQaMc7onEREqoHD8ytUCWokCjdu5coKK1J/H2R0 zoIwNXYBTkEQcPXqVTx79gyvXr2CnZ0d6tati+bNm4PjOPAbtgCWljAZOrBMx09IBI4cJRw6Qgi7 IrbWrloV6BKYjhruYXB0SEalSoCrqytcXfwA2IGeRoNdChP7xRRVJ76UICLcunULjx8/Rnp6OqpW rYratWujVatWkMlkELbtFmU1cJnzrKwshIaGIiEhATzPw9nZGW3btoWTkxNYaDgoNh6mUyYYlBMA IiIicPfuXaSlpaFKlSqoVasWWrduDVMisL/OwKRLJ6BSRYNyKhQKhIaGIi4uDnK5HM7OzmjVqhWq nz4LAJB1/1jvb7t24RC0iBB8FvhukkFPSyecnIDvZ3CY8T3hm3HAiZPAV18XLnr+12lCu46E0ydk yGlXYzZ3Btjh42BPIgEGEM/j2bNniIqKQnZ2NhwcHNCwYUPY2toa5mQtLVFh63qo2nfVfkXZ2VAq FLh79y5SU1NhZmYGd3d3fPTRR+AMVEG5wqqfobxwCRQTJ3KmvQQAxMXF4enTp8jMzIS9vT3q169f qJdPWSFr3BBmPy2EZvJMAAQkpwIA1Go17t69i5SUFHAcBxcXFzRu3BgmBmqFUGHTWihv3gZFPQMA UGISuCq2SExMRGRkJF69eoWqVavC29sbLi4uBuGUNWsKs9U/QzNWfOApNh4AoNFotLISEZycnNC4 cWOYG3A8zIHRSv1nZWVh+fLlWL9+PVxdXeHt7Q1bW1u8evUKDx8+RGZmJiaN/Bojf1wDqyEDUGHr +hIf+3kMcOiwqFj+uSGWfndzBXr15OBT9x8cPjQP//xzHS1btoSLiws4jkNCQgL++ecftG7dGvPt nNFo935YPL4FzrtOuWVVqVRYv349li9fDisrKzRs2BBVq1bF69ev8fjxY7x48QITRo3C6OXrYdO3 Nyrs3FRuTgB4+vQp5syZgzNnzsDX1xfu7u4wNTVFcnIyrl27hsaNG2OBrT2anTgLi8RIcI4O5eZk jGH37t344YcfoFar0bx5c1SrVg1ZWVl4+vQp4uLiMLpLV0zccxTVdmyCybBBBpAUSE5ORlBQEPbt 24eGDRvCw8MDlpaWSE1NxdWrV1HLzBzzlQzdMpL0lpAXBMC5BkNmJpCaIEOVKjp3MygyMwE3T4YO 7Tns28PBvRZDRkbhdjYcB9T2AkKCZXB3E79jV64h2/9jbOV4/GZbEQpLC/j4+MDS0hIvX77Eo0eP 0LZtWwQFBaFFixYGOV/NhGng125AFBh+7BaAU1fCULt2bTg6OoLnecTExCA7Oxtff/01pk6dCuuy dpTLA3b1H6j8OkNgDH8O+QKr795Ceno6fHx8YG1tjfT0dERERKBRo0aYM2cOOnfuXH5BicR2IieD kVDXC0tbN8bRo0fh4eEBJycnEBESExORmpqKQYMGYfbs2XB0dCy/rPcfQtUiAEylwqEp47Dy/Fkk JiaiXr16sLW1RWZmJh49egR3d3dMmzYN/fr1g8wADd7U/xsDYccfSGrSAD/5NsChQ4fg6uqqHR9T UlIQExODzz77DPPmzYOXl1e5ObUwxvLoxo0b5ObmRoMHD6br16/rbFd78eJF+rRrV6pbsRI9OVi8 X+TZc6JVa8Ry9zmlP2rUEmjCZEahYUSCwGjevHnk7OxMv/zyC8XFxRXijI2NpWXLlpGTrS3N8/Im ZgAfUFxcHDVu3Ji6dOlC58+f1ynrlStXqGePHlS7YiV6tF130mdpsX37drK3t6e5c+dSdHR0Ic64 uDhavXo1uVSpSrPq1CPBAFE7mZmZ1KVLF2rRogUdPXpUp6z//PMP9e/dmzwqVqJ7oYYxfQQHB5OD gwNNmDCBHj16VIgzISGBNm3aRB7Vq9O3335LmoJOjjwYM140mW3bIV0S7PgJjGTmAv24LNcXo+sj Mxef6ZhY8XexsbH0kb0DdWrVik6dOlVI7mfPntGKFSvI2dmZZsyYYZB7TG+zaZWdM9lVrERz5syh x48fF+INCwujAQMGkJubG924caP8nEQUP2k6tahoTW2bN6cjR45QUlJSoed548aN5OXlRcOGDSOF AYq7shdptLGyI9lVqkTTp0+nBw8eFJL11q1bNHr0aLK3t6eTJw1T9iZ56TJqW9GKmjdpQvv376eE hIRCz/PevXupWbNm1LFjR3r50gAVlLPf0RbXWlStYiWaPHky3bt3r5CsERERNGvWLLKzs6PVq1eX n/M9DL6SuX37Nrp27Yply5bh44/1my5ysHfPHixfsQJXrlxBzZo1821LTAL27CXs3kN48FD8zscb 6N2Lwxe9ODTJ039o8uTJCA8Px++//w47O7siOdPS0jDyq6/QqXNn/Pjjj6WWMQcvXrxAy5Yt8dVX X+Hrr78udv99f/6Jn37+GeHh4YVkLQ22bduGhQsXYteuXahVq1aR+7569Qojhg9HqzZtsGrVqjJz KpVKBAQEoEGDBggKCirWhHDs6FHMDwpCaGgo6tQp+2rx3LlzGDJkCDZv3oxmzZoVue+bN28wZswY 1KxZE1u3btW5z4W/CZ26ELp343DqmDRNsyKfAj4fMVStAmS8KnpfmQxwrg7s35OKfv1aYtSoURg5 cmSRv3n9+jVGjRqFevXqYdOm8q2Sf/75Z2z7/Xds37UL7u7uRe4bEhKCqVOn4vTp0/D19S0zZ3p6 Olq1bIm+vXvj28mTizTFKZVKTJ48GUqlEqdOnSqXKWvt2rVYvXIlduzaBU9PzyL3vX37Nr7++mv8 9ttv6NWr7ObuV69eoXXr1vikWzdMnT69SFkZY/j5558REhKC8PDwcplG165di5UrV2L79u2oXbt2 kfsmJCTgq6++Qp8+fRAUFFRmzhwYVMm8e/cOPj4+WLhwIdq2bYszZ86AMYZevXrB1DS/+ycsLAxJ SUno3r07Dh48iAMHDuDmzZvIzjbB4aOEXX8Aly4TGAO86wID+3Po8wWHej6FeQ8ePIjZs2fj+PHj kMlkRfK+efMGN27cgK+vLz799FOsXLkSn332WZnkDQwMRJMmTfDdd98hOztbJ+/Lly9x/PhxVKpU CT179sTevXtx6NAh3Lhxo0zL4IiICHTs2BGHDx+Gg4ODXlnznk9gYCA+//xz/PTTT+jdu3eZZP32 22+RnJyMtWvX4t27d8Ve47Nnz0Kj0WDr1q24e/duoX1KgvT0dDRo0AAbN25EvXr1iuSMiIhAQkIC VCoVVq1ahVmzZuHLL78sdMwck9nr16LJrKo0TVfh34Hhzj3Awx14/ET0HQJi52OBAcjX7ZNgbdkO 48cF4JtvvtE+s506dSp03By5lUolVq1ahdmzZ2PYsGFlOsdLly5h0KBBOHXqFBwdHYvkzbnH1tbW mD9/Ph49eoRKlYrv6qoLXbt2hbe3N2bMmKE9dkHevM/zZ599hhEjRsDPzw8LFiwoE+e1a9fQq1cv HD9+HK6urjo5C7670dHRGDx4MK5du1asUtKH7t27w9PTE7Nnz9Yra8Hvg4KCkJaWhiNHjpSJMzw8 HH369MGxY8f0ygrkH5NVKhV69OiBdevWoXv37mXi1cJgayIiCgoKor59+1JcXBx98803tHDhQvLy 8qKxY8fmW5aNHz+e1q9fT/fu3aO2bdtSXFwctWrVltr6bdVGhVV1FHuqhIYVHdmsVqvJw8ODDh8+ XCzvtWvXqGvXrhQYGEjJycm0b98+8vLyIr4MWZd//fUXeXt7U0JCgl7exMRE6tKlC02YMIEaN25M TZo0ofj4eGrZsiXt3LmzTNe4R48etHDhwiJl1bXtwIED5OnpWaQpSR+ioqLI3t6eHj9+XOw1Tk5O pv79+5Ofnx8lJydTu3btaNOmTWWSdeLEifT1118XyxkTE0P+/v4UEBBAHTp0oN27d5Orq6tek8ro cdKbzLbtEDmPHmf09i3R3xcZ/bRMLMTp7J7fZAbTA+RZqxElJSUVemaLknvXrl1Fyl0cmjVrRhs2 bND5rhR1j7/44gtauHBhmTiDg4OpTp06FB8fr5dX1/2/ffs2VatWjZKSypbo26ZNG1qzZo1eTn3v 7syZM2nAgAFl4jxz5gzVrl27SFl1fR8XF0eenp508eLFMvG2bNmS1q1bVySnrjF57969VKdOnTKN j3lhMCXDGCN3d3e6ePEiPXjwQHshd+zYQQEBAflsnA4ODvke1hUrVtCePXuosm0bGjyM0V+n8+cO vHlDhepD5SAkJISaNWtGycnJRfLmfDZt2pTvAjdq1Ij+/vtvnceOiiZ6+1Y3b58+fWjlypVF8gYH B2t9CHfv3iUTExMKCQmhHTt2UPv27XUe9907MXFUF168eEG2trYUExNTpKz6tjVp0oQuXNBdnuR5 jI42ze8xf/58GjNmTImu8ebNm2nSpEnaAWjv3r3Upk0bncdVKsXilbrA8zzZ2dnRzZs3i+VcvHgx hYeH5/vOz8+PTpzQXYTw3HmmDR2WCtnZRDbVxDJFuvA8Rqz+PORLRlWrddUO9rqe2aLk9vf3p2PH dJcOyswkytMsMR/u379PHh4e+Xwh+ngL3uMLFy6Qh4eHXtmfRumvbN+vXz9asWJFke+ovvs/bNgw Wr58ud7rra8R3ZMnT8jFxYUSExP1cup7d6OiosjGxoZev9Ydfhz5VOTWhb59+xYrq77vf/zxRxo8 WHcjx+xskVcXHjx4UOx91Tcm54wZ+sbHkqL8YQvv8fTpU5iYmKBOnTqoVq2a1pyRnp6OyZMna/e7 f/8+3NzctH+7ubnh4sWLaNu2LQT+Ptb/mo3OgRyu/wMELSK0bc9QxYHB+yMxKqggQkJCtMu+onhz UNDMEhgYiJCQEADAixfAH3sJw0cSXGow1PZhmDpDtzXx3LlzCAwMLJI3b4ipg4MD3Nzc4OzsjHbt 2uHGjRtQKpUQBODGTWDJj4QOnQlVHBh8PmKIflaY88KFC2jbti3Mzc2LlFXftk6dOuHcuXMAgIwM 4MAhwqixBA8vBs86DJOn6pe1JNc4NTUViYmJaN68ufa7Nm3a4P79+8jOzgYRcO8+sPwXQtdPCbb2 DHXrMzyJLMx5584dODo6wtnZuUhOnuexbt06dOrUCZMmTcKbN28AAB07dtTe14IIaM/BwQE4d57w +rXOXQyOSpWA/n05/BVMSE4pvL2mB/DV/zhs38KgVFxGx44dtdt0mRr1yd2pUyecPXtW5zmMGkuo UYvBy5th3LeEI8dI+07lvEd5fQS6eHXdY29vbzDGEB0dXWj/mFigbn0GW3uGzt0IPy0j3L6Tay4M CQkpFC1WkLeo51mfrDO+J3h5M7h7MowcTfhzP+GlGB2Ns2fPIjAwMJ+5uiCnvne3UqVKaNmyJS5d ulSIMzFJ9L1VcWBo34nhhyWEa9dFE22OrAX91PrMyAW/79KlC86cOaNz3znzCXXrM1R3Y/jyK8Ku Pwgp75+xM2fOoHPnzkXeV31jMiCOj/p4SwqD5cnExcXBw8ND+zfP89i4cSM2bNiAn3/+Wft9ZGQk quYxhLu4uOD8+fMwMzND9erO8GmQgBcvvcHz4naOyw33HPY/goVlft6EuFh8OaxDsbz6ULNmTWzb Fo7fNjJkvcnD+X776WCg38D8gy9jb8ALAqpVq1Zi3vj4ePj6+qLK+7hZBwcH1G+YhITkmtCoC8s6 7htCQT9f9pt41PSoUSJOXdtq1KiBvXuvoaqjqLCJ8sjKAWdDCstqZgbExsajRo2ieYkI27dvx9Sp UxEaGprn92aoXr06Wvol4tmzOlCpCsv6zURC1QLhxNaV4kv0PJmamiIsLAwPHz7EzJkzMXDgQBw/ fhw1atTAvXv3Ct0HQPSDfNGLw/qNhH0HCGNGSRMAMGI4h81bCLt2E2ZM08358uVLWFtbw8rKqshj 6ZPbw8MDV67cxMAhpB3cchB6BQAHPHsOrN9IWL8R4DhClSpAi6ZxaNvGo0hOffcYADw8PLD211ik vMgfiJKVJd5ntRo4f55w7jwwczahQgWgttc7aDSaYgN1AN33v2bNmnj+PA5DviSo1fn3/+eG+G9C IrBlG2HLNgAcwdYGaNIwDv5+NVBSFHx3a9Soge07YvHHn/nflbfZovJkDAgNBS6HEuYGEUxNAXe3 txAKjBmlgaOjI+RyOfoPfAdC/tyzm7fFf1NfADv/IOzcDQAEa2vAu3YMen7mUeSx9Y3JgHiNL1++ XKZzzoHBlIwgCIVmBuPGjYO9vT2++eYbPHz4EJaWlmCM5YsIUalU2gtvYmKKl+karYIB8ucT3H9A MClwxpXMhXzH08erD6ampnibrcGbt7o5X70m3Lqd/zcyGQ8TWf6oluJ4t23bhkWLFuXZ3wxJL9Ra BVOQ9/ET8UXMC1trAV61Siarrm2mpqZ4+06jffFLIqu5OSAILN/sR9ex9+/fjy5dukAul0Mul0MQ BGRnZ8PKygqmpqZIStRoFUxB3idPqFBOrJenAHOz4p8n8RzN4evri5MnT8LPzw/379+Hqakp+LwP UgH8b5ioZLZul07JtGwBNKgPbN2uX8kUfI+Kgi65TUxMoFIJuHOXoNHk3//9YicfiMRcnqwsTbG8 O3fu1HuPTUxMkJDI496D/ANv3sGfCnyfkKgpcXSYvueZ53ncuUtQKvPv/0pXFB8BWW+AzCy+VFFp Bd9dExMTpL7gkZaeX9a81zvvFp4HklN4mMvKl9Qpk5ng7n0NeD4/b3p6nj/ybMrOBrKy+GLva1Fj sqmpKTQFH6TSnne5fp0HLi4uSEpKyvcdx3Ho168f6tWrh9jYWABArVq1kJGRod0nPT0dderUAWMM KSlJSE10R/QTGdb/KoYpV66ce7yb12V4Fpn/06FDyXj1ITExET0+dYc8S4bzZzjMnM7BtynAvb8y X/TiCnFGPa4GntcgOzu7RLw7duzA4MGDtctvQRCQkpKMtCQ3xD+XYcsmDgP7c8g7oQs+VVjWSRNd kZycXGJZC25LSkrCx4FuUL6VIfRvGebN4dC6lTizB4CenxWW9dF9GdzcnIu9xrdu3cKsWbPQr18/ LFmyBA8ePMDkyZPBGENSUhJio92QEi/D7h0cvhzKobpT7rFOHissa9C80skKiINu165dIZPJkJiY CFdXVz13HWjRHGjUUDRV3ruvdzeD48uhHJ5GoZAyz4GjoyNev34NdcGpeRHIK3dSUhLq1HHBk4eF r2lgR3HZamoK+PsBC+dzCL8sg/qdDD0+dSt0vQtC3z0GxPdo0QK3QpwhwblDjKMjMHQwhx1bOSTH yZCVXhU8z+Pt27f6KPOh4P1PTEyEu7sLIu4VlrVfX1GJy2Sicp/zPYeL52RQvpVh8EC3Qs+zPhR8 dwEgKSkJkycWlvXi+VxZq1YVzaObN3CIiZJB8Ub3mFFSZGZmguOAyAjbQryDB3Lvr4/4TE+fyuHs XxzeZcowbEjxsuobkwExnLm4UPbiYDAlU79+fWRkZBQSiIhgbm6uzSDt3LkzkpKSoHo/rb19+zYC AgJw69Yt1KhRQyxP4gmMGcXh4D4OGakyXL8iw7HD+QfhHLRv317ncq4grz78/fffCAgIgIUF0LED h6U/cLh5TYaXSTIc3Mdh/lzdM04/Pz+ddtmCvAcPHkTTpk3h5eUFnudx7do1XL9+HT4+PrCysoKb q2iL37OLQ1qSDHduyLB/r+5Q7Xbt2iE0NBRCATtIUbLm3Xbp0iW0b98eZmaAX1tgwTxxkHn1Qoa/ jnP4YaFuWUtyjdesWYPg4GAEBwfjhx9+QOPGjbF582bcvn0bHh4esLW1hZMTMHggh+1bOCTHiwrs +BEOjRoW5mzatCmio6PxqsCUtKCsRARlnmksx3GoX78+/vrrMqKft8e+A4S0NJ1i4X/DRHm37zRK 0Qud6N+PA8eJ/jBdMDU1RfPmzREWFlbkcfTJffHiRXTo0EHnb1Ys4xB8ksPrNBkuX5Bh7uzcSUb7 9u11Ps95oe8eJyYmIisrC97e3oV+410XOHmUw4M7MqQmyLBzG4dhQzhUry5ub9eundb+XxLkvf9/ //23XlnnzxXzoDJSZbgWJsOiIA7t2wEVKoiyloRT17ur0WgQHh4Of3//Qvt71gQO7uNw67oML5Nl +PMPDiO/4pBj4fb39y+VrHlx4cKFfH66vJg1g8P+vRxeJMpw96YMPy3h0L4dh5DzhAsX2+P4ib+L PLa+MRlAkc9TSWEwc5mJiQkGDBiArVu3okWLFvjll1/Qq1cvZGVlYdGiRTAzMwMAWFhYYNWqVVi2 bBk8PT3RpEkT+Pn5YcyYMRg8eLCO44qzTkD3ANi1a1eMHTsWkZGRiI2N1csLiPbuy5cvIzo6Gvfu 3YOpqSmePXumdeDnRbVq4ipGHwYPHowNGzbgk08+wZkzZ3Ty7tixA0FBQahYUbShZmdnY+XKlTh9 +jQGDSpcboXjgMaNgMaNdPPWqFEDXl5eOHHiBCwtLfXKqut8oqOj8fTpU52y2tgA3brql3XAgAHo 2bMnxo0bh4sXLxZ5jQti+/btGDhQd106H2/Ax1s3r7m5OXr06IHdu3ejbt26ejlv3ryJUaNG4dNP P4W9vT1GjhyJxMRE3Lp9CyrhT5y/SOA4gnddoE1rDi1bAC2ac6hfT5xVz5wtOkp/XMwZsoydXri5 As2bAfsPEJb+wOmsgDNkyBBs27YNHTt2LPTMNmrUqEi5b968iT///FMnt1ctwKuW7uvdqlUrKBQK XL16Fa1bt9bLqwtbtmzBgAED9JqgPumu/9kaMmQI1qxZgx49egAo/I42atRI5/OsUChw+PBhvYO2 myvg5qqb19fXFxzHaSddujj1vbvPnz9H06ZNUT1HSxZAUWPG0KFDsXr1anz66ad6ZdX1fcOGDbF1 61Z8//33Oo/r7ga4u4m8t24DO3eLgQ5paYCFRStUNFMiLCwMfn5+Ojn1jckPHz5EdHR0ucv4GDQZ My0tDfXr18euXbvg4OCASpUqwcbGRue+Go0GarUalSpVQkhICObOnYsnT54U6T/Rh7Vr12Lv3r34 888/kZ6eXiRvDtRqNfr27YsRI0Zg9OjRpeYUBAFNmjTBiBEj0K9fP6SkpJSINyQkBPPmzcOTJ09g YWFRat7Q0FAMHjwYp0+fhkql0suZ93w0Gg369euHoUOHYvz48aXmBIA+ffrA2dkZs2bNKrGsly9f xpQpUxAZGVmmRL3nz5+jZcuWOHbsGCwsLPRy5vgHrK2twRhD//7DcO1GIASaod0nZzDPedotLYFm vkBaGofIp4QDf3Lo01sa38zyXwjTZhJuXZehaZPC2zUaDRo0aIDvvvuuyEThvHILgoDBgweje/fu 2qTG0uLAgQMICgrCsWPHSny/7t69i2HDhiEiIgIODqWvjccYQ9OmTTF06FCdE68cFHzmpk2bBktL S2zevLnUnABw/PhxTJkyBSdPniz2Oc57Dp988glOnjxZpgoHjDE0a9YM/fv3L1XC7JYtW3Dq1CmE h4frrBDw4CGw/yDhjz2EmFhxYt45kMPggaIJPCSdutfGAAAgAElEQVTkCGbMmIETJ04UKWveMVmp VKJ3794YP358sRUnioPBy8qcOHECY8aMwa5du+Djo8PmUwBXr17FmDFjcPLkyTIX+WOMoXfv3jAx McEvv/yCCgU95gWgUqkwccIEVDA3x/79+8tcUfbx48cICAjAihUrdGZFF8T169cxatQonDhxAi1b tiwTJwDMnTsXZ86cwY4dO4otNaHRaDB54iQIxHD48OEyF9tLT09HixYtMHLkSAwfPrzY/e/cuYPh w4fj4MGDOk0LJcXWrVuxZMkS7NmzJ1+YpS4IgoC5c+ciPj4BlauexpFjRTta80a4de3C4fQJaZRM bBzgWYdhxjTRPKsL9+/fR2BgIFatWlWsuUKj0WD69OnIzMwsd6mVUaNGIerpU2zavLnYCLfHjx9j 6NChWL9+fZmrZgBi+oO/vz8WL16MTz75pMh9iQjLly/HuXPnEB4eXuw5FoWJEyfi1s2b+H3LFlTO 6/zVgZSUFAwbNgzDhw/HlClTysz57Nkz+Pn5ISgoqETX7NChQ1iyZAnCw8PzRVtGPBJNrvsPEB4/ Eb+r5wMMGyL6PJ2c8h9n4sSJuHnzJn7//fdix4zs7GyMHz8eDg4O2LVrV/krbpcry0YP9u3bR/b2 9jR//nyKiYnRmTEcGRlJkyZMJKeKFencqvK3ln337h317duXmjRpQidOnNDJmZycTEeOHKGPanlR fxd3kuvLPiwFrl69Ss7OzjR+/Hh68uSJTs6oqCia+t135GBpScEzZ5ebkzFGM2bMIA8PD9qxY4de WU+ePElN63pTTztHyk5LKzdvdHQ0+fj4UL9+/ej27ds6OZ8/f06zZ80ie8uKdHzegnJzEhGtXr2a nJycaPXq1fkS6PJ+zp8/T22bNKEuAQGUmZlJajVR3wFFF6TkzAWyqy6Qu6eYaa8vCdYYaN5aIM86 RRe0vHLlClV3cKCxX43QWRg0OTmZjh8/Tr6+vtSzZ096qy9zuBTQaDQ0umVr8qpenXbu3Kn3Hs+d O5fs7e1p37595eYkIrq5/wC5WVak/w0dqrN4Y07SZ4cOHahNmzaUmppabk6e52lS3XpUw8GRNm/e XKgoZ3JyMsXHx9Py5cvJycmJli1bZgBJie4eOEQ1K1aiQf37061bt3TKeuPGDerfvz95eXlRREQE CQJR+FWiKdMZeXjlPsO+LQVa8iPTm9ScV9apjX3J3d6B1q9fr/M9SkpKom3btpGXlxeNHj2aVCqV QeQ1Wqn/yMhIzJo1C5cvX0ZAQAB8fHxgY2OD169f4+HDhwgNDUXP5i0wJ+QKXBwdYX7varlL0RMR du7cifnz56Ny5crw9/eHs7MzADH6JTQ0FNnZ2ZgvmKB/wguYzpoCsyVB5ZY1NTUV8+bNw4EDB+Dn 54ePPvoIVapUQVZWFiIiInDx4kV0b9gI8y/fhFvFirC4exVc7aILW5YEwcHBmDZtGhQKBTp27Ah3 d3fIZDKkpqbi8uXLyMjIwNyMbAxR8DAbPwpmv64oN+fbt2+xdOlSrF+/Hr6+vmjatCns7e3x9u1b PHnyBBcuXEB7a1ssjE1BLUcnmD++Ba5K+XueXL9+HVOnTkVsbCwCAwPh6ekJMzMzpKWl4crly4iN eIRZamDM8OGw+P03AGLo6PCRYoFVffhhgeiLmTaTMHY0h3VrpVnNLFtBmD6LcPsfWb5CrwWRtGIN FsyejX0VODRr3hxeXl6wsbHBy5cvER4eDp7nsWDBAgwZMsRgPV6U9ZvjjPId5ltXQEZGhvY9UiqV iI2NRVhYGAIDA7F06dJiiy2WFJpZ8/HyxxVYMWIgfj+wH40bN0bdunVRuXJlZGRk4NatW3jx4gVm zZqFsWPHFmutKAko9QWUbt641K0j5qUmICEhAf7+/nB1dQVjDHFxcQgNDUWTJk2wZMmSfAmo5YFm 3GS82rgFq8d+ifV/7Ia3tzcaNGigLfV///59REVFYdy4b9CmzRScPmuDI0cJScm50XJf9OLwRe/c oIJiZX2ZDqWbN64EtMH8txmIiopCu3bt4OrqCo7jkJiYiLCwMLi4uGDRokXo1q2bQWQFjNhPJgdJ SUkIDg5GZGSktgGRj48PunXrhioJSVA1aQsAkLX3g/m5E2J8ZTkhCAKuXbuGS5cuacMyXVxcEBAQ gJYtW4Lv0Q/CX2cAjoN58BHIPi7e1FUSZGRk4PTp03j06JG2aVndunXRvXt32D+JgipAvHEy3yYw Dz+HQokwZcSdO3dw/vx5xMfHa5uW+fv7w8/PD5o6jUHPYwGOQ4UTB2DySReDcGZnZyM4OBj3799H amoqKleujLp166Jbt26wnzEfwh/7AACmI7+E2eZfDcIJAE+ePMGZM2cQExMDlUqF6tWro1VFa7Sa Ng9mgHhPr5yDrLVoeiUCZs0RM83zmsdy/m9nB4weyWHNb2LyYvwzGcqYL1cqRD8DavswLJzPYe5s /cpBPXA4hFPBYHGPcO7yZTx//hyZmZmoXr06mjdvjqZNmxpMuQAART2Dsk5jmC2YDdN5MxEZGYmw sDAkJibC0tISNWrUQGBgYJmTCnWTEpSeDcA5OcL86gUoFAr8/fffiIqKwqtXr+Dg4IAmTZqgZcuW BmsgBgD80hXQfB8E838uQtbcF8+fP0doaCji4+NhamoKd3d3dOjQQTtRNQjkcihd6kDm1xoVThyA Wq3G5cuX8ejRI2RkZMDSshrevvNBbFw7nD1nhvR00cfi7ycqll49ObiU4XS0sl69AFmr5oiPj8el S5eQkJAAQRDg5uYGf3//Yqu6lwkGWQ+VFVlv8rUjVc+cJwmtevQEkVNmQ4pq7sSSU4zOyZ5G55d1 1nyjcxIRKdt0EnvFy2xI4VCT2Mt0o3Oqx07StnuVc9YknDlnVD4hNDz32spsSOnjSwX7GS9bwYir kL/t8ZAvxdbcMBPIrKL474xZ0tUz8/IWqG37IkxmPE+Kau6k+qyfZOekWbJcbIP88JFknMLlK2Lr 7DXrJeMkIlJ4NyVlgxaScvK/7yA5rIg/dkr73b37REt/YuQXILaLh5lAFSsL9MnnjDZuZvTiRTlJ BYEUNeuTslHrch6obPiwSoaIFFVccwcIzpr4w8eNzqn54ec8nDakbNeFqJyVRovFu3f5lIycsyYh RHexSkNC1XMAyU0qazlVPctWQbY0UE+fk2/QV7h7E73VUzXQABBu3s5/bWFFquFjCu236w9Gppbi S2xTTaDMTPH7y6FEHT4W/TecmUD9BorVv42NbyYyMrEQKCND93bhzDlx8N241fgn8x7K5u1JUbuR ZHxE7yd9prbEUss7mpYcORMTzS9rJeMkIlK2DKB0p4/o2FENjR7HyK1m7qSnZm2Bxk8QCwTrKyha FvAng0VZN2wx3EFLgQ+uZJTN2pGcs8kdkGyqE4t+blROfscfhQYl9bwfjMpJRKSwdsoz+FYmhaMn sZTyOzCLgvrrb3Kv7/uP5teNRuXMp8RzBv2+Q4vu2VAOsOSUQnxyWJFm9bpC+wafYWRVRaAflhQ+ l07vFU3OqqZxM4E2b2EFF0UGw4mTIt/+g7qvi6rfMJJb2hN7nWmcEygAFv2c5Jy1ZBYFIiLKfkdy m+qk6tFXOk4iUn01luRmVYilGaDrZDHQaESn/aIJKRRg+jdZWKq0z1mHzox+Xs4owogLR9WnfUhu 7USUVf5Ap7LggysZVf8vSW5ik2/mq2zQQn9tcANAuHCp8KDEWRN/MthonEREirpNCnEq/T8mUquN xqmevaAQp9ysCglX/zEap2btBt2D/s+rjEMoCCQ3q1JYTs6a+D8KRz/pe7QuhxLBTKCGTcWInRq1 RGVTxUGgSVMY3btv2NPOziYytxJoxKjCSobFJ5C8QlVSDRtlWNIioJ42m+ScNbEneurGGwH8lp2i +ej4X5JxUtYbkls5kqrXQKMcnjGiu/eIflnF6NOejKyr5q5W3EzjaPiAt7T/INOupI0JFhdPcpPK pB432fhkevDBlYx65jydA5J65HijcbJnMYU5ZTakqOxs1FWUqkvP/Ao1R9bJM43Gqdm4VYes71dR RvJF8YeP61Tics6a+OAQo3AqP2qZ6wfKc0/lJpWJ/31HiY/Tsq04GJw4yYjniY4cYxTYlWl9OU1b CLTmV6bXxFVadOrCqLq7UGiRpx43WTSp3ntgGKLioFSSwt6DlIE9pOHLoW3VgRTVvYjK0EyvrNCs Xif6nc6eN9gxn0QSbdjEqN9ARvbOuUrFwUWg/oMYbVynooe2fqTq/oXBOEsC9fdBoqx37knKmxcf XMnoHATff/itu4xDyvOFZ76wIrnMmpT1mxdyGhsK6vHfFR4Ic2Tdd8gonMK5v3VfX86alAHdjPJy C7fu6OaU2ZDC1oXY81iDc6pGjBOVih7lplm3uUTHOfUX0yqTvAN/TCxR0EJGNWuLg4e5lUB9+jM6 dKR89vOfl4t89/PoEhYZRXLzaqTqM6TsBy4l+O27xefwkO6GZ8aA8CBCnGTNKVtXzTKBMVLUbSL6 ncpovlUoiELDiH5axuizXvmVik01gXr0ZLRytbjyzaHQbN4uXt+jJw0oTDFQq0nhXJuUbQOl49SB D65khJALegckeYWqJNy6YxRehVdDvcpNNegro3BqVv6qX9aK9sQiHhuck8XG6ZVTDuNE9LGMV/o5 OWtSNvUzuIkwJ2pH57Utpc8t72qmIBgTWycPG860rcKtqgg0cAijw0cZlbbz8b37oolu1RqmJVB2 +lT0xUTpae1oBChbBogrCiOabgtCPXoCyU0qE4uJk4yTDw4RTbeliGRLSiY6eJjR5KmMWvkJVKFS /pXK573FVtpXr+mfsykbtiKFRz3jBxjlAf/nQVGx7dorGacufHAlo9N0ledjrBBDVfcvdJqutCsL I/hn+ON/FSmrqltvg3PqXbXlfExtjeL/UlRx06FgxOutqOJKLOOVQflYUrKOVaI1KawcdfplioK+ 1UxBvHtHtP8goz79GVWsLA461lUFGjCY0a4/GL0sgU9ZEIiqOAjUd4BIpFn/uzgI/rSyVOdcHuSs PNXzF/+fvTMPj+n84viZyUwmyCokERJJxFJbEUFRrdpKqaVoFW1/1Y1aq0op2lrbqqpSStVSWy1t UVsttVP7vhMiBoldcu/MXd7v749XJglJZJt7h87neeZBljlnxp37fd/znkUzm+zGTQhFgjTdrQGA vVUHCN7BYLfvZPr9mzeBdeu5aLz6esbqeqNFReVqKt7vwTD710dX2afiyBL8blIBvpJHY6vbCGJQ JJ9zriO6iwxkOS3FNn2Ig7wheAdD/nKsU8xKvQdkHrry8IO94xtOOa9gx09mvbpv8jLUXXsK3CYA iGWfztSmvVUHqFt3OMWm7fnmaeGr+++zGFAK8uhxWX7A822zTkMIRr8M/6/2Fu3yFBbJbjeTGcnJ wMJFDK90TNvheHjxOpxRYxgOZhMSf7ElQ2i4CnXXHghexWCr9ZymZxT2tp0geBUDu2zVzKY84isI 5A11+y7NbLILF/kh+IcfAQCuXQNWr2EYNYb/v6WGQlMf/sVVNH6RYdgXDKvX5P2g3t68HQSfEKdd 95mhbt/Fhe2LMZrZzAr9RQaAGP5UhtCGI07rxJQ7eeKUDKtrgbxhq1ob7GK802xCFDOeGxj9+MH0 pq3Os4n7u7ZUm55F+cU3dIRTbUo9+ztsiqFlIZgDnF5U6DjfM/lDHvWNo15HHvl1rp8rp7uZzLDZ gLV/M/TqyxBVLu2mFVyKHwJPncYy9EkbMYrbOlmiIU/IuJSQa3/zirp3P09b7jtQM5uQJIgly8FW s4Em5kQROHAQ+LXlAnzi8TVaNb6DUhEZBSUwREXTFgyDhjAsWsJwtoAilezUGQhGX6cm92SGvd3r fOGgYe1RVriEyNhfbMtv8s+9CPnH6fw/xckpd6lpzGJ0VciTp8HerjMES6DTq/9tT8VADI6CPPJr KBs38w/4wKFOtSl/9R3EkDKQR30DlnQdtsq1IIZVAAqoAV5mqOv/ga1BMyiz5wGSBKnPJ3zl6qTd GgDgXjKk93tD3b2X/1tR+LVl8Mm0ZuZR1KrLb0BL/8hffc/xE8C48QwvtWbwCVAcN7bQcBWd32Do +c49kFnFNM8eULdsz5et3GJv3g5CkSBNb0bKL7/ykPT8RQX6vCkpwN59vOh20BCG1u0YoiukVdGn PkLCVLR4meGz4fwc7YITj4Sk7n0hGH2dXvuXHnb+At+xvd9bM5vZ4RIiwxIuZzj0trd5DULhIKcX SrETp3hQHIC6Zx/fQQ3+3Kk2cS85w+GqrcnLEHxLaFZwBwDKrwv4h3zmXM1sssQkCD4hsDVtrZlN AEBKCg/dGXxyXd39zya+w4gqpxZIWJslXce96BrYbGyIUd1OoWkLBm//NNHxsCioU19F734Mc+Yy HDjo1HWAI6Ti7EVOBhQFYrlqEKMq5ykkeOcO35Us/YMXMX7wIUPTFnzHmL5lEJlVlAjn4a5efRl+ bL0afxuaIXH5Tie8qMxhN2/xcycn1eNkhdSzP693On5SU7tZ4RIi8yDqv3t5mOPz0ZratT3fHGJA Kae2QHmQ1B2VPKpg2ojnCEWBGF0VYvnqDpHVAkfO/sbNmtkEACTfFxryhvRuz1wdhLZqw4Vm/IT8 7WbY7TuwxTbg50VGX4jFI6AsW4nk4LLYbWmA0iWTUTRYRZXqGVfe5sIqKj3Nw2yjx/KV94GD/Gab X2wvvMTPCjToZ5eKMu83fr1Pn5Xp9+/cAY4dB/5ex/DLLL7beL0rQ+16aoZU4fTvT3QFFc1eYujb n2HazwzbtvMDfAeiCDGkDD/r0hB57Hh+vW/WoEfRfdjNW7zQVMN+d4/C6V2Y84q9XmPCqTPkdfEE UZHCmthUV64lqWV7Mn//NZl6d9fEJpE+r1WZOoPk7n3Jc/Gv5NG+jSY2cfsO2aMqkyG6DFl2buDt ZbVCkkju2Z+U6bPIWCeWPGf9RIbyj25Tf+o0UZXqjLy9iU4dJbpwYR/FxcWRIAgUHBxMNWvWpOLF i2f7HLh6jaRmbYgdOZaxDbSByFCiBHkunUf9fouhyVNAt5P4ULlDh4mOHAUdOcr/PHqM6NatjM8b GEgUGUEUFWmgyEii0uFEoaFExYsZKCiIKCSYKKuZXuqff5HUthOZhg0i8xdDHvk+5AebjSjpOlHi NdDlDv0o6Z6F7gwaRYk3PejKFaLLViKrFXQpgSg5+eHfDwggiookKhNloKgo/veoSKIyZQwUVurR l5Ey6SeSe31Mnn8uJI/W2Q9FKzBsNrJFVSFDyVCy7NmsjU0iUkaPI3nIF2TZvIaMDeppZjc7XFZk 1D9WkNTudTJPmUCmD7ppYxQge5XahJQU8jpzqEDGDuQEddlKktq8RuaJ35Cp1wea2CS7nX8IigWS 5cB2PqhCA5QfppLcewCZfxhHpp65H3udb/vTZpLcbxARY2QeMoBMn/R95MiF93vcoZkzv6ZCntMp PDyYoqOjqVChQnTt2jXav38/Va9enb788kuqX7/+Q7/L9u4n6ZXOhEtWIrCHvm/6eiSZB/ShWXNA /3sHtHOrkepkMTT1UgLRmTOg83FE5+OI4uKIzsfxf1+/nvnvFCpEFFScKCSEyMfHQP5+RIXMCln+ +p38DPfIt+cbVMjPTJkNhrRYiO6PuCdR5GJBlCZ2NhuRaCOy24nu3iW6d4/o1m2iu3fh+Pedu5kL Ryre3kRhpYhKljRQaAmisDBy/Fky1ECREVxk8oyqkq18dSKzmbyO7dHuOk8Vtt/nk0fbVprYJEki W0QlMoSWIMveLdrYzAEuKzLEGNkqxRJJEnmdPqjZqlf95VeSuvUgz1+nk0eX1zSxSQDZq9Yh3LlL XmcPFdicmUehTJ5Gcs/+5DlnGnl07aSJTWKM7PWbEDt2gryO7yVDXoZj5BOcv0DSB32IrdtIhtLh ZPq0P5n+1yXT933//v3UunUbio2tTwMH9qHw8PAM35dlmVasWEFff/01tWvXjsaNG8dnnjDGBfWT oUSqQqQ+LDBkMBJZPMnrwHY6IJajmNqMfvrRQO+9k/v5MPfuEV2MJ0pMBF29RpSUxHcPV66k/h10 6xYXi3tJIt21eZJKBfeZ8vYm8vUh8vVNfRgowJ/Ix4fvuIKLMfIb/wUVU65S6O+TKCTck4oFpomY s1B/XUDSG++R58yp5PFWZ+caS0WWyVa2GlHhQuR1dLdmwqbOnEvS293Jc8FM8nitvSY2c4SOobpH klqYpmWrC0gSxIiKECvU0PS8wnEYP0u7w3hIEsSyT0MsXRG5LlXPB+qhIzyl+ZXOmtnMDGXhEohP xfAsw+IRkPoNgrr/oKOu5uDBgyhevDh++eWXLEdcpz5OnjyJ5557Dm+99RbUfQf4+Uv6mq/sinBf bAubDTAXVtGzj3Pn2aiHj/L3vn0X2Gz87OJ8HHDuPHDkKM/Oyuqx/wD/uXPngStX+O/ezGFNbWp6 udNaRWWGovAWMhEVnZtB8aDZ1JkxuSwCzheqClulWIjhT2laY5UTXFpkIAgQg6Ngi3nWaW3iM0P+ cTq/SBYu0cwmZBliZCUublq2nlj0Oz+IHfe9ZjYBQOo/mL/HWnbfzQxVhfLbUn4Inlo0WiIat7t0 Q2RwMKZNm4ZDhw5hxIgRGD9+PM6fP/+QwKxbtw6//PILpk6digpRUfjRWDjzPmoPtLoRyBu2mg0c /awqPa3i2YZOXNioKmy1n+fZjAmXnWfnQQQBYqny/NrW8Abo6PCs5cItNXuuTBVtX2vq59jJYzzy gmuLDAD56wlOa/OSJXY7xNIVIVasqeluxrHa0zC1GIzB9swLTmn1ki3JKfw9Di2raXZTdrBzcZDH fQ9bk5cx0uKDlxs1RkJCApo1a4bevXujWrVqqF69OuLj4x0CExcXh2effRbPP/88GjZsiIULFyKk UGFcz0pgvIrBVr8J73zwQK+6Tl0Y/Irlvvgzp8hjvkVu+3YVpF3Nm0NGVeaNMLW82d/PnstN5+98 wxjvjVYi2qkjUvKKy4sMklMgBkXCVvt5Tc2mdgRQlvypnVFFgfhUDMSS5ZzWCToz1H+2aF8vgftj dz38YG/9qqZ2c0LZ6GisWbMGa9aswfHjx2G1WnHw4EF4eHhg3bp1DpEZNWoUduzYkWFn80K9eljY pAWkgUMhfToc8oTJUJb8CfXw0WxveGO+4unSzigOVPfuh+BZFLbnXtR04cSsV3h9VP0mmtkE0oXa tQxZMQZbldpOL3R+EGXpMr54mDBZM5u5wfVFBmlzx501iyRTRJG3vnj6GU1DdY4LZux4zWwCgP2l V3jHg9NnNbWbWjsjT/lZU7vZERcXh5CQEFy+fPmh0FhERASOHTsGq9WK+Ph4lCxZEoUKFULHjh1x 8uRJWK1WjB49Gu+++26u7aa2slmew35pOebOXV4XVay0pv3JAMDe9V0IRl+oe/ZpZ9RmgxhWQfNI hLLkT34t/zBVM5sAny4shpTRdGGaG7RJe8gnpl4fkKFYIClfjNHOqJcXmT7uTezQEVL/WKGZWY92 L5OxXh1Sxn5LuHFTM7vmCV8TGQwkffiRZjaJiMyfDyZj7Zok9x1IbM8+TW1nRXx8PEVGRpLBYHjo 6zExMRRwP6fWZDLRtm3baNGiRXTs2DHq1KkTqapKkZGRFBcXl2u75ctze2fP5v81OABIeut9wrk4 Mv8yhQyhJQrwybOH7dxN6tyFZHr3LTLWrKGZXWXyNMKlBDJ/PlizzC5SVZKHjSRDyVAydXtDG5tE pC5fRWzvfjIN6OP8VL088liIDHkXIVPv7sR27ia2YZNmZk0fdCNDWCmSB39OpCia2TWPG024c5eU 0eM0s2mIjiLTwH7E1m0kddHvmtkls5k8F/9KBj9fkl7pQkhM0s52FsiyTGaz+aGvz5w5k0aMGJHh axaLhWJiYuivv/6ixMREOnz4MHl6epIkSbm2Wzqcl2bFXcir5w+jjB5H6h8ryDT4Y/Jo1bzgnvhR MEZyn0/I4OdLphFDNTOLW7dJGfUNGWvFaFZkTESk/rqQcPwkmT4fzIuTNEIZ+TUZigWS6b23NbOZ Wx4PkSEiU58eZAjwJ3n4KO2MenmRaehAwqkzpM77TTOzxjqx5PFyC1Im/UQ4l/sVcV4xf9qfDOXL ktznE8Kdu5rZNYSVIs+FswhXrpLU8Q2iPNygC5ISJUrQlStXMnxt9uzZ1LlzZ/L398/0dywWC734 4otkNBrJarVSyZIlc23XZCIqVZIXWhYE6l9rSB4+ioxNGzm9qv9BlMnTiO3ZR6YvPyND8WLa2f18 NOHmLTJ/O4Z3VdACSSJ5xFgylC1DJq1qcYh3KGF79pFpQF8i7yKa2c0tj43IkK8PefTuTmz7LmKb tmpm1vR2VzJUKEfy8NG8tFkjzF+N4KtBLUXVYiHPid8Qrl7TNjRJRMaGDcg8bhSxzdtIeqdnWvsV HShfvjzdunWLrFYrEREtWbKEatSoQdHR0aQoCu3atYuIiACQLbUMnogMBgNVqlSJtm7dSs8++2ye bEdFGej8+fy/drbvAEmd3iJDmUjyXDBT0xY+uJRA8pAvyBgbQ6Ye72pn91wcKVNnkEeHtmSs/4xm dpWpMwjnL5B5xFDNuoQQESljxpEhsCiZur+jmc08ofehUG5gt25DDCgFW91GmtpNHWOqdeqn9F4v CAYfqHv3a2rX3r4LBJO/5naB+8PkKHfjkp3B+++/j759+2LMmDGwWCwICAhAQEAAzGYzJk2aBKvV imXLliE4OBjdunXDoEGDsGvXLhw+fBiBgYG4fDlvdSjd3mPw8slfGjO7cBFiiWiIxSM0bTGfir31 q/z62X9Qe7ueRTUdW43kFN58s2odbZMMVq3VvrFuHnmsRAZIl2mmZREfY7DVqA+xeARw9552Zi9b IRQJgq1RS81sAnz0ghhQCrZKsZp2AgDAZ9q9jpgAACAASURBVMC0fpV/gPIwA6aguHTpEgIDA7Fl y5ZsK/3Pnj2LU6dOOf7doUMH9OuX91lII0fzDLO8JoGxK1f5JNTCQVB37s6zH3kldUHm9JEZD6Bu 2srt9h+sqV155Nf8frRSwzo+VYWtej3N70d55bETGQgCTy2uXEuflYPG4wfkz0fzi3jBYk3tKnMX 8g/tx0M0tQsAEATYGrbgM2B++kV7+/eZNWsWoqKisHv37ke2lbFarfjkk09QrVo1pOQjlXT+Qi4y W/PQHZ7dug1btboQPItqW7ycat96BWKx0nyEhJaLE1nm9SnFSms6l4nduAnRv6TmNUCpn02tU6Xz yuMnMgDkydP4jffXBZratTV5GUKh4mDxlzQ0aoNYoQbEkDKafoAAwN6hK69xcPJ46Ey5lwxbnYZ8 PLWWHRAeYMKECQgJCcHUqVMzrZuxWq3Yu3cvWrdujZiYmDyHyVLZvgMgs4p5C3IXL2OJSbBVrwfB 5K9tr7902F96hYfJnDn9NBPkcd/z+8GMOZraTQ3tqlt3aGhUglimCu/HVhCT9DTgsRQZvd5o9eBh XqH+5vua2QTuhwIMPpA+/EhTuyzpOsSQMhAjK+myLWe3bsMW+xzf0Uyeprn9VLZu3YqaNWuibNmy +PDDDzFhwgRMnToVX3zxBZo3b46iRYti6NChEAqgpce588j1kDR22QqxYk0uMAU80jinyFNn8J3v 8FGa2mXWKxD9QvlAMi07GRw/yRuNdnxDM5tAuk4kWnYyyCePp8gg3ZZR44Zw0jsfal/BDMD++tvc rsZxduXPv/jN471emtp1cOcubM825UIz5lt9fADAGMOePXvwxRdf4MXmb6BSpQ7o1asX5s2bh1u3 bhWYnXv3uMh8+lnORIadPQ+xTBUIlkAof6woMD9yAzt9FoJ3MGw1G2QYLa4F9g5dIXj4QT1wSFu7 L7aF4FUMLM4JPYCy4l4ybxiscZJBfnlsRQaqClu1uhCDIrU9jL+WCMG3BM9w07DdDLt6jR/GV62j eStv+/8+4Kun35ZqatdBSgpsTVtzseveV9Mu1ZlRuRo/Nzkf55znL+ynott7j7621J27IRaPgFAk SNuWS+kRRR6mKxIEduKUpqbVvzfwa6LvQE3tKn+t4XaHjtDUrjR8lPbttQqAx1dkACgrVvPdzJdj NbXryHDTOPad2vRP/m6SpnaRnMLDMd7Bmt9IHEiSQ+zsLV7RNavG25/Pl5/2s3MWGRHRKlq2yf65 lSV/QihUHGJIGV1SzVOR3u+tfTt9gCcAlX2adx6+c1c7u5LEZ9SULAcka9crjCUm8cVtg2aa2Swo HmuRAQBb41YQCgdpexgvirxNfVRlbVtrqypsz7wAwScE7FKCdnYBsJOneTfdKrV1bScuT5gMwegL sVw1qEePa27/2HEeziKzitc6O0dkatdTUatuFuEQReFNRQ0+ECvWBHNGy+YckpqubO/WQ3Pb0sdD uLgt+l1Tu/L4H3RJOpJ6fcxr5nb8q6ndguCxFxnHYfxb2h7Gp3Zc1fqg0zHZUIepksqsufw1v99b c9sZ/FjyJwSfEAi+JaD8vlxT29//wBwiExjinNkvrdowREQ/LDLs+g3Ym7XhN/a2nbRdwT/oy/GT /BxGh0WHumuPLiMiWNJ1nrJc6zltQ+Vnz0PwLKr7JNm88tiLDADYu/Xgh+K792prt8X99vinzmhq 1zFVcvEfmtoF7r/X5K1r/QoAsFNneAiPvGHv+q5moYuWbRgMnqpDaA464by523sMhf0yioy6cTPE kuV4luHAoboe/LKbtyCWq8YnbJ48ra1xm42PGQ4MB7t6TVPT9m49+G5C4+Qb+8sdeScDjcdwFBRP hMjodhh/5hyfdNi0tWY2AfDD1kqxEP1LahsmBABJ4tle5gCo/2zR1vaD3L0H+xvv8THGlWKdnmGk KEAR/zSBIbOKb78r+Out38d8tyTLAGw2SIOG8RBhqfLQ/T1XVb64MvrqMjpbGjRMlxRedesOLvDv fKit3XUbdRkoWJA8ESIDpDuM13h1Lw0dwe1qHLZR9x3gkw6bvKypsAL3W5eUKs9Xk+fiNLWdGcqC xRD9S0IwB0D65DOnDW9SFKBdB4bgUlxgatVVsWp1wb/3Qz/nInNz5U6IFWo4wmOajsfOAumjT/lO Vod0cnXvfggmf9hbddDWsCzz8caB4dqOCpdlvpgMjtI1NJpfnhiRgc3GCzQjK2nb0kIQ+CzxsArA vWTt7AKQR3ylS+NOAFB374VQqDhs1eq6RP8kFn8J9javQSBviBEVoaxY7TRbAwZxEXBWHfCYz5NB ZhVnjeUhBke5TOGd8suvXPBee0vzhQ1SUvhocv+Smk/3lEd9wxeSs+dpa/fbibrYLWieHJEBoPy2 VJfRxamp1Fo354OqwtagGQSvYnx+vMYo8xdBMPjA3qyN5kV4WaEsWwkx/Cl+M3yls1Oy8PIrMsrs ebA1agl2+07Gb6gqlJlz8Z3vZyCziqOvfgl2s+AKPfODsmYdBHMAbLHP6TLmV+rel99wNe5owC5c 5E1qGzTTNhR/LZEnGdRs8FgVXmbGEyUyYAy2+k14PYfGKb729l148oHGKYbs/AWeWly9HmC3a2ob AOSx4/kN/fW3tV/dZkVKCi9c8ywKwbMopPd6gV25WmBPn2eRsdsh9egHgbwfatOurtvIm1uSN6aH cpHZq21TiSxR9x2A4B0MMaqy5oftAKCs/psvZjRu5wTc78fmWRTs+Elt7b7dnd9P/tU2mckZPFki A0A9coyn+LbvoqldduUqxKJhPKVT41W98vNsvpP6dLimdlNxzIAZ8oUu9rNCPXQE9lYd+E3dOxjS p8ML5FwjLyLDLlt5w8/7AiMYfCEGhkNdsQq2Ws/xMF9oWcg/TsfiRTLIrGKzzmf8AF/EiCFleIdj rTPJcH9Fn9o/T+NzCcfYAo1nG6n7DkAw+sL+vw80tessnjiRAQCp3yDtZzwgLWYtj/xaU7tAuo7J emQfKQrsbTvpdj70KNR/9zrqS0S/UEjDRuZrZzNwME9jzulaQt26A2JQFASDT5rIpHuIgeGQv5ng qDdZvYaL2MpV+u4MM8ym0bizMneAwd6yPe/srHWE4PoNLm7RVbU942WMZ2/6hIBZr2hn14k8kSKD u/cgliyn/QUC8B5blkCwYyc0tcsSk/iHIqKiPnF8QYDtuRd5I8vps7S3nwPUHf/C1qglv7l7+MHe sj3UdRtzFOa7desWpk2bhrZt26JixaoICyuL+vXrY8CAAfj33yxugJIE+YsxEEz+EIx+DwuMwQeC byhw/UaGX9u0mXcVWPqHfiLDkq7DVrkWn02j8WItldSDb61nOAGA/bW3dBlzoczkBc/y1xM0tetM nkyRQbqRyV+M0dQuOxfHDwrrN9H8wE5Zs45vs1u21+d8JDmFr8KMvpq33cgN6u69vA9aoeJ8J1Gx JuQfpoI9cLNPZfLkyShevDjatGmDKVOmYP369di2bRuWLl2Kjz/+GBEREWjRogXi4+PTbOw/CFuV 2mlikskOJvXxYPbQlq1cZBYv1Udk2O07sNVswGf5LFyiiw/q1h080eC5FzVvCOvoPN7nE03tsus3 IBaP4AMZXSSRpiB4YkUGAOzN2+lSkZ/a30j+dqKmdoG0Tq16zf5mt27DVqM+n22y5E9dfMgp7PYd yD/9AlulWMfuxlavMeQJk8ESLkNVVbz11lt4+umnsx3DfPHiRQwZMgQlSpTA3h07IA354v7uxTdb cUl92J6KyeDXtu1cZBYu0kFk7iXDVreRrgsFdvUaj0QER2mersySrkMMjuJ9CTUuSbB3eYfvnrbt 1NSus3miRYadPgvBqxhPsdUSVYXt+eYQLIHapxarKp91YfSF+vcGbW3fxxFqMQdoPjY6TzAGdcMm SB/0gRhSht/8jb74JCIadWNjce7cuRyNX54xYwZCvX1wjopkHhrzeFh0RL/Qh5JUduzkIjN/ocZF trdu8+QEPcdeKwqfQGvyh7o5DzOo84njbFNj2+o/W3hHge59NbWrBU+0yACA9NmXunRrZXEXeasb HVKL2Y2bECMqQgyKBEvI3zjg/Phgi32Oh1w0HoubL1QV6tYd2NvlbYT4+ePYsWM4dOgQRowYgfHj x+P8+fMPicvJkycxceJEWK1W9O/TB+0L+ziESiwaBrFcNdjqNYb91TchDRwK+cfpUP/ekOUqfde/ XGTmztewLuPmLZ7lZvSF8vNszew+iPTJZ7pFARzZZFrXu9lsfHyADiPWteCJFxnH3IngqCxj7s5C nj5Ll+FGwP1OtZ5FYavXWJf6GeCBlfGEybr4kFfat2+PUaNGISEhAc2aNUPv3r1RrVo1VK9eHfHx 8RlE5tVXX0X9+vVhtVpx7tw5hISE4OShvPdR272Hi8ycudqIDLt6jZ8fefhpPxcmHcrvy3k9TLvX tW+VlJgEMSgSYvnqmneVlj4drlvDWy148kUGPKtIMPrC/sZ7mtt2pGDqkAIqT/pJt3kfDtKPT9bp nCi3CIIAX19fHD9+HGvWrMHx48dhtVpx8OBBeHh4YN26dQ6BmT59Ovr27esQGavVinfeeQdjxuQ9 4WTvPi4ys+Y4/0bLzpyDGF2VZ5FpPIQvPerBw7zgs0IN7ft0paZKe/hpnirtqOtr3k5Tu1pipP8A xmdqken9t0mdM5/U5as0tW2ePokM/n4kvfkeUYqgqW3Th++R6YNupM6YQ8qEyZraduDrQ5bVf5BH s8YkD/mC5B79iFRVH19yyOnTpyksLIz8/f2patWq5O/vT0REQUFBFBYWRqGhoUREdPXqVUpISKDY 2NgMvx8bG0v79u3Ls33j/U8lY3l+ihzBdu8je73GhKvXyHPZQvJo97JzDWYBrt8gqd3rZDCbybJ8 EZGvj6b2lR+mkvrXGjIN/piMz9TSzjBjJL/fm8hsJvPk8drZ1Zj/hMgQEZm/GkGG8DCSe/Qj3Lmr mV1DSDCZf5pIOHWGpF79NbObinniN2R84TmS+w8m9a81mtsnIqIihcnzr8Vkeu9/pEz5maR2rxMJ 2gpubrh27RoFBQU99PX4+HiKiYmhgIAAAkCzZs2ibt26PfRzwcHBZLVa82xflvmfnp55fopHwv7e QPbGLYkMBrJsWk0eLzZxnrHskGWS2nchxCeQ5+JfyVC2jKbm2dHjJA8aTsZaMWQeOlBT28rUGcR2 /EvmUcPIEFlaU9ta8p8RGfLxJvPUCYTLVlIGf66paY92L/Od1My5pM77TVPbZDbzD2+ZSJJe/x+x o8e1tZ+KhweZp35PpmGDSF2+iuyNWxESk/Tx5RH4+PjQvXv3Hvr6zJkzacSIEURENGfOHGrWrBkJ gkCCIJCqqpScnExERHfv3nXsfvKC3c7/tFjy/BTZokydQfaX2pOhRAhZdmwgY0x15xjKAfKHHxHb vI3M339NxkbPa2vcZiP59bfJ4Gkmz9/mEJnNmplG3EWSBw0jY80aZOr1gWZ2dUHveJ3WOHLRtU6P FEXYnn6GN+/UuG4H4ONyRb9QiGWqaDsTIxPk6bMgmPwhhj8Fdf9BXX3JjCtXrqBo0aK4dOmS45xl zJgxGWpl2rdvj6pVq6Jq1aqIjIyEt7c3XnrpJVitVnz22Wfo1atXnu2vW8/byixbUcBnMpLk6GZs q9tI/+vg6wk8MaZHP13sS+/21KWzM1SVd8ewBEI9ckxb2zrwnxMZdv0GzyIpV03zluXq0eMQCgfx 9t06ZHwpq/+GYPKHrfbzurRrT4+6ZTvEoEgIXsWgzJmvqy+ZERMTg0WLFsFqtWLixIlYu3YtrFYr 4uPj8fvvv2fILps3b16Gg/+aNWtizZq8t2L5ayUXmTVrC05k2PUbsL3wUlrHbI0zqB5EmfcbBIMP H7qncUU/AChLl/H34u3umtt2tMv55slpHZMd/zmRAQBl8R98BdWzv+a25akzuO1PPtPcNgAovy7g aaItXtHlw50edv4CT501+PAO0oqiqz/pmTlzJurWrYsxY8bAYrEgICAAAQEBMJvNmDRpUpYis2DB ApQvXx5yPt7b3//kIvPPpoIRGfXAIYgRFSGY/CF/N6lAnjNf/mzcDMESCFuV2rrUhbCL8RADSvF0 5WRtF1vsxCk+7K9uI5e63p3Jf1JkgPthM4MPlFVrtbfdvgu3rcOMdACQvxzLV3Fd3tF/Bsy9ZNjb vc5DOC+8VKBzX/KDoiiIjY3F0KFDc1Ttb7VacejQIYSFhWH16vxN5VzwGxeZ7Tvy/zrkn36B4FUM YtEw3TpApEc9fBSif0mIkZX0+b+22WCr/TwPVe07oK1tWea2CweBnT6rrW0d+c+KDLt9B2L4UxBD y2o/O/3uPYhPxfB23idOaWv7PlKvj3UrFH0IxiBPmAzBsyjE4hFQ167X2yMAQEJCAsLCwjBkyJBH CsyOHTtQvnx5jByZ/9kjs+aw/A8tEwTYu/Xg4h3zLNi5uHz7lV8cs2kCw3WZTQMA0vu9eahKh7Y5 jnHpk6dpbltP/rMiA/BzAcHoyyuMNYadOMUnWlaprfmWHQCfAdPmNZe66NXtuyCGVYDg4ce7Z7tA OCEhIQG1a9dGrVq1MG/ePFy8eDGDuOzevRt9+/ZFYGAgpk0rmPfxx6lcZI4dz9vvqwcPQ6xQg4ch +3yiW8eH9LCr1yCWq6bfbBoAytyFaTt4jVEPHuYdOBq11D96oDH/aZEBAKnvQJ5hokMjR2XBYn7R d/qf5rYB8Bkw9ZvwflU6thNJD7t+A/YWr6RlQJ09r7dLUFUVc+bMwTPPPAM/Pz9UqVIFderUQURE BIKCgvDBBx9kaPOfX8Z8xUUm123nZBnyqG/4jtAvVNcK/vSw6zdgq1qHN0z9S5/ZNOqhIzzp5uln tE96sdthq1oHol8o2MWCu04eF/7zIgObDbYqtSH6lwSLv6S5eanPJ3w38cNUzW0D4G1fUhtZap3K mRWM8bOEIkEQChXnfc9cZPV38+ZNvNx2PzwLbcaJE+egOmFm0OChXGTu5qK7CjsXx9v3kDds9Zu4 hDgDyHh96dSRm928BbFMFYgBpXQJG6Y2/VRmusZCTmvcIoP7M7XNATydUuNBY5Bl2Bo0g2AOgLq1 AE5684BjBoyHn+bdqrODnTjFh2eRN+wvvaLLIiAzwiJVkFnFxn+c8/w9+zAYLWrOdPVBQR47Xvtr OCtSUvi1ree0VFXlO2Ojry5JPura9bqF5F0Ft8jcRx71Dd9RfPWd5rbZZSs/EC1ZTre53iwxiQ/v 8iyqW0gjUyQJ0rCREMwBEHxC+I5Px5toSgrg4cVF5rPhztldvfE/Bv/ij36N7PhJXtRH3rA984Jr ZSwJAmwNW3CB+XG6bm5Iw0bqMiEXANi1RIgloiGGVdA+uciFcItMKqoKW+NWvGPy9l3am9+ynR8M 1n5et0I5dtnKO/IWKu4S6a7pUQ8d4fNO7t9Q9aqUXrWah7LIrKJ2PeeIXZtXGMKjsnnulBTeHt6z KITCQXz34gJJEg5SUmBr2prf3HUc8aAsWMxrwl7uqP3CJLWzs8n/iZt0mVvcIpMOdvUa31HotPJQ Zs7loaH2XXQ7g2AX4yFGVeaV+DrV8WSJqvLQkE8IBJM/pN4DwG7f0dSFfh+niYyHl4rbTqglfKEp Q+Vqmd8UleWreGElecPesj3Y+QsF70B+uJfMp8KSN+Sv9atoV/fuh1A4CGLFmtqPDgAgf/Udfw9G fq25bVfDLTIPoKxZx2Oor3TWxb7UfzC/OD8frYt9AGBXrvLQmTnAJQcpsYvxsL/SmY8vDorkkxw1 WqlWrqY6RIbMKv5cXvCLgZjaKuo9l/H1sDPnYG/9Kn/N4U9B+fOvArebX9jtO7DVbcRDZDp2FmCX rRBLloNYrLQuB/3qnn08KvHci661w9QJt8hkgmMErB6xZFXlNxODD5R5v2lv/z7sWiJPO/Xwg6tm xagbNsFWuRYPodVsAHXjZqfas9vTzmNSH59/WfAiExapos0r/HnZtURIPfvzMylzAKSBQ/Wpq3oE jvHNBh/Ik37SzxFB4NlsXsU0H0AGALiXDLFcNYjFI7Icr/1fwy0ymSHLfEVmCdSnS/C9ZN6x2asY 1J27tbd/H3b9Bmwxz0Iw+kKeNlM3P7JFliFPnAIxMJyHkJq1cer/2fYdwMvtuMAsXspw61bB2yjk q+LddyTIY8dD9Avl5wodurrWwX46Moxv/nWBfo6oKi8wNvjo5oe9czduf9lKXey7Im6RyQIWd5H3 WKpQA7iXrL39CxchBkdBLBGta+pu+hCINHyUbn48Cnb7DqTBn/NUXqMv7J3+57SWPQMG8XMZmy1v v8/OnIP9lc6Z9s66m2QDmVUM9JvEd2gNW0DdvTefHjsPdi4OYtmnXSK0mhqBkIZ8oYt9efosbr/f IF3suypukckGZekyxypSj4N4dce/ELyKwVa5FthNJyyZc8q9ZNibtUnrXO0qdRiZwKxXIH3Qh4eX jL6wd3wD6qEjBWojPyKjLFsJ0bcE33W1SDfXPTkF8oTJOBbSGGRW8U3oNy5Vs5QZ6p59fFxDkSBd alDSI/8wVdekGXX3Xv5ZjX3OJdr4uBJukXkE0oAhumbKKMtWQvDw038GjCw7hjzZ27ym+zySR8HO X+DNEC2BfKHQ+tUCi9HnSWQUhacdG3wgGH0hkDcEgw/Ynv08LHY/3Lel7Dsgs4p581z7wFhd/w8E 3xIQA8P1OftIh/LnX/wzUqehLp8Rdv0GxMhKvPFn3EXN7bs6bpF5FIrCc/49/HTrDpw6g8beqoO+ M2AYgzR8FA/j1GkIdv2Gfr7kEHb1GqSBQyEUDnJ0JFZmzwMkKc/PmVuRYUnXYWvy8n1h8eZ/3hcZ wRzgaAWjrFqLZSv4c/+9zjXa6GSGMmc+BHMAb9evw5TX9KibtvIdRKVYfXb7LnB/cHXcIpMDMqxU dKpLkIaO4OGqd3vqYj898g9TIRh9+Qfb1eo0soAlJkH+cizEkDKONGD5q+/AriXm6nmOHTuGHh+u QGDxRdi0aQvu3Mm+Tkf9ZwvE0LJcUMj74YfRN8Mh8YyZXGT2azzqJEcwxmcRGXxgq9kA7Oo1Xd1R jxzjw8dKltOt8aT08ZD/1JTLvOAWmRyi7j/IJ9pVr6dbqEj68CMuNC5wAK8sXcaL3YpHQN2yXW93 co7dDmXR73x4FHlD8CwKe8v2/Pwji5oGQRAwevRohIeHIyoqCk2bNkWrVq1Qp04d+Pr6omXLlti3 74HhLzYbD7UafCB4+GUuMPcf8pdjHb82YhQXmauuMbstDUGA/bW3HH3k9EiGSQ+7lAAxrAJf+B0/ qYsPyu/LeSi2bSeXaeDqirhFJhcoc+bzD1nXd3VyQHFMkZQnTtHHh3SoBw9DDH+Kj/XVszYij6jb d8H+1vuOUJoYURHS0BEZstKOHTuGMmXKoHXr1ti4ceNDw8rOnj2LsWPHIiQkBMOGDQNjDOqRYzyl NxthSf8Qi0U4Dos/+JDBXFh1qdwKZr3iaOkjvddL/7HdSdchlq/O2x/p0AIKANjJ0/xMqkINXToK PE64RSaXpB5+61Y3kjoDxsMPytyF+viQDma94tgVuMINKC+w23cg/zjd0fFZIG/YatTH0U8GI6h4 cfzwww+PnIx5+PBhxMbGosfzL/CeYlmExgSD78MiU6q8Y9Z9qzYMpcu4jsI4FhKeRaHMmKO3O2kd w03++rU9Sj/ZVqdd1OOEAQDITc6x28neoBmxQ0fJsmk1GevEau4Cbt0m6YWXiB09Tp6/zSaPdi9r 7kMGbDaSun1I6vxF5PFiEzLP/4UMAf76+pRHcOoMKfMXkTjvN4q9cp66jxxBLzRqRMuXL6ciRYpQ mzZtyMvLy/HzycnJtHbtWmKMUZMmTaht06Y0+PIN6gCPtCctUpgMIcFkCA8jY5lIMkRFkqFM6iOK DP5+jh+tUYtR4cJE2zYZtXzZmaIuXEJStw/JUKQweS6dR8Zn6+rrUIpA9uZtiW3fRZ6zfyKPLq9p 74OqktTmNVJXriXPPxaQR+uXtPfhcUNvlXscYfGXeCPN4CiwC/qkLLKk67ylijnANRpZMsbHJRh9 IUZWyrTQ8HHi+++/R9NGjZCQkIBmzZqhd+/eqFatGqpXr474+HhYrVZcvHgRPXv2xJdffono6Gh0 794dK1asQHhICISd/4JdSkBui2mCSqro2Enn+L7dDqnXx3xHV6W2ayR3CAJvvGnwgTx1hm5uSB99 6jLnoo8LbpHJI+m7vGrdCTgVdi2Rb9s9i+peDJeKunEzxOAoCJZAXdu855dKlSphxYoVWLNmDY4f Pw6r1YqDBw/Cw8MD69atg9VqxZEjRxyCM3v2bDz//POwWq2oX78+li3L/ehjux0weKr4aIB+IsMS LvMOD+QNe+durtEnzW53jOSWx32vmxvKL7/y90Wn4uzHFf335I8pxpjq5Dn7J8KJUyS/9haRqmru gyGoOFn+XkaGUqEkte9KbNNWzX14EGPDBmTZu4WMNZ4mue9Akrq+S5Qi6O1WrkhISKDExESqXr06 Va1alfz9eegvKCiIwsLCKDQ0lIiIAgMDyWQyERHR9evXqV+/fkRE1KRJE1q9enWu7VqvEAFEJUML 6IXkErZpK9lrNiC27yCZJ3xFnnN/JipSWB9nUpFlkjp0JXXVWjKP+YJM/Xvr4gbbsp2kD/rwz/2s qUQGgy5+PI64RSYfeLRvQ+bhn5K6Zh3JAz7TxQdDqZJk2bCSDIFFyf5yR2K79ujix0M+/bOKTD3e JXXuQrLXbUQ4dUZvt3LMhQsXKCoqiozGjB+P+Ph4iomJoYCAAMfXFEWhyZMn0+jRo+n69etERBQd HU1xcXG5tpuQwP8sWTLvvucJVSVlxFdkb9yKyGIhy9a1ZOrTQ2MnMkFRSOrcjdTlq8j8+WAyDfpI Fzdw/gJJr3QmQ/Fi5LlsIVFhnYX3NUk45wAAIABJREFUMcMtMvnENGwQeXR5jZTvJpEy5WddfDBE hJNl40oy+PiQvUkrYv9s0cWPDFgsZJ48njznzSB27jzZYuqTMn2W3l7lCFEUqVChQg99febMmTRi xIgMXzOZTNSjRw8aOnQo9ezZk0RRpMKFC1NKSkqu7Z47z3NwoiK1WyXj/AWyN2hG8rCR5NG0EVn2 bSVjbIxm9rNEkkh67S1SF/9BpoH9yDT8U13cwM1bZG/elmCzkefKJWTQa5v5GOMWmfxiMJDn9B/I WLc2yb0HEFv/jz5uREeR5Z9VZPD3J3vLDsTWbdTFjwfxeL0jeR3ZTcanq5D8Xi+S2nYiXL+ht1vZ EhwcTNeuXcvwtdmzZ1Pnzp0dobP0GAwG6tixI1WsWJEuXLhA165doxIlSuTabtwF/mdkRO59zgvq nPlkq/YMsf2HyDz2S/L8azEZAotqYzw7JImkV98kdekyMg3sR+axX+rjhyyT1PENwtnz5DnvFzI+ XUUfPx5z3CJTEHh5keey38hQOozsr3QmduyELm4YykWTZdvfZCgRTPZWHUldvkoXPx7EEFmaLJvX kGn4p6SuWE32yrVIXbVWb7ey5KmnnqKrV69SUlISEREtWbKEatSoQdHR0aQoCu3ateuh3wFAFouF oqOjaefOnVSnTp1c2z1/nsjHh6hYsXy/hGxB0nWS2nYi6c33yRhRmiz//kOmgf2IjC5wOxAEfu3+ +Ze+AkNE8ocfEduwiczjRpHHyy108+OxR+/MgycJdvwkn0ETWQnMekU/P+Iv8RkfnkWhLM19lpMz Uf/ZAjGsAp9P02+Qvp2ls6Fz584YNmwYxowZA4vFgoCAAAQEBMBsNmPSpEmwWq2YOXMmqlSpgmHD hqFPnz7YsGEDTp8+jaCgIJw7dy7XNus9p6JaTecWYqpr1/NeakZfSL0HuFZb+uQU2F54iWeRjfhK V1fkL8emFRi7yRdukSlg1HUb+XzvanV1S20GHphWOGe+bn5kBrt5C/aOb/Bq97JPu2TvsxMnTqB4 8eI4cOBAtpX++/btw8mTJx3/7t69O95444082SwRrqJdByelxgoCpN4DIBh8IJauCHXTVufYySPs 9h3YnnmB18HonPouT5uZ1qPtMexg4Wq4RcYJKAsW8y7FzzcHRFE3P1hiEh/j7OEH5ZdfdfMjK5Tl qxwdiqX3egF37+ntUgZGjhyJmJgYnDp16pFtZaxWK3744QeULl0aiYm56+wM8J6rBk8VHw8seJFR N27mO1vyhv2t912u1xZLTEob8z19lq6+KMtXQTD5w1brOdeoEXoCcIuMk5AnT+Mf6tavZtndVwvY jZuwxT7HV4hjx+vmR1awW7chvdfL0aBSXbdRb5ccMMbQu3dvlC9fHmvWrMlSXM6dO4c+ffogPDwc R48ezZOto8cAMquYPKXgRIZdS4S967t89xJSxuVCpwAfLieWfZr3Ivt1ga6+qLv2QCgSBLHs07ke AeEma9wi40SkQcN4XPf93vo6kpwCe/N2Lj0+WVm5BmKp8rx1etd3XepDPmfOHISGhqJJkyb49ttv sWzZMqxbtw5z5sxB9+7dUaJECbz66qu4mo/+/KnDylavKQCRYQzK7HkQi5VOez9dcMCceuQYxJLl IBQOgvLXGn19OXocYtEwiKFldWsV9aTiFhlnwhjsb3d/aGaILsgy7N168N1V2066hvGygt26zbtc G30hBpSCPOVnlxHElJQUzJ8/H126dEH16s8gPLwqmjdvjuHDh+d595KeCRO5yJw6nb/nUQ8fdbSF sVWto/to5KxQN26G6BcKsWgY1G07dfWFJVyGGP4URL9QqAcP6+rLk4hbZJyNosDethMXmh+m6utL +vHJzzfXNTEhO9R9BxzzS2w16kPdtUdvlzJQrSYXhPgCHMaYOkcmz1OhU1L4/61nUQiFg3gDR1fK HEuH8vtyCF7FIJaumGF2jx6w6zd4/z+vYi6ZgPIk4BYZLUhJga1OQ34Av+RPvb2B/P2PPDGhci3e KdgVURTIE6dA9AuF4OEHqXtfsKTrensFAPAtqoLMKmbOLrjzk+cbq3iqSt52bcrSZRBLV+S71Dav gcVfKjC/ChrH6G5XuPbu3kv7XP6xQl9fnmDcIqMR7PoN2CrF8tqVFav1dgfKvN8geBblh+2H8x/u cRbsylXYu7zDD6/9QiF/9Z2uob4zZ/kBPZlVdH2r4EQmuJSKtu1z93zqtp2O0JgY/hSUZSsLzJ8C R1EgDRzqOrvolBTYGjSDYPCB8vNsfX15wnGLjIZkaM2/Ut+DTgBQ1/8DMaAUBJ8Q3Q9eH4W6ey9s zzblN9SwClBmz9Ol3fqUn5hDZEJKFcx50a1bXLgGD83Z62EnT8PeoSsEgw8E72AeGhOEAvHFKdy5 62jVb+/cLdczdgocu50nwhh8Hsux4Y8bbpHRGJZwGWKZKnw++cbNersDduYcxAo1IHj4uWSKcwYY g7Lod4hRlfmKuPbzmsfR23VgMHiqDqE5fiL/z7ljJxeZOXOzFxmWmMQLKk3+EMwBkN7r5VJZeJnB LiXAVr0er4UaPkr/OSySBHurDvyM1NWv9ycEt8joAIu/BDGiIoTCQS5x2Mhu3HS087B36+GyB8YO JAnyT7/wFF3yhq1eY00q2FUV8CuWJjBkVjFxUv5vmjNm8t3Rnr1Z/EByCuSx4yH4hPCU5A5dwc6e z7ddZ6Pu+JcPsPMqBmXeb3q7w5NwXn3TJdrW/Jdwi4xOsDPnIIaW5WmTu7O6u2iILEPq2d9x02aJ SXp79Gju3oM8djxPDiBv2Bq3grpnn9PMyTLvL+YXyAUmIlrFb4vzLzIDBvHd0Z0HjynuJUMe9z3E oMi01/eYjLVWFizmGWShZV3j+lZV2Dt347Vi/Qfr7c1/CrfI6Ag7dQZiSBmI/iVd5uYhfzcJgocf xOiqUI8e19udHMESkyB9PARC4SC+0m/bCer+g06zN2AQ33nk52hBmb/IsRtp2YahVETa+Q67fgPS 8FEQA8PT0rjXrs+v29ogy/z/grxhq9kA7LJVb4946v79rhJSn0/09uY/h1tkdEY9dARiYDjEoEio R47p7Q4AQFm1lu8OigRBWbBYb3dyDEtM4hlMhYo7dmTK8lUFbidfInMv2dEc1PbCSwCA6AoqGr/I wK5e4+KSujNL9V/vc4wcwq4lwtawBQ+7dnzDNTpsq2qawHTv+9i8l08SbpFxAdS9+yEGlIJYrLRT V+C5gZ05B1vVOmntzl39nCYd7Foiv1n7l+Q362p1eTZaAfWQy6vIsBOnIJavDoG8HY+7u47Bw0tF r5gtGcRRXf9PgfiqFere/bxWx+TPD9Rd4WauKLC/+T6/ht/50DV8+g/iFhkXQT1wCGLxCB46c5VW IKLoaItjq9fYNUIfuYDdvgN59Dh++EzeEMtVgzx5GnAvOV/PmxeRUZathOgTAsHomyYyBh9sLvU6 yKziJ9MHsL/6JtQDh/Llmx7IP/3Ca66KR7iOOCoKbw5K3pA+6OMy7Yn+i7hFxoVgJ07x1vdFgqBu 2KS3Ow5c8iaSG0QR8pSfIUZX5Td33xKQeg8AO3UmT0/3yadcZHK0uZMkSP0H85qW9AJz/zHR2Btk VrF/uetW6WeJKDr64dlqNnCdxpJ2O+ztXucC8/EQ9w5GZ9wi42KwU2f45MjCQVD/3qC3Ow7U7bt4 x1yTP+RvJjyeH1xVhbJyDS/EM/pCMPjA1rQ1P/d4xEr37t27mDVrFjp06ICnn45FqbCn0LBhQwwe PBgHDmSetMHOnocttsFDwpL+8Y7HdJi9ZN3rE3MLO32W17+QN6QPP3KdcKrNBvvLHblfA4fq7Y0b uEXGJWEXLvKCTUsglD//0tsdB+zqNdieb84Pdl9sC3b1mt4u5Rl29jykgUMdGVxiaFlIA4eCnXl4 bPKMGTMQEhKCFi1a4IcffsDKlSuxadMmLFq0CH369EHJkiXRrl07WK1p4UTl1wUQvIMz3b2kf9Q2 7UQVr2P6V8HnAmX2PF6zUyTItaaupqTA1rgVr4P5fLTe3ri5j1tkXBQWf4kPc/Is6lrDplQV8oTJ EMwBEItHuER7nHyRnAJ5+iw++vf+OYmtQTMos+aC3UtGjx49ULFiRWzYsCHLoWVxcXHo378/wsLC cGTXv46zAMHgk7m4GHwhePgimXzhbb6Lzh5zXaOW5FHcved4bbZKsS6TDQkAuJfMM9sMPpC/nai3 N27SYQAAcuOS4MpVsjduRTh9ljxnTiGPLq/p7ZID9u9ekl7/HyHuIpl6fUDmb0YSeXrq7Va+wIlT pMz8ldRfFxKuXqOxRUy0qmwEzV+0iLy9vR/5+3/++SeNHTiItt1TqRgZMv0Zg78/GcpGkSG6DJ0r GkMVp3WncT0vU//xYQX9cgoUtnc/Sa+/TThzjjy6diLPqROIChfW2y0iIkLSdZJeak9s734yTx5P pu7v6O2Sm3S4RcbFQdJ1kl5sS+zAITJ/M5JM/Xvr7VIad++R9EEfUhcsJmNMdfKc/wsZykXr7VX+ URQ6Om0GvTB4EK3bvIkMBgMtX76cihQpQm3atCEvLy/HjyYlJWX43rdffUV312+kGU1fIkNIMBnC ShGFBJGhVEn+CPB3/O7ipaCOnUDr1xio0QuZi5LuMEbKuIkkDx1BBl8fMv8yhTxaNdfbKweIu0j2 F9sQzl8gz58nkcebnfV2yc2D6LuRcpMj7iXD/mJbfpjZe4DLpWPK02fxanvv4CembXrnzp0xdOhQ JCQkoFmzZujduzeqVauG6tWrIz4+HlarNdPvnThxAkFBQTh37uGznQcZMoxnqSW5aAcfdi7O0fna 1rAFWMJlvV3KgHrkGB/Z7QLjm91kjXsn87ggSSS99QGpCxaTR+dXyXPmFCKzWW+vHODEKZJef5vY wcPk0aIZmadNJEPJUL3dyhN2u52Cg4Npy5YtdOXKFQoPDyd/f39KTEykmJgYWrNmDVWqVIkOHz6c 6ffmzp1LVapUof79+2dr56XWoMOHQZfijBq9spyjzplPUs/+RLJC5s8Hk2lAHyKj6/jJNm8jqfWr REYjea5YTMZ6dfR2yU0WuM5V4yZ7PD3Jc94MMg3oQ+q838jevB3R3Xt6e+XA8FR5suzZTOaxX5K6 /h+yV4olZdpMvd3KE6dPn6YSJUpQ8eLFqWrVquTvz0NcQUFBFBYWRqGhXDyz+l7t2rXp33//faSd vftAtWJdK0yGxCSS2rxG0pvvkzEygiy7NpJpYD+XEhh12Up+/RcpQp6b17gFxsVxnSvHzaMxGMj8 9UgyT/iK2D9byN6oJSExSW+v0jCZyDSwH1n2bCZDVCTJ7/cmqcUrhITLenuWK65evUohISEPfT0+ Pp5iYmIoICAg2++FhITQlStXsrVx7jxRYiJRbM0CczvfqAsWk71SLKkr15Jp6ECy7N1Cxqer6O1W BtSZc0lq34UMkaXJsmsjGatU0tslN4/ALTKPIaY+Pchz1lRih46Q/ZkXCGfP6+1SBoxVK5Pl33/S djVVaj9Wu5rChQuTKIoPfX3mzJk0YsSITH8n/fcEQXhkNtruPTxKXSs2n84WALiUQFLL9iS9/jZR 8WJk2b6ezF9+5lLhWAJI/nw0SW93J2OdWLJsW8eTKty4PG6ReUzx6NqJLKuWEpKuk/2ZF4ht2a63 Sxkxm/muZvs6otASfFfTqgPhYrzenj2S8PBwiouLo/THlbNnz6bOnTs7wmPpefB7Fy5coNKlS2dr Y89eHoGqGaNjuAwgZdpMslWuReraDWQa2I+89m8jY60Y/XzKDLudpLc+IOWLMeTRqjlZ/l6WIUvP jWvjFpnHGGPjhmTZ8BeR2Uz2Zm1Inb9Ib5cewhgbQ177tpLp0/6krt1AtkqxpIz7nkhR9HYtS8LC wigwMJAOHjxIRERLliyhGjVqUHR0NCmKQrt27XL8bGbfW79+PTVr1ixbG7v3gCqUJ/L1depLyRKc PU/2Ri1Jfr83GaMiHTtPSpee7Qrgxk1+bc+ZT6b3/keev88nKlRIb7fc5Aads9vcFADsshW2mGf5 HPWBQ10uxTkVduoMbI1a8pTYqnWgbt+lt0tZMn78eLRo0QJjxoyBxWJBQEAAAgICYDabMWnSJFit 1ky/98knn6BkyZIQRTHL55ZloIi/ire66dD/TRAgDR0BwRIIoXAQr44voBEIBQ07fRZiuWoQPPwg T5yitztu8ohbZJ4UklNgb/Ma7yvWvotrDIzKDMagzJ4HsXgEn2LZ9V2w6zf09uohRFFEmTJlMGXK lCzbyTz4OHv2LCpVqoRZs2Zl+9z7DwBkVvHjVG1FRlmxGmJUZX6NNG8Hdi5OU/u5Qf17A58H5BPi roF5zHGHy54UihQmz9/nk2n4p6Qu+ZPs9Zu6ZlaXwUAeb7xOlmN7yKNrJ1LnLiR75Vqkzl1I5EIl W15eXvTHH3/QsGHDaPXq1Y/8+bt379Lbb79NtWvXpjfffDPbn0079NfmPAaXrSS98R5JrToQ2ezk Ofsn8ly1lAxREZrYzy3KtJlkf6k9UdEA8tr1D3m8lH3o0Y2Lo7fKuSl4lBlz+PyXkuWg7t2vtzvZ om7cDLFCDR5Cq9MQ6q49eruUgf379yMsLAydO3fGnj17Htq9XLx4ET/++CPCwsLQr18/KDkIPb39 LoOXTw7n0eQHUYQ88mvejcEcwEOpyS66wwUAReHjs8kbtmdeALuWqLdHbgoAt8g8oagbN0MsGsZb vbhSF+fMkCTIEybz8IjBB/YOXV1nABaAO3fuYNCgQQgMDES1atXQoUMHdO3aFU2bNkXRokXx7LPP YsuWLTl+vugKKhq84NxzM2X5KkdozPbci1CPHneqvfzCrt+ArcnLPJT3xnuP1egDN9njFpknGHb6 LN8lGHwgDRrmsge8qbAbNyH1HgDBww9C4SC+8s7nqOSCRJZlbN++HS+2mI3CPlPxxx/LM8yQyQlX rvDzmCHDnHMeo+7eC1v9JnxGTvhTUGbPc/kBc+q+AxAjKvID/jHf6u2OmwLGLTJPOveSYe/Q1bGi fRwGjamHjvDZIKk3ygWLXepGGVGWN7bcui33v/vbYv67a9YW7OthlxL4rBeDDwTvYEjDRwHZZLi5 CsrchRAKB0EMDIeyZp3e7rhxAu6D/ycd7yLk+dts3opm+y6y12xA7N+9enuVLcaqlcmycSV5Ll9E ZDaR1Ol/ZK9ah9TFf+jtGtlsRJcu8YP7jf/kPlFh6zYiDw+iOrUL5tAfN26SPGgY2cpVJ3XBYjK9 +xZ5nTtC5s8Hu1zNSwYUheRBw0jq8g4Zy0WTZc8W8mjWWG+v3DgDvVXOjXaom7ZCDI6CYAmEPD37 NFuXwWbj5zVBkXw31qAZ1G07dXNn/Qa+EyFz3s5Vno5REVO7AM5j7t6D/PloPgaZvGFv8xrY8ZP5 f14NYNcSHTtVe+durptu76ZAcIvMfwx2KQG22s/zD3jXdwFB0NulnJGcAnnseJ4cQN6wNW4Fdd8B zd0YNCRNZMyFVSTn4sjo9m3Aw0tF3/75CJXZ7ZB/+gViSBn+PtRtBHVzHuJ2OqFu2wmxRDQEkz/k seP1dseNBrjDZf8xDKVKkmXTavLo9gapvy4ge8MWj0U/MSpSmPdCO3uYTAP68NBf7HN8JPCpM5q5 sW49HIOVZZloy9ach8y2bQepKtGz9fNg2G4n5cfpZIt+muT3e5OhZChZ1v5Jlu3rydigXh6eUGMA Ur6bRPaGLYiIyLJpNR8h4OaJxy0y/0W8vMjz58lk/mkisUNHyV69HqlLl+ntVY4wBBYl89cjyevi cT5b5/flZKtYk6RWHYjt3e9U25JEdPAQUXpZ+XdPzn9/63Yig4Goft1cnMeIIikTp5CtTFWSP/yI yMebPBfNIcuezWRs2ijnz6MjuH6DpJc7kvzRp7yD8r6t7hkw/yX03kq50Rd27ARsVWqnhc8es/g4 u3CRpz0XKp4WRtu522n2lq1gaNqCh8smT2G4nIsM5meeVVGh8v3zGLs9+x5zySn8LCq0LH9dlWvx dGQXT0N/EHXTVogly/E0+t4DAEnS2yU3GuMWGTe8aWLvATxl+KkYqIeO6O1RrmHXEiENHwXBtwS/ KddrDGX5KqfYGjCIn8vkpl7w7l3AXFhFj14M6q49EEuVh73T/x76OXb9BuQvx/LebuQNW/V6UH5f 7lIp3DlCVSGPHQ/Bww9iUKQ7Pfk/jFtk3DhQlvzJD9a9ikGeMFlvd/IES0yCNPjzNLGp2wjKkj8L dAeQF5FZtoL/zuIe6yB4FoVA3hCMvmDnL3C/z8VB6tkfQpEgR4sdZfmqx09cALCr12Br2tqxs2RX rurtkhsdcYuMmwywCxdhe+YFHj5r9zrYzVt6u5Qn2K3bkEd85Uh9FiMqQh73PdjtO/l+7ryITK9e Mjw8ZVipFASDLxcZgw/snbvxIkqTP/93y/ZQ123Mt496oSxbCbFYaQjmAMjfTHgsRdJNwWIAXKj1 rRvXQJJIHvwFKeN/IENEOHnOnUHGurX19ipvSBKpC5eQ8u0PxA4fJfIuQqbXO5Kp74dkeKp8np7y k09B33wLst0zksXy6J/HpQSqWFEmH1sSbVbSH9YbiAhEFguZur5Gpv69yVChXJ580p17ySR/NIiU n2eTISqCPBfMcr0Jm250wZ1d5uZhPD3JPG4Uea5cQpQikL1BM5IHDiWy2/X2LPd4evLRAod2kmX9 CvJ4/llSfp5Ntsq1SGr9KrH1/+RqxMCxY8foeuJfVKTQItq5cwvdvXs3259Xl6+iC1Va00l7aXoB mx74LrdrGjKAzNMnPbYCw3btIVtMfVJ+nk0eXTuR18GdboFxk4beWyk3rg1LTIL9lc485FSxJtQ9 +/R2Kd+ws+d5ooN3MH9dpcpDGjgULP5Spj8vCAL+3969x0VV538cf50zMwwBuoJGpEIKoqaGKYWX 3Kw1foouZpqSaZTaamuF+nO9p2ua2W3D0vKyJmKK1yxsMbto6HqhxFSyDFQ2IC+BRpgmM3PmnP1j WhTFsmSYwT7Px0MfeC6ez3k8eMx7vt/zPd/v7NmzjbCwMCMiIsLo3r270afPfUbHjh2NunXrGvHx 8cbevRe9GFpe7rqGUsdYZBrhmq9M6eHqJrvwj1rXONe0da0bNWYYhmHY7a7BFv97uP/2u56uSHgh CRlxRbQ1641z9cOMH831XLMju30xFPfTS783HHMXGOVRHV0f+JZAw9ZvkGsk1E/Di3Nzc43IyEgj Pj7e2Lx58yXryRw6dMiYPXu2ERISYsyYMcPQdd3QD+cb5e3uqAiSB00rDD/LD0Yp9S8NGaWO8SMB tW70lf7FQaO8fZfzq2weO+7pkoSXkmcy4ooZJ77FMSIJ54aNqFFtsKQuRL01ytNlVQs9azfaP1Nw rn4Lzv6I0iSMwr7xdF2xlAkTJ5KQkPCz55eUlDB06FC6Ng7jmc074czZin3NzAdpzUHStb6VzlGC glCaR6C0aI5l5lMooY3dcGfVzOlEe3kejmnPgI8Fn+TnMQ19yNNVCS8mISN+NeeyNOxPjAWHhmX6 ZMx/S3JNLXwtOP0D2orV2Bal0CEvh8RpT/FQYuIVnVpWVkavu+9m1rdl3GuYUOoEcDD4j7QvXMVz t6czttcRlGbhKBFNUZpFoPyhrptvpnrpOQdwDHscPfsz1DvvwGfpQpSmN3m6LOHlJGTEb2L8pwD7 kMfQt25H7dwBy6K5qK1v9nRZ1WbRokWsXLGCtFWrAFdLZcOGDfj7+9OnTx98L5hG//Tp0+zevZtu 3bqxa9cuxo0Zw1d792EJCuSFlwwmTDY4sE+ldStP3c1VcjjOt17MZizTJmIeNwpUGTckfpn8lojf RGl6E9YtGa51avZ/jq19FxxTZ7oWXLkGLFiwgCdHjQJA13XGjx9PSUkJy5Yto1+/fmiaBkBhYSGj R48mNTUVgE6dOhHcsCEffZIFQMZ7BmGh1NqA0bN2Y2t3B46J0zD9qSu+B7NdE1tKwIgrJL8p4rdT VcyjRuKbuxfTn3ugPfMC5W1i0D/c4unKrsqJEycoLCwkJiYGgAMHDpCcnMzEiRNZunQpOTk55Obm AhAWFkbfvpWftcTGxpKRkUFpKezcBfF/rp4FymrUuXM4Jk7D1iUW4+gxLAtfxee99ShhoZ6uTNQy EjLiqimNGuLz1grXSpY2O7b/uxf7gESMkpOeLu03yc/PJzw8HNNPz5mioqKoV68eAMHBwYSGhtKw YcOK481mc6XzIyMjyc/PZ9MHBpoGveJqrvbq4PzXJspb3472fDKmfvdizd2LefgQT5claikJGVFt TPFxWA98ijnprzjfSsfWoh3aopRf9bKjNzhz5gwBAQFV7issLCQ6OprAwMDLnl+3bl3KysrI2AjX XQdd76wdLRmjoBB7nwewx/cHzYnPO6vwWZ2KEny9p0sTtZiEjKhWyh/qYnnlBaxbN8GNIThGJGGL 7Y2Rd9jTpV2x4OBgSkpKqtyXkpLCzJkzf/b8kpISgoNv4P0PDe75k4KfnzuqrEYOB9orr1PeJgZn xvuYk/6K7xe7Md3by9OViWuAhIxwC7VLJ3z37cTy3Az0HVmUt4nBMWo8nP7B06X9oubNm1NQUHDJ lDGpqakMGjSoouvscrKzs2nQ4FZOnoRePd1Z6dXTt+1wPdgfPQG1XVuse3dgeeUFqFN1S06IX0tC RriPxYJ5whh8D3yKKS7WtcJji3Y4l67w6i40Pz8/7r77bjIyMiq2rVu3jvbt29OsWTM0TSMrK6vK cx0OBxs3bgS1DwBxPbyzq8w4dhz74Eex3RWHcfIUPqkLsW7dhNqmlg6DE15LQka4nRLRFJ/01Vg3 /wulQX3sQx7DdntX9J2feLq0y5o0aRJz5szh7NmzpKamMm7cOB544AFat25NREQEx44dA1xdY9u2 bePw4cPs37+fJUuWEBUVxaeVNGdpAAAKpElEQVTZbWgbBV43GOvcObTnkym/ORrnyrWYBj+A9Yvd mBIfdK0NLUQ1k5cxRc3SNLQlb6JNeRrj1HeY7u+D5R/PeuWUKsOHD+f48ePMnz+/YqTZz8nOzubR Rx9l5aoddOseztQpCjP+7iUf3IaBc9U6HBP/jlFYhHrXH7G8PBu1XVtPVyaucdKSETXLbMY8fAjW L3ZjfvRhnG+lu4bLvjDH65YSmDdvHna7naFDh1JaWvqzx6anpzNs2DCWL19O9p4IAPrd5x0Bo+/e g+3O7tgfHArg6hr7eKMEjKgR0pIRHqXv3Y9j1Hj0f+9ECW2M+anxmIcles1caJqmMWnSJJYuXcqg QYOIi4ujefPmWK1WiouL2blzJ2lpaZSVlbFs2TLatWtHxy46xcWQn+fZ73DG0WNoM55DW5wKftdh HpuEZdJYrmilNSGqiYSM8DzDwLlmPY6nZmAczkeNaoP52emYenX3dGUVDh06xOLFi8nIyODIkXzs djvBwdfToUMHBgwYQEJCAiaTiaPHILSpzrixCs8/65mWjPFdKdoLyWivLgCbDdOgBCwvPoNyQ7BH 6hG/bxIywns4HGgpy9GmP4tx/ARqpxgsz81AvfMOT1dWSUxng93ZTk4Umbnhhsr7Xp1nMOr/DbK2 q3SIqeHCzpxFm/Ma2kuvYJSdxtS7J5bZT6O0alnDhQhxnjyTEd7DYsE8fAi+h/djeW4GxsFcbF17 YIvtjZ5zwNPVVTh82ABUNn986fez9e8YNGoIMbfXYEEOB9qiFMqb34pj6kyUVi2xZr6HT/pqCRjh cRIywvv4+WGeMAbrof2YRz+O/u+d2Np3wT5sJEZBoUdLKyyC0u9dP2/5uPK+kydhx07oe59SM6OB dR3n2rcpvzkax4gklKBAfNYsw7pzM2rXLjVQgBC/TEJGeC2lQX0syc/he2gf5mGJOFPTKI+8FXvi cIxDRzxS00ebz7dePvzIoHVbncibdaZON5j3umtCTLePKnM6caatofyWDtgHJIKi4JO2BGtOFqb+ 97n32kL8SvJMRtQa+hcH0Wa96Foi2WTCNDgBy+RxKM3Ca6yGgYMNVq81KiYsUBQw4Ke/XIPipkxS SOiv0Kq613DTNJxpa3DMehEj7zBKWCjmyX/DPPQhsFiq+WJCVA8JGVHrGPlfoz3/MtqSN0HXMfW7 F8uMp1BaNnfvdQ0IbqRz8mdWMFCU8zPmxN6j8MHGamjVOBw4V649Hy43hWEe8zjmEUPhghU6hfBG 0l0mah0lvAmWha/im7fP9ULn2+9S3vp27PH90ffluO26mgb1g86/ZhJQ59JjLvzK5nfdVV7Qbq94 oG9/eAToOj5L5ru6D0eNlIARtYKEjKi1lKY3ucImdy+mRwbhfH8ztug/Yr9/MPquT6v9ehYLfHVA JekJV+tk/eqqWymqCkFBsOC1y7RiDAPttUU409ZUvf+HM66p9yOicIxIAlV13efBPZiGDJauMVGr SMiIWk8Jb4LPG6+7WjbDh+Dc+AG2zt2wde6G8610cDrdct2Tp6reruuw8HWFkJBL9xnfl2G/byCO J8ZiH/4kRtn55QSMom9wjJ3MuUaROEZPQAm+Hp+VKRX3xUUrcApRG0jIiGuG0iQMy/w5+BZ86XrP pqAI+/2DKY9si/Z8cqUP9OpwuWczDz+kcH/fS1sx+t792NrfgTP9pyUEzv6I841U9JwD2BOHUx4R hfbyXNSoNvhsWIM1exumB+73mil2hPgtJGTENUe5voFrHZv8z/FJXYji54dj4jTKw1riGDUe45uj 1XKdi0NGVeHGEEh+6dKAcS5Lw9b5nsrv+agqjikzsN3aGeeqdZgG9seak4V1+4eY4uNk6n1xTZCQ EdcuqxVT4oNYc7LweXctavtbXQunRURhf3gE+ifZV/Xfn/qu8r8NA5anKgQGXrCxvBzHiCTXg3u7 HfQLRgboOpSXY4rvWRGI6i2tr6omIbyNDGEWvyv6nr1o/5iLc9074HCgtmuL6bFhmB8cAAH+lz2v rKyMNWvWkJGRwZdfHuH0D+VYfYL5tqQjNkd/UGIYM0rh5RfPtz6MgkLs/Qaj79l7+YJUFbVTDNbt H1bnbQrhNSRkxO+S8W0xzqUr0Ba+gfGfAqgTgHlgf0wj/4La9pZKxy5evJgpU6bQqVMn4uLiiIyM xNfXl+LiYrZu3cHy5WtBieKTrAWEhzcEwJmegSPxLxhnzrpaLL/Amr0NNbqdW+5VCE+SkBG/b7qO vmUr2qIUnG+/C5qGGt0O0/AhmAYn8OT48WRmZjJ37lxatqx6skm73c68ea+xevUqNr77Li3S1qG9 +ApgVMwEUEFVXduMysHjk7YE08D+brlFITxJQkaInxhfF6L9MwXnG8swvi3mpbq+pIc3ZuWaNQQE BPzi+evXr+fFqVPZXmqnPhc9tFdVlBtvRIkMRwlvgtq0CUp4E5SmTVAimqIEX++OWxLC4yRkhLiY 3c5X8xdx57QpfLB1K6qqsmHDBvz9/enTpw++F7xpv337do4ePUrPnj2pU6cOT0+bhn3bDhb26YfS tAnq/4LkplDw8fHQDQnhORIyQlThkUceoVGjRowcOZJhw4bRokULtm3bhqIopKenYzabmTVrFm3a tKFz586MHDmStLQ0zp07R5cuXdizZw9hYWGevg0hPE5CRoiLOBwOQkJC2LJlCydOnCAsLIx69epR XFxMdHQ0mzZtIigoiLi4OPbt2wfAmDFjiImJYeDAgYwbN46YmBiSkpI8fCdCeJ68JyPERfLy8mjQ oAHBwcFERUVRr149AIKDgwkNDaVhw4bk5OQQGhpacU5oaCiZmZkAdO7cmV27dnmidCG8joSMEBc5 ceIEIVVMPFZYWEh0dDSBgYHk5uYSFBRUsa9Ro0Z88803AISEhHDs2LEaq1cIbyYhI8RFLBYLdrv9 ku0pKSnMnDkTAF3XMV0wp5jNZqN+/fqAa0izRWZKFgKQkBHiEo0bN6aoqKjSttTUVAYNGlTRdRYR EcGpU+enYT558iTNm7sWTSsqKqrUlSbE75mEjBAXCQ8Px2w2k5eXB8C6deto3749zZo1Q9M0srKy iI2N5ejRo9hsNgA+++wz7rrrLgAyMzPp1q2bp8oXwqvI6DIhqjB16lQKCgpo1aoV06dPx8/PD4Az Z86QnJxM37592b59O5mZmYSHh3P8+HHGjh3L119/Te/evTl06FBFq0eI3zMJGSGqUFpaSsuWLVm8 eDG33XbbZY9zOBzY7Xb8/f3RdZ3ExES6devG5MmTa7BaIbyXdJcJUYXAwEBSU1MZMWIEX3311WWP s1gs+Pv743Q6mTp1KoZhMH78+BqsVAjvJiEjxGX06NGD5ORkEhISePPNN9E0rcrjjhw5wuDBgykq KmL9+vWYZZlkISpId5kQv+Dzzz9nzJgxHDx4kO7duxMREUFAQADHjx9n165dfPnll0yePJknn3xS AkaIi0jICHGF8vLyyMjIID8/n9OnTxMaGkqHDh2IjY2tNGmmEOI8CRkhhBBuI89khBBCuI2EjBBC CLeRkBFCCOE2EjJCCCHcRkJGCCGE20jICCGEcBsJGSGEEG4jISOEEMJtJGSEEEK4jYSMEEIIt5GQ EUII4TYSMkIIIdzmvymfJmS3ndAKAAAAAElFTkSuQmCC "
       id="image2621"
       x="-153"
       y="-135.99997"
       style="display:inline" />
  </g>
</svg>
