<?xml version="1.0" encoding="UTF-8" standalone="no"?>
<!-- Created with Inkscape (http://www.inkscape.org/) -->

<svg
   width="282.33301"
   height="102.41"
   viewBox="0 0 282.33301 102.41"
   version="1.1"
   id="svg1"
   inkscape:version="1.3.2 (1:1.3.2+202311252150+091e20ef0f)"
   sodipodi:docname="2-6-ex-9-author-solutions.svg"
   xmlns:inkscape="http://www.inkscape.org/namespaces/inkscape"
   xmlns:sodipodi="http://sodipodi.sourceforge.net/DTD/sodipodi-0.dtd"
   xmlns="http://www.w3.org/2000/svg"
   xmlns:svg="http://www.w3.org/2000/svg">
  <sodipodi:namedview
     id="namedview1"
     pagecolor="#ffffff"
     bordercolor="#666666"
     borderopacity="1.0"
     inkscape:showpageshadow="2"
     inkscape:pageopacity="0.0"
     inkscape:pagecheckerboard="0"
     inkscape:deskcolor="#d1d1d1"
     inkscape:document-units="px"
     showgrid="true"
     inkscape:zoom="2.3697898"
     inkscape:cx="157.8199"
     inkscape:cy="204.02653"
     inkscape:current-layer="layer1">
    <inkscape:grid
       id="grid1"
       units="px"
       originx="-13.734476"
       originy="-10.097488"
       spacingx="1"
       spacingy="1"
       empcolor="#0099e5"
       empopacity="0.30196078"
       color="#0099e5"
       opacity="0.14901961"
       empspacing="5"
       dotted="false"
       gridanglex="30"
       gridanglez="30"
       visible="true" />
  </sodipodi:namedview>
  <defs
     id="defs1" />
  <g
     inkscape:label="Layer 1"
     inkscape:groupmode="layer"
     id="layer1"
     transform="translate(-13.734476,-10.097488)">
    <path
       id="path263"
       d="m 53.053098,31.909987 v 0.25 c -0.6562,-0.33594 -1.2031,-0.71875 -1.6406,-1.15625 -0.6172,-0.625 -1.0938,-1.36719 -1.4375,-2.21875 -0.336,-0.85156 -0.5,-1.73828 -0.5,-2.65625 0,-1.33203 0.3281,-2.55078 0.9844,-3.656249 0.664,-1.11328 1.5312,-1.90625 2.5937,-2.375 v 0.26562 c -0.5312,0.29297 -0.9687,0.69532 -1.3125,1.20313 -0.3437,0.51172 -0.6016,1.164059 -0.7656,1.953119 -0.168,0.78125 -0.25,1.59375 -0.25,2.4375 0,0.92969 0.07,1.77344 0.2187,2.53125 0.1016,0.59375 0.2344,1.06641 0.3907,1.42188 0.164,0.36328 0.3828,0.71094 0.6562,1.04687 0.2695,0.33204 0.625,0.64844 1.0625,0.95313 z m 4.1367,-3.45313 c -0.6172,0.46875 -0.9961,0.7461 -1.1406,0.82813 -0.2422,0.10156 -0.4922,0.15625 -0.75,0.15625 -0.418,0 -0.7617,-0.14063 -1.0312,-0.42188 -0.2618,-0.28125 -0.3907,-0.64843 -0.3907,-1.10937 0,-0.28906 0.066,-0.53906 0.2032,-0.75 0.1757,-0.28906 0.4843,-0.56641 0.9218,-0.82813 0.4375,-0.25781 1.1641,-0.57812 2.1875,-0.95312 v -0.23438 c 0,-0.59375 -0.094,-1 -0.2812,-1.21875 -0.1875,-0.21875 -0.4649,-0.32812 -0.8281,-0.32812 -0.2735,0 -0.4844,0.0742 -0.6407,0.21875 -0.1679,0.14844 -0.25,0.3125 -0.25,0.5 l 0.016,0.375 c 0,0.21094 -0.055,0.36719 -0.1563,0.46875 -0.1055,0.10547 -0.2344,0.15625 -0.3906,0.15625 -0.168,0 -0.3047,-0.0508 -0.4063,-0.15625 -0.094,-0.11328 -0.1406,-0.26953 -0.1406,-0.46875 0,-0.375 0.1875,-0.71094 0.5625,-1.01563 0.3828,-0.3125 0.9219,-0.46875 1.6094,-0.46875 0.5195,0 0.9531,0.0898 1.2969,0.26563 0.25,0.13672 0.4375,0.34375 0.5625,0.625 0.07,0.1875 0.1093,0.57031 0.1093,1.14062 v 2.01563 c 0,0.5625 0.01,0.91406 0.031,1.04687 0.031,0.125 0.066,0.21094 0.1094,0.25 0.051,0.043 0.1093,0.0625 0.1718,0.0625 0.07,0 0.1328,-0.0156 0.1875,-0.0469 0.094,-0.0508 0.2696,-0.20703 0.5313,-0.46875 v 0.35937 c -0.4922,0.64844 -0.9531,0.96875 -1.3906,0.96875 -0.2188,0 -0.3907,-0.0742 -0.5157,-0.21875 -0.125,-0.14453 -0.1875,-0.39453 -0.1875,-0.75 z m 0,-0.42187 v -2.26563 c -0.6562,0.26172 -1.0781,0.44922 -1.2656,0.5625 -0.3437,0.1875 -0.5898,0.38672 -0.7344,0.59375 -0.1484,0.21094 -0.2187,0.4336 -0.2187,0.67188 0,0.3125 0.094,0.57422 0.2812,0.78125 0.1875,0.21094 0.3985,0.3125 0.6407,0.3125 0.332,0 0.7656,-0.21875 1.2968,-0.65625 z m 2.2774,-7.671879 v -0.26562 c 0.6562,0.32422 1.2031,0.70312 1.6406,1.14062 0.6133,0.63672 1.0859,1.382819 1.4219,2.234379 0.3437,0.84375 0.5156,1.72656 0.5156,2.64062 0,1.34375 -0.3281,2.57032 -0.9844,3.67188 -0.6562,1.10156 -1.5234,1.89453 -2.5937,2.375 v -0.25 c 0.5312,-0.29297 0.9687,-0.69531 1.3125,-1.20313 0.3437,-0.51171 0.5976,-1.15625 0.7656,-1.9375 0.1641,-0.78125 0.25,-1.59765 0.25,-2.45312 0,-0.92578 -0.074,-1.76953 -0.2188,-2.53125 -0.1054,-0.59375 -0.2421,-1.06641 -0.4062,-1.421879 -0.1563,-0.36328 -0.3711,-0.71093 -0.6406,-1.04687 -0.2735,-0.33203 -0.625,-0.64844 -1.0625,-0.95313 z M 151.2367,31.909987 v 0.25 c -0.6563,-0.33594 -1.2031,-0.71875 -1.6406,-1.15625 -0.6172,-0.625 -1.0938,-1.36719 -1.4375,-2.21875 -0.336,-0.85156 -0.5,-1.73828 -0.5,-2.65625 0,-1.33203 0.3281,-2.55078 0.9844,-3.656249 0.664,-1.11328 1.5312,-1.90625 2.5937,-2.375 v 0.26562 c -0.5313,0.29297 -0.9687,0.69532 -1.3125,1.20313 -0.3438,0.51172 -0.6016,1.164059 -0.7656,1.953119 -0.168,0.78125 -0.25,1.59375 -0.25,2.4375 0,0.92969 0.07,1.77344 0.2187,2.53125 0.1016,0.59375 0.2344,1.06641 0.3907,1.42188 0.164,0.36328 0.3828,0.71094 0.6562,1.04687 0.2695,0.33204 0.625,0.64844 1.0625,0.95313 z m 2.4609,-7.51563 c 0.5704,-0.78906 1.1914,-1.1875 1.8594,-1.1875 0.6016,0 1.1328,0.26172 1.5938,0.78125 0.457,0.52344 0.6875,1.23047 0.6875,2.125 0,1.0625 -0.3555,1.91407 -1.0625,2.54688 -0.5938,0.5625 -1.2618,0.84375 -2,0.84375 -0.3555,0 -0.711,-0.0625 -1.0625,-0.1875 -0.3555,-0.125 -0.7188,-0.31641 -1.0938,-0.57813 v -6.14062 c 0,-0.675779 -0.016,-1.093749 -0.047,-1.249999 -0.031,-0.15625 -0.086,-0.25781 -0.1563,-0.3125 -0.062,-0.0625 -0.1484,-0.0937 -0.25,-0.0937 -0.1249,0 -0.2773,0.0391 -0.4531,0.10938 l -0.094,-0.23438 1.7812,-0.71875 h 0.2969 z m 0,0.42188 v 3.54687 c 0.2188,0.21875 0.4414,0.38672 0.6719,0.5 0.2383,0.10547 0.4844,0.15625 0.7344,0.15625 0.3945,0 0.7578,-0.21093 1.0937,-0.64062 0.3438,-0.4375 0.5157,-1.06641 0.5157,-1.89063 0,-0.75781 -0.1719,-1.34375 -0.5157,-1.75 -0.3359,-0.40625 -0.7187,-0.60937 -1.1562,-0.60937 -0.2305,0 -0.461,0.0586 -0.6875,0.17187 -0.1797,0.0859 -0.3985,0.25782 -0.6563,0.51563 z m 4.9688,-4.453129 v -0.26562 c 0.6562,0.32422 1.2031,0.70312 1.6406,1.14062 0.6133,0.63672 1.0859,1.382819 1.4219,2.234379 0.3437,0.84375 0.5156,1.72656 0.5156,2.64062 0,1.34375 -0.3281,2.57032 -0.9844,3.67188 -0.6562,1.10156 -1.5234,1.89453 -2.5937,2.375 v -0.25 c 0.5312,-0.29297 0.9687,-0.69531 1.3125,-1.20313 0.3437,-0.51171 0.5976,-1.15625 0.7656,-1.9375 0.1641,-0.78125 0.25,-1.59765 0.25,-2.45312 0,-0.92578 -0.074,-1.76953 -0.2187,-2.53125 -0.1055,-0.59375 -0.2422,-1.06641 -0.4063,-1.421879 -0.1562,-0.36328 -0.3711,-0.71093 -0.6406,-1.04687 -0.2734,-0.33203 -0.625,-0.64844 -1.0625,-0.95313 z m 91.4531,11.546879 v 0.25 c -0.6562,-0.33594 -1.2031,-0.71875 -1.6406,-1.15625 -0.6172,-0.625 -1.0938,-1.36719 -1.4375,-2.21875 -0.3359,-0.85156 -0.5,-1.73828 -0.5,-2.65625 0,-1.33203 0.3281,-2.55078 0.9844,-3.656249 0.664,-1.11328 1.5312,-1.90625 2.5937,-2.375 v 0.26562 c -0.5312,0.29297 -0.9687,0.69532 -1.3125,1.20313 -0.3437,0.51172 -0.6015,1.164059 -0.7656,1.953119 -0.168,0.78125 -0.25,1.59375 -0.25,2.4375 0,0.92969 0.07,1.77344 0.2187,2.53125 0.1016,0.59375 0.2344,1.06641 0.3907,1.42188 0.164,0.36328 0.3828,0.71094 0.6562,1.04687 0.2695,0.33204 0.625,0.64844 1.0625,0.95313 z m 5.8633,-4.84375 c -0.1563,0.78125 -0.4688,1.38672 -0.9375,1.8125 -0.4688,0.41797 -0.9844,0.625 -1.5469,0.625 -0.6797,0 -1.2656,-0.28125 -1.7656,-0.84375 -0.5,-0.57031 -0.75,-1.34375 -0.75,-2.3125 0,-0.92578 0.2734,-1.67969 0.8281,-2.26563 0.5625,-0.58203 1.2266,-0.875 2,-0.875 0.5821,0 1.0625,0.15625 1.4375,0.46875 0.3828,0.30469 0.5781,0.6211 0.5781,0.95313 0,0.16797 -0.059,0.30469 -0.1718,0.40625 -0.1055,0.0937 -0.25,0.14062 -0.4375,0.14062 -0.25,0 -0.4453,-0.082 -0.5782,-0.25 -0.074,-0.082 -0.121,-0.25 -0.1406,-0.5 -0.023,-0.25781 -0.1093,-0.45703 -0.2656,-0.59375 -0.1563,-0.13281 -0.3672,-0.20312 -0.625,-0.20312 -0.4375,0 -0.7891,0.16406 -1.0469,0.48437 -0.3555,0.42969 -0.5312,0.99219 -0.5312,1.6875 0,0.71094 0.1718,1.33594 0.5156,1.875 0.3516,0.54297 0.8281,0.8125 1.4219,0.8125 0.4258,0 0.8047,-0.14453 1.1406,-0.4375 0.2383,-0.19531 0.4687,-0.55468 0.6875,-1.07812 z m 0.6055,-6.703129 v -0.26562 c 0.6562,0.32422 1.2031,0.70312 1.6406,1.14062 0.6133,0.63672 1.0859,1.382819 1.4219,2.234379 0.3437,0.84375 0.5156,1.72656 0.5156,2.64062 0,1.34375 -0.3281,2.57032 -0.9844,3.67188 -0.6562,1.10156 -1.5234,1.89453 -2.5937,2.375 v -0.25 c 0.5312,-0.29297 0.9687,-0.69531 1.3125,-1.20313 0.3437,-0.51171 0.5976,-1.15625 0.7656,-1.9375 0.1641,-0.78125 0.25,-1.59765 0.25,-2.45312 0,-0.92578 -0.074,-1.76953 -0.2188,-2.53125 -0.1054,-0.59375 -0.2421,-1.06641 -0.4062,-1.421879 -0.1563,-0.36328 -0.3711,-0.71093 -0.6406,-1.04687 -0.2735,-0.33203 -0.625,-0.64844 -1.0625,-0.95313 z m 0,0"
       style="fill:#000000;fill-opacity:1;fill-rule:nonzero;stroke:none;stroke-width:1.33333" />
    <path
       id="path264-6"
       d="m 37.144998,50.671818 h -0.033 l 38.4592,38.45888"
       style="fill:none;stroke:#33ff00;stroke-width:1.52012;stroke-linecap:round;stroke-linejoin:round;stroke-miterlimit:10;stroke-dasharray:none;stroke-opacity:1"
       inkscape:export-filename="../davidvandebunte.gitlab.io/jb/tar/notes/vgt/2-6-ex-9-author-solutions.svg"
       inkscape:export-xdpi="96"
       inkscape:export-ydpi="96" />
    <path
       id="path265-2"
       d="m 75.603198,50.671818 h -0.032 l -38.4592,38.45888"
       style="fill:none;stroke:#33ff00;stroke-width:1.52012;stroke-linecap:round;stroke-linejoin:round;stroke-miterlimit:10;stroke-dasharray:none;stroke-opacity:1" />
    <path
       id="path266-9"
       d="m 31.521599,53.000778 h -0.033 v 33.80032"
       style="fill:none;stroke:#f5000c;stroke-width:1.52012;stroke-linecap:round;stroke-linejoin:round;stroke-miterlimit:10;stroke-dasharray:none;stroke-opacity:1" />
    <path
       id="path267-1"
       d="m 81.228797,53.000778 h -0.035 v 33.80032"
       style="fill:none;stroke:#f5000c;stroke-width:1.52012;stroke-linecap:round;stroke-linejoin:round;stroke-miterlimit:10;stroke-dasharray:none;stroke-opacity:1" />
    <path
       id="path268-2"
       d="m 39.444498,45.052938 v -0.004 h 33.8003"
       style="fill:none;stroke:#0005fd;stroke-width:1.52012;stroke-linecap:round;stroke-linejoin:round;stroke-miterlimit:10;stroke-dasharray:none;stroke-opacity:1" />
    <path
       id="path269-7"
       d="m 39.444498,94.749598 v 0 h 33.8003"
       style="fill:none;stroke:#0005fd;stroke-width:1.52012;stroke-linecap:round;stroke-linejoin:round;stroke-miterlimit:10;stroke-dasharray:none;stroke-opacity:1" />
    <path
       id="path270-0"
       d="m 31.488299,52.371658 c 4.030699,0.0618 7.297899,-3.13312 7.323899,-7.16224 0.026,-4.057281 -3.2413,-7.462081 -7.323899,-7.578881 -4.1129,-0.11744 -7.447,3.14208 -7.4205,7.254401 0.027,4.0832 3.3604,7.42304 7.4205,7.48672"
       style="fill:#e6e6e6;fill-opacity:1;fill-rule:nonzero;stroke:none;stroke-width:0.32" />
    <path
       id="path271-9"
       d="m 31.488299,52.371658 c 4.030699,0.0618 7.297899,-3.13312 7.323899,-7.16224 0.026,-4.057281 -3.2413,-7.462081 -7.323899,-7.578881 -4.1129,-0.11744 -7.447,3.14208 -7.4205,7.254401 0.027,4.0832 3.3604,7.42304 7.4205,7.48672 z"
       style="fill:none;stroke:#000000;stroke-width:0.666333;stroke-linecap:round;stroke-linejoin:round;stroke-miterlimit:10;stroke-dasharray:none;stroke-opacity:1" />
    <path
       id="path272-3"
       d="m 81.193597,52.371658 c 4.0608,-0.0637 7.3952,-3.40352 7.4208,-7.48672 0.026,-4.112321 -3.3056,-7.371841 -7.4208,-7.254401 -4.079999,0.1168 -7.350399,3.5216 -7.324799,7.578881 0.029,4.02912 3.296,7.224 7.324799,7.16224"
       style="fill:#e6e6e6;fill-opacity:1;fill-rule:nonzero;stroke:none;stroke-width:0.32" />
    <path
       id="path273-6"
       d="m 81.193597,52.371658 c 4.0608,-0.0637 7.3952,-3.40352 7.4208,-7.48672 0.026,-4.112321 -3.3056,-7.371841 -7.4208,-7.254401 -4.079999,0.1168 -7.350399,3.5216 -7.324799,7.578881 0.029,4.02912 3.296,7.224 7.324799,7.16224 z"
       style="fill:none;stroke:#000000;stroke-width:0.666333;stroke-linecap:round;stroke-linejoin:round;stroke-miterlimit:10;stroke-dasharray:none;stroke-opacity:1" />
    <path
       id="path274-0"
       d="m 31.488299,102.1717 c 4.082599,-0.1168 7.349799,-3.521002 7.323899,-7.578302 -0.026,-4.0294 -3.2932,-7.2246 -7.323899,-7.1622 -4.0601,0.063 -7.3939,3.4032 -7.4205,7.4867 -0.026,4.1117 3.3076,7.371502 7.4205,7.253802"
       style="fill:#e6e6e6;fill-opacity:1;fill-rule:nonzero;stroke:none;stroke-width:0.32" />
    <path
       id="path275-6"
       d="m 31.488299,102.1717 c 4.082599,-0.1168 7.349799,-3.521002 7.323899,-7.578302 -0.026,-4.0294 -3.2932,-7.2246 -7.323899,-7.1622 -4.0601,0.063 -7.3939,3.4032 -7.4205,7.4867 -0.026,4.1117 3.3076,7.371502 7.4205,7.253802 z"
       style="fill:none;stroke:#000000;stroke-width:0.666333;stroke-linecap:round;stroke-linejoin:round;stroke-miterlimit:10;stroke-dasharray:none;stroke-opacity:1" />
    <path
       id="path276-2"
       d="m 81.193597,102.1717 c 4.1152,0.1177 7.4464,-3.142102 7.4208,-7.253802 -0.026,-4.0835 -3.36,-7.424 -7.4208,-7.4867 -4.028799,-0.062 -7.295999,3.1328 -7.324799,7.1622 -0.026,4.0573 3.2448,7.461502 7.324799,7.578302"
       style="fill:#e6e6e6;fill-opacity:1;fill-rule:nonzero;stroke:none;stroke-width:0.32" />
    <path
       id="path277-6"
       d="m 81.193597,102.1717 c 4.1152,0.1177 7.4464,-3.142102 7.4208,-7.253802 -0.026,-4.0835 -3.36,-7.424 -7.4208,-7.4867 -4.028799,-0.062 -7.295999,3.1328 -7.324799,7.1622 -0.026,4.0573 3.2448,7.461502 7.324799,7.578302 z"
       style="fill:none;stroke:#000000;stroke-width:0.666333;stroke-linecap:round;stroke-linejoin:round;stroke-miterlimit:10;stroke-dasharray:none;stroke-opacity:1" />
    <path
       id="path278-1"
       d="m 135.7056,50.671818 h -0.032 l 38.4576,38.45888"
       style="fill:none;stroke:#33ff00;stroke-width:1.52012;stroke-linecap:round;stroke-linejoin:round;stroke-miterlimit:10;stroke-dasharray:none;stroke-opacity:1" />
    <path
       id="path279-8"
       d="m 174.1632,50.671818 h -0.032 l -38.4576,38.45888"
       style="fill:none;stroke:#33ff00;stroke-width:1.52012;stroke-linecap:round;stroke-linejoin:round;stroke-miterlimit:10;stroke-dasharray:none;stroke-opacity:1" />
    <path
       id="path280-7"
       d="m 130.08,53.000778 h -0.032 v 33.80032"
       style="fill:none;stroke:#f5000c;stroke-width:1.52012;stroke-linecap:round;stroke-linejoin:round;stroke-miterlimit:10;stroke-dasharray:none;stroke-opacity:1" />
    <path
       id="path281-9"
       d="m 179.7888,53.000778 h -0.035 v 33.80032"
       style="fill:none;stroke:#f5000c;stroke-width:1.52012;stroke-linecap:round;stroke-linejoin:round;stroke-miterlimit:10;stroke-dasharray:none;stroke-opacity:1" />
    <path
       id="path282-2"
       d="m 130.048,52.371658 c 4.032,0.0618 7.2992,-3.13312 7.3248,-7.16224 0.026,-4.057281 -3.2416,-7.462081 -7.3248,-7.578881 -4.112,-0.11744 -7.4464,3.14208 -7.4208,7.254401 0.026,4.0832 3.36,7.42304 7.4208,7.48672"
       style="fill:#e6e6e6;fill-opacity:1;fill-rule:nonzero;stroke:none;stroke-width:0.32" />
    <path
       id="path283-0"
       d="m 130.048,52.371658 c 4.032,0.0618 7.2992,-3.13312 7.3248,-7.16224 0.026,-4.057281 -3.2416,-7.462081 -7.3248,-7.578881 -4.112,-0.11744 -7.4464,3.14208 -7.4208,7.254401 0.026,4.0832 3.36,7.42304 7.4208,7.48672 z"
       style="fill:none;stroke:#000000;stroke-width:0.666333;stroke-linecap:round;stroke-linejoin:round;stroke-miterlimit:10;stroke-dasharray:none;stroke-opacity:1" />
    <path
       id="path284-2"
       d="m 179.7536,52.371658 c 4.0608,-0.0637 7.3952,-3.40352 7.4208,-7.48672 0.026,-4.112321 -3.3088,-7.371841 -7.4208,-7.254401 -4.0832,0.1168 -7.3504,3.5216 -7.3248,7.578881 0.029,4.02912 3.296,7.224 7.3248,7.16224"
       style="fill:#e6e6e6;fill-opacity:1;fill-rule:nonzero;stroke:none;stroke-width:0.32" />
    <path
       id="path285-3"
       d="m 179.7536,52.371658 c 4.0608,-0.0637 7.3952,-3.40352 7.4208,-7.48672 0.026,-4.112321 -3.3088,-7.371841 -7.4208,-7.254401 -4.0832,0.1168 -7.3504,3.5216 -7.3248,7.578881 0.029,4.02912 3.296,7.224 7.3248,7.16224 z"
       style="fill:none;stroke:#000000;stroke-width:0.666333;stroke-linecap:round;stroke-linejoin:round;stroke-miterlimit:10;stroke-dasharray:none;stroke-opacity:1" />
    <path
       id="path286-7"
       d="m 130.048,102.1717 c 4.0832,-0.1168 7.3504,-3.521002 7.3248,-7.578302 -0.026,-4.0294 -3.2928,-7.2246 -7.3248,-7.1622 -4.0608,0.063 -7.3952,3.4032 -7.4208,7.4867 -0.026,4.1117 3.3088,7.371502 7.4208,7.253802"
       style="fill:#e6e6e6;fill-opacity:1;fill-rule:nonzero;stroke:none;stroke-width:0.32" />
    <path
       id="path287-5"
       d="m 130.048,102.1717 c 4.0832,-0.1168 7.3504,-3.521002 7.3248,-7.578302 -0.026,-4.0294 -3.2928,-7.2246 -7.3248,-7.1622 -4.0608,0.063 -7.3952,3.4032 -7.4208,7.4867 -0.026,4.1117 3.3088,7.371502 7.4208,7.253802 z"
       style="fill:none;stroke:#000000;stroke-width:0.666333;stroke-linecap:round;stroke-linejoin:round;stroke-miterlimit:10;stroke-dasharray:none;stroke-opacity:1" />
    <path
       id="path288-9"
       d="m 179.7536,102.1717 c 4.112,0.1177 7.4464,-3.142102 7.4208,-7.253802 -0.026,-4.0835 -3.36,-7.424 -7.4208,-7.4867 -4.0288,-0.062 -7.296,3.1328 -7.3248,7.1622 -0.026,4.0573 3.2416,7.461502 7.3248,7.578302"
       style="fill:#e6e6e6;fill-opacity:1;fill-rule:nonzero;stroke:none;stroke-width:0.32" />
    <path
       id="path289-2"
       d="m 179.7536,102.1717 c 4.112,0.1177 7.4464,-3.142102 7.4208,-7.253802 -0.026,-4.0835 -3.36,-7.424 -7.4208,-7.4867 -4.0288,-0.062 -7.296,3.1328 -7.3248,7.1622 -0.026,4.0573 3.2416,7.461502 7.3248,7.578302 z"
       style="fill:none;stroke:#000000;stroke-width:0.666333;stroke-linecap:round;stroke-linejoin:round;stroke-miterlimit:10;stroke-dasharray:none;stroke-opacity:1" />
    <path
       id="path290-2"
       d="m 234.2656,50.671818 h -0.032 l 38.4576,38.45888"
       style="fill:none;stroke:#33ff00;stroke-width:1.52012;stroke-linecap:round;stroke-linejoin:round;stroke-miterlimit:10;stroke-dasharray:none;stroke-opacity:1" />
    <path
       id="path291-8"
       d="m 272.7232,50.671818 h -0.032 l -38.4576,38.45888"
       style="fill:none;stroke:#33ff00;stroke-width:1.52012;stroke-linecap:round;stroke-linejoin:round;stroke-miterlimit:10;stroke-dasharray:none;stroke-opacity:1" />
    <path
       id="path292-9"
       d="m 236.5632,45.052938 v -0.004 h 33.8016"
       style="fill:none;stroke:#0005fd;stroke-width:1.52012;stroke-linecap:round;stroke-linejoin:round;stroke-miterlimit:10;stroke-dasharray:none;stroke-opacity:1" />
    <path
       id="path293-7"
       d="m 236.5632,94.749598 v 0 h 33.8016"
       style="fill:none;stroke:#0005fd;stroke-width:1.52012;stroke-linecap:round;stroke-linejoin:round;stroke-miterlimit:10;stroke-dasharray:none;stroke-opacity:1" />
    <path
       id="path294-3"
       d="m 228.608,52.371658 c 4.032,0.0618 7.2992,-3.13312 7.3248,-7.16224 0.026,-4.057281 -3.2416,-7.462081 -7.3248,-7.578881 -4.112,-0.11744 -7.4464,3.14208 -7.4208,7.254401 0.026,4.0832 3.36,7.42304 7.4208,7.48672"
       style="fill:#e6e6e6;fill-opacity:1;fill-rule:nonzero;stroke:none;stroke-width:0.32" />
    <path
       id="path295-6"
       d="m 228.608,52.371658 c 4.032,0.0618 7.2992,-3.13312 7.3248,-7.16224 0.026,-4.057281 -3.2416,-7.462081 -7.3248,-7.578881 -4.112,-0.11744 -7.4464,3.14208 -7.4208,7.254401 0.026,4.0832 3.36,7.42304 7.4208,7.48672 z"
       style="fill:none;stroke:#000000;stroke-width:0.666333;stroke-linecap:round;stroke-linejoin:round;stroke-miterlimit:10;stroke-dasharray:none;stroke-opacity:1" />
    <path
       id="path296-1"
       d="m 278.3136,52.371658 c 4.0608,-0.0637 7.3952,-3.40352 7.4208,-7.48672 0.026,-4.112321 -3.3088,-7.371841 -7.4208,-7.254401 -4.0832,0.1168 -7.3504,3.5216 -7.3248,7.578881 0.029,4.02912 3.296,7.224 7.3248,7.16224"
       style="fill:#e6e6e6;fill-opacity:1;fill-rule:nonzero;stroke:none;stroke-width:0.32" />
    <path
       id="path297-2"
       d="m 278.3136,52.371658 c 4.0608,-0.0637 7.3952,-3.40352 7.4208,-7.48672 0.026,-4.112321 -3.3088,-7.371841 -7.4208,-7.254401 -4.0832,0.1168 -7.3504,3.5216 -7.3248,7.578881 0.029,4.02912 3.296,7.224 7.3248,7.16224 z"
       style="fill:none;stroke:#000000;stroke-width:0.666333;stroke-linecap:round;stroke-linejoin:round;stroke-miterlimit:10;stroke-dasharray:none;stroke-opacity:1" />
    <path
       id="path298-9"
       d="m 228.608,102.1717 c 4.0832,-0.1168 7.3504,-3.521002 7.3248,-7.578302 -0.026,-4.0294 -3.2928,-7.2246 -7.3248,-7.1622 -4.0608,0.063 -7.3952,3.4032 -7.4208,7.4867 -0.026,4.1117 3.3088,7.371502 7.4208,7.253802"
       style="fill:#e6e6e6;fill-opacity:1;fill-rule:nonzero;stroke:none;stroke-width:0.32" />
    <path
       id="path299-3"
       d="m 228.608,102.1717 c 4.0832,-0.1168 7.3504,-3.521002 7.3248,-7.578302 -0.026,-4.0294 -3.2928,-7.2246 -7.3248,-7.1622 -4.0608,0.063 -7.3952,3.4032 -7.4208,7.4867 -0.026,4.1117 3.3088,7.371502 7.4208,7.253802 z"
       style="fill:none;stroke:#000000;stroke-width:0.666333;stroke-linecap:round;stroke-linejoin:round;stroke-miterlimit:10;stroke-dasharray:none;stroke-opacity:1" />
    <path
       id="path300-1"
       d="m 278.3136,102.1717 c 4.112,0.1177 7.4464,-3.142102 7.4208,-7.253802 -0.026,-4.0835 -3.36,-7.424 -7.4208,-7.4867 -4.0288,-0.062 -7.296,3.1328 -7.3248,7.1622 -0.026,4.0573 3.2416,7.461502 7.3248,7.578302"
       style="fill:#e6e6e6;fill-opacity:1;fill-rule:nonzero;stroke:none;stroke-width:0.32" />
    <path
       id="path301-9"
       d="m 278.3136,102.1717 c 4.112,0.1177 7.4464,-3.142102 7.4208,-7.253802 -0.026,-4.0835 -3.36,-7.424 -7.4208,-7.4867 -4.0288,-0.062 -7.296,3.1328 -7.3248,7.1622 -0.026,4.0573 3.2416,7.461502 7.3248,7.578302 z"
       style="fill:none;stroke:#000000;stroke-width:0.666333;stroke-linecap:round;stroke-linejoin:round;stroke-miterlimit:10;stroke-dasharray:none;stroke-opacity:1" />
  </g>
</svg>
