<?xml version="1.0" encoding="UTF-8" standalone="no"?>
<!-- Created with Inkscape (http://www.inkscape.org/) -->

<svg
   width="190"
   height="45"
   viewBox="0 0 190 45"
   version="1.1"
   id="svg1"
   inkscape:version="1.3.2 (1:1.3.2+202311252150+091e20ef0f)"
   sodipodi:docname="2-6-ex-6-infinite-group-even-integers.svg"
   xml:space="preserve"
   xmlns:inkscape="http://www.inkscape.org/namespaces/inkscape"
   xmlns:sodipodi="http://sodipodi.sourceforge.net/DTD/sodipodi-0.dtd"
   xmlns="http://www.w3.org/2000/svg"
   xmlns:svg="http://www.w3.org/2000/svg"><sodipodi:namedview
     id="namedview1"
     pagecolor="#ffffff"
     bordercolor="#666666"
     borderopacity="1.0"
     inkscape:showpageshadow="2"
     inkscape:pageopacity="0.0"
     inkscape:pagecheckerboard="0"
     inkscape:deskcolor="#d1d1d1"
     inkscape:document-units="px"
     showgrid="true"
     inkscape:zoom="2.8284271"
     inkscape:cx="151.67441"
     inkscape:cy="148.31565"
     inkscape:current-layer="layer1"><inkscape:grid
       id="grid1"
       units="px"
       originx="0"
       originy="0"
       spacingx="1"
       spacingy="1"
       empcolor="#0099e5"
       empopacity="0.30196078"
       color="#0099e5"
       opacity="0.14901961"
       empspacing="5"
       dotted="false"
       gridanglex="30"
       gridanglez="30"
       visible="true" /></sodipodi:namedview><defs
     id="defs1" /><g
     inkscape:label="Layer 1"
     inkscape:groupmode="layer"
     id="layer1"><path
       style="font-variation-settings:normal;opacity:1;vector-effect:none;fill:none;fill-opacity:1;stroke:#e01b24;stroke-width:1;stroke-linecap:butt;stroke-linejoin:miter;stroke-miterlimit:4;stroke-dasharray:none;stroke-dashoffset:0;stroke-opacity:1;-inkscape-stroke:none;stop-color:#000000;stop-opacity:1"
       d="M 95.707108,25.292892 H 155.70711"
       id="path6"
       sodipodi:nodetypes="cc" /><path
       style="font-variation-settings:normal;opacity:1;vector-effect:none;fill:none;fill-opacity:1;stroke:#e01b24;stroke-width:1;stroke-linecap:butt;stroke-linejoin:miter;stroke-miterlimit:4;stroke-dasharray:none;stroke-dashoffset:0;stroke-opacity:1;-inkscape-stroke:none;stop-color:#000000;stop-opacity:1"
       d="m 35.707108,25.292892 h 60"
       id="path2"
       sodipodi:nodetypes="cc" /><text
       xml:space="preserve"
       style="font-size:16px;line-height:15px;font-family:'Liberation Sans';-inkscape-font-specification:'Liberation Sans';text-decoration-color:#000000;fill:#000000;stroke-width:0.2;-inkscape-stroke:none;stop-color:#000000"
       x="23"
       y="20"
       id="text1"><tspan
         sodipodi:role="line"
         id="tspan1"
         x="23"
         y="20"
         style="font-style:normal;font-variant:normal;font-weight:normal;font-stretch:normal;font-size:16px;font-family:'Liberation Mono', monospace;-inkscape-font-specification:'Liberation Mono, monospace'">-2</tspan></text><circle
       id="path1"
       style="fill:#000000;stroke:none"
       cx="35.707108"
       cy="25.292892"
       r="3" /><text
       xml:space="preserve"
       style="font-size:16px;line-height:15px;font-family:'Liberation Sans';-inkscape-font-specification:'Liberation Sans';text-decoration-color:#000000;fill:#000000;stroke-width:0.2;-inkscape-stroke:none;stop-color:#000000"
       x="91"
       y="20"
       id="text2"><tspan
         sodipodi:role="line"
         id="tspan2"
         x="91"
         y="20"
         style="font-style:normal;font-variant:normal;font-weight:normal;font-stretch:normal;font-size:16px;font-family:'Liberation Mono', monospace;-inkscape-font-specification:'Liberation Mono, monospace'">0</tspan></text><circle
       id="circle2"
       style="fill:#000000;stroke:none"
       cx="95.707108"
       cy="25.292892"
       r="3" /><circle
       id="circle6"
       style="fill:#000000;stroke:none"
       cx="155.70711"
       cy="25.292892"
       r="3" /><text
       xml:space="preserve"
       style="font-size:16px;line-height:15px;font-family:'Liberation Sans';-inkscape-font-specification:'Liberation Sans';text-decoration-color:#000000;fill:#000000;stroke-width:0.2;-inkscape-stroke:none;stop-color:#000000"
       x="61.707108"
       y="36.160973"
       id="text12"><tspan
         sodipodi:role="line"
         id="tspan12"
         x="61.707108"
         y="36.160973">a</tspan></text><text
       xml:space="preserve"
       style="font-size:16px;line-height:15px;font-family:'Liberation Sans';-inkscape-font-specification:'Liberation Sans';text-decoration-color:#000000;fill:#000000;stroke-width:0.2;-inkscape-stroke:none;stop-color:#000000"
       x="119.70711"
       y="36.160973"
       id="text13"><tspan
         sodipodi:role="line"
         id="tspan13"
         x="119.70711"
         y="36.160973">a</tspan></text><text
       xml:space="preserve"
       style="font-size:16px;line-height:15px;font-family:'Liberation Sans';-inkscape-font-specification:'Liberation Sans';text-decoration-color:#000000;fill:#000000;stroke-width:0.2;-inkscape-stroke:none;stop-color:#000000"
       x="151"
       y="20"
       id="text20"><tspan
         sodipodi:role="line"
         id="tspan20"
         x="151"
         y="20"
         style="font-style:normal;font-variant:normal;font-weight:normal;font-stretch:normal;font-size:16px;font-family:'Liberation Mono', monospace;-inkscape-font-specification:'Liberation Mono, monospace'">2</tspan></text><text
       xml:space="preserve"
       style="font-size:12px;line-height:15px;font-family:'Liberation Sans';-inkscape-font-specification:'Liberation Sans';text-decoration-color:#000000;fill:#000000;stroke-width:0.2;-inkscape-stroke:none;stop-color:#000000"
       x="166.29822"
       y="26.023361"
       id="text22"><tspan
         sodipodi:role="line"
         id="tspan22"
         x="166.29822"
         y="26.023361">...</tspan></text><text
       xml:space="preserve"
       style="font-size:12px;line-height:15px;font-family:'Liberation Sans';-inkscape-font-specification:'Liberation Sans';text-decoration-color:#000000;fill:#000000;stroke-width:0.2;-inkscape-stroke:none;stop-color:#000000"
       x="15.237579"
       y="25.437576"
       id="text24"><tspan
         sodipodi:role="line"
         id="tspan24"
         x="15.237579"
         y="25.437576">...</tspan></text></g></svg>
