<?xml version="1.0" encoding="UTF-8" standalone="no"?>
<!-- Created with Inkscape (http://www.inkscape.org/) -->

<svg
   width="144.875"
   height="145.17189"
   viewBox="0 0 144.87501 145.17188"
   version="1.1"
   id="svg1"
   inkscape:version="1.3.2 (1:1.3.2+202311252150+091e20ef0f)"
   sodipodi:docname="labeled-triangle-v2.svg"
   xmlns:inkscape="http://www.inkscape.org/namespaces/inkscape"
   xmlns:sodipodi="http://sodipodi.sourceforge.net/DTD/sodipodi-0.dtd"
   xmlns="http://www.w3.org/2000/svg"
   xmlns:svg="http://www.w3.org/2000/svg">
  <sodipodi:namedview
     id="namedview1"
     pagecolor="#ffffff"
     bordercolor="#666666"
     borderopacity="1.0"
     inkscape:showpageshadow="2"
     inkscape:pageopacity="0.0"
     inkscape:pagecheckerboard="0"
     inkscape:deskcolor="#d1d1d1"
     inkscape:document-units="px"
     showgrid="true"
     inkscape:zoom="2.3697898"
     inkscape:cx="172.16717"
     inkscape:cy="66.883569"
     inkscape:current-layer="layer1">
    <inkscape:grid
       id="grid1"
       units="px"
       originx="-33.763119"
       originy="-113.66649"
       spacingx="1"
       spacingy="1"
       empcolor="#0099e5"
       empopacity="0.30196078"
       color="#0099e5"
       opacity="0.14901961"
       empspacing="5"
       dotted="false"
       gridanglex="30"
       gridanglez="30"
       visible="true" />
    <inkscape:page
       x="0"
       y="0"
       width="144.87502"
       height="145.17188"
       id="page16"
       margin="30"
       bleed="0" />
  </sodipodi:namedview>
  <defs
     id="defs1" />
  <g
     inkscape:label="Layer 1"
     inkscape:groupmode="layer"
     id="layer1"
     transform="translate(-33.763116,-113.6665)">
    <path
       sodipodi:type="star"
       style="fill:#ffffff;stroke:#000000;stroke-width:2;paint-order:stroke fill markers"
       id="path9"
       inkscape:flatsided="true"
       sodipodi:sides="3"
       sodipodi:cx="124.03423"
       sodipodi:cy="124.57458"
       sodipodi:r1="35.096081"
       sodipodi:r2="23.783602"
       sodipodi:arg1="2.3561945"
       sodipodi:arg2="3.4033921"
       inkscape:rounded="0"
       inkscape:randomized="0"
       d="M 99.217556,149.39125 114.9507,90.674366 157.93444,133.65811 Z"
       inkscape:transform-center-x="4.7228695"
       inkscape:transform-center-y="-9.1650471"
       transform="rotate(15,-158.88,89.680413)" />
    <text
       xml:space="preserve"
       style="font-size:16px;line-height:20px;font-family:'Liberation Sans';-inkscape-font-specification:'Liberation Sans';text-decoration-color:#000000;fill:#000000;stroke-width:0.2;-inkscape-stroke:none;stop-color:#000000"
       x="100.54436"
       y="154.83838"
       id="text9"><tspan
         sodipodi:role="line"
         id="tspan9"
         x="100.54436"
         y="154.83838">3</tspan></text>
    <text
       xml:space="preserve"
       style="font-size:16px;line-height:20px;font-family:'Liberation Sans';-inkscape-font-specification:'Liberation Sans';text-decoration-color:#000000;fill:#000000;stroke-width:0.2;-inkscape-stroke:none;stop-color:#000000"
       x="62.544365"
       y="228.83838"
       id="text10"><tspan
         sodipodi:role="line"
         id="tspan10"
         x="62.544365"
         y="228.83838">1</tspan></text>
    <text
       xml:space="preserve"
       style="font-size:16px;line-height:20px;font-family:'Liberation Sans';-inkscape-font-specification:'Liberation Sans';text-decoration-color:#000000;fill:#000000;stroke-width:0.2;-inkscape-stroke:none;stop-color:#000000"
       x="140.54436"
       y="228.83838"
       id="text11"><tspan
         sodipodi:role="line"
         id="tspan11"
         x="140.54436"
         y="228.83838">2</tspan></text>
  </g>
</svg>
